{
	"clients": [
        {
            "id": "0",
            "company": "00000000",
            "firstname": "firstname",
            "secondname": "secondname",
            "street": "street",
            "streetno": "streetno",
            "zip": "zip",
            "city": "city",
            "country": "country",
            "tva": "tva",
            "phone": "phone",
            "extra": "extra"
        }, {
            "id": "1",
            "company": "1111111111",
            "firstname": "firstname",
            "secondname": "secondname",
            "street": "street",
            "streetno": "streetno",
            "zip": "zip",
            "city": "city",
            "country": "country",
            "tva": "tva",
            "phone": "phone",
            "extra": "extra"
        }, {
            "id": "2",
            "company": "222222222222",
            "firstname": "firstname",
            "secondname": "secondname",
            "street": "street",
            "streetno": "streetno",
            "zip": "zip",
            "city": "city",
            "country": "country",
            "tva": "tva",
            "phone": "phone",
            "extra": "extra"
        }
    ]
}