{
	"quotes": [
        {
            "id": "0",
            "isInvoice": false,
            "quote": "DEVIS-00000",
            creationdate: '2017-06-20',
            expirationdate: '2017-07-20',
            "client": 0,
            "items": [
                { name: 'carottes', quantity : 5, unitprice: 50.0, tax: 21.0, discounteuro: 10.0, discountpercent: 5.0, details: 'c\'est des carottes !'   },
                { name: 'pommes',   quantity : 5, unitprice: 50.0, tax: 21.0, discounteuro: 10.0, discountpercent: 5.0, details: 'c\'est des carottes !'   },
                { name: 'poires',   quantity : 5, unitprice: 50.0, tax: 21.0, discounteuro: 10.0, discountpercent: 5.0, details: 'c\'est des carottes !'   },
                { name: 'cerises',  quantity : 5, unitprice: 50.0, tax: 21.0, discounteuro: 10.0, discountpercent: 5.0, details: 'c\'est des carottes !'   },
                { name: 'patates',  quantity : 5, unitprice: 50.0, tax: 21.0, discounteuro: 10.0, discountpercent: 5.0, details: 'c\'est des carottes !'   },
                { name: 'salades',  quantity : 5, unitprice: 50.0, tax: 21.0, discounteuro: 10.0, discountpercent: 5.0, details: 'c\'est des carottes !'   }
            ],
            discounteuro: 20.0,
            discountpercent: 5.0,
            "extra": "extra"
        }, {
            "id": "1",
            "isInvoice": true,
            "quote": "DEVIS-00000",
            creationdate: '2017-06-20',
            expirationdate: '2017-07-20',
            "client": 0,
            "items": [
                { name: 'carottes', quantity : 5, unitprice: 50.0, tax: 21.0, discounteuro: 10.0, discountpercent: 5.0, details: 'c\'est des carottes !'   },
                { name: 'pommes',   quantity : 5, unitprice: 50.0, tax: 21.0, discounteuro: 10.0, discountpercent: 5.0, details: 'c\'est des carottes !'   },
                { name: 'poires',   quantity : 5, unitprice: 50.0, tax: 21.0, discounteuro: 10.0, discountpercent: 5.0, details: 'c\'est des carottes !'   },
                { name: 'cerises',  quantity : 5, unitprice: 50.0, tax: 21.0, discounteuro: 10.0, discountpercent: 5.0, details: 'c\'est des carottes !'   },
                { name: 'patates',  quantity : 5, unitprice: 50.0, tax: 21.0, discounteuro: 10.0, discountpercent: 5.0, details: 'c\'est des carottes !'   },
                { name: 'salades',  quantity : 5, unitprice: 50.0, tax: 21.0, discounteuro: 10.0, discountpercent: 5.0, details: 'c\'est des carottes !'   }
            ],
            discounteuro: 20.0,
            discountpercent: 5.0,
            "extra": "extra"
        }, {
            "id": "2",
            "isInvoice": true,
            "quote": "DEVIS-00000",
            creationdate: '2017-06-20',
            expirationdate: '2017-07-20',
            "client": 0,
            "items": [
                { name: 'carottes', quantity : 5, unitprice: 50.0, tax: 21.0, discounteuro: 10.0, discountpercent: 5.0, details: 'c\'est des carottes !'   },
                { name: 'pommes',   quantity : 5, unitprice: 50.0, tax: 21.0, discounteuro: 10.0, discountpercent: 5.0, details: 'c\'est des carottes !'   },
                { name: 'poires',   quantity : 5, unitprice: 50.0, tax: 21.0, discounteuro: 10.0, discountpercent: 5.0, details: 'c\'est des carottes !'   },
                { name: 'cerises',  quantity : 5, unitprice: 50.0, tax: 21.0, discounteuro: 10.0, discountpercent: 5.0, details: 'c\'est des carottes !'   },
                { name: 'patates',  quantity : 5, unitprice: 50.0, tax: 21.0, discounteuro: 10.0, discountpercent: 5.0, details: 'c\'est des carottes !'   },
                { name: 'salades',  quantity : 5, unitprice: 50.0, tax: 21.0, discounteuro: 10.0, discountpercent: 5.0, details: 'c\'est des carottes !'   }
            ],
            discounteuro: 20.0,
            discountpercent: 5.0,
            "extra": "extra"
        }
    ]
}