<?xml version="1.0" encoding="utf-8"?>
<!-- Generator: Adobe Illustrator 25.2.3, SVG Export Plug-In . SVG Version: 6.00 Build 0)  -->
<svg version="1.1" id="Calque_1" xmlns="http://www.w3.org/2000/svg" xmlns:xlink="http://www.w3.org/1999/xlink" x="0px" y="0px"
	 viewBox="0 0 105 111.4" style="enable-background:new 0 0 105 111.4;" xml:space="preserve">
<style type="text/css">
	.st0{fill:#009FE3;}
</style>
<g>
	<g>
		<g>
			<path class="st0" d="M77.7,37.7H66.3c-0.3,0-0.5-0.1-0.7-0.3s-0.3-0.5-0.3-0.8L68,4.3c0-0.5,0.5-0.9,1-0.9h6.1c0.5,0,1,0.4,1,0.9
				l2.6,32.3c0,0.3-0.1,0.6-0.3,0.8S78,37.7,77.7,37.7z M67.4,35.7h9.2L74.2,5.4h-4.3L67.4,35.7z"/>
		</g>
		<g>
			<path class="st0" d="M82,63.1H62c-0.6,0-1-0.4-1-1V47.7h-7.2v14.4c0,0.6-0.4,1-1,1H17.5c-0.6,0-1-0.4-1-1V35.4
				c0-0.4,0.2-0.7,0.5-0.9l10.9-6.3c0.3-0.2,0.7-0.2,1,0c0.3,0.2,0.5,0.5,0.5,0.9v6.5l9.7-7.3c0.3-0.2,0.7-0.3,1-0.1
				c0.3,0.2,0.6,0.5,0.6,0.9v6.5l9.7-7.3c0.3-0.2,0.7-0.3,1-0.1c0.3,0.2,0.6,0.5,0.6,0.9v6.5l9.3-7.3c0.3-0.2,0.7-0.3,1.1-0.1
				c0.3,0.2,0.6,0.5,0.6,0.9v6.6H82c0.6,0,1,0.4,1,1v25.4C83,62.7,82.6,63.1,82,63.1z M63,61.1h18V37.7H61.9c-0.6,0-1-0.4-1-1v-5.5
				l-9.3,7.3c-0.3,0.2-0.7,0.3-1.1,0.1C50.2,38.4,50,38,50,37.7v-6.5l-9.7,7.3c-0.3,0.2-0.7,0.3-1,0.1c-0.3-0.2-0.6-0.5-0.6-0.9
				v-6.5L29,38.5c-0.3,0.2-0.7,0.3-1,0.1c-0.3-0.2-0.6-0.5-0.6-0.9v-6.8L18.5,36v25.1h33.3V46.7c0-0.6,0.4-1,1-1H62c0.6,0,1,0.4,1,1
				V61.1z"/>
		</g>
		<g>
			<path class="st0" d="M31.8,52.8h-6.2c-0.6,0-1-0.4-1-1v-6.2c0-0.6,0.4-1,1-1h6.2c0.6,0,1,0.4,1,1v6.2
				C32.8,52.4,32.4,52.8,31.8,52.8z M26.6,50.8h4.2v-4.2h-4.2V50.8z"/>
		</g>
		<g>
			<path class="st0" d="M40.8,52.8h-6.2c-0.6,0-1-0.4-1-1v-6.2c0-0.6,0.4-1,1-1h6.2c0.6,0,1,0.4,1,1v6.2
				C41.8,52.4,41.3,52.8,40.8,52.8z M35.5,50.8h4.2v-4.2h-4.2V50.8z"/>
		</g>
	</g>
	<g>
		<path class="st0" d="M96.3,108H57.1c-3.2,0-6.3-1.3-8.6-3.6l-42-42c-2.2-2.2-3.4-5.1-3.4-8.2V13.7c0-2.4,1.9-4.3,4.3-4.3h9.3
			c0.6,0,1,0.4,1,1s-0.4,1-1,1H7.5c-1.3,0-2.3,1-2.3,2.3v40.6c0,2.6,1,5,2.8,6.8l42,42c1.9,1.9,4.5,3,7.2,3h39.2
			c1.9,0,3.5-1.6,3.5-3.5V63.4c0-2.8-1.1-5.4-3-7.3l-9.4-9.4c-0.4-0.4-0.4-1,0-1.4s1-0.4,1.4,0l9.4,9.4c2.3,2.3,3.6,5.4,3.6,8.7
			v39.1C101.8,105.6,99.4,108,96.3,108z"/>
	</g>
</g>
</svg>
