<?xml version="1.0" encoding="utf-8"?>
<!-- Generator: Adobe Illustrator 25.2.3, SVG Export Plug-In . SVG Version: 6.00 Build 0)  -->
<svg version="1.1" id="Calque_1" xmlns="http://www.w3.org/2000/svg" xmlns:xlink="http://www.w3.org/1999/xlink" x="0px" y="0px"
	 viewBox="0 0 105 44.4" style="enable-background:new 0 0 105 44.4;" xml:space="preserve">
<style type="text/css">
	.st0{fill:#003A57;}
	.st1{fill:#C10A27;}
	.st2{fill:url(#SVGID_1_);}
	.st3{fill:url(#SVGID_2_);}
	.st4{fill:url(#SVGID_3_);}
	.st5{fill:url(#SVGID_4_);}
	.st6{fill:url(#SVGID_5_);}
	.st7{fill:url(#SVGID_6_);}
	.st8{fill:url(#SVGID_7_);}
	.st9{fill:url(#SVGID_8_);}
	.st10{fill:url(#SVGID_9_);}
	.st11{fill:url(#SVGID_10_);}
</style>
<g>
	<path class="st0" d="M54.2,26.1c-2.2,0.2-6.4,0.7-7,3.7c-0.3,1.6,0.4,2.6,2,2.6c1.2,0,2.4-0.6,3.2-1.6c1.1-1.3,1.3-2.4,1.5-3.9
		L54.2,26.1z M52.9,35.6c0-1,0.1-2.1,0.3-3.1c-2.1,2.4-4.1,3.5-7.1,3.5c-3.5,0-5.9-1.9-5.2-5.7c0.6-2.9,2.8-4.9,5.6-5.9
		c2.5-0.9,5.7-1,8.2-1.3l0.1-0.5c0.2-0.9,0.4-1.9,0-2.6c-0.4-0.7-1.3-0.9-2.2-0.9c-1.8,0-3.6,0.9-4,2.9l-5.4-0.5
		c1.5-4.8,6.5-6.2,10.7-6.2c2,0,4.6,0.5,6,1.8c1.7,1.7,1.1,3.9,0.6,6.2l-1.8,9.3c-0.2,1-0.3,2-0.2,3H52.9z"/>
	<path class="st0" d="M72.2,13.8h-5.8l1.1-5.6h5.8L72.2,13.8z M68,35.6h-5.8l3.9-20h5.8L68,35.6z"/>
	<path class="st0" d="M81.8,15.7l-0.7,3.7h0.1c1-2.1,2.6-4.3,5.1-4.1l1,0.1l-1.1,5.8c-4.4-0.2-5.6,3.3-6.3,6.9l-1.5,7.6h-5.8l3.9-20
		H81.8z"/>
	<path class="st1" d="M73.5,38.8L73.3,40h0.8l-0.2,1h-0.8l-0.3,1.5c0,0.2-0.1,0.4-0.1,0.6c0,0.2,0.1,0.4,0.3,0.4c0.1,0,0.2,0,0.3,0
		l-0.1,1c-0.2,0.1-0.4,0.1-0.7,0.1c-0.7,0-1-0.4-1-1c0-0.2,0-0.5,0.1-0.8L72,41h-0.5l0.2-1h0.5l0.1-0.8L73.5,38.8z"/>
	<path class="st1" d="M78.4,41.7c0,1.6-1,2.8-2.3,2.8c-1,0-1.7-0.7-1.7-1.8c0-1.5,0.9-2.8,2.3-2.8C77.8,39.9,78.4,40.7,78.4,41.7z
		 M75.6,42.6c0,0.5,0.2,0.9,0.6,0.9c0.6,0,1-1,1-1.8c0-0.4-0.2-0.8-0.6-0.8C75.9,40.9,75.6,42,75.6,42.6z"/>
	<path class="st1" d="M81.7,38.3h3.2l-0.2,1.1h-2l-0.2,1.4h1.9l-0.2,1.1h-1.9l-0.4,2.5h-1.2L81.7,38.3z"/>
	<path class="st1" d="M87.2,44.4c0-0.3,0-0.6,0-0.9h0c-0.4,0.7-0.9,1-1.3,1c-0.7,0-1.2-0.6-1.2-1.5c0-1.5,0.9-3.1,2.8-3.1
		c0.5,0,1,0.1,1.3,0.2l-0.4,2.3c-0.1,0.6-0.2,1.4-0.2,2H87.2z M87.5,40.9c-0.1,0-0.2,0-0.3,0c-0.7,0-1.3,1-1.3,1.8
		c0,0.4,0.2,0.7,0.5,0.7c0.3,0,0.8-0.4,1-1.5L87.5,40.9z"/>
	<path class="st1" d="M89.3,44.4l0.7-4.4h1.2l-0.7,4.4H89.3z M90.8,39.4c-0.3,0-0.6-0.3-0.6-0.6c0-0.4,0.3-0.7,0.7-0.7
		c0.3,0,0.6,0.3,0.6,0.6C91.5,39.2,91.2,39.4,90.8,39.4L90.8,39.4z"/>
	<path class="st1" d="M91.7,44.4l0.4-2.6c0.1-0.7,0.2-1.4,0.2-1.8h1c0,0.3,0,0.6-0.1,0.9h0c0.3-0.6,0.7-1,1.3-1c0.1,0,0.1,0,0.2,0
		l-0.2,1.3c-0.1,0-0.1,0-0.2,0c-0.7,0-1.1,0.7-1.2,1.6l-0.3,1.6H91.7z"/>
	<path class="st1" d="M95,43.2c0.2,0.1,0.6,0.3,1,0.3c0.3,0,0.5-0.2,0.5-0.4c0-0.2-0.1-0.4-0.5-0.6c-0.4-0.3-0.8-0.6-0.8-1.2
		c0-0.9,0.7-1.5,1.7-1.5c0.5,0,0.8,0.1,1,0.2L97.7,41c-0.2-0.1-0.4-0.2-0.8-0.2c-0.3,0-0.5,0.1-0.5,0.4c0,0.2,0.2,0.3,0.5,0.5
		c0.4,0.2,0.9,0.6,0.9,1.2c0,1-0.8,1.6-1.8,1.6c-0.5,0-1-0.2-1.2-0.3L95,43.2z"/>
	<path class="st0" d="M33.7,44.6h-5.8l4.8-23.9h-2.3l0.9-4.5h2.3c0.3-1.7,0.7-3.8,1.9-5.3c1.7-2,4.5-2.8,6.8-2.6l2.6,0.2L44,12.9
		L42,12.8c-2.1-0.1-2.3,1.2-2.6,2.9l-0.1,0.4h3.5l-0.9,4.5h-3.5L33.7,44.6z"/>
	<g>
		<path class="st0" d="M24,17.1c-5.4-4.3-13.3-3.6-18.7,1.4V0.1L0,2.9v26.7c-0.1,2.8,0.5,5.5,1.9,7.8l4.1-4c-1.4-3.1-0.9-7,1.5-10
			c3.3-4.1,9.1-5,12.8-2c3.7,3,4.1,8.8,0.7,12.9c-2.3,2.8-5.8,4.1-8.9,3.7l-4.5,4.4c5.7,2.5,12.9,0.6,17.4-4.9
			C30.5,31.1,29.9,21.9,24,17.1z"/>
	</g>
	<g>
		<path class="st0" d="M38,38.4c0.3-0.1,1-0.1,1.6-0.1c0.8,0,1.3,0.1,1.7,0.4c0.4,0.2,0.6,0.6,0.6,1.1c0,0.6-0.3,1.1-1,1.3v0
			c0.6,0.2,1.2,0.7,1.2,1.5c0,0.5-0.2,1-0.6,1.3c-0.4,0.4-1.1,0.6-2.2,0.6c-0.6,0-1.1,0-1.4-0.1V38.4z M39.1,40.8h0.6
			c0.8,0,1.2-0.4,1.2-0.9c0-0.6-0.4-0.8-1.1-0.8c-0.3,0-0.5,0-0.6,0V40.8z M39.1,43.6c0.1,0,0.3,0,0.6,0c0.7,0,1.3-0.3,1.3-1
			c0-0.7-0.6-1-1.4-1h-0.5V43.6z"/>
		<path class="st0" d="M46.7,43.1c0,0.5,0,0.9,0,1.3h-1l-0.1-0.7h0c-0.2,0.3-0.6,0.8-1.4,0.8c-0.8,0-1.5-0.5-1.5-1.9V40h1.1v2.4
			c0,0.7,0.2,1.2,0.8,1.2c0.4,0,0.7-0.3,0.8-0.6c0-0.1,0.1-0.2,0.1-0.3V40h1.1V43.1z"/>
		<path class="st0" d="M47.6,43.4c0.2,0.2,0.7,0.3,1.1,0.3c0.5,0,0.7-0.2,0.7-0.5c0-0.3-0.2-0.4-0.7-0.6c-0.9-0.3-1.2-0.8-1.2-1.3
			c0-0.8,0.6-1.4,1.6-1.4c0.5,0,0.9,0.1,1.2,0.3L50.1,41c-0.2-0.1-0.5-0.3-0.9-0.3c-0.4,0-0.6,0.2-0.6,0.5c0,0.3,0.2,0.4,0.8,0.6
			c0.8,0.3,1.2,0.7,1.2,1.3c0,0.8-0.6,1.4-1.8,1.4c-0.5,0-1-0.1-1.3-0.3L47.6,43.4z"/>
		<path class="st0" d="M52.3,38.8c0,0.3-0.2,0.6-0.6,0.6c-0.4,0-0.6-0.3-0.6-0.6c0-0.3,0.3-0.6,0.6-0.6
			C52.1,38.2,52.3,38.5,52.3,38.8z M51.1,44.4V40h1.1v4.4H51.1z"/>
		<path class="st0" d="M53.2,41.3c0-0.5,0-0.9,0-1.3h1l0.1,0.7h0c0.2-0.3,0.7-0.8,1.4-0.8c0.8,0,1.5,0.5,1.5,1.9v2.6H56v-2.5
			c0-0.6-0.2-1.1-0.8-1.1c-0.4,0-0.7,0.3-0.9,0.6c0,0.1-0.1,0.2-0.1,0.3v2.6h-1.1V41.3z"/>
		<path class="st0" d="M58.8,42.5c0,0.8,0.6,1.1,1.3,1.1c0.5,0,0.9-0.1,1.2-0.2l0.2,0.8c-0.4,0.2-0.9,0.3-1.5,0.3
			c-1.4,0-2.2-0.9-2.2-2.2c0-1.2,0.7-2.3,2.1-2.3c1.4,0,1.9,1.2,1.9,2.1c0,0.2,0,0.4,0,0.5H58.8z M60.7,41.7c0-0.4-0.2-1.1-0.9-1.1
			c-0.7,0-1,0.6-1,1.1H60.7z"/>
		<path class="st0" d="M62.3,43.4c0.2,0.2,0.7,0.3,1.1,0.3c0.5,0,0.7-0.2,0.7-0.5c0-0.3-0.2-0.4-0.7-0.6c-0.9-0.3-1.2-0.8-1.2-1.3
			c0-0.8,0.6-1.4,1.6-1.4c0.5,0,0.9,0.1,1.2,0.3L64.8,41c-0.2-0.1-0.5-0.3-0.9-0.3c-0.4,0-0.6,0.2-0.6,0.5c0,0.3,0.2,0.4,0.8,0.6
			c0.8,0.3,1.2,0.7,1.2,1.3c0,0.8-0.6,1.4-1.8,1.4c-0.5,0-1-0.1-1.3-0.3L62.3,43.4z"/>
		<path class="st0" d="M65.8,43.4c0.2,0.2,0.7,0.3,1.1,0.3c0.5,0,0.7-0.2,0.7-0.5c0-0.3-0.2-0.4-0.7-0.6c-0.9-0.3-1.2-0.8-1.2-1.3
			c0-0.8,0.6-1.4,1.6-1.4c0.5,0,0.9,0.1,1.2,0.3L68.3,41c-0.2-0.1-0.5-0.3-0.9-0.3c-0.4,0-0.6,0.2-0.6,0.5c0,0.3,0.2,0.4,0.8,0.6
			c0.8,0.3,1.2,0.7,1.2,1.3c0,0.8-0.6,1.4-1.8,1.4c-0.5,0-1-0.1-1.3-0.3L65.8,43.4z"/>
	</g>
	<g>
		<radialGradient id="SVGID_1_" cx="102.4437" cy="2.7784" r="7.1093" gradientUnits="userSpaceOnUse">
			<stop  offset="0" style="stop-color:#68A1B8"/>
			<stop  offset="0.1623" style="stop-color:#6099B0"/>
			<stop  offset="0.4188" style="stop-color:#49829B"/>
			<stop  offset="0.7353" style="stop-color:#245E79"/>
			<stop  offset="1" style="stop-color:#003A57"/>
		</radialGradient>
		<path class="st2" d="M95.6,9C95.7,9,95.8,9,95.9,9c0.3,0,0.6,0.2,0.7,0.4l0,0c1.8-0.5,3.5-1.6,4.7-3.3c0.2-0.3,0.3-0.5,0.5-0.8
			c-0.2-0.1-0.3-0.3-0.3-0.6c0-0.3,0.2-0.6,0.4-0.7c-0.2-0.4-0.4-0.7-0.6-1.1c-0.1,0-0.2,0.1-0.3,0.1c-0.4,0-0.7-0.3-0.7-0.7
			c0-0.1,0-0.1,0-0.2c-1.8-0.6-3.7-0.5-5.4,0C94.9,2.3,95,2.5,95,2.6c0,0.4-0.3,0.7-0.7,0.7c-0.1,0-0.1,0-0.2,0
			C93.9,5.3,94.4,7.3,95.6,9z"/>
		<radialGradient id="SVGID_2_" cx="102.4411" cy="2.7784" r="6.0085" gradientUnits="userSpaceOnUse">
			<stop  offset="0" style="stop-color:#68A1B8"/>
			<stop  offset="0.1623" style="stop-color:#6099B0"/>
			<stop  offset="0.4188" style="stop-color:#49829B"/>
			<stop  offset="0.7353" style="stop-color:#245E79"/>
			<stop  offset="1" style="stop-color:#003A57"/>
		</radialGradient>
		<path class="st3" d="M94,1.9c0-0.1,0.1-0.2,0.1-0.3c-0.4,0.3-0.7,0.7-1,1.1c0.1-0.1,0.3-0.2,0.4-0.2C93.6,2.2,93.8,2,94,1.9z"/>
		<radialGradient id="SVGID_3_" cx="102.4438" cy="2.7784" r="6.0103" gradientUnits="userSpaceOnUse">
			<stop  offset="0" style="stop-color:#68A1B8"/>
			<stop  offset="0.1623" style="stop-color:#6099B0"/>
			<stop  offset="0.4188" style="stop-color:#49829B"/>
			<stop  offset="0.7353" style="stop-color:#245E79"/>
			<stop  offset="1" style="stop-color:#003A57"/>
		</radialGradient>
		<path class="st4" d="M101.5,2.8c0.2,0.4,0.5,0.8,0.6,1.2c0,0,0.1,0,0.1,0c0.1-0.3,0.2-0.5,0.2-0.8c-0.3-0.2-0.6-0.4-0.9-0.5
			C101.5,2.8,101.5,2.8,101.5,2.8z"/>
		<radialGradient id="SVGID_4_" cx="102.4437" cy="2.7784" r="6.0104" gradientUnits="userSpaceOnUse">
			<stop  offset="0" style="stop-color:#68A1B8"/>
			<stop  offset="0.1623" style="stop-color:#6099B0"/>
			<stop  offset="0.4188" style="stop-color:#49829B"/>
			<stop  offset="0.7353" style="stop-color:#245E79"/>
			<stop  offset="1" style="stop-color:#003A57"/>
		</radialGradient>
		<path class="st5" d="M105,5.8c-0.6-0.9-1.3-1.7-2.3-2.4c-0.1,0.2-0.1,0.5-0.2,0.7c0.2,0.1,0.4,0.4,0.4,0.6c0,0.2-0.1,0.4-0.3,0.6
			c0.6,2.4,0.3,4.9-1.2,7.1c0,0,0,0,0,0.1c1-0.5,1.8-1.2,2.5-2.2C104.8,8.9,105.1,7.3,105,5.8z"/>
		<radialGradient id="SVGID_5_" cx="102.4438" cy="2.7784" r="6.0104" gradientUnits="userSpaceOnUse">
			<stop  offset="0" style="stop-color:#68A1B8"/>
			<stop  offset="0.1623" style="stop-color:#6099B0"/>
			<stop  offset="0.4188" style="stop-color:#49829B"/>
			<stop  offset="0.7353" style="stop-color:#245E79"/>
			<stop  offset="1" style="stop-color:#003A57"/>
		</radialGradient>
		<path class="st6" d="M100.6,1.7c0.1,0,0.2-0.1,0.3-0.1c0.4,0,0.7,0.3,0.7,0.7c0,0,0,0.1,0,0.1c0.3,0.1,0.6,0.3,0.8,0.5
			c0.1-0.5,0.1-1,0.1-1.4c-0.1-0.1-0.3-0.2-0.5-0.3C101,0.4,99.8,0,98.6,0c0.1,0.1,0.3,0.2,0.4,0.2C99.6,0.7,100.1,1.2,100.6,1.7z"
			/>
		<radialGradient id="SVGID_6_" cx="102.4437" cy="2.7784" r="6.0104" gradientUnits="userSpaceOnUse">
			<stop  offset="0" style="stop-color:#68A1B8"/>
			<stop  offset="0.1623" style="stop-color:#6099B0"/>
			<stop  offset="0.4188" style="stop-color:#49829B"/>
			<stop  offset="0.7353" style="stop-color:#245E79"/>
			<stop  offset="1" style="stop-color:#003A57"/>
		</radialGradient>
		<path class="st7" d="M102.3,5.4c-0.1,0-0.1,0-0.2,0c-0.1,0-0.1,0-0.2,0c-0.2,0.3-0.3,0.6-0.5,0.8c-1.2,1.7-2.9,2.9-4.8,3.4
			c0,0,0,0,0,0c0,0.2-0.1,0.3-0.1,0.4c0.4,0.4,0.9,0.8,1.4,1.2c1,0.7,2,1.1,3.1,1.3c0.1-0.1,0.2-0.2,0.3-0.4
			C102.6,10.2,102.9,7.7,102.3,5.4z"/>
		<radialGradient id="SVGID_7_" cx="102.444" cy="2.7784" r="6.0104" gradientUnits="userSpaceOnUse">
			<stop  offset="0" style="stop-color:#68A1B8"/>
			<stop  offset="0.1623" style="stop-color:#6099B0"/>
			<stop  offset="0.4188" style="stop-color:#49829B"/>
			<stop  offset="0.7353" style="stop-color:#245E79"/>
			<stop  offset="1" style="stop-color:#003A57"/>
		</radialGradient>
		<path class="st8" d="M95.1,9.7c0-0.2,0.1-0.3,0.2-0.5c-1.2-1.8-1.8-3.9-1.5-6c-0.1-0.1-0.2-0.2-0.3-0.4c-0.3,0.1-0.5,0.3-0.8,0.5
			c-1.1,2-1.2,4.3-0.2,6.2C93.4,9.7,94.3,9.7,95.1,9.7z"/>
		<radialGradient id="SVGID_8_" cx="102.4436" cy="2.7784" r="6.0101" gradientUnits="userSpaceOnUse">
			<stop  offset="0" style="stop-color:#68A1B8"/>
			<stop  offset="0.1623" style="stop-color:#6099B0"/>
			<stop  offset="0.4188" style="stop-color:#49829B"/>
			<stop  offset="0.7353" style="stop-color:#245E79"/>
			<stop  offset="1" style="stop-color:#003A57"/>
		</radialGradient>
		<path class="st9" d="M100.4,1.9L100.4,1.9c-0.4-0.6-1-1-1.6-1.4C98.6,0.3,98.3,0.2,98,0c-1.2,0.1-2.5,0.5-3.5,1.3
			c-0.1,0.2-0.1,0.4-0.2,0.6c0.1,0,0.2,0,0.3,0.1C96.4,1.3,98.5,1.3,100.4,1.9z"/>
		<radialGradient id="SVGID_9_" cx="102.4438" cy="2.7784" r="6.0105" gradientUnits="userSpaceOnUse">
			<stop  offset="0" style="stop-color:#68A1B8"/>
			<stop  offset="0.1623" style="stop-color:#6099B0"/>
			<stop  offset="0.4188" style="stop-color:#49829B"/>
			<stop  offset="0.7353" style="stop-color:#245E79"/>
			<stop  offset="1" style="stop-color:#003A57"/>
		</radialGradient>
		<path class="st10" d="M104.8,5.1c-0.3-1.3-0.9-2.5-2-3.4c0,0.5-0.1,0.9-0.1,1.4C103.6,3.7,104.3,4.4,104.8,5.1z"/>
		<radialGradient id="SVGID_10_" cx="102.4437" cy="2.7783" r="6.0105" gradientUnits="userSpaceOnUse">
			<stop  offset="0" style="stop-color:#68A1B8"/>
			<stop  offset="0.1623" style="stop-color:#6099B0"/>
			<stop  offset="0.4188" style="stop-color:#49829B"/>
			<stop  offset="0.7353" style="stop-color:#245E79"/>
			<stop  offset="1" style="stop-color:#003A57"/>
		</radialGradient>
		<path class="st11" d="M96.2,10.3c-0.1,0.1-0.2,0.1-0.4,0.1c-0.3,0-0.6-0.2-0.7-0.5c-0.8,0.1-1.6,0.1-2.5-0.1
			c0.5,0.8,1.1,1.6,2,2.2c1.8,1.2,3.9,1.4,5.8,0.8c-1-0.3-2-0.7-2.9-1.3C97.1,11.2,96.7,10.7,96.2,10.3z"/>
	</g>
	<path class="st1" d="M16.8,38.9l12.2,0l-1.1,5.6l-22.5,0l0-1.7l11.5-11.3l0.1-0.1c0.1-0.1,0.2-0.2,0.3-0.3c1.4-1.7,1.3-4.2-0.3-5.4
		c-1.6-1.3-4-0.9-5.4,0.8c-0.6,0.7-0.9,1.6-1,2.4l-5.2,0c0.2-1.9,0.9-3.9,2.3-5.6c3.3-4.1,9.1-5,12.8-2c3.7,3,4.1,8.8,0.7,12.9
		c-0.2,0.3-0.4,0.5-0.7,0.7l-0.1,0.1l-3.8,3.7L16.8,38.9z"/>
</g>
</svg>
