<?xml version="1.0" encoding="utf-8"?>
<!-- Generator: Adobe Illustrator 25.3.1, SVG Export Plug-In . SVG Version: 6.00 Build 0)  -->
<svg version="1.1" id="Calque_1" xmlns="http://www.w3.org/2000/svg" xmlns:xlink="http://www.w3.org/1999/xlink" x="0px" y="0px"
	 viewBox="0 0 1300 513.7" style="enable-background:new 0 0 1300 513.7;" xml:space="preserve">
<style type="text/css">
	.st0{clip-path:url(#SVGID_2_);}
	.st1{fill:none;}
	.st2{opacity:0.25;fill:#E30613;enable-background:new    ;}
	.st3{opacity:0.1;fill:#E30613;enable-background:new    ;}
	.st4{opacity:0.5;fill:#E30613;enable-background:new    ;}
</style>
<g>
	<g>
		<defs>
			<path id="SVGID_1_" d="M1300,431.3c-110.1-7.6-243.4-21.3-362.9-37.9c-156.7-21.8-295.9-52.7-415.2-69.4
				c-50.4-7-96.3,33.5-77.8,93.1c14.6,47.3-33.5,102.8-93.7,91.3c-62.7-12-248.5-58.5-350.9-78.2V-57.8H1300V431.3z"/>
		</defs>
		<clipPath id="SVGID_2_">
			<use xlink:href="#SVGID_1_"  style="overflow:visible;"/>
		</clipPath>
		<g class="st0">
			<path class="st1" d="M985.2,291.3c-0.2-0.2-0.5-0.4-0.7-0.6C984.8,290.9,985,291.1,985.2,291.3z"/>
			<path class="st1" d="M560.2,290.3c0,0.1,0,0.1,0,0.2l0,0C560.2,290.5,560.2,290.4,560.2,290.3z"/>
			<polygon class="st1" points="33.5,300.3 37.3,298.1 37.3,298.1 			"/>
			<path class="st1" d="M876.7,298c0.5-0.8,1-1.6,1.6-2.4l0,0C877.7,296.4,877.2,297.2,876.7,298z"/>
			<path class="st1" d="M561.4,283.1c0.1-0.3,0.1-0.7,0.1-1.1C561.4,282.4,561.4,282.8,561.4,283.1z"/>
			<polygon class="st1" points="370.3,287.5 372.3,291 372.3,291 			"/>
			<path class="st1" d="M557.9,301c0.2-0.9,0.4-1.8,0.6-2.6C558.3,299.3,558.1,300.1,557.9,301z"/>
			<path class="st1" d="M983.3,289.5c-0.4-0.4-0.8-0.7-1.2-1.2C982.5,288.7,982.9,289.1,983.3,289.5z"/>
			<path class="st1" d="M561,285.8c0.1-0.3,0.1-0.6,0.1-0.9C561,285.2,561,285.5,561,285.8z"/>
			<path class="st1" d="M505,140.6v37h27.2C524.9,164.5,517.1,151.6,505,140.6z"/>
			<path class="st1" d="M559.1,296c0-0.1,0-0.1,0.1-0.2C559.1,295.9,559.1,295.9,559.1,296z"/>
			<path class="st1" d="M560.5,288.4c0.1-0.3,0.1-0.5,0.1-0.7C560.6,287.9,560.6,288.2,560.5,288.4z"/>
			<polygon class="st2" points="37.3,298.1 37.3,298.1 41.4,295.7 82.9,295.7 82.9,262.3 84.8,262.8 84.8,249.3 77.9,249.3 
				77.9,246 61.9,246 61.9,236.3 64.9,234.6 65.7,231.5 57.6,231.5 57.6,247.6 42,247.6 42,263.2 38.2,263.2 38.2,286.3 37.3,286 
				37.3,295.7 37.3,296.7 39.8,296.7 			"/>
			<path class="st2" d="M883.3,288.4h-3.5v4.9C881,291.5,882.1,289.9,883.3,288.4z"/>
			<polygon class="st2" points="1214.2,288.6 1227.3,285 1234.6,280.8 1234.6,263.2 1231.9,264 1231.9,255.5 1218.3,255.5 
				1218.3,272.6 1212.6,272.6 1212.6,266.5 1209.2,266.5 1209.2,269.9 			"/>
			<polygon class="st2" points="339.1,258.8 339.1,229.7 332.5,229.7 332.5,214.1 328.7,207.5 324,206.2 321.5,201.8 321.5,181.5 
				320.4,182.1 318.7,201.8 318.7,215.2 317.5,217.2 314.9,219.7 314.9,240.9 311.1,240.9 311.1,252.7 310.5,252.7 310.5,258.8 			
				"/>
			<polygon class="st2" points="279,258.8 279,254.7 272.9,254.7 269.6,253.7 269.6,251.1 268.4,251.1 268.4,258.8 			"/>
			<polygon class="st2" points="239.3,289.4 250.4,289.4 250.4,287.6 244.5,287.6 244.2,272.9 240,271.8 237.9,269.7 234.3,269.7 
				234.3,266.5 231.3,266.5 230.5,269.7 221.5,269.7 221.1,271.2 221.1,278.9 			"/>
			<polygon class="st2" points="194.6,296.1 204.4,296.1 204.4,290.5 206.9,290.5 206.9,264.7 200.9,264.7 200.9,281.1 194.4,281.1 
				194.4,277.9 187.2,277.9 187.2,283.5 183.7,283.5 183.7,286.3 194.6,286.3 			"/>
			<polygon class="st2" points="456.2,280.4 456.2,259.6 450.6,258.1 449.5,253.6 441.9,253.6 433.5,251.4 432.5,249.4 422.4,249.4 
				422.4,280.4 424.7,280.4 			"/>
			<polygon class="st2" points="392.2,285.6 396.1,292.2 407.1,292.2 407.1,289.8 397.6,289.8 397.6,236.5 396,233.8 383.6,233.8 
				380.3,228.1 380.3,223.3 383.9,222.3 383.9,219.4 372,219.4 372,223.5 375.1,223.5 375.1,226.9 373.4,228.5 372.3,230.4 
				372.3,240.2 375.4,240.2 			"/>
			<path class="st2" d="M372.3,291l0.6,1L372.3,291z"/>
			<polygon class="st2" points="148.4,263.4 148.4,251 146.6,251 146.6,246.3 144.1,245.6 144.1,235.9 138.4,235.9 138.4,220.5 
				136,220.5 136,236.1 128.2,236.1 128.2,230.2 125.5,230.2 125.5,236.1 120.4,236.1 120.4,261.1 121.8,263.4 			"/>
			<polygon class="st2" points="179.7,286.3 181.1,286.3 181.1,281.8 175.9,280.4 175.9,295.5 179.7,295.5 			"/>
			<path class="st2" d="M560.1,290.5L560.1,290.5c0,0.1-0.1,0.3-0.1,0.4C560.1,290.8,560.1,290.7,560.1,290.5z"/>
			<path class="st2" d="M559.1,295.7L559.1,295.7c0,0.1,0,0.2-0.1,0.3c-0.1,0.3-0.1,0.5-0.1,0.7C559,296.4,559.1,296.1,559.1,295.7z
				"/>
			<path class="st2" d="M559.7,293c-0.1,0.2-0.1,0.4-0.1,0.6C559.6,293.5,559.7,293.2,559.7,293z"/>
			<path class="st2" d="M558.5,298.4c-0.2,0.9-0.4,1.8-0.6,2.6C558.1,300.1,558.3,299.3,558.5,298.4L558.5,298.4z"/>
			<polygon class="st2" points="603.1,228 601,228 601,212.7 598.5,212.7 598.5,199.2 593.3,197.7 593.3,183.8 592.4,182.8 
				591.4,183.8 591.4,197.7 586.2,199.2 586.2,212.7 583.8,212.7 583.8,228 581.6,228 581.6,280.4 603.1,280.4 			"/>
			<path class="st2" d="M983.3,289.5c0.4,0.4,0.9,0.8,1.3,1.2c0.2,0.2,0.5,0.4,0.7,0.6c0.6,0.5,1.2,1.1,1.8,1.6V289h4.4v4.7h10.7
				l0.6,2.8l-0.4-1.8h23V294h2.3l0.6-1h3.2v-1.2l2.9-0.3v3h7.7v-7.8h3.9v-2.4h1.6v-13h3.5v-14.9h-5.9v-3h-12.3v-15.6
				c0,0-22,1-22.3,0c-0.3-1,0-18.4,0-18.4s-0.9,0.3-3-7.3c-2-7.5-8.3-8.3-8.3-8.3v-13.1h-4.3V205l-1,3.9v8.5l-1.6,1.6l-1.8,6.6v62.8
				h-8.4l0,0C982.5,288.7,982.9,289.1,983.3,289.5z"/>
			<polygon class="st2" points="1125.2,276 1128.4,276 1128.4,213.5 1127.7,207.1 1119.5,196.1 1118.7,185.9 1117.9,196.4 
				1110.3,208.2 1109.5,214.5 1109.5,269.5 1114,269.5 			"/>
			<path class="st2" d="M807.6,291.1v-9.3h5.4v1.8h3.3v-8.7h5.9v-4.3h3.9v5.1h2.8v15.4h7.2v-1.6v-0.1v-4.1l0,0v-46.9h5.2V182
				l1.1-1.8l-1.2-4.5l-6.4-1.7v-4.7l1.3-0.3l0.3-1.8l-2-1.4l-1.8-0.9c0,0-0.7-2.9-0.7-3.7c0-0.7-2-1.6-2-1.6l-1.3-14.6l-1.1,0.7
				l-0.5,14.2l-1.8,1.4l-1.3,2.5v2.2l-1.1-0.5l-2-3l-1.4-0.7l-0.7-16.5l-1.1-0.2c0,0-1.3,15.6-1.3,16.5c0,0.9-2.2,1.6-2.2,1.6
				l-1.8,2.5l-1.8,0.5l0.2,2.6l1.8,1.8v4.6l-4.7,2.7l1.3,4.7h3v34.3h-13.8v72.7h-14.1v1.8L807.6,291.1L807.6,291.1z"/>
			<polygon class="st2" points="726.8,280.5 732,281.7 732,294 736,294 736,289.6 743.5,289.6 743.5,294 745.1,294 745.1,275.3 
				748.6,271.7 748.6,270.4 742.7,268.8 742.7,242.7 740.6,240.7 740.6,227.1 728.9,227.1 728.9,239.4 726.6,241.7 726.6,290.8 
				726.8,290.7 			"/>
			<polygon class="st2" points="647.1,286.5 684,265.2 684,254.6 675.6,240 674.1,234.7 669.7,218.4 669.7,211.2 665.4,211.2 
				663.6,188.7 662.9,212.5 657.2,212.5 657.2,218 655.1,217.4 653.1,214.1 642.9,214.1 642.9,218.7 640.3,218.7 640.3,279.6 
				645.3,279.6 			"/>
			<polygon class="st2" points="743.5,298 745.1,298 745.1,295 743.6,294.5 745.1,294.5 745.1,294 743.5,294 			"/>
			<polygon class="st3" points="743.5,298 745.1,298 745.1,295 743.6,294.5 745.1,294.5 745.1,294 743.5,294 			"/>
			<polygon class="st2" points="732,297.1 736,296.1 736,294 732,294 			"/>
			<polygon class="st3" points="732,297.1 736,296.1 736,294 732,294 			"/>
			<polygon class="st2" points="784.2,303.1 789.4,303.1 795.1,301.3 795.2,293.9 801.1,293.9 801.1,299.8 805.7,299.8 805.7,292.7 
				807.6,292.7 807.6,291.1 784.2,291.1 			"/>
			<polygon class="st3" points="784.2,303.1 789.4,303.1 795.1,301.3 795.2,293.9 801.1,293.9 801.1,299.8 805.7,299.8 805.7,292.7 
				807.6,292.7 807.6,291.1 784.2,291.1 			"/>
			<polygon class="st2" points="1002.8,296.5 1004.5,296.5 1004.5,299.8 1010.5,299.8 1010.5,297.5 1016.6,297.5 1016.6,295.5 
				1025.3,295.5 1025.3,294.7 1002.4,294.7 			"/>
			<polygon class="st3" points="1002.8,296.5 1004.5,296.5 1004.5,299.8 1010.5,299.8 1010.5,297.5 1016.6,297.5 1016.6,295.5 
				1025.3,295.5 1025.3,294.7 1002.4,294.7 			"/>
			<rect x="603.1" y="280.4" class="st3" width="8.9" height="10.2"/>
			<path class="st3" d="M561.4,283.1c-0.1,0.6-0.1,1.2-0.3,1.7c-0.1,0.3-0.1,0.6-0.1,0.9c-0.1,0.6-0.2,1.2-0.3,1.8
				c-0.1,0.3-0.1,0.5-0.1,0.7c-0.1,0.6-0.2,1.3-0.3,1.9c0,0.1,0,0.1,0,0.2h21.5v-10.2h-19.9l0,0c-0.1,0.5-0.1,1.1-0.2,1.6
				C561.4,282.4,561.4,282.8,561.4,283.1z"/>
			<path class="st2" d="M560.1,290.5c0,0.1-0.1,0.3-0.1,0.4c-0.1,0.7-0.3,1.4-0.4,2.2c-0.1,0.2-0.1,0.4-0.1,0.6
				c-0.1,0.7-0.3,1.4-0.4,2c-0.1,0.3-0.1,0.7-0.2,1c-0.1,0.5-0.3,1.1-0.3,1.6c-0.2,0.9-0.4,1.8-0.6,2.6h2.2v1.4l7.5-0.1v-1.8h7.5
				l1.2-0.2h4.8v1.2h4.8v2l3.9,0.1v-3.9h3.9v-1.6H607l5.1,1v-8.6h-8.9v-10.2h-21.5v10.2H560.1z"/>
			<path class="st3" d="M560.1,290.5c0,0.1-0.1,0.3-0.1,0.4c-0.1,0.7-0.3,1.4-0.4,2.2c-0.1,0.2-0.1,0.4-0.1,0.6
				c-0.1,0.7-0.3,1.4-0.4,2c-0.1,0.3-0.1,0.7-0.2,1c-0.1,0.5-0.3,1.1-0.3,1.6c-0.2,0.9-0.4,1.8-0.6,2.6h2.2v1.4l7.5-0.1v-1.8h7.5
				l1.2-0.2h4.8v1.2h4.8v2l3.9,0.1v-3.9h3.9v-1.6H607l5.1,1v-8.6h-8.9v-10.2h-21.5v10.2H560.1z"/>
			<polygon class="st3" points="1281.2,302.9 1283,302.9 1282,299 1279.8,299 1281.2,299.3 			"/>
			<polygon class="st2" points="194.6,305.4 197.1,305.4 197.1,297.8 204.4,297.8 204.4,296.1 194.6,296.1 			"/>
			<polygon class="st3" points="194.6,305.4 197.1,305.4 197.1,297.8 204.4,297.8 204.4,296.1 194.6,296.1 			"/>
			<polygon class="st3" points="715.1,298.5 715.1,294 711.3,294 712.6,295.4 712.6,298.5 			"/>
			<polygon class="st2" points="712.6,300.4 712.6,300.3 715.1,300.3 715.1,298.5 712.6,298.5 			"/>
			<polygon class="st3" points="712.6,300.4 712.6,300.3 715.1,300.3 715.1,298.5 712.6,298.5 			"/>
			<polygon class="st2" points="836,291.1 828.8,291.1 828.8,293.9 831.3,293.9 831.3,293.2 835.1,293.2 835.1,293.9 836.8,293.9 
				836.8,291.2 836,289.5 			"/>
			<polygon class="st3" points="836,291.1 828.8,291.1 828.8,293.9 831.3,293.9 831.3,293.2 835.1,293.2 835.1,293.9 836.8,293.9 
				836.8,291.2 836,289.5 			"/>
			<polygon class="st3" points="1271.9,301.4 1271.9,299 1268,299 1268,301 			"/>
			<polygon class="st3" points="83.6,295.7 85.3,289.4 89.2,289.4 90.3,293.4 98.7,295.6 100.6,294.5 105.2,294.5 105.2,298.5 
				111.1,298.5 111.1,272 113.2,272 113.2,268.8 120.4,268.8 120.4,261.1 118.2,257.1 113.7,261.6 110.7,256.3 106.1,260.9 
				106.1,242.6 102.9,242.6 102.9,233.2 100,233.2 100,226.7 94.1,226.7 94.1,234.4 92.5,234.4 92.5,242.9 89.8,242.9 89.8,264.1 
				84.8,262.8 84.8,291.5 			"/>
			<path class="st3" d="M148.8,290.2h2.9v-15.6h4.2v-12h4v12h6.9v12.7h6.9v8.3h2.2v-28.3l-2.2-8.2v-34l-9.1-9.1l-1.4-11.9l-0.5,14.8
				c0,0-7.8,0-9.7,0c-1.9,0,0,7.7,0,7.7l-1.8,1v4.5l-2.6,0.7V251h0.3L148.8,290.2L148.8,290.2z"/>
			<polygon class="st2" points="82.9,295.7 83.6,295.7 84.8,291.5 84.8,262.8 82.9,262.3 			"/>
			<polygon class="st3" points="82.9,295.7 83.6,295.7 84.8,291.5 84.8,262.8 82.9,262.3 			"/>
			<polygon class="st2" points="113.2,268.8 113.2,272 111.1,272 111.1,298.5 105.2,298.5 105.2,299.3 111.2,305.4 113.8,305.4 
				113.8,293.1 117.2,296.4 117.2,305.4 120.2,305.4 120.2,290.3 123.5,293.6 123.7,305.4 139.6,305.4 139.6,295.6 143.2,295.6 
				143.2,294.7 146.5,294.7 146.5,290.2 148.8,290.2 148.8,251 148.4,251 148.4,263.4 121.8,263.4 120.4,261.1 120.4,268.8 			"/>
			<polygon class="st3" points="113.2,268.8 113.2,272 111.1,272 111.1,298.5 105.2,298.5 105.2,299.3 111.2,305.4 113.8,305.4 
				113.8,293.1 117.2,296.4 117.2,305.4 120.2,305.4 120.2,290.3 123.5,293.6 123.7,305.4 139.6,305.4 139.6,295.6 143.2,295.6 
				143.2,294.7 146.5,294.7 146.5,290.2 148.8,290.2 148.8,251 148.4,251 148.4,263.4 121.8,263.4 120.4,261.1 120.4,268.8 			"/>
			<polygon class="st3" points="209.8,275.3 219.9,275.3 221.1,271.2 221.1,231.1 219.2,230 220.9,227.3 219.6,225.4 219.6,221.7 
				217.8,220.1 215,209.4 212.3,219.5 210.1,221.6 208.8,226.5 210,228.5 206.9,230.2 206.9,264.7 209.8,264.7 			"/>
			<polygon class="st3" points="254.4,291.9 258,291.9 258,260.1 261,259.3 261,254.3 264.2,251.1 268.4,251.1 268.4,216.9 
				263.7,208.7 263.7,204.3 261.5,196.2 259.3,204.2 259.3,210.4 254.5,215.2 254.5,234.4 252.1,236.7 252.1,242.4 250.6,245.1 
				250.6,260.9 250.4,287.6 253.2,287.6 			"/>
			<polygon class="st2" points="210.2,290.5 210.2,303.8 215.8,302.3 215.8,294.9 222.9,294.9 222.9,300.8 233.4,300.8 253.4,300.8 
				253.4,294.9 265.6,294.9 265.6,276.5 264.6,274.7 264.6,270.6 272,270.6 272,274.7 270.6,276.1 270.6,295.5 279,295.5 279,258.8 
				268.4,258.8 268.4,251.1 264.2,251.1 261,254.3 261,259.3 258,260.1 258,291.9 254.4,291.9 253.2,287.6 250.4,287.6 250.4,289.4 
				239.3,289.4 221.1,278.9 221.1,271.2 219.9,275.3 209.8,275.3 209.8,264.7 206.9,264.7 206.9,290.5 			"/>
			<polygon class="st3" points="210.2,290.5 210.2,303.8 215.8,302.3 215.8,294.9 222.9,294.9 222.9,300.8 233.4,300.8 253.4,300.8 
				253.4,294.9 265.6,294.9 265.6,276.5 264.6,274.7 264.6,270.6 272,270.6 272,274.7 270.6,276.1 270.6,295.5 279,295.5 279,258.8 
				268.4,258.8 268.4,251.1 264.2,251.1 261,254.3 261,259.3 258,260.1 258,291.9 254.4,291.9 253.2,287.6 250.4,287.6 250.4,289.4 
				239.3,289.4 221.1,278.9 221.1,271.2 219.9,275.3 209.8,275.3 209.8,264.7 206.9,264.7 206.9,290.5 			"/>
			<polygon class="st3" points="1058.9,291.9 1062.5,291.9 1062.5,294.7 1083.5,294.7 1083.5,294 1086,294 1086,294.7 1101.7,294.7 
				1101.7,289.9 1104.9,289.9 1104.9,290.9 1105.8,290.9 1105.8,294.7 1109.5,294.7 1109.5,269.5 1105.7,269.5 1105.7,264.8 
				1099.1,264.8 1099.1,269.8 1096.5,272.4 1096.5,278.9 1079.8,278.9 1079.8,246 1072.4,246 1072.4,243.5 1076.7,243.5 
				1076.7,240.2 1068.4,240.2 1068.4,243.7 1070.8,243.7 1070.8,246.2 1059.5,246.2 1056.1,252.1 1056.1,279.6 1058.9,279.6 			"/>
			<polygon class="st3" points="1139.4,294.9 1139.4,291.2 1141.2,291.2 1141.2,284 1143.3,284 1143.3,273 1144.4,273 1144.4,284 
				1147.1,284 1147.1,288.9 1151.1,288.9 1151.1,294.9 1153.7,294.9 1153.7,282.2 1155.4,282.2 1155.4,277.6 1158.6,277.6 
				1158.6,265.2 1163.6,265.2 1163.6,277.6 1167.7,277.6 1167.7,289 1172.3,289 1172.3,294.9 1201.4,294.9 1201.4,266.5 
				1209.2,266.5 1209.2,260.1 1194.3,260.1 1194.3,250.8 1193,248.6 1190.2,250.3 1185.7,250.3 1183.6,248.1 1181.5,251.6 
				1181.5,258.5 1172.3,258.5 1172.3,268.2 1166,268.2 1166,226.2 1164.3,226.2 1164.3,220.1 1147.1,220.1 1145,222.3 1144.1,225.6 
				1140.7,225.6 1140.7,244 1135.3,245.4 1135.3,250.8 1131.1,253.2 1131.1,276 1128.4,276 1128.4,294.9 			"/>
			<polygon class="st3" points="1238.4,292.9 1238.4,298.8 1251,298.8 1251.2,299.8 1252.2,299.8 1250.9,301.8 1251.4,301 
				1251.6,301.8 1260.4,301.8 1260.4,297.9 1266.6,297.9 1266.6,294 1254.8,294 1254.8,282.9 1250.1,282.9 1249.6,285.1 
				1245.6,285.1 1245.6,279.4 1236.9,279.4 1234.6,280.8 1234.6,292.9 			"/>
			<polygon class="st2" points="1062.5,298.8 1068.5,298.8 1068.5,296.4 1073.8,295.1 1073.8,296.3 1077.3,296.3 1080.7,294.9 
				1080.7,296.3 1083.5,296.3 1083.5,294.7 1062.5,294.7 			"/>
			<polygon class="st3" points="1062.5,298.8 1068.5,298.8 1068.5,296.4 1073.8,295.1 1073.8,296.3 1077.3,296.3 1080.7,294.9 
				1080.7,296.3 1083.5,296.3 1083.5,294.7 1062.5,294.7 			"/>
			<polygon class="st2" points="1086,296.4 1086,297.4 1088.5,297.4 1089,296.7 1092.4,296.7 1092.4,297.4 1097.6,297.4 
				1097.6,295.7 1099.9,295.7 1099.9,296.4 1101.7,296.4 1101.7,294.7 1086,294.7 			"/>
			<polygon class="st3" points="1086,296.4 1086,297.4 1088.5,297.4 1089,296.7 1092.4,296.7 1092.4,297.4 1097.6,297.4 
				1097.6,295.7 1099.9,295.7 1099.9,296.4 1101.7,296.4 1101.7,294.7 1086,294.7 			"/>
			<rect x="1151.1" y="294.9" class="st2" width="2.5" height="4.3"/>
			<rect x="1151.1" y="294.9" class="st3" width="2.5" height="4.3"/>
			<polygon class="st2" points="1238.4,298.8 1238.4,299.8 1243.9,299.8 1251.2,299.8 1251,298.8 			"/>
			<polygon class="st3" points="1238.4,298.8 1238.4,299.8 1243.9,299.8 1251.2,299.8 1251,298.8 			"/>
			<polygon class="st2" points="1250.9,301.8 1251.6,301.8 1251.4,301 			"/>
			<polygon class="st3" points="1250.9,301.8 1251.6,301.8 1251.4,301 			"/>
			<polygon class="st2" points="1201.4,294.9 1172.3,294.9 1172.3,299.5 1172.6,299.5 1172.6,301.5 1176.6,301.5 1176.6,298.5 
				1178.8,298.5 1178.8,300.6 1182.5,301 1184.6,300.5 1184.6,295.1 1195.1,295.1 1195.1,304.1 1201.9,304.1 1233.3,304.1 
				1233.3,292.9 1234.6,292.9 1234.6,280.8 1227.3,285 1214.2,288.6 1209.2,269.9 1209.2,266.5 1201.4,266.5 			"/>
			<polygon class="st3" points="1201.4,294.9 1172.3,294.9 1172.3,299.5 1172.6,299.5 1172.6,301.5 1176.6,301.5 1176.6,298.5 
				1178.8,298.5 1178.8,300.6 1182.5,301 1184.6,300.5 1184.6,295.1 1195.1,295.1 1195.1,304.1 1201.9,304.1 1233.3,304.1 
				1233.3,292.9 1234.6,292.9 1234.6,280.8 1227.3,285 1214.2,288.6 1209.2,269.9 1209.2,266.5 1201.4,266.5 			"/>
			<polygon class="st2" points="1105.8,294.7 1105.8,294.8 1105.8,298.5 1105.8,301.8 1108.2,301.8 1108.2,298.7 1111.4,298.7 
				1111.4,297.1 1122.5,297.1 1129,298.6 1129,301.8 1130.9,301.8 1130.9,298.6 1133,298.6 1133,299.3 1137.4,298.8 1137.4,295.8 
				1139.4,295.8 1139.4,294.9 1128.4,294.9 1128.4,276 1125.2,276 1114,269.5 1109.5,269.5 1109.5,294.7 			"/>
			<polygon class="st3" points="1105.8,294.7 1105.8,294.8 1105.8,298.5 1105.8,301.8 1108.2,301.8 1108.2,298.7 1111.4,298.7 
				1111.4,297.1 1122.5,297.1 1129,298.6 1129,301.8 1130.9,301.8 1130.9,298.6 1133,298.6 1133,299.3 1137.4,298.8 1137.4,295.8 
				1139.4,295.8 1139.4,294.9 1128.4,294.9 1128.4,276 1125.2,276 1114,269.5 1109.5,269.5 1109.5,294.7 			"/>
			<polygon class="st3" points="422.4,280.4 416.7,280.4 416.7,288.5 413.6,288.5 413.6,286.5 407.1,286.5 407.1,289.8 422.4,289.8 
							"/>
			<rect x="456.2" y="280.4" class="st3" width="39.2" height="10.2"/>
			<polygon class="st3" points="356,294.3 356,293.6 363.2,293.6 363.2,294.3 364.7,294.3 364.7,287.5 370.3,287.5 372.3,291 
				372.3,240.2 360.1,240.2 360.1,222 357.5,221.4 357.5,208.2 351.7,194.1 345.6,209 345.6,218.1 344.1,220.6 344.1,234.2 
				341,234.2 341,258.8 339.1,258.8 339.1,294.3 			"/>
			<polygon class="st2" points="363.2,295.9 364.7,296.4 364.7,294.3 363.2,294.3 			"/>
			<polygon class="st3" points="363.2,295.9 364.7,296.4 364.7,294.3 363.2,294.3 			"/>
			<polygon class="st2" points="310.5,303.1 329.1,303.1 329.1,293.9 337,293.9 342.4,299.3 356,299.3 356,294.3 339.1,294.3 
				339.1,258.8 310.5,258.8 			"/>
			<polygon class="st3" points="310.5,303.1 329.1,303.1 329.1,293.9 337,293.9 342.4,299.3 356,299.3 356,294.3 339.1,294.3 
				339.1,258.8 310.5,258.8 			"/>
			<polygon class="st2" points="372.9,292 372.9,301.8 390.6,301.8 390.6,299.5 408.9,299.5 408.9,303.4 421.8,303.4 421.8,302.5 
				433.2,302.5 433.2,299.2 440.4,299.2 440.4,298 452.4,298 452.4,299.7 456.8,299.7 456.8,297.5 465.9,297.5 465.9,303.3 
				473.1,303.3 473.1,298.5 480.3,298.5 480.3,296.6 495.4,296.6 495.4,290.5 456.2,290.5 456.2,280.4 424.7,280.4 422.4,280.4 
				422.4,289.8 407.1,289.8 407.1,292.2 396.1,292.2 392.2,285.6 375.4,240.2 372.3,240.2 372.3,291 			"/>
			<polygon class="st3" points="372.9,292 372.9,301.8 390.6,301.8 390.6,299.5 408.9,299.5 408.9,303.4 421.8,303.4 421.8,302.5 
				433.2,302.5 433.2,299.2 440.4,299.2 440.4,298 452.4,298 452.4,299.7 456.8,299.7 456.8,297.5 465.9,297.5 465.9,303.3 
				473.1,303.3 473.1,298.5 480.3,298.5 480.3,296.6 495.4,296.6 495.4,290.5 456.2,290.5 456.2,280.4 424.7,280.4 422.4,280.4 
				422.4,289.8 407.1,289.8 407.1,292.2 396.1,292.2 392.2,285.6 375.4,240.2 372.3,240.2 372.3,291 			"/>
			<polygon class="st3" points="20.9,300.3 33.5,300.3 37.3,298.1 37.3,296.7 35.7,296.7 35.7,290 31.2,290 31.2,282 28.3,282 
				28.3,290.1 25.4,290.1 25.4,284.6 20,284.6 20,289.2 10,289.2 10,297.4 9.1,302.1 19.1,302.1 			"/>
			<polygon class="st2" points="39.8,296.7 37.3,296.7 37.3,298.1 			"/>
			<polygon class="st3" points="39.8,296.7 37.3,296.7 37.3,298.1 			"/>
			<polygon class="st2" points="1042,294.7 1034.3,294.7 1034.3,295.5 1034.6,295.5 1034.6,295.5 1039.6,295.5 1039.6,297.1 
				1045.9,297.1 1045.9,286.9 1042,286.9 			"/>
			<polygon class="st3" points="1042,294.7 1034.3,294.7 1034.3,295.5 1034.6,295.5 1034.6,295.5 1039.6,295.5 1039.6,297.1 
				1045.9,297.1 1045.9,286.9 1042,286.9 			"/>
			<polygon class="st3" points="842.3,285.3 842.3,288.4 863.7,288.4 863.7,285.1 866.5,285.1 866.5,288.4 879.8,288.4 879.8,206 
				874.8,206 874.8,196 863.4,196 863.4,207.4 857.4,207.4 857.4,230.2 849.2,232.3 847.6,238.4 841.2,238.4 841.2,285.3 			"/>
			<path class="st2" d="M866.5,291.6l4.3,1v-1.6h2.2v6.9h3.7c0.5-0.8,1-1.6,1.6-2.4l0,0c0.5-0.8,1-1.6,1.6-2.3v-4.9h-13.3
				L866.5,291.6L866.5,291.6z"/>
			<path class="st3" d="M866.5,291.6l4.3,1v-1.6h2.2v6.9h3.7c0.5-0.8,1-1.6,1.6-2.4l0,0c0.5-0.8,1-1.6,1.6-2.3v-4.9h-13.3
				L866.5,291.6L866.5,291.6z"/>
			<polygon class="st2" points="842.3,289.4 841,290.9 841,294.4 848.6,294.4 849.5,298.4 852.8,298.4 856.8,298.4 856.8,294.3 
				862.4,294.3 863.7,294 863.7,288.4 842.3,288.4 			"/>
			<polygon class="st3" points="842.3,289.4 841,290.9 841,294.4 848.6,294.4 849.5,298.4 852.8,298.4 856.8,298.4 856.8,294.3 
				862.4,294.3 863.7,294 863.7,288.4 842.3,288.4 			"/>
			<rect x="836" y="238.4" class="st2" width="5.2" height="46.9"/>
			<rect x="836" y="238.4" class="st3" width="5.2" height="46.9"/>
			<polygon class="st3" points="684.5,294.7 685.9,288.4 689.2,288.4 690.1,292.4 697.1,294.6 698.7,293.5 702.5,293.5 702.5,298.2 
				702.7,298.5 709.8,298.5 709.8,294 709.4,294 709.4,261.3 704.8,244.1 689.8,252.7 689.8,264.3 685.5,264.3 684,265.2 684,294.7 
							"/>
			<polygon class="st3" points="630.9,281.4 630.9,290.5 640.3,290.5 640.3,279.6 633.3,279.6 633.3,276 628.6,276 628.6,281.4 			
				"/>
			<polygon class="st2" points="708.5,305.4 709.8,305.4 709.8,298.5 702.7,298.5 			"/>
			<polygon class="st3" points="708.5,305.4 709.8,305.4 709.8,298.5 702.7,298.5 			"/>
			<polygon class="st2" points="630.9,290.5 630.9,298.5 639.9,298.5 639.9,299.3 642.5,299.3 649.1,294.7 684,294.7 684,265.2 
				647.1,286.5 645.3,279.6 640.3,279.6 640.3,290.5 			"/>
			<polygon class="st3" points="630.9,290.5 630.9,298.5 639.9,298.5 639.9,299.3 642.5,299.3 649.1,294.7 684,294.7 684,265.2 
				647.1,286.5 645.3,279.6 640.3,279.6 640.3,290.5 			"/>
			<polygon class="st3" points="722.6,298.5 722.6,294 720.9,294 717.9,294 718,296 718,298.5 			"/>
			<polygon class="st2" points="718,300.3 722.6,300.3 722.6,298.5 718,298.5 			"/>
			<polygon class="st3" points="718,300.3 722.6,300.3 722.6,298.5 718,298.5 			"/>
			<path class="st4" d="M1292.9,305.4l-1.6-2.5h-8.3h-1.8v-3.5l-1.5-0.3l0,0l-2.8-0.6v-4.7l-5.1,0.5v4.8v2.4l-4-0.5v-1.9V298h-1.4
				h-6.2v3.9h-8.8h-0.7l1.3-2h-0.9h-7.2h-5.6v-1.1V293h-3.8h-1.3v11.2h-31.4h-6.9v-9.1h-10.4v5.4l-2.1,0.5l-3.7-0.4v-2.1h-2.2v3h-4
				v-1.9h-0.3v-4.7v-6h-4.6v-11.4h-4.1v-12.4h-5.1v12.4h-3.2v4.6h-1.7v12.7v4.3h-2.5v-4.3v-6h-4V284h-2.7v-11h-1.1v11h-2.2v7.2h-1.8
				v3.7v0.9h-2v3l-4.3,0.5v-0.7h-2.2v3.2h-1.8v-3.2l-6.5-1.5h-11.1v1.6h-3.3v3h-2.4v-3.3v-3.7v-0.1v-3.7h-1v-1h-3.1v4.7v1.8h-1.8
				v-0.7h-2.3v1.6h-5.2v-0.7h-3.4l-0.5,0.7h-2.4v-1.1v-1.7v-0.6h-2.6v0.6v1.6h-2.8v-1.4l-3.4,1.4h-3.4v-1l-5.4,1.3v2.4h-6v-4.1v-2.8
				h-3.6v-12.3h-2.8h-0.3v-6.6h-1v-1.5h-3.9h-3.5v13.1h-1.6v2.4V297h-6.2v-1.6h-4.9l0,0h-0.3v-0.8v-3l-2.9,0.3v1.2h-3.2l-0.6,1h-2.3
				v0.6v0.8h-8.7v2h-6v2.3h-6v-3.3h-1.8l-0.6-2.8h-10.8V289h-4.4v3.9c-0.6-0.5-1.2-1-1.8-1.6c-0.2-0.2-0.5-0.4-0.7-0.6
				c-0.4-0.4-0.9-0.8-1.3-1.2c-0.4-0.4-0.8-0.7-1.2-1.2l0,0l0,0c-1.2-1.2-2.4-2.5-3.5-3.9v-3h-2.3l-0.6-2.1h-0.9
				c-5.6-8.3-10-19.1-12.4-33.6l-2-0.5v-2.9v-7.9l-1.6-6h-10.5v-5.6l7.2-0.2l-1.4-2.2l0.9-2.4l-4.1,0.7l-3.3-0.7v10.5h-2.4v4h-3.3
				v2.6l-1.6,0.5v2.7h-2.9v3.9c-19.4,10.6-37.9,24.5-54,46.2l0,0c-1.2,1.6-2.4,3.3-3.5,4.9c-0.5,0.7-1,1.6-1.6,2.3
				c-0.5,0.8-1,1.6-1.6,2.4H873V291h-2.2v1.6l-4.3-1v-3.2v-3.2h-2.8v3.2v5.7l-1.3,0.3h-5.6v4.1h-4h-3.3l-0.9-3.9H841v-3.6l1.2-1.4
				v-1.2v-3h-0.9H836l0,0v4.1v0.1l0.8,1.7v2.6h-1.8v-0.7h-3.8v0.7h-2.4v-2.8v-15.5H826v-5.1h-3.9v4.3h-5.9v8.7h-3.3v-1.8h-5.4v9.4
				v1.6h-1.8v7.1h-4.7v-5.9h-6v7.3l-5.8,1.8h-5.1v-12v-1.8v-17.1h-7.7v-4.5l-2.8-1.6v-24.3h3v-2.5l-5-1.4v-14.4v-30.2h2v-4.6h-2.6
				l-0.7-55.9l1.1-1.1v-4.8l-3-0.8v-11.9l1.5-0.4v-3.6l-1.8-0.5l-0.1-7.5l-3-10.6l1.3-4.8l-0.7-18.4l1.3-2.3l-2.3-6.9V41.6l-1-2.6
				v-3.3v-32h-2l-0.4,51l-2.7,6.1V76l-2,3.5l-0.7,2.9h1.8l-2,20.3v4.3h0.7v62.8l-6.3,1.7v3.8l1.2,0.3V221l-2.5,0.7v48.9v1.3
				l-3.6,3.6v18.7v0.5h-1.5l1.5,0.5v3.1h-1.6v-4.1v-4.3H736v4.3v2.2l-4,0.9v-3.2v-12.2l-5.1-1.2v10.1l-0.3,0.1l0,0l-3.9,2v1.2v4.5
				v1.8h-4.6v-1.8l-0.1-2.4l-0.1-3.4l-2.8-3.4v4.7v4.5v1.8h-2.5v0.1v-2v-3.1l-2.8-3.3v1.8v4.5v6.8h-1.4l-5.8-6.8l-0.2-0.3v-4.7h-3.8
				l-1.6,1.1l-7-2.2l-0.9-4H686l-1.4,6.3H684h-34.8l-6.6,4.6h-2.7v-0.9H631v-7.9v-9.1h-2.3v-5.4v-3.1h-5.8v-6h-5.1v6h-3.5v4.1h-2.1
				v3.5v10.2v8.6l-5.1-1h-13.2v1.6h-3.9v3.9l-3.9-0.1v-2h-4.8v-1.2h-4.8l-1.2,0.2h-7.5v1.8l-7.5,0.1V301h-2.2
				c0.2-0.9,0.4-1.8,0.6-2.6c0.2-0.8,0.3-1.6,0.5-2.4c0-0.1,0-0.1,0.1-0.2c0.4-1.8,0.7-3.5,1.1-5.3l0,0c0-0.1,0-0.1,0-0.2
				c0.1-0.6,0.2-1.3,0.3-1.9c0.1-0.3,0.1-0.5,0.1-0.7c0.1-0.6,0.2-1.2,0.3-1.8c0.1-0.3,0.1-0.6,0.1-0.9c0.1-0.5,0.1-1.2,0.3-1.7
				c0.1-0.3,0.1-0.7,0.1-1.1c0.1-0.5,0.1-1.1,0.2-1.6c2.8-25.2-0.7-54.4-19.9-93.3l-0.7-2.8l1.8-1.8l4.2-4.2l4.3-1.2l1.2-1.2h-16.4
				c-9.1-14.4-17.7-28.8-34.5-44.9v-34l-2.9,5.1v25.9l-1.1,1.1v48.2h-2.8v4.9l-8.6,2.3v2l9.3,2.5v91.4v10.2v6h-15.1v2h-7.2v4.8h-7.3
				v-5.8h-9v2.2h-4.5v-1.8h-12v1.2h-7.2v3.3h-11.4v0.9H409v-3.9h-18.3v2.3H373v-9.8l-0.6-1l0,0l-2-3.5h-5.7v6.8v2l-1.5-0.4v-1.6
				v-0.7H356v0.7v4.9h-13.5l-5.4-5.4h-7.9v9.3h-18.6V259v-6.2v-25.6h-2.7v-14.4h-2.7v-7.7h-2.5V194h-3.2v-13.8l-2.1-0.7v-13.3
				l-2.5-0.8v16.3c-5.4,3.3-10.8,6.4-13,20.1v28.4h-2.7V255v4.2v36.6h-8.5v-19.3l1.4-1.4v-4.1h-7.5v4.1l1,1.8v18.4h-12.3v5.9h-20
				H223v-5.9h-7.1v7.3l-5.6,1.5v-13.3H207h-2.6v5.6v1.6h-7.2v7.6h-2.5v-9.2v-10h-11h-2.5h-1.4v9.2h-3.9h-0.1h-2.2v-8.3h-6.9v-12.7
				h-6.9v-12h-4v12h-4.2v15.6h-2.9h-2.4v4.5H143v0.9h-3.6v9.8h-15.8l-0.2-11.7l-3.4-3.4v15h-3v-8.9l-3.3-3.3v12.3h-2.6l-6.1-6.1
				v-0.8v-3.9h-4.5l-1.9,1.1l-8.3-2.2l-1.1-4h-3.9l-1.7,6.3h-0.7H41.4l-4.1,2.4l0,0l-3.9,2.2H20.9l-1.8,1.8h-10H3v3.3h-3.5v204.7
				H1300V305.4H1292.9z M505,177.6v-37c12.1,11,19.8,23.8,27.2,37H505z"/>
			<path class="st2" d="M37.3,298.1l4.1-2.4L37.3,298.1z"/>
			<path class="st4" d="M37.3,298.1l4.1-2.4L37.3,298.1z"/>
			<path class="st2" d="M879.8,293.2c1.2-1.7,2.3-3.3,3.5-4.9l0,0C882.1,289.9,881,291.5,879.8,293.2L879.8,293.2z"/>
			<path class="st4" d="M879.8,293.2c1.2-1.7,2.3-3.3,3.5-4.9l0,0C882.1,289.9,881,291.5,879.8,293.2L879.8,293.2z"/>
			<path class="st2" d="M372.3,291l0.6,1L372.3,291z"/>
			<path class="st4" d="M372.3,291l0.6,1L372.3,291z"/>
			<path class="st2" d="M558.9,296.8c0.1-0.3,0.1-0.5,0.1-0.7c-0.2,0.8-0.3,1.6-0.5,2.4l0,0C558.6,297.8,558.8,297.3,558.9,296.8z"
				/>
			<path class="st4" d="M558.9,296.8c0.1-0.3,0.1-0.5,0.1-0.7c-0.2,0.8-0.3,1.6-0.5,2.4l0,0C558.6,297.8,558.8,297.3,558.9,296.8z"
				/>
			<path class="st2" d="M559.5,293.7c0.1-0.2,0.1-0.4,0.1-0.6c0.1-0.7,0.3-1.4,0.4-2.2c0-0.1,0.1-0.3,0.1-0.4l0,0
				c-0.3,1.8-0.7,3.5-1.1,5.3v-0.1C559.3,295.1,559.4,294.4,559.5,293.7z"/>
			<path class="st4" d="M559.5,293.7c0.1-0.2,0.1-0.4,0.1-0.6c0.1-0.7,0.3-1.4,0.4-2.2c0-0.1,0.1-0.3,0.1-0.4l0,0
				c-0.3,1.8-0.7,3.5-1.1,5.3v-0.1C559.3,295.1,559.4,294.4,559.5,293.7z"/>
			<path class="st2" d="M982.1,288.4L982.1,288.4L982.1,288.4z"/>
			<path class="st4" d="M982.1,288.4L982.1,288.4L982.1,288.4z"/>
			<path class="st2" d="M984.6,290.7c-0.4-0.4-0.9-0.8-1.3-1.2C983.7,289.9,984.1,290.3,984.6,290.7z"/>
			<path class="st4" d="M984.6,290.7c-0.4-0.4-0.9-0.8-1.3-1.2C983.7,289.9,984.1,290.3,984.6,290.7z"/>
			<path class="st2" d="M987.1,292.9c-0.6-0.5-1.2-1-1.8-1.6C985.8,291.9,986.5,292.4,987.1,292.9z"/>
			<path class="st4" d="M987.1,292.9c-0.6-0.5-1.2-1-1.8-1.6C985.8,291.9,986.5,292.4,987.1,292.9z"/>
			<path class="st2" d="M836,289.5L836,289.5L836,289.5z"/>
			<path class="st4" d="M836,289.5L836,289.5L836,289.5z"/>
			<polygon class="st2" points="726.8,290.7 726.6,290.8 726.6,290.8 			"/>
			<polygon class="st4" points="726.8,290.7 726.6,290.8 726.6,290.8 			"/>
			<path class="st3" d="M560.7,287.6c0.1-0.6,0.2-1.2,0.3-1.8C560.9,286.4,560.7,287,560.7,287.6z"/>
			<path class="st4" d="M560.7,287.6c0.1-0.6,0.2-1.2,0.3-1.8C560.9,286.4,560.7,287,560.7,287.6z"/>
			<path class="st3" d="M560.2,290.3c0.1-0.6,0.2-1.3,0.3-1.9C560.4,289,560.3,289.7,560.2,290.3z"/>
			<path class="st4" d="M560.2,290.3c0.1-0.6,0.2-1.3,0.3-1.9C560.4,289,560.3,289.7,560.2,290.3z"/>
			<path class="st3" d="M561.7,280.4c-0.1,0.5-0.1,1.1-0.2,1.6C561.6,281.4,561.6,280.9,561.7,280.4z"/>
			<path class="st4" d="M561.7,280.4c-0.1,0.5-0.1,1.1-0.2,1.6C561.6,281.4,561.6,280.9,561.7,280.4z"/>
			<path class="st3" d="M561.1,284.8c0.1-0.5,0.1-1.2,0.3-1.7C561.3,283.7,561.2,284.3,561.1,284.8z"/>
			<path class="st4" d="M561.1,284.8c0.1-0.5,0.1-1.2,0.3-1.7C561.3,283.7,561.2,284.3,561.1,284.8z"/>
			<path class="st2" d="M559.5,293.7c-0.1,0.7-0.3,1.4-0.4,2C559.3,295.1,559.4,294.4,559.5,293.7z"/>
			<path class="st3" d="M559.5,293.7c-0.1,0.7-0.3,1.4-0.4,2C559.3,295.1,559.4,294.4,559.5,293.7z"/>
			<path class="st4" d="M559.5,293.7c-0.1,0.7-0.3,1.4-0.4,2C559.3,295.1,559.4,294.4,559.5,293.7z"/>
			<path class="st2" d="M558.9,296.8c-0.1,0.5-0.3,1.1-0.3,1.6C558.6,297.8,558.8,297.3,558.9,296.8z"/>
			<path class="st3" d="M558.9,296.8c-0.1,0.5-0.3,1.1-0.3,1.6C558.6,297.8,558.8,297.3,558.9,296.8z"/>
			<path class="st4" d="M558.9,296.8c-0.1,0.5-0.3,1.1-0.3,1.6C558.6,297.8,558.8,297.3,558.9,296.8z"/>
			<path class="st2" d="M560.1,290.9c-0.1,0.7-0.3,1.4-0.4,2.2C559.8,292.4,559.9,291.6,560.1,290.9z"/>
			<path class="st3" d="M560.1,290.9c-0.1,0.7-0.3,1.4-0.4,2.2C559.8,292.4,559.9,291.6,560.1,290.9z"/>
			<path class="st4" d="M560.1,290.9c-0.1,0.7-0.3,1.4-0.4,2.2C559.8,292.4,559.9,291.6,560.1,290.9z"/>
			<polygon class="st3" points="1281.2,299.3 1279.8,299 1279.8,299 			"/>
			<polygon class="st4" points="1281.2,299.3 1279.8,299 1279.8,299 			"/>
			<polygon class="st2" points="836.8,291.2 836,289.5 836,289.5 			"/>
			<polygon class="st3" points="836.8,291.2 836,289.5 836,289.5 			"/>
			<polygon class="st4" points="836.8,291.2 836,289.5 836,289.5 			"/>
			<path class="st2" d="M878.3,295.5c0.5-0.8,1-1.6,1.6-2.3l0,0C879.3,294,878.8,294.8,878.3,295.5z"/>
			<path class="st3" d="M878.3,295.5c0.5-0.8,1-1.6,1.6-2.3l0,0C879.3,294,878.8,294.8,878.3,295.5z"/>
			<path class="st4" d="M878.3,295.5c0.5-0.8,1-1.6,1.6-2.3l0,0C879.3,294,878.8,294.8,878.3,295.5z"/>
			<polygon class="st3" points="702.5,298.2 702.7,298.5 702.7,298.5 			"/>
			<polygon class="st4" points="702.5,298.2 702.7,298.5 702.7,298.5 			"/>
			<path class="st2" d="M702.7,298.5l5.8,6.8L702.7,298.5z"/>
			<path class="st3" d="M702.7,298.5l5.8,6.8L702.7,298.5z"/>
			<path class="st4" d="M702.7,298.5l5.8,6.8L702.7,298.5z"/>
			<path class="st3" d="M718,298.5L718,296L718,298.5z"/>
			<path class="st4" d="M718,298.5L718,296L718,298.5z"/>
			<path class="st2" d="M718,298.5v1.8V298.5z"/>
			<path class="st3" d="M718,298.5v1.8V298.5z"/>
			<path class="st4" d="M718,298.5v1.8V298.5z"/>
		</g>
	</g>
</g>
</svg>
