<?xml version="1.0" encoding="utf-8"?>
<!-- Generator: Adobe Illustrator 25.2.3, SVG Export Plug-In . SVG Version: 6.00 Build 0)  -->
<svg version="1.1" id="Calque_1" xmlns="http://www.w3.org/2000/svg" xmlns:xlink="http://www.w3.org/1999/xlink" x="0px" y="0px"
	 viewBox="0 0 130 23.5" style="enable-background:new 0 0 130 23.5;" xml:space="preserve">
<style type="text/css">
	.st0{fill:#E30613;}
	.st1{fill:#009FE3;}
</style>
<g>
	<polygon class="st0" points="0,0 4.7,0 9.4,4.7 9.4,9.4 4.7,9.4 0,4.7 	"/>
	<polygon class="st1" points="23.5,0 18.8,0 14.1,4.7 14.1,9.4 18.8,9.4 23.5,4.7 	"/>
	<polygon class="st0" points="14.1,14.1 18.8,14.1 23.5,18.8 23.5,23.5 18.8,23.5 14.1,18.8 	"/>
	<polygon class="st1" points="9.4,14.1 4.7,14.1 0,18.8 0,23.5 4.7,23.5 9.4,18.8 	"/>
	<polygon points="34.8,16.8 34.8,23.1 32.9,23.1 32.9,16.8 30.6,16.8 30.6,15.1 37.1,15.1 37.1,16.8 	"/>
	<path d="M43.5,23.1l-1.4-2.6c-0.1,0-0.2,0-0.3,0c-0.3,0-0.4,0-0.7,0V23h-1.9v-7.9c0.7-0.1,1.4-0.1,2.4-0.1c2.5,0,3.4,1.2,3.4,2.6
		c0,1-0.5,1.8-1.4,2.3l1.9,3.1H43.5z M41.9,16.7c-0.3,0-0.5,0-0.7,0v2.2c0.2,0,0.4,0,0.6,0c0.9,0,1.4-0.4,1.4-1.2
		C43.1,17.1,42.6,16.7,41.9,16.7"/>
	<path d="M52.6,23.1L52,21.6h-2.7l-0.6,1.4h-1.9l3.7-8h0.2l3.7,8H52.6z M50.6,18.3l-0.8,1.9h1.6L50.6,18.3z"/>
	<path d="M58.5,23.1c-1,0-1.4,0-2.4-0.1v-7.8c0.9-0.1,1.6-0.1,2.4-0.1c3.3,0,4.8,1.7,4.8,4C63.3,21.4,61.9,23.1,58.5,23.1
		 M58.7,16.7c-0.3,0-0.5,0-0.7,0v4.7c0.3,0,0.5,0,0.9,0c1.7,0,2.5-1,2.5-2.4C61.4,17.6,60.4,16.7,58.7,16.7"/>
	<polygon points="65.5,23.1 65.5,15.1 70.5,15.1 70.5,16.8 67.3,16.8 67.3,18.2 70.2,18.2 70.2,19.8 67.3,19.8 67.3,21.4 70.5,21.4 
		70.5,23.1 	"/>
	<path d="M80.1,20.4c0.5-0.5,1-1,1.3-1.4l1.2,1c-0.4,0.5-0.8,1-1.2,1.4l0.9,0.7L81,23.3c-0.3-0.3-0.7-0.5-1-0.8
		c-0.7,0.5-1.5,0.8-2.4,0.8c-1.6,0-2.8-0.9-2.8-2.3c0-0.9,0.6-1.7,1.7-2.2c-0.3-0.5-0.5-1-0.5-1.5c0-1.2,1-2.2,2.5-2.2
		c1.4,0,2.4,1,2.4,2.1c0,0.9-0.7,1.8-2,2.2C79.3,19.6,79.7,20,80.1,20.4 M77.3,19.9c-0.3,0.2-0.5,0.5-0.5,0.9c0,0.5,0.4,1,1,1
		c0.3,0,0.6-0.1,1-0.3C78.2,20.9,77.8,20.4,77.3,19.9 M79.3,17.1c0-0.4-0.2-0.7-0.7-0.7c-0.4,0-0.7,0.4-0.7,0.9c0,0.3,0.1,0.6,0.3,1
		C79,18,79.3,17.5,79.3,17.1"/>
	<rect x="86.7" y="15.1" width="1.9" height="7.9"/>
	<polygon points="97.6,23.2 92.8,18.9 92.8,23.1 91,23.1 91,15 91.2,14.9 95.9,19.2 95.9,15.1 97.8,15.1 97.8,23.2 	"/>
	<polygon points="103.4,23.1 103.1,23.1 99.4,15.1 101.5,15.1 103.3,19.4 105.1,15.1 107.1,15.1 	"/>
	<polygon points="108.8,23.1 108.8,15.1 113.9,15.1 113.9,16.8 110.7,16.8 110.7,18.2 113.6,18.2 113.6,19.8 110.7,19.8 110.7,21.4 
		113.9,21.4 113.9,23.1 	"/>
	<path d="M118.7,23.2c-0.9,0-2-0.4-2.7-0.8l0.5-1.7c0.6,0.5,1.5,0.8,2.2,0.8c0.7,0,0.9-0.3,0.9-0.7s-0.2-0.7-1.4-1.2
		c-1.4-0.6-1.9-1.4-1.9-2.3c0-1.2,1-2.3,2.8-2.3c0.9,0,1.7,0.3,2.2,0.6l-0.5,1.7c-0.5-0.3-1.2-0.7-1.7-0.7c-0.7,0-1,0.3-1,0.6
		c0,0.5,0.4,0.7,1.4,1.1c1.5,0.6,1.9,1.3,1.9,2.4C121.5,22,120.6,23.2,118.7,23.2"/>
	<polygon points="127.6,16.8 127.6,23.1 125.8,23.1 125.8,16.8 123.4,16.8 123.4,15.1 130,15.1 130,16.8 	"/>
	<polygon points="30.5,8.4 30.5,0.4 32.4,0.4 32.4,6.7 35.6,6.7 35.6,8.4 	"/>
	<path d="M40.7,8.5c-2.2,0-3.3-1.2-3.3-3.4V0.4h1.9V5c0,1.1,0.5,1.8,1.5,1.8s1.5-0.7,1.5-1.8V0.4h1.9v4.7
		C44.1,7.3,42.9,8.5,40.7,8.5"/>
	<polygon points="51.8,8.4 50.2,5.8 48.6,8.4 46.4,8.4 49,4.5 46.4,0.4 48.6,0.4 50.2,3 51.8,0.4 54,0.4 51.4,4.3 54,8.4 	"/>
	<polygon points="56.3,8.4 56.3,0.4 61.4,0.4 61.4,2.1 58.2,2.1 58.2,3.5 61.1,3.5 61.1,5.1 58.2,5.1 58.2,6.7 61.4,6.7 61.4,8.4 	
		"/>
	<polygon points="70.7,8.4 70.6,4.5 68.4,7.2 68.2,7.2 66,4.5 65.9,8.4 64.1,8.4 64.5,0.4 64.7,0.3 68.3,4.9 71.8,0.3 72.1,0.4 
		72.5,8.4 	"/>
	<path d="M77.5,8.4c-0.7,0-1.6-0.1-2.4-0.2V0.5c0.6-0.1,1.6-0.2,2.2-0.2c2.3,0,3.5,1,3.5,2.2c0,0.8-0.5,1.4-1.4,1.8
		c1.1,0.3,1.6,1,1.6,1.9C81.1,7.3,79.9,8.4,77.5,8.4 M77.8,1.9c-0.3,0-0.6,0-0.8,0.1v1.7c0.2,0,0.3,0,0.7,0c0.9,0,1.3-0.3,1.3-0.9
		C79,2.3,78.6,1.9,77.8,1.9 M77.7,5c-0.3,0-0.5,0-0.7,0v1.9c0.2,0,0.4,0,0.8,0c1,0,1.4-0.4,1.4-1C79.1,5.3,78.7,5,77.7,5"/>
	<path d="M87.3,8.5c-2.4,0-4-1.8-4-4.1c0-2.4,1.7-4.1,4.1-4.1s4,1.8,4,4.1C91.4,6.7,89.7,8.5,87.3,8.5 M87.3,1.9
		c-1.2,0-2.1,1-2.1,2.4s0.8,2.4,2.1,2.4c1.2,0,2.1-1,2.1-2.4C89.4,3,88.6,1.9,87.3,1.9"/>
	<path d="M97,8.5c-2.2,0-3.3-1.2-3.3-3.4V0.4h1.9V5c0,1.1,0.5,1.8,1.5,1.8c1,0,1.5-0.7,1.5-1.8V0.4h1.9v4.7
		C100.5,7.3,99.2,8.5,97,8.5"/>
	<path d="M107.4,8.4L106,5.8c-0.1,0-0.2,0-0.3,0c-0.3,0-0.4,0-0.7,0v2.6h-1.9V0.5c0.7-0.1,1.4-0.1,2.4-0.1c2.5,0,3.4,1.2,3.4,2.6
		c0,1-0.5,1.8-1.4,2.3l1.9,3.1H107.4z M105.7,2c-0.3,0-0.5,0-0.7,0v2.2c0.2,0,0.4,0,0.6,0c0.9,0,1.4-0.4,1.4-1.2
		C107.1,2.4,106.5,2,105.7,2"/>
	<path d="M118,3.9v3.8c-0.9,0.5-1.8,0.8-3,0.8c-2.3,0-4.2-1.7-4.2-4.1s1.9-4.1,4.3-4.1c1,0,1.9,0.3,2.6,0.7L117,2.5
		c-0.6-0.3-1.2-0.5-1.8-0.5c-1.6,0-2.4,1-2.4,2.4c0,1.5,1,2.4,2.3,2.4c0.6,0,0.9-0.1,1.2-0.2V5.5h-1.6V3.9H118z"/>
</g>
</svg>
