<?xml version="1.0" encoding="utf-8"?>
<!-- Generator: Adobe Illustrator 23.0.6, SVG Export Plug-In . SVG Version: 6.00 Build 0)  -->
<svg version="1.1" xmlns="http://www.w3.org/2000/svg" xmlns:xlink="http://www.w3.org/1999/xlink" x="0px" y="0px"
	 viewBox="0 0 151 139.6" style="enable-background:new 0 0 151 139.6;" xml:space="preserve">
<g id="background">
</g>
<g id="objects">
	<g>
		<g>
			<path d="M75.5,47c-12.6,0-22.8,10.2-22.8,22.8c0,12.6,10.2,22.8,22.8,22.8c12.6,0,22.8-10.2,22.8-22.8C98.3,57.2,88.1,47,75.5,47
				z M75.5,84.6c-8.2,0-14.8-6.6-14.8-14.8c0-8.2,6.6-14.8,14.8-14.8c8.2,0,14.8,6.6,14.8,14.8C90.3,78,83.7,84.6,75.5,84.6z"/>
			<path d="M99.2,40.7c-2.9,0-5.3,2.4-5.3,5.3c0,2.9,2.4,5.3,5.3,5.3c2.9,0,5.3-2.4,5.3-5.3C104.5,43.1,102.1,40.7,99.2,40.7z"/>
			<path d="M119.6,51.5c-0.2-4.7-1-8-2.1-10.8c-1.1-2.9-2.7-5.4-5.1-7.9c-2.5-2.5-4.9-4-7.9-5.1c-2.8-1.1-6.1-1.8-10.8-2.1
				c-4.7-0.2-6.2-0.3-18.3-0.3c-12.1,0-13.6,0.1-18.3,0.3c-4.7,0.2-8,1-10.8,2.1c-2.9,1.1-5.4,2.7-7.9,5.1c-2.5,2.5-4,4.9-5.1,7.9
				c-1.1,2.8-1.8,6.1-2.1,10.8c-0.2,4.7-0.3,6.2-0.3,18.3c0,12.1,0.1,13.6,0.3,18.3c0.2,4.7,1,8,2.1,10.8c1.1,2.9,2.7,5.4,5.1,7.9
				c2.5,2.5,4.9,4,7.9,5.1c2.8,1.1,6.1,1.8,10.8,2.1c4.7,0.2,6.2,0.3,18.3,0.3c12.1,0,13.6-0.1,18.3-0.3c4.7-0.2,8-1,10.8-2.1
				c2.9-1.1,5.4-2.7,7.9-5.1c2.5-2.5,4-4.9,5.1-7.9c1.1-2.8,1.8-6.1,2.1-10.8c0.2-4.7,0.3-6.2,0.3-18.3
				C119.9,57.7,119.8,56.2,119.6,51.5z M111.6,87.7c-0.2,4.3-0.9,6.7-1.5,8.2c-0.8,2.1-1.8,3.6-3.3,5.1c-1.6,1.6-3,2.5-5.1,3.3
				c-1.6,0.6-3.9,1.3-8.2,1.5c-4.7,0.2-6.1,0.3-17.9,0.3c-11.9,0-13.3,0-17.9-0.3c-4.3-0.2-6.7-0.9-8.2-1.5
				c-2.1-0.8-3.6-1.8-5.1-3.3c-1.6-1.6-2.5-3-3.3-5.1c-0.6-1.6-1.3-3.9-1.5-8.2c-0.2-4.7-0.3-6.1-0.3-17.9c0-11.9,0-13.3,0.3-17.9
				c0.2-4.3,0.9-6.7,1.5-8.2c0.8-2.1,1.8-3.6,3.3-5.1c1.6-1.6,3-2.5,5.1-3.3c1.6-0.6,3.9-1.3,8.2-1.5c4.7-0.2,6.1-0.3,17.9-0.3
				c11.9,0,13.3,0,17.9,0.3c4.3,0.2,6.7,0.9,8.2,1.5c2.1,0.8,3.6,1.8,5.1,3.3c1.6,1.6,2.5,3,3.3,5.1c0.6,1.6,1.3,3.9,1.5,8.2
				c0.2,4.7,0.3,6.1,0.3,17.9C111.9,81.6,111.8,83,111.6,87.7z"/>
		</g>
	</g>
</g>
<g id="designed_by_freepik">
</g>
</svg>
