<?xml version="1.0" encoding="utf-8"?>
<!-- Generator: Adobe Illustrator 25.3.1, SVG Export Plug-In . SVG Version: 6.00 Build 0)  -->
<svg version="1.1" id="Calque_1" xmlns="http://www.w3.org/2000/svg" xmlns:xlink="http://www.w3.org/1999/xlink" x="0px" y="0px"
	 viewBox="0 0 105 44.4" style="enable-background:new 0 0 105 44.4;" xml:space="preserve">
<style type="text/css">
	.st0{fill:#003A57;}
	.st1{fill:#C10A27;}
</style>
<g>
	<path class="st0" d="M54.2,26.1c-2.2,0.2-6.4,0.7-7,3.7c-0.3,1.6,0.4,2.6,2,2.6c1.2,0,2.4-0.6,3.2-1.6c1.1-1.3,1.3-2.4,1.5-3.9
		L54.2,26.1z M52.9,35.6c0-1,0.1-2.1,0.3-3.1c-2.1,2.4-4.1,3.5-7.1,3.5c-3.5,0-5.9-1.9-5.2-5.7c0.6-2.9,2.8-4.9,5.6-5.9
		c2.5-0.9,5.7-1,8.2-1.3l0.1-0.5c0.2-0.9,0.4-1.9,0-2.6s-1.3-0.9-2.2-0.9c-1.8,0-3.6,0.9-4,2.9l-5.4-0.5c1.5-4.8,6.5-6.2,10.7-6.2
		c2,0,4.6,0.5,6,1.8c1.7,1.7,1.1,3.9,0.6,6.2l-1.8,9.3c-0.2,1-0.3,2-0.2,3H52.9z"/>
	<path class="st0" d="M72.2,13.8h-5.8l1.1-5.6h5.8L72.2,13.8z M68,35.6h-5.8l3.9-20h5.8L68,35.6z"/>
	<path class="st0" d="M81.8,15.7l-0.7,3.7h0.1c1-2.1,2.6-4.3,5.1-4.1l1,0.1l-1.1,5.8c-4.4-0.2-5.6,3.3-6.3,6.9l-1.5,7.6h-5.8l3.9-20
		C76.5,15.7,81.8,15.7,81.8,15.7z"/>
	<path class="st0" d="M33.7,44.6h-5.8l4.8-23.9h-2.3l0.9-4.5h2.3c0.3-1.7,0.7-3.8,1.9-5.3c1.7-2,4.5-2.8,6.8-2.6l2.6,0.2L44,12.9
		l-2-0.1c-2.1-0.1-2.3,1.2-2.6,2.9l-0.1,0.4h3.5l-0.9,4.5h-3.5L33.7,44.6z"/>
	<g>
		<path class="st0" d="M24,17.1c-5.4-4.3-13.3-3.6-18.7,1.4V0.1L0,2.9v26.7c-0.1,2.8,0.5,5.5,1.9,7.8l4.1-4c-1.4-3.1-0.9-7,1.5-10
			c3.3-4.1,9.1-5,12.8-2s4.1,8.8,0.7,12.9c-2.3,2.8-5.8,4.1-8.9,3.7l-4.5,4.4c5.7,2.5,12.9,0.6,17.4-4.9
			C30.5,31.1,29.9,21.9,24,17.1z"/>
	</g>
	<path class="st1" d="M16.8,38.9H29l-1.1,5.6H5.4v-1.7l11.5-11.3l0.1-0.1c0.1-0.1,0.2-0.2,0.3-0.3c1.4-1.7,1.3-4.2-0.3-5.4
		c-1.6-1.3-4-0.9-5.4,0.8c-0.6,0.7-0.9,1.6-1,2.4H5.4C5.6,27,6.3,25,7.7,23.3c3.3-4.1,9.1-5,12.8-2s4.1,8.8,0.7,12.9
		c-0.2,0.3-0.4,0.5-0.7,0.7L20.4,35l-3.8,3.7L16.8,38.9z"/>
</g>
<g>
	<path class="st0" d="M96.8,4.2L96.8,4.2c0-2.3,1.8-4.2,4.1-4.2c2.3,0,4.1,1.9,4.1,4.1v0c0,2.3-1.8,4.1-4.1,4.1
		C98.6,8.3,96.8,6.4,96.8,4.2z M104.5,4.1L104.5,4.1c0-2-1.6-3.7-3.6-3.7c-2.1,0-3.6,1.7-3.6,3.7v0c0,2,1.6,3.7,3.6,3.7
		C102.9,7.8,104.5,6.2,104.5,4.1z M99.1,1.9h2.1c1.1,0,1.8,0.4,1.8,1.5c0,0.7-0.4,1.2-0.9,1.4l1,1.5h-1.4L100.8,5h-0.5v1.3h-1.2V1.9
		z M101.1,4c0.4,0,0.7-0.2,0.7-0.5c0-0.3-0.2-0.5-0.7-0.5h-0.8v1H101.1z"/>
</g>
</svg>
