<?xml version="1.0" encoding="utf-8"?>
<!-- Generator: Adobe Illustrator 25.2.3, SVG Export Plug-In . SVG Version: 6.00 Build 0)  -->
<svg version="1.1" id="Calque_1" xmlns="http://www.w3.org/2000/svg" xmlns:xlink="http://www.w3.org/1999/xlink" x="0px" y="0px"
	 viewBox="0 0 125 125" style="enable-background:new 0 0 125 125;" xml:space="preserve">
<style type="text/css">
	.st0{fill:#009FE3;}
</style>
<g>
	<g>
		<g>
			<path class="st0" d="M47.8,64.6c-0.5,0-1-0.4-1-1V31.1H36c-0.5,0-0.8,0.4-0.8,0.8v31.7c0,0.5-0.4,1-1,1s-1-0.4-1-1V31.9
				c0-1.5,1.3-2.8,2.8-2.8h11.8c0.5,0,1,0.4,1,1v33.5C48.8,64.2,48.3,64.6,47.8,64.6z"/>
		</g>
		<g>
			<path class="st0" d="M87,64.6c-0.5,0-1-0.4-1-1V23.1c0-0.5-0.4-1-1-1h-7.1v41.5c0,0.5-0.4,1-1,1s-1-0.4-1-1V21.1c0-0.5,0.4-1,1-1
				H85c1.6,0,2.9,1.3,2.9,2.9v40.6C88,64.2,87.5,64.6,87,64.6z"/>
		</g>
		<g>
			<path class="st0" d="M72.5,73.6c-0.8,0-1.5-0.2-2.1-0.7c-1.1-0.9-1.6-2.3-1.3-3.8c0.9-4.3,3.9-5.8,6.9-6.4V9.8
				c0-0.5-0.4-0.9-0.9-0.9H49.7c-0.5,0-0.9,0.4-0.9,0.9v53.8c0,0.5-0.4,1-1,1s-1-0.4-1-1V9.8c0-1.6,1.3-2.9,2.9-2.9h25.4
				c1.6,0,2.9,1.3,2.9,2.9v52.6c0.7-0.1,1.4-0.1,2.1-0.1c0.3,0,0.7,0,1,0c0.6,0,1,0.4,1,0.9c0,0.5-0.4,1-0.9,1c-0.3,0-0.7,0-1,0
				c-0.7,0-1.5,0.1-2.2,0.1c-0.2,6.1-2.4,8.2-3.8,8.8C73.6,73.5,73,73.6,72.5,73.6z M76,64.7c-2.4,0.5-4.3,1.7-5,4.8
				c-0.2,0.8,0,1.5,0.6,1.9c0.5,0.4,1.1,0.4,1.7,0.1C73.9,71.2,75.7,69.8,76,64.7z"/>
		</g>
		<g>
			<path class="st0" d="M72.9,8.9H51.8c-0.5,0-1-0.4-1-1V3.4c0-1.4,1.1-2.5,2.5-2.5h18c1.4,0,2.5,1.1,2.5,2.5v4.4
				C73.9,8.4,73.5,8.9,72.9,8.9z M52.8,6.9h19.2V3.4c0-0.3-0.3-0.6-0.6-0.6h-18c-0.3,0-0.6,0.3-0.6,0.6V6.9z"/>
		</g>
		<g>
			<path class="st0" d="M59.3,31.6h-6.2c-0.5,0-1-0.4-1-1v-15c0-0.5,0.4-1,1-1h6.2c0.5,0,1,0.4,1,1v15
				C60.3,31.2,59.9,31.6,59.3,31.6z M54.1,29.6h4.2v-13h-4.2V29.6z"/>
		</g>
		<g>
			<path class="st0" d="M71.6,31.6h-6.2c-0.5,0-1-0.4-1-1v-15c0-0.5,0.4-1,1-1h6.2c0.5,0,1,0.4,1,1v15
				C72.6,31.2,72.1,31.6,71.6,31.6z M66.4,29.6h4.2v-13h-4.2V29.6z"/>
		</g>
		<g>
			<path class="st0" d="M59.3,44.8h-6.2c-0.5,0-1-0.4-1-1v-6.2c0-0.5,0.4-1,1-1h6.2c0.5,0,1,0.4,1,1v6.2
				C60.3,44.4,59.9,44.8,59.3,44.8z M54.1,42.8h4.2v-4.2h-4.2V42.8z"/>
		</g>
		<g>
			<path class="st0" d="M71.6,44.8h-6.2c-0.5,0-1-0.4-1-1v-6.2c0-0.5,0.4-1,1-1h6.2c0.5,0,1,0.4,1,1v6.2
				C72.6,44.4,72.1,44.8,71.6,44.8z M66.4,42.8h4.2v-4.2h-4.2V42.8z"/>
		</g>
		<g>
			<path class="st0" d="M67.8,64.6c-0.5,0-1-0.4-1-1v-9.7h-8.7v9.7c0,0.5-0.4,1-1,1c-0.5,0-1-0.4-1-1V53c0-0.5,0.4-1,1-1h10.7
				c0.5,0,1,0.4,1,1v10.7C68.8,64.2,68.4,64.6,67.8,64.6z"/>
		</g>
	</g>
	<g>
		<path class="st0" d="M118.3,125H68.4c-4,0-7.9-1.6-10.7-4.4L4.2,67.2C1.5,64.4,0,60.8,0,56.9V5.2C0,2.3,2.3,0,5.2,0H17
			c0.5,0,1,0.4,1,1s-0.4,1-1,1H5.2C3.4,2,2,3.4,2,5.2v51.7c0,3.3,1.3,6.5,3.7,8.9L59,119.2c2.5,2.5,5.8,3.9,9.3,3.9h49.9
			c2.6,0,4.7-2.1,4.7-4.7V68.5c0-3.6-1.4-7-3.9-9.5l-12-12c-0.4-0.4-0.4-1,0-1.4c0.4-0.4,1-0.4,1.4,0l12,12
			c2.9,2.9,4.5,6.8,4.5,10.9v49.8C125,122,122,125,118.3,125z"/>
	</g>
</g>
</svg>
