<?xml version="1.0" encoding="utf-8"?>
<!-- Generator: Adobe Illustrator 23.0.6, SVG Export Plug-In . SVG Version: 6.00 Build 0)  -->
<svg version="1.1" xmlns="http://www.w3.org/2000/svg" xmlns:xlink="http://www.w3.org/1999/xlink" x="0px" y="0px"
	 viewBox="0 0 151 139.6" style="enable-background:new 0 0 151 139.6;" xml:space="preserve">
<g id="background">
</g>
<g id="objects">
	<g>
		<path d="M90.8,69.8L62.4,86.5V53.1L90.8,69.8z M117.4,85.3v-31c0,0,0-15-15-15H45.5c0,0-15,0-15,15v31c0,0,0,15,15,15h56.9
			C102.4,100.3,117.4,100.3,117.4,85.3"/>
	</g>
</g>
<g id="designed_by_freepik">
</g>
</svg>
