<?xml version="1.0" encoding="utf-8"?>
<!-- Generator: Adobe Illustrator 25.3.1, SVG Export Plug-In . SVG Version: 6.00 Build 0)  -->
<svg version="1.1" id="Calque_1" xmlns="http://www.w3.org/2000/svg" xmlns:xlink="http://www.w3.org/1999/xlink" x="0px" y="0px"
	 viewBox="0 0 900 352.3" style="enable-background:new 0 0 900 352.3;" xml:space="preserve">
<style type="text/css">
	.st0{clip-path:url(#SVGID_2_);}
	.st1{fill:none;}
	.st2{opacity:0.25;fill:#E30613;enable-background:new    ;}
	.st3{opacity:0.1;fill:#E30613;enable-background:new    ;}
	.st4{opacity:0.5;fill:#E30613;enable-background:new    ;}
</style>
<g>
	<g>
		<defs>
			<path id="SVGID_1_" d="M900,296.8c-76.2-5.3-168.5-14.7-251.2-26.2c-108.5-15.1-204.9-36.5-287.5-48
				c-34.9-4.9-66.6,23.2-53.9,64.4c10.1,32.8-23.2,71.2-64.9,63.2C199,341.9,70.4,309.8-0.5,296.1v-338H900V296.8z"/>
		</defs>
		<clipPath id="SVGID_2_">
			<use xlink:href="#SVGID_1_"  style="overflow:visible;"/>
		</clipPath>
		<g class="st0">
			<path class="st1" d="M682.1,199.9c-0.1-0.1-0.3-0.3-0.5-0.4C681.7,199.6,681.9,199.7,682.1,199.9z"/>
			<path class="st1" d="M387.7,199.2c0,0,0,0.1,0,0.1l0,0C387.7,199.3,387.7,199.2,387.7,199.2z"/>
			<polygon class="st1" points="23,206.1 25.7,204.6 25.7,204.6 			"/>
			<path class="st1" d="M606.9,204.5c0.4-0.6,0.7-1.1,1.1-1.6l0,0C607.6,203.3,607.2,203.9,606.9,204.5z"/>
			<path class="st1" d="M388.5,194.2c0-0.2,0-0.5,0.1-0.8C388.6,193.7,388.5,194,388.5,194.2z"/>
			<polygon class="st1" points="256.3,197.2 257.6,199.6 257.6,199.6 			"/>
			<path class="st1" d="M386.2,206.6c0.1-0.6,0.3-1.2,0.4-1.8C386.4,205.4,386.3,206,386.2,206.6z"/>
			<path class="st1" d="M680.7,198.6c-0.3-0.3-0.6-0.5-0.8-0.8C680.1,198,680.4,198.3,680.7,198.6z"/>
			<path class="st1" d="M388.3,196c0-0.2,0-0.4,0.1-0.7C388.3,195.6,388.3,195.8,388.3,196z"/>
			<path class="st1" d="M349.5,95.5v25.6h18.8C363.3,112,357.9,103.1,349.5,95.5z"/>
			<path class="st1" d="M386.9,203.1c0,0,0-0.1,0-0.1C387,203,386.9,203.1,386.9,203.1z"/>
			<path class="st1" d="M388,197.9c0-0.2,0-0.4,0.1-0.5C388,197.5,388,197.7,388,197.9z"/>
			<polygon class="st2" points="25.7,204.6 25.7,204.6 28.5,202.9 57.3,202.9 57.3,179.8 58.5,180.1 58.5,170.7 53.8,170.7 
				53.8,168.4 42.7,168.4 42.7,161.8 44.8,160.6 45.4,158.5 39.7,158.5 39.7,169.6 29,169.6 29,180.4 26.3,180.4 26.3,196.4 
				25.7,196.2 25.7,202.9 25.7,203.6 27.4,203.6 			"/>
			<path class="st2" d="M611.5,197.8H609v3.4C609.9,200,610.7,198.9,611.5,197.8z"/>
			<polygon class="st2" points="840.6,197.9 849.6,195.5 854.7,192.6 854.7,180.4 852.8,180.9 852.8,175.1 843.4,175.1 843.4,186.9 
				839.5,186.9 839.5,182.7 837.2,182.7 837.2,185 			"/>
			<polygon class="st2" points="234.6,177.4 234.6,157.2 230.1,157.2 230.1,146.4 227.4,141.8 224.2,140.9 222.5,137.9 222.5,123.8 
				221.7,124.2 220.5,137.9 220.5,147.2 219.7,148.5 217.9,150.3 217.9,165 215.3,165 215.3,173.1 214.9,173.1 214.9,177.4 			"/>
			<polygon class="st2" points="193.1,177.4 193.1,174.5 188.8,174.5 186.5,173.8 186.5,172 185.7,172 185.7,177.4 			"/>
			<polygon class="st2" points="165.5,198.6 173.2,198.6 173.2,197.3 169.1,197.3 168.9,187.1 166,186.3 164.5,184.9 162.1,184.9 
				162.1,182.7 160,182.7 159.4,184.9 153.2,184.9 152.9,185.9 152.9,191.3 			"/>
			<polygon class="st2" points="134.6,203.2 141.4,203.2 141.4,199.3 143.1,199.3 143.1,181.4 139,181.4 139,192.8 134.5,192.8 
				134.5,190.5 129.5,190.5 129.5,194.4 127,194.4 127,196.4 134.6,196.4 			"/>
			<polygon class="st2" points="315.8,192.3 315.8,177.9 311.9,176.8 311.1,173.7 305.8,173.7 300,172.2 299.3,170.8 292.4,170.8 
				292.4,192.3 293.9,192.3 			"/>
			<polygon class="st2" points="271.4,195.9 274.1,200.5 281.7,200.5 281.7,198.8 275.2,198.8 275.2,161.9 274.1,160 265.4,160 
				263.2,156.1 263.2,152.7 265.7,152.1 265.7,150.1 257.4,150.1 257.4,152.9 259.6,152.9 259.6,155.2 258.4,156.4 257.6,157.7 
				257.6,164.5 259.8,164.5 			"/>
			<path class="st2" d="M257.6,199.6l0.4,0.7L257.6,199.6z"/>
			<polygon class="st2" points="102.6,180.5 102.6,172 101.4,172 101.4,168.7 99.6,168.2 99.6,161.5 95.6,161.5 95.6,150.8 
				94,150.8 94,161.6 88.6,161.6 88.6,157.6 86.7,157.6 86.7,161.6 83.2,161.6 83.2,178.9 84.2,180.5 			"/>
			<polygon class="st2" points="124.3,196.4 125.2,196.4 125.2,193.3 121.7,192.3 121.7,202.8 124.3,202.8 			"/>
			<path class="st2" d="M387.7,199.3L387.7,199.3c0,0.1,0,0.2,0,0.3C387.7,199.5,387.7,199.4,387.7,199.3z"/>
			<path class="st2" d="M387,202.9L387,202.9c0,0.1,0,0.1,0,0.2c0,0.2-0.1,0.3-0.1,0.5C386.9,203.4,386.9,203.2,387,202.9z"/>
			<path class="st2" d="M387.4,201c0,0.1,0,0.3-0.1,0.4C387.3,201.4,387.4,201.2,387.4,201z"/>
			<path class="st2" d="M386.6,204.7c-0.1,0.6-0.3,1.2-0.4,1.8C386.3,206,386.4,205.4,386.6,204.7L386.6,204.7z"/>
			<polygon class="st2" points="417.5,156 416,156 416,145.4 414.2,145.4 414.2,136 410.7,135.1 410.7,125.4 410,124.7 409.4,125.4 
				409.4,135.1 405.8,136 405.8,145.4 404.1,145.4 404.1,156 402.6,156 402.6,192.3 417.5,192.3 			"/>
			<path class="st2" d="M680.7,198.6c0.3,0.3,0.6,0.6,0.9,0.8c0.1,0.1,0.3,0.3,0.5,0.4c0.4,0.4,0.8,0.8,1.3,1.1v-2.7h3v3.3h7.4
				l0.4,1.9l-0.3-1.3h15.9v-0.4h1.6l0.4-0.7h2.2v-0.8l2-0.2v2.1h5.3v-5.4h2.7v-1.6h1.1v-9h2.4v-10.3h-4.1v-2.1h-8.5v-10.8
				c0,0-15.2,0.7-15.4,0c-0.2-0.7,0-12.8,0-12.8s-0.7,0.2-2.1-5.1c-1.4-5.2-5.8-5.8-5.8-5.8v-9.1h-3v9.9l-0.7,2.7v5.9l-1.1,1.1
				l-1.2,4.5v43.5h-5.8l0,0C680.1,198,680.4,198.3,680.7,198.6z"/>
			<polygon class="st2" points="778.9,189.2 781.2,189.2 781.2,146 780.7,141.6 775,133.9 774.5,126.8 773.9,134.1 768.6,142.3 
				768.1,146.7 768.1,184.8 771.2,184.8 			"/>
			<path class="st2" d="M559,199.7v-6.5h3.7v1.3h2.3v-6.1h4.1v-3h2.7v3.6h2v10.7h5v-1.1v0v-2.9l0,0v-32.5h3.6v-39l0.8-1.3l-0.8-3.1
				l-4.4-1.2v-3.2l0.9-0.2l0.2-1.3l-1.4-1l-1.3-0.6c0,0-0.5-2-0.5-2.5c0-0.5-1.4-1.1-1.4-1.1l-0.9-10.1l-0.8,0.5l-0.4,9.8l-1.3,1
				l-0.9,1.7v1.5l-0.8-0.4l-1.4-2.1l-1-0.5l-0.5-11.4l-0.8-0.1c0,0-0.9,10.8-0.9,11.4c0,0.6-1.5,1.1-1.5,1.1l-1.3,1.7l-1.3,0.4
				l0.1,1.8l1.3,1.2v3.2l-3.2,1.9l0.9,3.2h2.1v23.7h-9.6v50.3h-9.8v1.2L559,199.7L559,199.7z"/>
			<polygon class="st2" points="503.1,192.4 506.7,193.2 506.7,201.7 509.5,201.7 509.5,198.7 514.7,198.7 514.7,201.7 515.7,201.7 
				515.7,188.8 518.2,186.3 518.2,185.4 514.1,184.3 514.1,166.2 512.7,164.8 512.7,155.4 504.5,155.4 504.5,163.9 502.9,165.5 
				502.9,199.5 503.1,199.4 			"/>
			<polygon class="st2" points="447.9,196.5 473.4,181.8 473.4,174.4 467.6,164.3 466.6,160.7 463.6,149.4 463.6,144.4 460.6,144.4 
				459.4,128.8 458.8,145.3 454.9,145.3 454.9,149.1 453.5,148.7 452.1,146.4 445,146.4 445,149.5 443.2,149.5 443.2,191.8 
				446.7,191.8 			"/>
			<polygon class="st2" points="514.7,204.5 515.7,204.5 515.7,202.4 514.7,202.1 515.7,202.1 515.7,201.7 514.7,201.7 			"/>
			<polygon class="st3" points="514.7,204.5 515.7,204.5 515.7,202.4 514.7,202.1 515.7,202.1 515.7,201.7 514.7,201.7 			"/>
			<polygon class="st2" points="506.7,203.9 509.5,203.2 509.5,201.7 506.7,201.7 			"/>
			<polygon class="st3" points="506.7,203.9 509.5,203.2 509.5,201.7 506.7,201.7 			"/>
			<polygon class="st2" points="542.8,208 546.5,208 550.4,206.8 550.4,201.7 554.5,201.7 554.5,205.7 557.8,205.7 557.8,200.8 
				559,200.8 559,199.7 542.8,199.7 			"/>
			<polygon class="st3" points="542.8,208 546.5,208 550.4,206.8 550.4,201.7 554.5,201.7 554.5,205.7 557.8,205.7 557.8,200.8 
				559,200.8 559,199.7 542.8,199.7 			"/>
			<polygon class="st2" points="694.2,203.4 695.4,203.4 695.4,205.7 699.5,205.7 699.5,204.1 703.8,204.1 703.8,202.8 709.8,202.8 
				709.8,202.2 693.9,202.2 			"/>
			<polygon class="st3" points="694.2,203.4 695.4,203.4 695.4,205.7 699.5,205.7 699.5,204.1 703.8,204.1 703.8,202.8 709.8,202.8 
				709.8,202.2 693.9,202.2 			"/>
			<rect x="417.5" y="192.3" class="st3" width="6.1" height="7"/>
			<path class="st3" d="M388.5,194.2c0,0.4-0.1,0.8-0.2,1.2c0,0.2,0,0.4-0.1,0.7c0,0.4-0.1,0.8-0.2,1.3c0,0.2,0,0.4-0.1,0.5
				c-0.1,0.4-0.1,0.9-0.2,1.3c0,0,0,0.1,0,0.1h14.9v-7h-13.8l0,0c0,0.4-0.1,0.8-0.1,1.1C388.6,193.7,388.5,194,388.5,194.2z"/>
			<path class="st2" d="M387.7,199.3c0,0.1,0,0.2,0,0.3c-0.1,0.5-0.2,1-0.3,1.5c0,0.1,0,0.3-0.1,0.4c-0.1,0.5-0.2,0.9-0.3,1.4
				c0,0.2-0.1,0.5-0.1,0.7c-0.1,0.4-0.2,0.8-0.2,1.1c-0.1,0.6-0.3,1.2-0.4,1.8h1.5v0.9l5.2,0v-1.3h5.2l0.8-0.1h3.3v0.8h3.3v1.4
				l2.7,0.1v-2.7h2.7v-1.1h9.1l3.6,0.7v-6h-6.1v-7h-14.9v7H387.7z"/>
			<path class="st3" d="M387.7,199.3c0,0.1,0,0.2,0,0.3c-0.1,0.5-0.2,1-0.3,1.5c0,0.1,0,0.3-0.1,0.4c-0.1,0.5-0.2,0.9-0.3,1.4
				c0,0.2-0.1,0.5-0.1,0.7c-0.1,0.4-0.2,0.8-0.2,1.1c-0.1,0.6-0.3,1.2-0.4,1.8h1.5v0.9l5.2,0v-1.3h5.2l0.8-0.1h3.3v0.8h3.3v1.4
				l2.7,0.1v-2.7h2.7v-1.1h9.1l3.6,0.7v-6h-6.1v-7h-14.9v7H387.7z"/>
			<polygon class="st3" points="887,207.8 888.2,207.8 887.5,205.2 886,205.2 887,205.4 			"/>
			<polygon class="st2" points="134.6,209.6 136.4,209.6 136.4,204.3 141.4,204.3 141.4,203.2 134.6,203.2 			"/>
			<polygon class="st3" points="134.6,209.6 136.4,209.6 136.4,204.3 141.4,204.3 141.4,203.2 134.6,203.2 			"/>
			<polygon class="st3" points="495,204.8 495,201.7 492.4,201.7 493.3,202.7 493.3,204.8 			"/>
			<polygon class="st2" points="493.3,206.2 493.3,206.1 495,206.1 495,204.8 493.3,204.8 			"/>
			<polygon class="st3" points="493.3,206.2 493.3,206.1 495,206.1 495,204.8 493.3,204.8 			"/>
			<polygon class="st2" points="578.7,199.7 573.8,199.7 573.8,201.7 575.4,201.7 575.4,201.2 578.1,201.2 578.1,201.7 579.3,201.7 
				579.3,199.8 578.7,198.6 			"/>
			<polygon class="st3" points="578.7,199.7 573.8,199.7 573.8,201.7 575.4,201.7 575.4,201.2 578.1,201.2 578.1,201.7 579.3,201.7 
				579.3,199.8 578.7,198.6 			"/>
			<polygon class="st3" points="880.5,206.8 880.5,205.2 877.8,205.2 877.8,206.5 			"/>
			<polygon class="st3" points="57.8,202.9 58.9,198.5 61.6,198.5 62.4,201.3 68.2,202.8 69.5,202.1 72.7,202.1 72.7,204.8 
				76.8,204.8 76.8,186.5 78.2,186.5 78.2,184.3 83.2,184.3 83.2,178.9 81.7,176.2 78.6,179.3 76.5,175.6 73.3,178.8 73.3,166.1 
				71.1,166.1 71.1,159.6 69.1,159.6 69.1,155.1 65,155.1 65,160.4 63.9,160.4 63.9,166.3 62,166.3 62,181 58.5,180.1 58.5,200 			
				"/>
			<path class="st3" d="M102.9,199.1h2v-10.8h2.9V180h2.8v8.3h4.8v8.8h4.8v5.7h1.5v-19.6l-1.5-5.7V154l-6.3-6.3l-1-8.3l-0.4,10.3
				c0,0-5.4,0-6.7,0s0,5.3,0,5.3l-1.3,0.7v3.1l-1.8,0.5V172h0.2L102.9,199.1L102.9,199.1z"/>
			<polygon class="st2" points="57.3,202.9 57.8,202.9 58.5,200 58.5,180.1 57.3,179.8 			"/>
			<polygon class="st3" points="57.3,202.9 57.8,202.9 58.5,200 58.5,180.1 57.3,179.8 			"/>
			<polygon class="st2" points="78.2,184.3 78.2,186.5 76.8,186.5 76.8,204.8 72.7,204.8 72.7,205.4 76.8,209.6 78.7,209.6 
				78.7,201.1 81,203.4 81,209.6 83.1,209.6 83.1,199.2 85.4,201.5 85.5,209.6 96.5,209.6 96.5,202.8 99,202.8 99,202.2 
				101.3,202.2 101.3,199.1 102.9,199.1 102.9,172 102.6,172 102.6,180.5 84.2,180.5 83.2,178.9 83.2,184.3 			"/>
			<polygon class="st3" points="78.2,184.3 78.2,186.5 76.8,186.5 76.8,204.8 72.7,204.8 72.7,205.4 76.8,209.6 78.7,209.6 
				78.7,201.1 81,203.4 81,209.6 83.1,209.6 83.1,199.2 85.4,201.5 85.5,209.6 96.5,209.6 96.5,202.8 99,202.8 99,202.2 
				101.3,202.2 101.3,199.1 102.9,199.1 102.9,172 102.6,172 102.6,180.5 84.2,180.5 83.2,178.9 83.2,184.3 			"/>
			<polygon class="st3" points="145.1,188.8 152.1,188.8 152.9,185.9 152.9,158.2 151.6,157.4 152.8,155.6 151.9,154.2 151.9,151.7 
				150.7,150.5 148.7,143.2 146.8,150.1 145.3,151.6 144.4,155 145.2,156.3 143.1,157.6 143.1,181.4 145.1,181.4 			"/>
			<polygon class="st3" points="176,200.3 178.5,200.3 178.5,178.3 180.6,177.7 180.6,174.2 182.8,172 185.7,172 185.7,148.3 
				182.4,142.7 182.4,139.6 180.9,134 179.4,139.5 179.4,143.8 176.1,147.2 176.1,160.4 174.4,162.1 174.4,166 173.4,167.8 
				173.4,178.8 173.2,197.3 175.2,197.3 			"/>
			<polygon class="st2" points="145.4,199.3 145.4,208.5 149.3,207.5 149.3,202.4 154.2,202.4 154.2,206.4 161.4,206.4 175.3,206.4 
				175.3,202.4 183.8,202.4 183.8,189.6 183.1,188.3 183.1,185.5 188.2,185.5 188.2,188.3 187.2,189.3 187.2,202.7 193.1,202.7 
				193.1,177.4 185.7,177.4 185.7,172 182.8,172 180.6,174.2 180.6,177.7 178.5,178.3 178.5,200.3 176,200.3 175.2,197.3 
				173.2,197.3 173.2,198.6 165.5,198.6 152.9,191.3 152.9,185.9 152.1,188.8 145.1,188.8 145.1,181.4 143.1,181.4 143.1,199.3 			
				"/>
			<polygon class="st3" points="145.4,199.3 145.4,208.5 149.3,207.5 149.3,202.4 154.2,202.4 154.2,206.4 161.4,206.4 175.3,206.4 
				175.3,202.4 183.8,202.4 183.8,189.6 183.1,188.3 183.1,185.5 188.2,185.5 188.2,188.3 187.2,189.3 187.2,202.7 193.1,202.7 
				193.1,177.4 185.7,177.4 185.7,172 182.8,172 180.6,174.2 180.6,177.7 178.5,178.3 178.5,200.3 176,200.3 175.2,197.3 
				173.2,197.3 173.2,198.6 165.5,198.6 152.9,191.3 152.9,185.9 152.1,188.8 145.1,188.8 145.1,181.4 143.1,181.4 143.1,199.3 			
				"/>
			<polygon class="st3" points="733.1,200.3 735.5,200.3 735.5,202.2 750.1,202.2 750.1,201.7 751.8,201.7 751.8,202.2 762.7,202.2 
				762.7,198.9 764.9,198.9 764.9,199.6 765.5,199.6 765.5,202.2 768.1,202.2 768.1,184.8 765.4,184.8 765.4,181.5 760.9,181.5 
				760.9,185 759.1,186.8 759.1,191.3 747.5,191.3 747.5,168.4 742.4,168.4 742.4,166.7 745.4,166.7 745.4,164.5 739.6,164.5 
				739.6,166.9 741.3,166.9 741.3,168.6 733.5,168.6 731.1,172.7 731.1,191.8 733.1,191.8 			"/>
			<polygon class="st3" points="788.8,202.4 788.8,199.8 790,199.8 790,194.8 791.5,194.8 791.5,187.2 792.3,187.2 792.3,194.8 
				794.1,194.8 794.1,198.2 796.9,198.2 796.9,202.4 798.7,202.4 798.7,193.5 799.9,193.5 799.9,190.4 802.1,190.4 802.1,181.8 
				805.5,181.8 805.5,190.4 808.4,190.4 808.4,198.3 811.6,198.3 811.6,202.4 831.7,202.4 831.7,182.7 837.2,182.7 837.2,178.3 
				826.8,178.3 826.8,171.8 825.9,170.3 824,171.4 820.9,171.4 819.4,169.9 818,172.3 818,177.1 811.6,177.1 811.6,183.9 
				807.2,183.9 807.2,154.8 806.1,154.8 806.1,150.5 794.1,150.5 792.6,152 792,154.3 789.7,154.3 789.7,167.1 786,168.1 786,171.8 
				783,173.5 783,189.2 781.2,189.2 781.2,202.4 			"/>
			<polygon class="st3" points="857.3,201 857.3,205 866.1,205 866.2,205.7 866.9,205.7 866,207.1 866.4,206.5 866.5,207.1 
				872.6,207.1 872.6,204.4 876.9,204.4 876.9,201.7 868.7,201.7 868.7,194.1 865.5,194.1 865.1,195.6 862.3,195.6 862.3,191.6 
				856.3,191.6 854.7,192.6 854.7,201 			"/>
			<polygon class="st2" points="735.5,205 739.7,205 739.7,203.4 743.4,202.5 743.4,203.3 745.8,203.3 748.1,202.4 748.1,203.3 
				750.1,203.3 750.1,202.2 735.5,202.2 			"/>
			<polygon class="st3" points="735.5,205 739.7,205 739.7,203.4 743.4,202.5 743.4,203.3 745.8,203.3 748.1,202.4 748.1,203.3 
				750.1,203.3 750.1,202.2 735.5,202.2 			"/>
			<polygon class="st2" points="751.8,203.3 751.8,204.1 753.5,204.1 753.9,203.6 756.2,203.6 756.2,204.1 759.9,204.1 759.9,202.9 
				761.5,202.9 761.5,203.4 762.7,203.4 762.7,202.2 751.8,202.2 			"/>
			<polygon class="st3" points="751.8,203.3 751.8,204.1 753.5,204.1 753.9,203.6 756.2,203.6 756.2,204.1 759.9,204.1 759.9,202.9 
				761.5,202.9 761.5,203.4 762.7,203.4 762.7,202.2 751.8,202.2 			"/>
			<rect x="796.9" y="202.4" class="st2" width="1.7" height="3"/>
			<rect x="796.9" y="202.4" class="st3" width="1.7" height="3"/>
			<polygon class="st2" points="857.3,205 857.3,205.7 861.2,205.7 866.2,205.7 866.1,205 			"/>
			<polygon class="st3" points="857.3,205 857.3,205.7 861.2,205.7 866.2,205.7 866.1,205 			"/>
			<polygon class="st2" points="866,207.1 866.5,207.1 866.4,206.5 			"/>
			<polygon class="st3" points="866,207.1 866.5,207.1 866.4,206.5 			"/>
			<polygon class="st2" points="831.7,202.4 811.6,202.4 811.6,205.5 811.8,205.5 811.8,206.9 814.5,206.9 814.5,204.8 816.1,204.8 
				816.1,206.3 818.6,206.5 820.1,206.2 820.1,202.5 827.4,202.5 827.4,208.7 832.1,208.7 853.8,208.7 853.8,201 854.7,201 
				854.7,192.6 849.6,195.5 840.6,197.9 837.2,185 837.2,182.7 831.7,182.7 			"/>
			<polygon class="st3" points="831.7,202.4 811.6,202.4 811.6,205.5 811.8,205.5 811.8,206.9 814.5,206.9 814.5,204.8 816.1,204.8 
				816.1,206.3 818.6,206.5 820.1,206.2 820.1,202.5 827.4,202.5 827.4,208.7 832.1,208.7 853.8,208.7 853.8,201 854.7,201 
				854.7,192.6 849.6,195.5 840.6,197.9 837.2,185 837.2,182.7 831.7,182.7 			"/>
			<polygon class="st2" points="765.5,202.2 765.5,202.3 765.5,204.8 765.5,207.1 767.2,207.1 767.2,204.9 769.4,204.9 769.4,203.9 
				777.1,203.9 781.6,204.9 781.6,207.1 782.9,207.1 782.9,204.9 784.4,204.9 784.4,205.4 787.4,205 787.4,203 788.8,203 
				788.8,202.4 781.2,202.4 781.2,189.2 778.9,189.2 771.2,184.8 768.1,184.8 768.1,202.2 			"/>
			<polygon class="st3" points="765.5,202.2 765.5,202.3 765.5,204.8 765.5,207.1 767.2,207.1 767.2,204.9 769.4,204.9 769.4,203.9 
				777.1,203.9 781.6,204.9 781.6,207.1 782.9,207.1 782.9,204.9 784.4,204.9 784.4,205.4 787.4,205 787.4,203 788.8,203 
				788.8,202.4 781.2,202.4 781.2,189.2 778.9,189.2 771.2,184.8 768.1,184.8 768.1,202.2 			"/>
			<polygon class="st3" points="292.4,192.3 288.4,192.3 288.4,197.9 286.3,197.9 286.3,196.5 281.7,196.5 281.7,198.8 292.4,198.8 
							"/>
			<rect x="315.8" y="192.3" class="st3" width="27.1" height="7"/>
			<polygon class="st3" points="246.3,201.9 246.3,201.5 251.3,201.5 251.3,201.9 252.3,201.9 252.3,197.2 256.3,197.2 257.6,199.6 
				257.6,164.5 249.2,164.5 249.2,151.9 247.4,151.4 247.4,142.3 243.4,132.5 239.2,142.9 239.2,149.1 238.1,150.9 238.1,160.3 
				236,160.3 236,177.4 234.6,177.4 234.6,201.9 			"/>
			<polygon class="st2" points="251.3,203.1 252.3,203.3 252.3,201.9 251.3,201.9 			"/>
			<polygon class="st3" points="251.3,203.1 252.3,203.3 252.3,201.9 251.3,201.9 			"/>
			<polygon class="st2" points="214.9,208 227.7,208 227.7,201.7 233.2,201.7 237,205.4 246.3,205.4 246.3,201.9 234.6,201.9 
				234.6,177.4 214.9,177.4 			"/>
			<polygon class="st3" points="214.9,208 227.7,208 227.7,201.7 233.2,201.7 237,205.4 246.3,205.4 246.3,201.9 234.6,201.9 
				234.6,177.4 214.9,177.4 			"/>
			<polygon class="st2" points="258.1,200.3 258.1,207.1 270.3,207.1 270.3,205.5 283,205.5 283,208.2 291.9,208.2 291.9,207.6 
				299.8,207.6 299.8,205.3 304.8,205.3 304.8,204.5 313.1,204.5 313.1,205.7 316.2,205.7 316.2,204.1 322.4,204.1 322.4,208.2 
				327.4,208.2 327.4,204.8 332.4,204.8 332.4,203.5 342.9,203.5 342.9,199.3 315.8,199.3 315.8,192.3 293.9,192.3 292.4,192.3 
				292.4,198.8 281.7,198.8 281.7,200.5 274.1,200.5 271.4,195.9 259.8,164.5 257.6,164.5 257.6,199.6 			"/>
			<polygon class="st3" points="258.1,200.3 258.1,207.1 270.3,207.1 270.3,205.5 283,205.5 283,208.2 291.9,208.2 291.9,207.6 
				299.8,207.6 299.8,205.3 304.8,205.3 304.8,204.5 313.1,204.5 313.1,205.7 316.2,205.7 316.2,204.1 322.4,204.1 322.4,208.2 
				327.4,208.2 327.4,204.8 332.4,204.8 332.4,203.5 342.9,203.5 342.9,199.3 315.8,199.3 315.8,192.3 293.9,192.3 292.4,192.3 
				292.4,198.8 281.7,198.8 281.7,200.5 274.1,200.5 271.4,195.9 259.8,164.5 257.6,164.5 257.6,199.6 			"/>
			<polygon class="st3" points="14.3,206.1 23,206.1 25.7,204.6 25.7,203.6 24.5,203.6 24.5,198.9 21.4,198.9 21.4,193.4 
				19.4,193.4 19.4,199 17.4,199 17.4,195.2 13.7,195.2 13.7,198.4 6.8,198.4 6.8,204 6.2,207.3 13.1,207.3 			"/>
			<polygon class="st2" points="27.4,203.6 25.7,203.6 25.7,204.6 			"/>
			<polygon class="st3" points="27.4,203.6 25.7,203.6 25.7,204.6 			"/>
			<polygon class="st2" points="721.4,202.2 716.1,202.2 716.1,202.8 716.2,202.8 716.2,202.8 719.7,202.8 719.7,203.9 724,203.9 
				724,196.8 721.4,196.8 			"/>
			<polygon class="st3" points="721.4,202.2 716.1,202.2 716.1,202.8 716.2,202.8 716.2,202.8 719.7,202.8 719.7,203.9 724,203.9 
				724,196.8 721.4,196.8 			"/>
			<polygon class="st3" points="583,195.7 583,197.8 597.9,197.8 597.9,195.6 599.8,195.6 599.8,197.8 609.1,197.8 609.1,140.8 
				605.6,140.8 605.6,133.9 597.7,133.9 597.7,141.8 593.5,141.8 593.5,157.5 587.9,159 586.7,163.2 582.3,163.2 582.3,195.7 			"/>
			<path class="st2" d="M599.8,200.1l3,0.7v-1.1h1.5v4.8h2.5c0.4-0.6,0.7-1.1,1.1-1.6l0,0c0.4-0.6,0.7-1.1,1.1-1.6v-3.4h-9.2
				L599.8,200.1L599.8,200.1z"/>
			<path class="st3" d="M599.8,200.1l3,0.7v-1.1h1.5v4.8h2.5c0.4-0.6,0.7-1.1,1.1-1.6l0,0c0.4-0.6,0.7-1.1,1.1-1.6v-3.4h-9.2
				L599.8,200.1L599.8,200.1z"/>
			<polygon class="st2" points="583,198.6 582.2,199.5 582.2,202 587.5,202 588.1,204.7 590.4,204.7 593.1,204.7 593.1,201.9 
				597,201.9 597.9,201.7 597.9,197.8 583,197.8 			"/>
			<polygon class="st3" points="583,198.6 582.2,199.5 582.2,202 587.5,202 588.1,204.7 590.4,204.7 593.1,204.7 593.1,201.9 
				597,201.9 597.9,201.7 597.9,197.8 583,197.8 			"/>
			<rect x="578.7" y="163.2" class="st2" width="3.6" height="32.5"/>
			<rect x="578.7" y="163.2" class="st3" width="3.6" height="32.5"/>
			<polygon class="st3" points="473.8,202.2 474.8,197.8 477.1,197.8 477.7,200.6 482.5,202.1 483.7,201.4 486.3,201.4 486.3,204.7 
				486.4,204.8 491.3,204.8 491.3,201.7 491.1,201.7 491.1,179.1 487.8,167.1 477.5,173.1 477.5,181.2 474.5,181.2 473.4,181.8 
				473.4,202.2 			"/>
			<polygon class="st3" points="436.7,193 436.7,199.3 443.2,199.3 443.2,191.8 438.4,191.8 438.4,189.3 435.1,189.3 435.1,193 			
				"/>
			<polygon class="st2" points="490.4,209.6 491.3,209.6 491.3,204.8 486.4,204.8 			"/>
			<polygon class="st3" points="490.4,209.6 491.3,209.6 491.3,204.8 486.4,204.8 			"/>
			<polygon class="st2" points="436.7,199.3 436.7,204.8 442.9,204.8 442.9,205.4 444.7,205.4 449.3,202.2 473.4,202.2 473.4,181.8 
				447.9,196.5 446.7,191.8 443.2,191.8 443.2,199.3 			"/>
			<polygon class="st3" points="436.7,199.3 436.7,204.8 442.9,204.8 442.9,205.4 444.7,205.4 449.3,202.2 473.4,202.2 473.4,181.8 
				447.9,196.5 446.7,191.8 443.2,191.8 443.2,199.3 			"/>
			<polygon class="st3" points="500.2,204.8 500.2,201.7 499,201.7 496.9,201.7 497,203.1 497,204.8 			"/>
			<polygon class="st2" points="497,206.1 500.2,206.1 500.2,204.8 497,204.8 			"/>
			<polygon class="st3" points="497,206.1 500.2,206.1 500.2,204.8 497,204.8 			"/>
			<path class="st4" d="M895.1,209.6l-1.1-1.7h-5.7H887v-2.4l-1-0.2l0,0l-1.9-0.4v-3.2l-3.6,0.4v3.3v1.6l-2.8-0.3v-1.3v-0.8h-0.9
				h-4.3v2.7h-6.1h-0.5l0.9-1.4h-0.7h-5h-3.8v-0.8V201h-2.6h-0.9v7.8H832h-4.8v-6.3H820v3.8l-1.5,0.4l-2.5-0.3v-1.5h-1.5v2.1h-2.8
				v-1.3h-0.2v-3.2v-4.2h-3.2v-7.9h-2.8v-8.6H802v8.6h-2.2v3.2h-1.2v8.8v3h-1.7v-3v-4.2h-2.8v-3.4h-1.9v-7.6h-0.8v7.6H790v5h-1.2
				v2.5v0.6h-1.4v2.1l-3,0.3v-0.5h-1.5v2.2h-1.2v-2.2l-4.5-1h-7.7v1.1h-2.3v2.1h-1.6v-2.3v-2.5v-0.1v-2.6h-0.7v-0.7h-2.2v3.3v1.2
				h-1.2v-0.5h-1.6v1.1h-3.6v-0.5h-2.3l-0.3,0.5h-1.7v-0.8v-1.2v-0.4h-1.8v0.4v1.1h-2v-1l-2.3,1h-2.3v-0.7l-3.7,0.9v1.6h-4.2v-2.9
				v-1.9h-2.5v-8.5h-1.9H731v-4.6h-0.7v-1h-2.7h-2.4v9.1h-1.1v1.6v7h-4.3v-1.1h-3.4l0,0h-0.2v-0.6v-2.1l-2,0.2v0.8h-2.2l-0.4,0.7
				h-1.6v0.4v0.6h-6.1v1.4h-4.2v1.6h-4.2v-2.3h-1.2l-0.4-1.9h-7.5v-3.3h-3v2.7c-0.4-0.3-0.8-0.7-1.3-1.1c-0.1-0.1-0.3-0.3-0.5-0.4
				c-0.3-0.3-0.6-0.6-0.9-0.8c-0.3-0.3-0.6-0.5-0.8-0.8l0,0l0,0c-0.8-0.8-1.6-1.7-2.4-2.7V193h-1.6l-0.4-1.5h-0.7
				c-3.9-5.8-6.9-13.2-8.6-23.3l-1.4-0.4v-2v-5.4l-1.1-4.2h-7.3v-3.8l5-0.1l-0.9-1.5l0.7-1.7l-2.8,0.5l-2.3-0.5v7.3h-1.7v2.8H652
				v1.8l-1.1,0.3v1.9h-2v2.7c-13.5,7.4-26.2,17-37.4,32l0,0c-0.8,1.1-1.6,2.3-2.4,3.4c-0.4,0.5-0.7,1.1-1.1,1.6
				c-0.4,0.6-0.7,1.1-1.1,1.6h-2.5v-4.8h-1.5v1.1l-3-0.7v-2.2v-2.2h-1.9v2.2v3.9L597,202h-3.9v2.8h-2.8H588l-0.6-2.7h-5.3v-2.5
				l0.8-1v-0.8v-2.1h-0.7h-3.6l0,0v2.9v0l0.6,1.2v1.8h-1.2v-0.5h-2.6v0.5h-1.7v-2v-10.7h-2v-3.6h-2.7v3H565v6.1h-2.3v-1.3H559v6.5
				v1.1h-1.2v4.9h-3.2v-4.1h-4.1v5.1l-4,1.3h-3.6v-8.3v-1.2v-11.9h-5.3v-3.1l-1.9-1.1v-16.8h2.1v-1.7l-3.5-0.9v-9.9V132h1.4v-3.2
				h-1.8L533.4,90l0.8-0.8v-3.3l-2.1-0.6v-8.2l1-0.3v-2.5l-1.3-0.3l0-5.2l-2.1-7.3l0.9-3.3l-0.5-12.8l0.9-1.6l-1.6-4.8V26.9
				l-0.7-1.8v-2.3V0.7h-1.4L527,36l-1.9,4.2v10.5l-1.4,2.4l-0.5,2h1.2l-1.4,14v3h0.5v43.5l-4.4,1.2v2.6l0.8,0.2v31.4l-1.7,0.5v33.9
				v0.9l-2.5,2.5v12.9v0.4h-1l1,0.3v2.2h-1.1v-2.9v-3h-5.2v3v1.5l-2.8,0.7v-2.2v-8.4l-3.6-0.8v7l-0.2,0.1l0,0l-2.7,1.4v0.8v3.1v1.3
				h-3.2v-1.3l0-1.7l0-2.3l-1.9-2.3v3.2v3.1v1.3h-1.7v0v-1.4v-2.2l-1.9-2.3v1.3v3.1v4.7h-0.9l-4-4.7l-0.1-0.2v-3.3h-2.6l-1.1,0.8
				l-4.8-1.5l-0.7-2.8h-2.3l-1,4.4h-0.4h-24.1l-4.6,3.2h-1.9v-0.6h-6.1v-5.5v-6.3h-1.6v-3.8V187h-4v-4.1h-3.6v4.1h-2.4v2.8h-1.5v2.4
				v7v6l-3.6-0.7H411v1.1h-2.7v2.7l-2.7-0.1v-1.4h-3.3v-0.8h-3.3l-0.8,0.1h-5.2v1.3l-5.2,0v-0.9h-1.5c0.1-0.6,0.3-1.2,0.4-1.8
				c0.1-0.6,0.2-1.1,0.4-1.6c0,0,0-0.1,0-0.1c0.3-1.2,0.5-2.4,0.8-3.7l0,0c0,0,0-0.1,0-0.1c0.1-0.4,0.1-0.9,0.2-1.3
				c0-0.2,0-0.4,0.1-0.5c0-0.4,0.1-0.8,0.2-1.3c0-0.2,0-0.4,0.1-0.7c0-0.4,0.1-0.8,0.2-1.2c0-0.2,0-0.5,0.1-0.8
				c0-0.4,0.1-0.8,0.1-1.1c2-17.4-0.5-37.7-13.8-64.6l-0.5-1.9l1.2-1.2l2.9-2.9l3-0.8l0.8-0.8h-11.4c-6.3-10-12.3-19.9-23.9-31.1
				V65.5l-2,3.5v17.9l-0.8,0.8V121h-1.9v3.4l-6,1.6v1.4l6.4,1.7v63.3v7v4.2h-10.5v1.4h-5v3.3h-5.1v-4h-6.2v1.5h-3.1v-1.2h-8.3v0.8
				h-5v2.3h-7.9v0.6H283v-2.7h-12.7v1.6h-12.2v-6.8l-0.4-0.7l0,0l-1.4-2.4h-3.9v4.7v1.4l-1-0.3V202v-0.5h-5v0.5v3.4H237l-3.7-3.7
				h-5.5v6.4h-12.9v-30.7v-4.3v-17.7H213v-10h-1.9v-5.3h-1.7v-7.7h-2.2V123l-1.5-0.5v-9.2l-1.7-0.6v11.3c-3.7,2.3-7.5,4.5-9,13.9
				v19.7h-1.9v17.2v2.9v25.3h-5.9v-13.4l1-1v-2.9h-5.2v2.9l0.7,1.2v12.8h-8.5v4.1h-13.8h-7.3v-4.1h-4.9v5.1l-3.8,1v-9.2h-2.3h-1.8
				v3.9v1.1h-5v5.3h-1.7v-6.4v-6.9H127h-1.7h-0.9v6.4h-2.7h-0.1H120v-5.7h-4.8v-8.8h-4.8V180h-2.8v8.3h-2.9v10.8h-2h-1.6v3.1h-2.3
				v0.6h-2.5v6.8h-11l-0.1-8.1l-2.3-2.3v10.4h-2.1v-6.2l-2.3-2.3v8.5h-1.8l-4.2-4.2v-0.6V202h-3.1l-1.3,0.8l-5.8-1.5l-0.8-2.8h-2.7
				l-1.2,4.4h-0.5H28.5l-2.9,1.6l0,0L23,206h-8.7l-1.2,1.2H6.2H1.9v2.3h-2.4v141.7H900V209.6H895.1z M349.5,121.1V95.5
				c8.3,7.6,13.7,16.5,18.8,25.6H349.5z"/>
			<path class="st2" d="M25.7,204.6l2.9-1.6L25.7,204.6z"/>
			<path class="st4" d="M25.7,204.6l2.9-1.6L25.7,204.6z"/>
			<path class="st2" d="M609.1,201.2c0.8-1.2,1.6-2.3,2.4-3.4l0,0C610.7,198.9,609.9,200,609.1,201.2L609.1,201.2z"/>
			<path class="st4" d="M609.1,201.2c0.8-1.2,1.6-2.3,2.4-3.4l0,0C610.7,198.9,609.9,200,609.1,201.2L609.1,201.2z"/>
			<path class="st2" d="M257.6,199.6l0.4,0.7L257.6,199.6z"/>
			<path class="st4" d="M257.6,199.6l0.4,0.7L257.6,199.6z"/>
			<path class="st2" d="M386.9,203.6c0-0.2,0.1-0.3,0.1-0.5c-0.1,0.6-0.2,1.1-0.4,1.6l0,0C386.7,204.4,386.8,204,386.9,203.6z"/>
			<path class="st4" d="M386.9,203.6c0-0.2,0.1-0.3,0.1-0.5c-0.1,0.6-0.2,1.1-0.4,1.6l0,0C386.7,204.4,386.8,204,386.9,203.6z"/>
			<path class="st2" d="M387.3,201.5c0-0.1,0-0.3,0.1-0.4c0.1-0.5,0.2-1,0.3-1.5c0-0.1,0-0.2,0-0.3l0,0c-0.2,1.2-0.5,2.4-0.8,3.7v0
				C387.1,202.5,387.2,202,387.3,201.5z"/>
			<path class="st4" d="M387.3,201.5c0-0.1,0-0.3,0.1-0.4c0.1-0.5,0.2-1,0.3-1.5c0-0.1,0-0.2,0-0.3l0,0c-0.2,1.2-0.5,2.4-0.8,3.7v0
				C387.1,202.5,387.2,202,387.3,201.5z"/>
			<path class="st2" d="M679.8,197.8L679.8,197.8L679.8,197.8z"/>
			<path class="st4" d="M679.8,197.8L679.8,197.8L679.8,197.8z"/>
			<path class="st2" d="M681.6,199.4c-0.3-0.3-0.6-0.6-0.9-0.8C681,198.9,681.3,199.2,681.6,199.4z"/>
			<path class="st4" d="M681.6,199.4c-0.3-0.3-0.6-0.6-0.9-0.8C681,198.9,681.3,199.2,681.6,199.4z"/>
			<path class="st2" d="M683.3,201c-0.4-0.3-0.8-0.7-1.3-1.1C682.5,200.2,682.9,200.6,683.3,201z"/>
			<path class="st4" d="M683.3,201c-0.4-0.3-0.8-0.7-1.3-1.1C682.5,200.2,682.9,200.6,683.3,201z"/>
			<path class="st2" d="M578.7,198.6L578.7,198.6L578.7,198.6z"/>
			<path class="st4" d="M578.7,198.6L578.7,198.6L578.7,198.6z"/>
			<polygon class="st2" points="503.1,199.4 502.9,199.5 502.9,199.5 			"/>
			<polygon class="st4" points="503.1,199.4 502.9,199.5 502.9,199.5 			"/>
			<path class="st3" d="M388.1,197.3c0-0.4,0.1-0.8,0.2-1.3C388.2,196.4,388.1,196.9,388.1,197.3z"/>
			<path class="st4" d="M388.1,197.3c0-0.4,0.1-0.8,0.2-1.3C388.2,196.4,388.1,196.9,388.1,197.3z"/>
			<path class="st3" d="M387.7,199.2c0.1-0.4,0.1-0.9,0.2-1.3C387.9,198.3,387.8,198.7,387.7,199.2z"/>
			<path class="st4" d="M387.7,199.2c0.1-0.4,0.1-0.9,0.2-1.3C387.9,198.3,387.8,198.7,387.7,199.2z"/>
			<path class="st3" d="M388.8,192.3c0,0.4-0.1,0.8-0.1,1.1C388.7,193,388.7,192.6,388.8,192.3z"/>
			<path class="st4" d="M388.8,192.3c0,0.4-0.1,0.8-0.1,1.1C388.7,193,388.7,192.6,388.8,192.3z"/>
			<path class="st3" d="M388.4,195.4c0-0.4,0.1-0.8,0.2-1.2C388.5,194.6,388.4,195,388.4,195.4z"/>
			<path class="st4" d="M388.4,195.4c0-0.4,0.1-0.8,0.2-1.2C388.5,194.6,388.4,195,388.4,195.4z"/>
			<path class="st2" d="M387.3,201.5c-0.1,0.5-0.2,0.9-0.3,1.4C387.1,202.5,387.2,202,387.3,201.5z"/>
			<path class="st3" d="M387.3,201.5c-0.1,0.5-0.2,0.9-0.3,1.4C387.1,202.5,387.2,202,387.3,201.5z"/>
			<path class="st4" d="M387.3,201.5c-0.1,0.5-0.2,0.9-0.3,1.4C387.1,202.5,387.2,202,387.3,201.5z"/>
			<path class="st2" d="M386.9,203.6c-0.1,0.4-0.2,0.8-0.2,1.1C386.7,204.4,386.8,204,386.9,203.6z"/>
			<path class="st3" d="M386.9,203.6c-0.1,0.4-0.2,0.8-0.2,1.1C386.7,204.4,386.8,204,386.9,203.6z"/>
			<path class="st4" d="M386.9,203.6c-0.1,0.4-0.2,0.8-0.2,1.1C386.7,204.4,386.8,204,386.9,203.6z"/>
			<path class="st2" d="M387.7,199.5c-0.1,0.5-0.2,1-0.3,1.5C387.5,200.6,387.6,200.1,387.7,199.5z"/>
			<path class="st3" d="M387.7,199.5c-0.1,0.5-0.2,1-0.3,1.5C387.5,200.6,387.6,200.1,387.7,199.5z"/>
			<path class="st4" d="M387.7,199.5c-0.1,0.5-0.2,1-0.3,1.5C387.5,200.6,387.6,200.1,387.7,199.5z"/>
			<polygon class="st3" points="887,205.4 886,205.2 886,205.2 			"/>
			<polygon class="st4" points="887,205.4 886,205.2 886,205.2 			"/>
			<polygon class="st2" points="579.3,199.8 578.7,198.6 578.7,198.6 			"/>
			<polygon class="st3" points="579.3,199.8 578.7,198.6 578.7,198.6 			"/>
			<polygon class="st4" points="579.3,199.8 578.7,198.6 578.7,198.6 			"/>
			<path class="st2" d="M608,202.8c0.4-0.6,0.7-1.1,1.1-1.6l0,0C608.7,201.7,608.3,202.3,608,202.8z"/>
			<path class="st3" d="M608,202.8c0.4-0.6,0.7-1.1,1.1-1.6l0,0C608.7,201.7,608.3,202.3,608,202.8z"/>
			<path class="st4" d="M608,202.8c0.4-0.6,0.7-1.1,1.1-1.6l0,0C608.7,201.7,608.3,202.3,608,202.8z"/>
			<polygon class="st3" points="486.3,204.7 486.4,204.8 486.4,204.8 			"/>
			<polygon class="st4" points="486.3,204.7 486.4,204.8 486.4,204.8 			"/>
			<path class="st2" d="M486.4,204.8l4,4.7L486.4,204.8z"/>
			<path class="st3" d="M486.4,204.8l4,4.7L486.4,204.8z"/>
			<path class="st4" d="M486.4,204.8l4,4.7L486.4,204.8z"/>
			<path class="st3" d="M497,204.8l0-1.7L497,204.8z"/>
			<path class="st4" d="M497,204.8l0-1.7L497,204.8z"/>
			<path class="st2" d="M497,204.8v1.3V204.8z"/>
			<path class="st3" d="M497,204.8v1.3V204.8z"/>
			<path class="st4" d="M497,204.8v1.3V204.8z"/>
		</g>
	</g>
</g>
</svg>
