<?xml version="1.0" encoding="utf-8"?>
<!-- Generator: Adobe Illustrator 25.3.1, SVG Export Plug-In . SVG Version: 6.00 Build 0)  -->
<svg version="1.1" id="Calque_1" xmlns="http://www.w3.org/2000/svg" xmlns:xlink="http://www.w3.org/1999/xlink" x="0px" y="0px"
	 viewBox="0 0 14.4 30.6" style="enable-background:new 0 0 14.4 30.6;" xml:space="preserve">
<g id="objects_1_">
	<g>
		<g>
			<g>
				<g>
					<path d="M3.1,30.6l6.1,0c0,0,0-8.4,0-15.3h4.6l0.6-6.1H9.5V6.8c0-1.2,0.8-1.5,1.4-1.5c0.6,0,3.4,0,3.4,0V0L9.5,0
						C4.3,0,3.1,3.9,3.1,6.4v2.8H0l0,6.1h3.1C3.1,22.2,3.1,30.6,3.1,30.6z"/>
				</g>
			</g>
		</g>
	</g>
</g>
</svg>
