<?xml version="1.0" encoding="utf-8"?>
<!-- Generator: Adobe Illustrator 25.2.3, SVG Export Plug-In . SVG Version: 6.00 Build 0)  -->
<svg version="1.1" id="Layer_1" xmlns="http://www.w3.org/2000/svg" xmlns:xlink="http://www.w3.org/1999/xlink" x="0px" y="0px"
	 viewBox="0 0 20 12" style="enable-background:new 0 0 20 12;" xml:space="preserve">
<style type="text/css">
	.st0{fill:#E20613;}
</style>
<path class="st0" d="M13.8,3.6C13.1,3.3,12.6,3,12,2.5C9.3,0,6.7,0.2,6.7,0.2C3.3,0.1,0.5,2.8,0.5,6s2.8,5.8,6.2,5.8
	c2,0,3.9-0.8,5-2.1c0.5-0.6,1.1-1.1,1.8-1.4c1.2-0.6,3.2-1.5,5.7-2.2c0.4-0.1,0.4-0.6,0-0.7C16.8,4.9,14.9,4.1,13.8,3.6z"/>
</svg>
