<?xml version="1.0" encoding="utf-8"?>
<!-- Generator: Adobe Illustrator 23.0.6, SVG Export Plug-In . SVG Version: 6.00 Build 0)  -->
<svg version="1.1" xmlns="http://www.w3.org/2000/svg" xmlns:xlink="http://www.w3.org/1999/xlink" x="0px" y="0px"
	 viewBox="0 0 151 139.6" style="enable-background:new 0 0 151 139.6;" xml:space="preserve">
<g id="background">
</g>
<g id="objects">
	<g>
		<g>
			<g>
				<g>
					<path d="M124.4,33.7c-3.9,2.3-8.2,3.9-12.7,4.8c-3.6-3.8-8.8-6.2-14.6-6.2c-11,0-20,8.8-20,19.7c0,1.5,0.2,3,0.5,4.5
						C61,55.6,46.2,47.8,36.4,35.9c-1.7,2.9-2.7,6.3-2.7,9.9c0,6.8,3.5,12.9,8.9,16.4c-3.3-0.1-6.4-1-9.1-2.5c0,0.1,0,0.2,0,0.2
						c0,9.5,6.9,17.5,16,19.3c-1.7,0.5-3.4,0.7-5.3,0.7c-1.3,0-2.5-0.1-3.8-0.4c2.6,7.8,9.9,13.5,18.7,13.7
						c-6.8,5.3-15.5,8.4-24.8,8.4c-1.6,0-3.2-0.1-4.8-0.3c8.9,5.6,19.4,8.8,30.7,8.8c36.8,0,56.9-30,56.9-56c0-0.9,0-1.7-0.1-2.5
						c3.9-2.8,7.3-6.2,10-10.2c-3.6,1.6-7.4,2.6-11.5,3.1C119.7,42.2,122.9,38.3,124.4,33.7z"/>
				</g>
			</g>
		</g>
	</g>
</g>
<g id="designed_by_freepik">
</g>
</svg>
