<?xml version="1.0" encoding="utf-8"?>
<!-- Generator: Adobe Illustrator 25.2.3, SVG Export Plug-In . SVG Version: 6.00 Build 0)  -->
<svg version="1.1" id="Calque_1" xmlns="http://www.w3.org/2000/svg" xmlns:xlink="http://www.w3.org/1999/xlink" x="0px" y="0px"
	 viewBox="0 0 105 111.4" style="enable-background:new 0 0 105 111.4;" xml:space="preserve">
<style type="text/css">
	.st0{fill:#009FE3;}
</style>
<g>
	<g>
		<g>
			<g>
				<g>
					<path class="st0" d="M52.5,68.1c-15.8,0-29.4-11.8-31.6-27.3c-0.1-0.5,0.3-1.1,0.9-1.1c0.5-0.1,1.1,0.3,1.1,0.9
						c2,14.6,14.8,25.6,29.6,25.6c10.5,0,20.4-5.6,25.7-14.6c0.3-0.5,0.9-0.6,1.4-0.3c0.5,0.3,0.6,0.9,0.3,1.4
						C74.2,62.2,63.7,68.1,52.5,68.1z"/>
				</g>
			</g>
			<g>
				<g>
					<g>
						<path class="st0" d="M83.1,40.6c0,6.1,0.9,13.9,2.9,19.3l-7.7-6.6l-10.1-0.1C73.3,50.6,79.1,45.2,83.1,40.6z"/>
					</g>
				</g>
			</g>
		</g>
		<g>
			<g>
				<g>
					<path class="st0" d="M83.1,33.1c-0.5,0-0.9-0.4-1-0.9c-2-14.6-14.8-25.6-29.6-25.6c-10.5,0-20.4,5.6-25.7,14.6
						c-0.3,0.5-0.9,0.6-1.4,0.3c-0.5-0.3-0.6-0.9-0.3-1.4c5.7-9.6,16.2-15.6,27.5-15.6c15.8,0,29.4,11.8,31.6,27.3
						c0.1,0.5-0.3,1.1-0.9,1.1C83.2,33.1,83.1,33.1,83.1,33.1z"/>
				</g>
			</g>
			<g>
				<g>
					<g>
						<path class="st0" d="M21.9,32.2c0-6.1-0.9-13.9-2.9-19.3l7.7,6.6l10.1,0.1C31.7,22.2,25.9,27.6,21.9,32.2z"/>
					</g>
				</g>
			</g>
		</g>
		<g>
			<g>
				<path class="st0" d="M52.4,54.9c-10.3,0-18.7-8.3-18.7-18.6c0-10.3,8.4-18.6,18.7-18.6S71.1,26,71.1,36.3
					C71.1,46.5,62.7,54.9,52.4,54.9z M52.4,19.7c-9.2,0-16.7,7.5-16.7,16.6s7.5,16.6,16.7,16.6s16.7-7.5,16.7-16.6
					S61.6,19.7,52.4,19.7z"/>
			</g>
		</g>
		<g>
			<g>
				<g>
					<path class="st0" d="M51.9,43.9c-1.8-0.2-3.4-0.8-4.8-1.9c-0.4-0.3-0.5-0.8-0.2-1.2l0,0c0.3-0.4,0.8-0.5,1.2-0.2
						c1.2,0.9,2.4,1.5,3.8,1.6v-5.8c-3.5-0.8-5-2.1-5-4.5v0c0-2.4,2-4.1,4.9-4.3v-0.6c0-0.4,0.3-0.7,0.7-0.7l0,0
						c0.4,0,0.7,0.3,0.7,0.7v0.7c1.4,0.1,2.6,0.6,3.7,1.3c0.4,0.3,0.5,0.8,0.2,1.2l0,0c-0.3,0.4-0.8,0.5-1.2,0.2
						c-0.9-0.6-1.9-1-2.9-1.2V35c3.6,0.8,5,2.2,5,4.5v0c0,2.5-2,4.2-5,4.4v1.5c0,0.4-0.3,0.7-0.7,0.7l0,0c-0.4,0-0.7-0.3-0.7-0.7
						V43.9z M51.9,29.2c-2,0.1-3.2,1.2-3.2,2.6v0c0,1.3,0.6,2.2,3.2,2.8V29.2z M56.5,39.7L56.5,39.7c0-1.4-0.7-2.2-3.2-2.9v5.6
						C55.3,42.3,56.5,41.2,56.5,39.7z"/>
				</g>
			</g>
		</g>
	</g>
	<g>
		<path class="st0" d="M96.3,106.7H57.1c-3.2,0-6.3-1.3-8.6-3.6l-42-42C4.4,59,3.2,56.1,3.2,53V12.4c0-2.4,1.9-4.3,4.3-4.3h9.3
			c0.6,0,1,0.4,1,1s-0.4,1-1,1H7.5c-1.3,0-2.3,1-2.3,2.3V53c0,2.6,1,5,2.8,6.8l42,42c1.9,1.9,4.5,3,7.2,3h39.2
			c1.9,0,3.5-1.6,3.5-3.5V62.1c0-2.8-1.1-5.4-3-7.3l-9.4-9.4c-0.4-0.4-0.4-1,0-1.4s1-0.4,1.4,0l9.4,9.4c2.3,2.3,3.6,5.4,3.6,8.7
			v39.1C101.8,104.3,99.4,106.7,96.3,106.7z"/>
	</g>
</g>
</svg>
