<?xml version="1.0" encoding="utf-8"?>
<!-- Generator: Adobe Illustrator 25.2.3, SVG Export Plug-In . SVG Version: 6.00 Build 0)  -->
<svg version="1.1" id="Calque_1" xmlns="http://www.w3.org/2000/svg" xmlns:xlink="http://www.w3.org/1999/xlink" x="0px" y="0px"
	 viewBox="0 0 130 54.2" style="enable-background:new 0 0 130 54.2;" xml:space="preserve">
<style type="text/css">
	.st0{fill:#FF6D2E;}
	.st1{fill:#1D1D1B;}
</style>
<g>
	<polygon class="st0" points="103.6,22.3 100.7,22.3 100.7,2.9 81.5,2.9 81.5,0 103.6,0 103.6,22.3 	"/>
	<polygon class="st0" points="22.2,50.4 0,50.4 0,28.1 2.9,28.1 2.9,47.5 22.2,47.5 22.2,50.4 	"/>
	<path class="st0" d="M128.3,53.8c0.7-0.3,1.2-0.6,1.7-1v-3.9h-4v1h2.9v2.4c-0.3,0.3-0.7,0.5-1.2,0.7c-0.5,0.2-1,0.3-1.6,0.3
		c-0.6,0-1.1-0.1-1.6-0.3c-0.5-0.2-0.9-0.5-1.2-0.8c-0.3-0.4-0.6-0.8-0.8-1.3c-0.2-0.5-0.3-1-0.3-1.6v0c0-0.5,0.1-1,0.3-1.5
		c0.2-0.5,0.4-0.9,0.8-1.3c0.3-0.4,0.7-0.6,1.2-0.9c0.5-0.2,0.9-0.3,1.5-0.3c0.3,0,0.7,0,0.9,0.1c0.3,0.1,0.5,0.1,0.8,0.2
		c0.2,0.1,0.5,0.2,0.7,0.3c0.2,0.1,0.4,0.3,0.6,0.4l0.7-0.8c-0.2-0.2-0.5-0.4-0.7-0.5c-0.3-0.2-0.5-0.3-0.8-0.4
		c-0.3-0.1-0.6-0.2-0.9-0.2c-0.3-0.1-0.7-0.1-1.1-0.1c-0.7,0-1.4,0.1-2,0.4c-0.6,0.3-1.1,0.6-1.5,1.1c-0.4,0.5-0.8,1-1,1.6
		c-0.2,0.6-0.4,1.2-0.4,1.9v0c0,0.7,0.1,1.3,0.3,1.9c0.2,0.6,0.6,1.1,1,1.6c0.4,0.5,0.9,0.8,1.5,1.1c0.6,0.3,1.3,0.4,2.1,0.4
		C126.9,54.2,127.6,54.1,128.3,53.8 M111.6,54h1.1v-3.8h2.7h0l2.8,3.8h1.3l-3-3.9c0.4-0.1,0.7-0.2,1-0.3c0.3-0.2,0.6-0.3,0.8-0.6
		c0.2-0.2,0.4-0.5,0.5-0.8c0.1-0.3,0.2-0.7,0.2-1.1v0c0-0.4-0.1-0.7-0.2-1.1c-0.1-0.3-0.3-0.6-0.6-0.8c-0.3-0.3-0.7-0.5-1.2-0.7
		c-0.5-0.2-1-0.3-1.6-0.3h-4.2V54L111.6,54z M112.7,49.3v-3.9h3c0.8,0,1.4,0.2,1.8,0.5c0.4,0.3,0.7,0.8,0.7,1.4v0
		c0,0.3-0.1,0.6-0.2,0.8c-0.1,0.2-0.3,0.5-0.5,0.6c-0.2,0.2-0.5,0.3-0.8,0.4c-0.3,0.1-0.6,0.1-1,0.1H112.7L112.7,49.3z M106.6,53.9
		c0.5-0.2,0.9-0.4,1.3-0.8c0.4-0.4,0.6-0.8,0.8-1.3c0.2-0.5,0.3-1.2,0.3-1.9v-5.5h-1.1V50c0,1.1-0.3,1.9-0.8,2.4
		c-0.5,0.5-1.2,0.8-2.1,0.8c-0.9,0-1.7-0.3-2.2-0.8c-0.5-0.6-0.8-1.4-0.8-2.4v-5.6H101V50c0,0.7,0.1,1.3,0.3,1.8
		c0.2,0.5,0.5,1,0.8,1.3c0.4,0.4,0.8,0.6,1.3,0.8c0.5,0.2,1,0.3,1.6,0.3C105.6,54.2,106.1,54.1,106.6,53.9 M95.9,53.8
		c0.6-0.3,1.1-0.6,1.6-1.1c0.4-0.5,0.8-1,1-1.6c0.2-0.6,0.4-1.2,0.4-1.9c0,0,0,0,0,0c0-0.7-0.1-1.3-0.4-1.9c-0.2-0.6-0.6-1.1-1-1.6
		c-0.4-0.5-1-0.8-1.6-1.1c-0.6-0.3-1.3-0.4-2-0.4c-0.7,0-1.4,0.1-2,0.4c-0.6,0.3-1.1,0.6-1.6,1.1c-0.4,0.5-0.8,1-1,1.6
		c-0.2,0.6-0.4,1.2-0.4,1.9v0c0,0.7,0.1,1.3,0.4,1.9c0.2,0.6,0.6,1.1,1,1.6c0.4,0.5,1,0.8,1.6,1.1c0.6,0.3,1.3,0.4,2,0.4
		C94.6,54.2,95.3,54.1,95.9,53.8 M92.4,52.9c-0.5-0.2-0.9-0.5-1.2-0.9c-0.3-0.4-0.6-0.8-0.8-1.3c-0.2-0.5-0.3-1-0.3-1.6v0
		c0-0.6,0.1-1.1,0.3-1.5c0.2-0.5,0.4-0.9,0.8-1.3c0.3-0.4,0.7-0.6,1.2-0.8c0.5-0.2,1-0.3,1.5-0.3c0.6,0,1.1,0.1,1.5,0.3
		c0.5,0.2,0.9,0.5,1.2,0.9c0.3,0.4,0.6,0.8,0.8,1.3c0.2,0.5,0.3,1,0.3,1.6v0c0,0.6-0.1,1.1-0.3,1.5c-0.2,0.5-0.4,0.9-0.8,1.3
		c-0.3,0.4-0.7,0.6-1.2,0.8c-0.5,0.2-1,0.3-1.5,0.3C93.3,53.2,92.8,53.1,92.4,52.9 M79.4,54h4.3c0.5,0,1-0.1,1.4-0.2
		c0.4-0.1,0.8-0.3,1.1-0.5c0.3-0.2,0.5-0.5,0.7-0.8c0.2-0.3,0.2-0.7,0.2-1.1v0c0-0.3-0.1-0.6-0.2-0.9c-0.1-0.3-0.3-0.5-0.4-0.7
		c-0.2-0.2-0.4-0.3-0.7-0.5c-0.3-0.1-0.5-0.2-0.8-0.3c0.2-0.1,0.4-0.2,0.6-0.3c0.2-0.1,0.3-0.3,0.5-0.5c0.1-0.2,0.3-0.4,0.4-0.6
		c0.1-0.2,0.1-0.5,0.1-0.8v0c0-0.6-0.2-1.1-0.6-1.5c-0.3-0.3-0.6-0.5-1.1-0.6c-0.4-0.2-0.9-0.2-1.5-0.2h-4.1V54L79.4,54z M80.5,48.7
		v-3.3h2.9c0.7,0,1.2,0.1,1.6,0.4c0.4,0.3,0.6,0.7,0.6,1.1v0c0,0.6-0.2,1-0.6,1.3c-0.4,0.3-0.9,0.4-1.6,0.4H80.5L80.5,48.7z
		 M80.5,53.1v-3.4h3c0.8,0,1.5,0.1,1.9,0.4c0.4,0.3,0.6,0.7,0.6,1.2v0c0,0.5-0.2,1-0.6,1.3c-0.4,0.3-1,0.5-1.7,0.5H80.5L80.5,53.1z
		 M67.4,54h1.1v-7.8l3.5,5.2h0.1l3.5-5.2V54h1.1v-9.7h-1.1L72,49.7l-3.5-5.3h-1.1V54L67.4,54z M58.2,54h7.1v-1h-6v-3.4h5.3v-1h-5.3
		v-3.3h5.9v-1h-7V54L58.2,54z M47.4,54h1.3l3.1-4.2l3.1,4.2h1.3l-3.7-4.9l3.6-4.7h-1.3l-2.9,3.9l-3-3.9h-1.3l3.6,4.7L47.4,54
		L47.4,54z M43.2,53.9c0.5-0.2,0.9-0.4,1.3-0.8c0.4-0.4,0.6-0.8,0.8-1.3c0.2-0.5,0.3-1.2,0.3-1.9v-5.5h-1.1V50
		c0,1.1-0.3,1.9-0.8,2.4c-0.5,0.5-1.2,0.8-2.1,0.8c-0.9,0-1.7-0.3-2.2-0.8c-0.5-0.6-0.8-1.4-0.8-2.4v-5.6h-1.1V50
		c0,0.7,0.1,1.3,0.3,1.8c0.2,0.5,0.5,1,0.8,1.3c0.4,0.4,0.8,0.6,1.3,0.8c0.5,0.2,1,0.3,1.6,0.3C42.1,54.2,42.7,54.1,43.2,53.9
		 M29.1,54h6.5v-1h-5.4v-8.7h-1.1V54L29.1,54z"/>
	<path class="st1" d="M17.2,22.6c2.6,0,4.1-1.3,4.9-2.8l-2.9-1.6c-0.4,0.8-1,1.3-2,1.3c-1.2,0-2-1-2-2.3v0c0-1.3,0.8-2.3,2-2.3
		c1,0,1.5,0.5,1.9,1.3l2.9-1.7c-0.9-1.6-2.4-2.7-4.7-2.7c-3.1,0-5.6,2.3-5.6,5.5v0C11.8,20.4,14.3,22.6,17.2,22.6L17.2,22.6z
		 M23.1,22.3h3.5v-3.8h3.2v3.8h3.5V11.9h-3.5v3.7h-3.2v-3.7h-3.5V22.3L23.1,22.3z M34,22.3h3.7l0.5-1.4H42l0.6,1.4h3.8l-4.4-10.5
		h-3.5L34,22.3L34,22.3z M39.2,18.5l1-2.5l1,2.5H39.2L39.2,18.5z M47.1,22.3h3.4v-5.2l2.4,3.7h0.1l2.4-3.7v5.2h3.5V11.9h-3.6
		l-2.2,3.7l-2.2-3.7h-3.6V22.3L47.1,22.3z M60.3,22.3h5.8c2.6,0,4-1.2,4-2.9v0c0-1.4-0.9-2.2-2.2-2.5c1.1-0.4,1.9-1.2,1.9-2.4v0
		c0-0.7-0.3-1.3-0.6-1.6c-0.6-0.6-1.5-0.9-3-0.9h-5.9V22.3L60.3,22.3z M66.4,15.3c0,0.5-0.4,0.7-1.1,0.7h-1.5v-1.5h1.5
		C66,14.5,66.4,14.8,66.4,15.3L66.4,15.3L66.4,15.3z M66.6,18.9L66.6,18.9c0,0.5-0.4,0.8-1.2,0.8h-1.7v-1.6h1.8
		C66.3,18.1,66.6,18.5,66.6,18.9L66.6,18.9z M71.2,22.3h9v-2.9h-5.6v-1.1h5.1v-2.5h-5.1v-1.1h5.5v-2.9h-8.9V22.3L71.2,22.3z
		 M81.5,22.3H85v-3h0.7l2,3h4l-2.4-3.6c1.3-0.6,2.1-1.7,2.1-3.2v0c0-1.1-0.3-1.9-1-2.5c-0.7-0.7-1.9-1.2-3.8-1.2h-5.1V22.3
		L81.5,22.3z M85,16.9v-2h1.5c0.8,0,1.3,0.3,1.3,1v0c0,0.6-0.5,1-1.3,1H85L85,16.9z"/>
	<path class="st1" d="M17.1,38.7c3.2,0,5.4-2.5,5.4-5.4v0c0-2.9-2.1-5.4-5.3-5.4c-3.2,0-5.4,2.5-5.4,5.4v0
		C11.7,36.3,13.9,38.7,17.1,38.7L17.1,38.7z M17.1,37.7c-2.4,0-4.1-1.9-4.1-4.3v0c0-2.4,1.7-4.3,4.1-4.3c2.4,0,4.1,1.9,4.1,4.3v0
		C21.2,35.7,19.5,37.7,17.1,37.7L17.1,37.7z M24.6,38.6h1.2V34h5.7v-1.1h-5.7v-3.7h6.3v-1.1h-7.5V38.6L24.6,38.6z M43.2,38.8
		c2.6,0,4.1-1.3,4.9-2.8l-2.9-1.6c-0.4,0.8-1,1.3-2,1.3c-1.2,0-2-1-2-2.3v0c0-1.3,0.8-2.3,2-2.3c1,0,1.5,0.5,1.9,1.3l2.9-1.7
		c-0.9-1.6-2.4-2.7-4.7-2.7c-3.1,0-5.6,2.3-5.6,5.5v0C37.8,36.6,40.3,38.8,43.2,38.8L43.2,38.8z M54.4,38.8c3.2,0,5.7-2.4,5.7-5.5v0
		c0-3-2.5-5.4-5.7-5.4c-3.2,0-5.7,2.4-5.7,5.5v0C48.7,36.4,51.2,38.8,54.4,38.8L54.4,38.8z M54.4,35.7c-1.3,0-2.2-1.1-2.2-2.4v0
		c0-1.2,0.8-2.3,2.2-2.3c1.3,0,2.2,1.1,2.2,2.4v0C56.6,34.6,55.8,35.7,54.4,35.7L54.4,35.7z M61.5,38.6h3.4v-5.2l2.4,3.7h0.1
		l2.4-3.7v5.2h3.5V28.1h-3.6l-2.2,3.7l-2.2-3.7h-3.6V38.6L61.5,38.6z M74.9,38.6h3.4v-5.2l2.4,3.7h0.1l2.4-3.7v5.2h3.5V28.1H83
		l-2.2,3.7l-2.2-3.7h-3.6V38.6L74.9,38.6z M88.3,38.6h9v-2.9h-5.6v-1.1h5.1V32h-5.1V31h5.5v-2.9h-8.9V38.6L88.3,38.6z M98.7,38.6
		h3.5v-3h0.7l2,3h4l-2.4-3.6c1.3-0.6,2.1-1.7,2.1-3.2v0c0-1.1-0.3-1.9-1-2.5c-0.7-0.7-1.9-1.2-3.8-1.2h-5.1V38.6L98.7,38.6z
		 M102.2,33.1v-2h1.5c0.8,0,1.3,0.3,1.3,1v0c0,0.6-0.5,1-1.3,1H102.2L102.2,33.1z M115,38.8c2.6,0,4.1-1.3,4.9-2.8l-2.9-1.6
		c-0.4,0.8-1,1.3-2,1.3c-1.2,0-2-1-2-2.3v0c0-1.3,0.8-2.3,2-2.3c1,0,1.5,0.5,1.9,1.3l2.9-1.7c-0.9-1.6-2.4-2.7-4.7-2.7
		c-3.1,0-5.6,2.3-5.6,5.5v0C109.5,36.6,112.1,38.8,115,38.8L115,38.8z M121,38.6h9v-2.9h-5.6v-1.1h5.1V32h-5.1V31h5.5v-2.9H121V38.6
		L121,38.6z"/>
</g>
</svg>
