<?xml version="1.0" encoding="utf-8"?>
<!-- Generator: Adobe Illustrator 16.0.0, SVG Export Plug-In . SVG Version: 6.00 Build 0)  -->
<!DOCTYPE svg PUBLIC "-//W3C//DTD SVG 1.1//EN" "http://www.w3.org/Graphics/SVG/1.1/DTD/svg11.dtd">
<svg version="1.1" id="Calque_1" xmlns="http://www.w3.org/2000/svg" xmlns:xlink="http://www.w3.org/1999/xlink" x="0px" y="0px"
	 width="1492.029px" height="283.465px" viewBox="0 0 1492.029 283.465" enable-background="new 0 0 1492.029 283.465"
	 xml:space="preserve">
<rect x="283.464" y="-0.002" fill="#FFFFFF" width="1208.565" height="283.467"/>
<rect y="-0.002" fill="#FFD400" width="283.464" height="283.467"/>
<g>
	<path d="M598.749,119.758H577.39l-21.959-36.479h-0.24v36.479h-17.64V29.281h23.879c17.88,0,30.239,7.92,30.239,27.24
		c0,11.52-6.359,23.039-18.479,25.078L598.749,119.758z M555.19,70.92h2.279c9.72,0,16.56-2.879,16.56-13.92
		c0-11.158-7.079-13.318-16.439-13.318h-2.399V70.92z"/>
	<path d="M622.15,44.641v19.92h28.079V79.92H622.15v24.479h29.159v15.359h-46.799V29.281h46.799v15.359H622.15z"/>
	<path d="M663.069,26.883h12.72l47.638,63.236h0.24V29.281h17.64v92.277h-12.72L680.949,58.32h-0.24v61.438h-17.64V26.883z"/>
	<path d="M794.586,122.158c-27.599,0-44.758-21.119-44.758-47.758c0-26.879,17.759-47.518,44.758-47.518
		s44.759,20.639,44.759,47.518C839.345,101.039,822.185,122.158,794.586,122.158z M794.586,44.281
		c-16.679,0-26.519,14.76-26.519,29.398c0,13.92,6.959,31.078,26.519,31.078S821.104,87.6,821.104,73.68
		C821.104,59.041,811.266,44.281,794.586,44.281z"/>
	<path d="M880.506,90.24h0.24l20.159-60.959h18.959l-35.158,92.877h-10.319l-34.559-92.877h18.959L880.506,90.24z"/>
	<path d="M928.746,100.68l-7.439,19.078h-18.6l35.278-92.875h13.68l34.318,92.875h-18.839l-6.96-19.078H928.746z M943.985,53.4
		h-0.24l-9.959,32.879h21.479L943.985,53.4z"/>
	<path d="M1011.187,119.758h-17.64V44.641h-18.239V29.281h54.118v15.359h-18.239V119.758z"/>
	<path d="M1053.546,119.758h-17.64V29.281h17.64V119.758z"/>
	<path d="M1106.824,122.158c-27.599,0-44.758-21.119-44.758-47.758c0-26.879,17.759-47.518,44.758-47.518
		s44.759,20.639,44.759,47.518C1151.583,101.039,1134.423,122.158,1106.824,122.158z M1106.824,44.281
		c-16.679,0-26.519,14.76-26.519,29.398c0,13.92,6.959,31.078,26.519,31.078s26.519-17.158,26.519-31.078
		C1133.343,59.041,1123.504,44.281,1106.824,44.281z"/>
	<path d="M1160.226,26.883h12.72l47.638,63.236h0.24V29.281h17.64v92.277h-12.72l-47.638-63.238h-0.24v61.438h-17.64V26.883z"/>
	<path d="M416.772,254.758h-17.64v-75.117h-18.239v-15.359h54.118v15.359h-18.239V254.758z"/>
	<path d="M502.69,254.758h-21.359l-21.959-36.479h-0.24v36.479h-17.64v-90.477h23.879c17.88,0,30.239,7.92,30.239,27.24
		c0,11.52-6.359,23.039-18.479,25.078L502.69,254.758z M459.132,205.92h2.279c9.72,0,16.56-2.879,16.56-13.92
		c0-11.158-7.079-13.318-16.439-13.318h-2.399V205.92z"/>
	<path d="M526.932,235.68l-7.439,19.078h-18.6l35.278-92.875h13.68l34.318,92.875H565.33l-6.96-19.078H526.932z M542.171,188.4
		h-0.24l-9.959,32.879h21.479L542.171,188.4z"/>
	<path d="M589.571,161.883h12.72l47.638,63.236h0.24v-60.838h17.64v92.277h-12.72l-47.638-63.238h-0.24v61.438h-17.64V161.883z"/>
	<path d="M723.248,184.201c-3.36-4.561-7.68-7.439-13.56-7.439c-5.64,0-11.039,4.32-11.039,10.199
		c0,15.24,35.878,8.879,35.878,39.238c0,18.119-11.279,30.959-29.759,30.959c-12.479,0-21.599-7.199-27.839-17.639l11.399-11.16
		c2.4,6.959,8.76,13.199,16.319,13.199c7.2,0,11.64-6.119,11.64-13.08c0-9.359-8.64-11.998-15.719-14.758
		c-11.64-4.801-20.16-10.68-20.16-24.719c0-15,11.16-27.119,26.399-27.119c8.04,0,19.199,3.959,24.719,10.078L723.248,184.201z"/>
	<path d="M761.407,179.641v19.92h25.559v15.359h-25.559v39.838h-17.64v-90.477h44.878v15.359H761.407z"/>
	<path d="M839.766,257.158c-27.599,0-44.758-21.119-44.758-47.758c0-26.879,17.759-47.518,44.758-47.518
		s44.759,20.639,44.759,47.518C884.524,236.039,867.364,257.158,839.766,257.158z M839.766,179.281
		c-16.679,0-26.519,14.76-26.519,29.398c0,13.92,6.959,31.08,26.519,31.08s26.519-17.16,26.519-31.08
		C866.284,194.041,856.445,179.281,839.766,179.281z"/>
	<path d="M954.364,254.758h-21.358l-21.959-36.479h-0.24v36.479h-17.64v-90.477h23.879c17.88,0,30.239,7.92,30.239,27.24
		c0,11.52-6.36,23.039-18.479,25.078L954.364,254.758z M910.807,205.92h2.28c9.719,0,16.559-2.879,16.559-13.92
		c0-11.158-7.079-13.318-16.439-13.318h-2.399V205.92z"/>
	<path d="M1027.685,198.602h-0.24l-20.52,57.357h-6.119l-19.799-57.357h-0.24l-8.04,56.156h-17.759l15.239-92.875h12.479
		l22.318,59.637l21.359-59.637h12.72l13.56,92.875h-17.76L1027.685,198.602z"/>
	<path d="M1078.927,235.68l-7.439,19.078h-18.6l35.278-92.875h13.68l34.318,92.875h-18.839l-6.96-19.078H1078.927z M1094.166,188.4
		h-0.24l-9.959,32.879h21.479L1094.166,188.4z"/>
	<path d="M1161.367,254.758h-17.64v-75.117h-18.239v-15.359h54.118v15.359h-18.239V254.758z"/>
	<path d="M1203.727,254.758h-17.64v-90.477h17.64V254.758z"/>
	<path d="M1257.005,257.158c-27.599,0-44.758-21.119-44.758-47.758c0-26.879,17.759-47.518,44.758-47.518
		s44.758,20.639,44.758,47.518C1301.763,236.039,1284.604,257.158,1257.005,257.158z M1257.005,179.281
		c-16.68,0-26.519,14.76-26.519,29.398c0,13.92,6.96,31.08,26.519,31.08c19.56,0,26.52-17.16,26.52-31.08
		C1283.524,194.041,1273.685,179.281,1257.005,179.281z"/>
	<path d="M1310.406,161.883h12.72l47.638,63.236h0.24v-60.838h17.64v92.277h-12.72l-47.638-63.238h-0.24v61.438h-17.64V161.883z"/>
</g>
<g>
	<ellipse fill="#353535" cx="120.51" cy="243.072" rx="86.663" ry="8.139"/>

		<path fill="#BCBCBC" stroke="#4C4C4C" stroke-width="3.444" stroke-linecap="round" stroke-linejoin="round" stroke-miterlimit="10" d="
		M144.549,107.354l17.222-18.008c3.208-4.17,0.482-12.033-5.535-17.803c-5.01-4.803-23.429-22.141-49.421-21.82
		c41.479-19.102,69.313-3.537,74.127-0.004C185.757,53.252,212.5,78.74,212.5,78.74l-4.417,13.791l9.284,9.088l17.809-2.479
		l14.44,14.441l-36.101,38.58l-14.599-13.23l0.35-20.209l-11.744-11.326l-24.654,25.326L144.549,107.354z"/>
	<g>
		<path fill="#777777" d="M58.652,240.307c-1.474,1.52-3.924,1.559-5.445,0.086l-16.594-16.074
			c-1.521-1.475-1.561-3.924-0.087-5.445l108.51-112.02c1.474-1.521,3.924-1.559,5.445-0.086l16.595,16.076
			c1.521,1.475,1.56,3.924,0.086,5.445L58.652,240.307z"/>

			<path fill="none" stroke="#4C4C4C" stroke-width="3.4441" stroke-linecap="round" stroke-linejoin="round" stroke-miterlimit="10" d="
			M58.652,240.307c-1.474,1.52-3.924,1.559-5.445,0.086l-16.594-16.074c-1.521-1.475-1.561-3.924-0.087-5.445l108.51-112.02
			c1.474-1.521,3.924-1.559,5.445-0.086l16.595,16.076c1.521,1.475,1.56,3.924,0.086,5.445L58.652,240.307z"/>
	</g>
	<g>
		<path fill="#FFFFFF" d="M103.388,186.24c-2.762,2.852-6.784,3.479-8.936,1.393c-2.152-2.084-1.653-6.123,1.109-8.975l56.571-58.4
			c2.762-2.852,6.784-3.479,8.936-1.393c2.152,2.084,1.653,6.123-1.109,8.975L103.388,186.24z"/>
	</g>
	<g>
		<path fill="#FFFFFF" d="M46.833,225.428c-0.55,0-0.687,0.324-0.305,0.719l8.277,8.563c0.382,0.396,1.011,0.398,1.397,0.008
			l8.47-8.578c0.386-0.391,0.252-0.711-0.297-0.711H46.833z"/>
	</g>
	<polygon fill="#4C4C4C" stroke="#4C4C4C" stroke-width="3.1416" stroke-linejoin="round" stroke-miterlimit="10" points="
		147.946,99.588 139.261,108.633 165.939,133.883 174.216,125.262 	"/>
	<path fill="#4C4C4C" stroke="#4C4C4C" stroke-width="3.444" stroke-linejoin="round" stroke-miterlimit="10" d="M244.013,107.977
		l-6.37,6.646c0.92,1.043,1.482,2.408,1.482,3.908c0,3.268-2.649,5.918-5.917,5.918c-1.41,0-2.703-0.496-3.72-1.318l-22.316,23.281
		l6.344,5.75l36.101-38.58L244.013,107.977z"/>
</g>
</svg>
