<?xml version="1.0" encoding="utf-8"?>
<!-- Generator: Adobe Illustrator 16.0.0, SVG Export Plug-In . SVG Version: 6.00 Build 0)  -->
<!DOCTYPE svg PUBLIC "-//W3C//DTD SVG 1.1//EN" "http://www.w3.org/Graphics/SVG/1.1/DTD/svg11.dtd">
<svg version="1.1" id="Calque_1" xmlns="http://www.w3.org/2000/svg" xmlns:xlink="http://www.w3.org/1999/xlink" x="0px" y="0px"
	 width="1492.029px" height="283.465px" viewBox="0 0 1492.029 283.465" enable-background="new 0 0 1492.029 283.465"
	 xml:space="preserve">
<rect x="283.464" y="0" fill="#FFFFFF" width="1208.565" height="283.466"/>
<rect y="-0.001" fill="#FFD400" width="283.465" height="283.467"/>
<g>
	<path d="M569.831,42.641V62.56h25.559v15.359h-25.559v39.839h-17.64V27.282h44.878v15.359H569.831z"/>
	<path d="M625.391,42.641V62.56h28.079v15.359h-28.079v24.479h29.159v15.359h-46.799V27.282h46.799v15.359H625.391z"/>
	<path d="M727.507,117.758h-21.358L684.189,81.28h-0.24v36.479h-17.64V27.282h23.879c17.88,0,30.239,7.92,30.239,27.238
		c0,11.52-6.36,23.039-18.479,25.08L727.507,117.758z M683.949,68.92h2.28c9.719,0,16.559-2.881,16.559-13.92
		c0-11.16-7.079-13.32-16.439-13.32h-2.399V68.92z"/>
	<path d="M794.468,117.758h-21.359L751.149,81.28h-0.24v36.479h-17.64V27.282h23.879c17.88,0,30.239,7.92,30.239,27.238
		c0,11.52-6.359,23.039-18.479,25.08L794.468,117.758z M750.909,68.92h2.279c9.72,0,16.56-2.881,16.56-13.92
		c0-11.16-7.079-13.32-16.439-13.32h-2.399V68.92z"/>
	<path d="M818.709,98.678l-7.439,19.08h-18.6l35.278-92.877h13.68l34.318,92.877h-18.839l-6.96-19.08H818.709z M833.948,51.401
		h-0.24l-9.959,32.879h21.479L833.948,51.401z"/>
	<path d="M898.988,117.758h-17.64V27.282h17.64V117.758z"/>
	<path d="M929.468,102.399h24.959v15.359h-42.599V27.282h17.64V102.399z"/>
	<path d="M977.707,102.399h24.959v15.359h-42.599V27.282h17.64V102.399z"/>
	<path d="M1026.786,98.678l-7.439,19.08h-18.6l35.278-92.877h13.68l34.318,92.877h-18.839l-6.96-19.08H1026.786z M1042.025,51.401
		h-0.24l-9.959,32.879h21.479L1042.025,51.401z"/>
	<path d="M1169.343,69.639v2.281c0,25.559-13.079,48.237-41.158,48.237c-26.399,0-43.078-22.319-43.078-47.278
		c0-25.799,17.159-47.998,44.158-47.998c15.359,0,28.799,7.8,35.758,21.6l-15.599,8.399c-3.601-8.159-11.28-14.399-20.64-14.399
		c-17.039,0-25.438,17.399-25.438,32.398c0,15,8.52,31.68,25.559,31.68c11.04,0,20.279-9.6,20.64-20.52h-19.199v-14.4H1169.343z"/>
	<path d="M1195.745,42.641V62.56h28.079v15.359h-28.079v24.479h29.158v15.359h-46.798V27.282h46.798v15.359H1195.745z"/>
	<path d="M668.707,186.28c-4.92-6-12.359-9.6-19.919-9.6c-16.919,0-26.639,15.6-26.639,31.199c0,15.24,10.079,30.479,26.519,30.479
		c7.56,0,15.119-3.959,20.039-9.6v21c-6.6,3.119-13.199,5.398-20.519,5.398c-25.439,0-44.278-21.959-44.278-46.918
		c0-25.678,18.119-48.357,44.638-48.357c7.08,0,14.04,1.92,20.159,5.279V186.28z"/>
	<path d="M720.788,255.157c-27.599,0-44.758-21.119-44.758-47.758c0-26.879,17.759-47.518,44.758-47.518
		s44.758,20.639,44.758,47.518C765.546,234.038,748.387,255.157,720.788,255.157z M720.788,177.282
		c-16.68,0-26.519,14.758-26.519,29.398c0,13.918,6.96,31.078,26.519,31.078c19.56,0,26.52-17.16,26.52-31.078
		C747.308,192.04,737.468,177.282,720.788,177.282z"/>
	<path d="M791.829,177.641v19.918h25.559v15.359h-25.559v39.84h-17.64v-90.477h44.878v15.359H791.829z"/>
	<path d="M847.389,177.641v19.918h25.559v15.359h-25.559v39.84h-17.64v-90.477h44.879v15.359H847.389z"/>
	<path d="M946.507,252.758h-21.359l-21.959-36.479h-0.24v36.479h-17.64v-90.477h23.879c17.88,0,30.239,7.92,30.239,27.238
		c0,11.52-6.359,23.039-18.479,25.08L946.507,252.758z M902.948,203.92h2.279c9.72,0,16.56-2.881,16.56-13.92
		c0-11.16-7.079-13.32-16.439-13.32h-2.399V203.92z"/>
	<path d="M970.748,233.678l-7.439,19.08h-18.6l35.278-92.877h13.68l34.318,92.877h-18.839l-6.96-19.08H970.748z M985.987,186.401
		h-0.24l-9.959,32.879h21.479L985.987,186.401z"/>
	<path d="M1113.305,204.639v2.281c0,25.559-13.079,48.236-41.158,48.236c-26.399,0-43.078-22.318-43.078-47.277
		c0-25.799,17.159-47.998,44.158-47.998c15.359,0,28.799,7.801,35.759,21.6l-15.6,8.398c-3.6-8.158-11.279-14.398-20.64-14.398
		c-17.039,0-25.438,17.398-25.438,32.398s8.52,31.68,25.559,31.68c11.04,0,20.279-9.6,20.64-20.52h-19.199v-14.4H1113.305z"/>
	<path d="M1139.707,177.641v19.918h28.079v15.359h-28.079v24.48h29.159v15.359h-46.799v-90.477h46.799v15.359H1139.707z"/>
</g>
<g>
	<g>

			<line fill="none" stroke="#4C4C4C" stroke-width="3.44" stroke-linecap="round" stroke-linejoin="round" stroke-miterlimit="10" x1="113.721" y1="113.667" x2="227.106" y2="113.667"/>

			<line fill="none" stroke="#4C4C4C" stroke-width="3.44" stroke-linecap="round" stroke-linejoin="round" stroke-miterlimit="10" x1="113.721" y1="100.389" x2="227.106" y2="100.389"/>

			<line fill="none" stroke="#4C4C4C" stroke-width="3.44" stroke-linecap="round" stroke-linejoin="round" stroke-miterlimit="10" x1="113.721" y1="87.465" x2="227.106" y2="87.465"/>

			<line fill="none" stroke="#4C4C4C" stroke-width="3.44" stroke-linecap="round" stroke-linejoin="round" stroke-miterlimit="10" x1="113.721" y1="74.188" x2="227.106" y2="74.188"/>

			<line fill="none" stroke="#4C4C4C" stroke-width="3.44" stroke-linecap="round" stroke-linejoin="round" stroke-miterlimit="10" x1="113.721" y1="152.583" x2="227.106" y2="152.583"/>

			<line fill="none" stroke="#4C4C4C" stroke-width="3.44" stroke-linecap="round" stroke-linejoin="round" stroke-miterlimit="10" x1="113.721" y1="139.659" x2="227.106" y2="139.659"/>

			<line fill="none" stroke="#4C4C4C" stroke-width="3.44" stroke-linecap="round" stroke-linejoin="round" stroke-miterlimit="10" x1="113.721" y1="126.381" x2="227.106" y2="126.381"/>

			<line fill="none" stroke="#4C4C4C" stroke-width="3.44" stroke-linecap="round" stroke-linejoin="round" stroke-miterlimit="10" x1="199.414" y1="170.36" x2="199.413" y2="56.973"/>
	</g>
	<g>

			<line fill="none" stroke="#4C4C4C" stroke-width="3.44" stroke-linecap="round" stroke-linejoin="round" stroke-miterlimit="10" x1="113.051" y1="113.385" x2="113.051" y2="226.772"/>

			<line fill="none" stroke="#4C4C4C" stroke-width="3.44" stroke-linecap="round" stroke-linejoin="round" stroke-miterlimit="10" x1="126.328" y1="113.385" x2="126.328" y2="226.772"/>

			<line fill="none" stroke="#4C4C4C" stroke-width="3.44" stroke-linecap="round" stroke-linejoin="round" stroke-miterlimit="10" x1="139.252" y1="113.385" x2="139.252" y2="226.772"/>

			<line fill="none" stroke="#4C4C4C" stroke-width="3.44" stroke-linecap="round" stroke-linejoin="round" stroke-miterlimit="10" x1="152.529" y1="113.385" x2="152.529" y2="226.772"/>

			<line fill="none" stroke="#4C4C4C" stroke-width="3.44" stroke-linecap="round" stroke-linejoin="round" stroke-miterlimit="10" x1="74.135" y1="113.385" x2="74.135" y2="226.772"/>

			<line fill="none" stroke="#4C4C4C" stroke-width="3.44" stroke-linecap="round" stroke-linejoin="round" stroke-miterlimit="10" x1="87.059" y1="113.385" x2="87.059" y2="226.772"/>

			<line fill="none" stroke="#4C4C4C" stroke-width="3.44" stroke-linecap="round" stroke-linejoin="round" stroke-miterlimit="10" x1="100.336" y1="113.385" x2="100.336" y2="226.772"/>

			<line fill="none" stroke="#4C4C4C" stroke-width="3.44" stroke-linecap="round" stroke-linejoin="round" stroke-miterlimit="10" x1="169.745" y1="198.079" x2="56.358" y2="198.079"/>
	</g>

		<rect x="57.028" y="56.69" fill="#777777" stroke="#4C4C4C" stroke-width="3.44" stroke-linecap="round" stroke-linejoin="round" stroke-miterlimit="10" width="113.386" height="113.389"/>
</g>
</svg>
