<?xml version="1.0" encoding="utf-8"?>
<!-- Generator: Adobe Illustrator 16.0.0, SVG Export Plug-In . SVG Version: 6.00 Build 0)  -->
<!DOCTYPE svg PUBLIC "-//W3C//DTD SVG 1.1//EN" "http://www.w3.org/Graphics/SVG/1.1/DTD/svg11.dtd">
<svg version="1.1" id="Calque_1" xmlns="http://www.w3.org/2000/svg" xmlns:xlink="http://www.w3.org/1999/xlink" x="0px" y="0px"
	 width="1492.029px" height="283.465px" viewBox="0 0 1492.029 283.465" enable-background="new 0 0 1492.029 283.465"
	 xml:space="preserve">
<rect x="283.464" y="-0.001" fill="#FFFFFF" width="1208.565" height="283.466"/>
<rect y="-0.001" fill="#FFD400" width="283.464" height="283.466"/>
<g>
	<path d="M506.2,105.348v24.898h31.949v19.199H506.2v49.798h-22.049V86.148h56.098v19.199H506.2z"/>
	<path d="M604.148,202.243c-34.498,0-55.947-26.399-55.947-59.697c0-33.599,22.199-59.397,55.947-59.397
		c33.749,0,55.948,25.799,55.948,59.397C660.097,175.844,638.647,202.243,604.148,202.243z M604.148,104.897
		c-20.849,0-33.148,18.449-33.148,36.748c0,17.399,8.699,38.849,33.148,38.849s33.148-21.449,33.148-38.849
		C637.297,123.347,624.998,104.897,604.148,104.897z"/>
	<path d="M670.9,83.148H686.8l59.548,79.046h0.3V86.148h22.049v115.345h-15.899l-59.547-79.047h-0.301v76.797H670.9V83.148z"/>
	<path d="M784.748,86.148h31.499c32.698,0,54.598,24.448,54.598,56.697c0,31.799-22.499,56.397-54.748,56.397h-31.349V86.148z
		 M806.797,180.044h3.601c27.148,0,37.648-14.999,37.648-37.349c0-24.599-12.6-37.348-37.648-37.348h-3.601V180.044z"/>
	<path d="M904.747,175.395l-9.3,23.849h-23.249l44.098-116.095h17.1l42.898,116.095h-23.549l-8.7-23.849H904.747z M923.796,116.297
		h-0.3l-12.45,41.098h26.85L923.796,116.297z"/>
	<path d="M1007.798,199.243h-22.05v-93.896h-22.799V86.148h67.647v19.199h-22.799V199.243z"/>
	<path d="M1060.746,199.243h-22.049V86.148h22.049V199.243z"/>
	<path d="M1127.345,202.243c-34.498,0-55.947-26.399-55.947-59.697c0-33.599,22.199-59.397,55.947-59.397
		c33.749,0,55.948,25.799,55.948,59.397C1183.293,175.844,1161.844,202.243,1127.345,202.243z M1127.345,104.897
		c-20.849,0-33.148,18.449-33.148,36.748c0,17.399,8.699,38.849,33.148,38.849s33.148-21.449,33.148-38.849
		C1160.493,123.347,1148.194,104.897,1127.345,104.897z"/>
	<path d="M1194.097,83.148h15.899l59.548,79.046h0.3V86.148h22.049v115.345h-15.899l-59.547-79.047h-0.301v76.797h-22.049V83.148z"
		/>
</g>
<g>
	<ellipse fill="#353535" cx="139.854" cy="244.774" rx="85.046" ry="7.37"/>
	<g>
		<path fill="#4C4C4C" d="M188.574,37.91c-0.056-1.631-2.6-3.483-5.652-4.118l-6.359-1.32c-3.053-0.634-6.119,0.055-6.814,1.529
			c-0.695,1.475,1.234,3.2,4.287,3.834l9.089,1.887C186.178,40.356,188.63,39.54,188.574,37.91z"/>

			<path fill="none" stroke="#4C4C4C" stroke-width="3.4441" stroke-linecap="round" stroke-linejoin="round" stroke-miterlimit="10" d="
			M188.574,37.91c-0.056-1.631-2.6-3.483-5.652-4.118l-6.359-1.32c-3.053-0.634-6.119,0.055-6.814,1.529
			c-0.695,1.475,1.234,3.2,4.287,3.834l9.089,1.887C186.178,40.356,188.63,39.54,188.574,37.91z"/>
	</g>
	<g>
		<path fill="#777777" d="M227.147,224.071c-0.83-0.172-4.007-0.832-7.06-1.466l-19.811-4.113
			c-3.053-0.634-8.049-1.671-11.102-2.305L98.85,197.435c-3.053-0.634-8.049-1.671-11.102-2.306l-17.228-3.577
			c-3.053-0.634-6.802-1.412-8.331-1.729c-1.529-0.317-3.299,1.921-3.933,4.974l-2.296,11.062c-0.634,3.053,1.346,6.069,4.398,6.703
			l158.146,32.835c3.053,0.634,6.069-1.346,6.703-4.398l2.297-11.062C228.138,226.883,227.977,224.243,227.147,224.071z"/>

			<path fill="none" stroke="#4C4C4C" stroke-width="3.4441" stroke-linecap="round" stroke-linejoin="round" stroke-miterlimit="10" d="
			M227.147,224.071c-0.83-0.172-4.007-0.832-7.06-1.466l-19.811-4.113c-3.053-0.634-8.049-1.671-11.102-2.305L98.85,197.435
			c-3.053-0.634-8.049-1.671-11.102-2.306l-17.228-3.577c-3.053-0.634-6.802-1.412-8.331-1.729
			c-1.529-0.317-3.299,1.921-3.933,4.974l-2.296,11.062c-0.634,3.053,1.346,6.069,4.398,6.703l158.146,32.835
			c3.053,0.634,6.069-1.346,6.703-4.398l2.297-11.062C228.138,226.883,227.977,224.243,227.147,224.071z"/>
	</g>
	<g>
		<path fill="#BCBCBC" d="M124.105,143.826c-3.053-0.634-6.638,1.155-7.967,3.976l-20.423,43.352
			c-1.329,2.82,0.082,5.647,3.135,6.281l90.325,18.753c3.053,0.634,5.463-1.397,5.356-4.514l-1.643-47.941
			c-0.107-3.116-2.692-6.185-5.745-6.818L124.105,143.826z"/>

			<path fill="none" stroke="#4C4C4C" stroke-width="3.4441" stroke-linecap="round" stroke-linejoin="round" stroke-miterlimit="10" d="
			M124.105,143.826c-3.053-0.634-6.638,1.155-7.967,3.976l-20.423,43.352c-1.329,2.82,0.082,5.647,3.135,6.281l90.325,18.753
			c3.053,0.634,5.463-1.397,5.356-4.514l-1.643-47.941c-0.107-3.116-2.692-6.185-5.745-6.818L124.105,143.826z"/>
	</g>
	<g>
		<path fill="#777777" d="M190.903,105.814c-0.107-3.116-2.692-6.185-5.745-6.818l-36.376-7.553
			c-3.053-0.634-6.638,1.155-7.967,3.977l-19.845,42.125c-1.329,2.82,0.082,5.647,3.135,6.281l63.039,13.088
			c3.053,0.634,5.463-1.397,5.356-4.514L190.903,105.814z"/>

			<path fill="none" stroke="#4C4C4C" stroke-width="3.4441" stroke-linecap="round" stroke-linejoin="round" stroke-miterlimit="10" d="
			M190.903,105.814c-0.107-3.116-2.692-6.185-5.745-6.818l-36.376-7.553c-3.053-0.634-6.638,1.155-7.967,3.977l-19.845,42.125
			c-1.329,2.82,0.082,5.647,3.135,6.281l63.039,13.088c3.053,0.634,5.463-1.397,5.356-4.514L190.903,105.814z"/>
	</g>
	<g>
		<path fill="#BCBCBC" d="M185.111,97.641c3.053,0.634,5.463-1.397,5.356-4.514l-1.597-46.586c-0.107-3.116-2.692-6.185-5.745-6.819
			l-9.089-1.887c-3.053-0.634-6.638,1.155-7.967,3.976l-19.845,42.126c-1.329,2.82,0.082,5.647,3.135,6.281L185.111,97.641z"/>

			<path fill="none" stroke="#4C4C4C" stroke-width="3.4441" stroke-linecap="round" stroke-linejoin="round" stroke-miterlimit="10" d="
			M185.111,97.641c3.053,0.634,5.463-1.397,5.356-4.514l-1.597-46.586c-0.107-3.116-2.692-6.185-5.745-6.819l-9.089-1.887
			c-3.053-0.634-6.638,1.155-7.967,3.976l-19.845,42.126c-1.329,2.82,0.082,5.647,3.135,6.281L185.111,97.641z"/>
	</g>
	<polygon fill="#4C4C4C" points="121.076,143.197 114.887,150.457 193.296,166.737 189.23,157.348 	"/>
	<polygon fill="#4C4C4C" points="146.042,90.875 139.449,98.051 190.664,108.685 188.265,99.641 	"/>
	<path fill="#FFFFFF" d="M178.835,163.734l0.552,38.695c0.033,2.338,1.523,4.23,3.31,4.205s3.222-1.96,3.189-4.298l-0.531-37.249
		L178.835,163.734z"/>
	<path fill="#FFFFFF" d="M184.422,95.766l-0.709-45.854c-0.033-2.338-1.523-4.23-3.31-4.205c-1.787,0.026-3.222,1.96-3.189,4.299
		l0.688,44.407L184.422,95.766z"/>
	<polygon fill="#FFFFFF" points="178.026,106.061 178.713,153.443 185.233,154.797 184.546,107.414 	"/>
</g>
</svg>
