<?xml version="1.0" encoding="utf-8"?>
<!-- Generator: Adobe Illustrator 16.0.0, SVG Export Plug-In . SVG Version: 6.00 Build 0)  -->
<!DOCTYPE svg PUBLIC "-//W3C//DTD SVG 1.1//EN" "http://www.w3.org/Graphics/SVG/1.1/DTD/svg11.dtd">
<svg version="1.1" id="Calque_1" xmlns="http://www.w3.org/2000/svg" xmlns:xlink="http://www.w3.org/1999/xlink" x="0px" y="0px"
	 width="1492.029px" height="283.465px" viewBox="0 0 1492.029 283.465" enable-background="new 0 0 1492.029 283.465"
	 xml:space="preserve">
<rect x="283.464" fill="#FFFFFF" width="1208.565" height="283.465"/>
<rect fill="#FFD400" width="283.464" height="283.466"/>
<g>
	<ellipse fill="#353535" cx="162.945" cy="244.303" rx="49.66" ry="8.14"/>
	<g>

			<path fill="#BCBCBC" stroke="#4C4C4C" stroke-width="3.4441" stroke-linecap="round" stroke-linejoin="round" stroke-miterlimit="10" d="
			M242.956,54.429v109.546c0,44.305-35.913,80.219-80.217,80.219c-42.026,0-76.504-35.716-79.938-76.855h40.396
			c0,21.385,19.694,36.748,39.542,36.748c22.153,0,40.109-17.958,40.109-40.112V54.429H242.956z"/>

			<path fill="#BCBCBC" stroke="#4C4C4C" stroke-width="3.4441" stroke-linecap="round" stroke-linejoin="round" stroke-miterlimit="10" d="
			M56.561,80.528c15.17,5.721,25.959,20.372,25.959,37.543v26.351h40.109v-26.351c0-39.475-28.515-72.29-66.069-78.973
			L56.561,80.528z"/>
	</g>
	<path fill="#FFFFFF" d="M90.89,168.155c0.643,15.343,6.983,31.865,22.328,48.126c11.79,12.5,24.201,1.73,13.807-11.005
		c-6.452-7.905-16.626-18.941-18.511-37.122"/>
	<path fill="#FFFFFF" d="M107.339,143.661c2.411-36.177,0.635-44.073-7.299-56.651c-11.084-17.568-28.365-9.261-17.903,4.193
		c8.753,11.253,8.766,16.164,7.676,52.458"/>
	<path fill="#FFFFFF" d="M218.542,56.163v98.235v5.447c-0.213,5.916,0,13.773-4.874,26.389c-4.847,12.544,8.058,19.221,14.622,7.415
		c0.639-1.149,1.203-2.686,1.875-4.433c6.418-16.66,5.137-27.565,5.137-44.801V56.163H218.542z"/>
	<rect x="234.461" y="32.388" fill="#FFFFFF" width="5.778" height="21.38"/>
	<rect x="242.809" y="32.388" fill="#FFFFFF" width="1.714" height="21.38"/>
	<rect x="113.217" y="147.373" fill="#FFFFFF" width="5.778" height="17.233"/>
	<rect x="121.773" y="147.373" fill="#FFFFFF" width="1.712" height="17.233"/>
	<rect x="45.749" y="32.432" fill="#FFFFFF" width="5.777" height="51.822"/>
	<rect x="202.836" y="54.537" fill="#4C4C4C" width="39.973" height="4.796"/>
	<polygon fill="#4C4C4C" points="123.196,167.448 123.609,172.243 83.36,172.243 82.8,167.448 	"/>
	<polygon fill="#4C4C4C" points="56.766,39.606 61.561,40.154 61.561,82.554 56.766,81.247 	"/>

		<ellipse transform="matrix(0.6825 -0.7309 0.7309 0.6825 -88.7588 217.9378)" fill="#FFFFFF" cx="206.477" cy="211.134" rx="8.65" ry="6.853"/>
	<g>

			<rect x="33.847" y="31.619" fill="#777777" stroke="#4C4C4C" stroke-width="3.4441" stroke-linecap="round" stroke-linejoin="round" stroke-miterlimit="10" width="22.918" height="53.479"/>

			<rect x="196.139" y="31.619" fill="#777777" stroke="#4C4C4C" stroke-width="3.4441" stroke-linecap="round" stroke-linejoin="round" stroke-miterlimit="10" width="53.479" height="22.918"/>

			<rect x="75.159" y="144.529" fill="#777777" stroke="#4C4C4C" stroke-width="3.4441" stroke-linecap="round" stroke-linejoin="round" stroke-miterlimit="10" width="53.48" height="22.919"/>
	</g>
</g>
<g>
	<path d="M513.551,105.348v24.899h35.099v19.199h-35.099v30.599H550v19.199h-58.498V86.149H550v19.199H513.551z"/>
	<path d="M664.597,139.097v2.85c0,31.949-16.35,60.298-51.448,60.298c-32.999,0-53.848-27.899-53.848-59.098
		c0-32.249,21.449-59.998,55.197-59.998c19.199,0,35.999,9.75,44.698,26.999l-19.499,10.5c-4.5-10.2-14.1-18-25.799-18
		c-21.3,0-31.799,21.749-31.799,40.499c0,18.749,10.649,39.599,31.948,39.599c13.8,0,25.35-12,25.8-25.649h-23.999v-17.999H664.597z
		"/>
	<path d="M726.098,202.244c-34.498,0-55.947-26.399-55.947-59.697c0-33.599,22.199-59.398,55.947-59.398
		c33.749,0,55.948,25.799,55.948,59.398C782.046,175.845,760.597,202.244,726.098,202.244z M726.098,104.898
		c-20.849,0-33.148,18.449-33.148,36.749c0,17.399,8.699,38.849,33.148,38.849s33.148-21.449,33.148-38.849
		C759.246,123.347,746.947,104.898,726.098,104.898z"/>
	<path d="M792.25,86.149h22.049v63.297c0,13.949,1.2,33.599,19.949,33.599s19.949-19.649,19.949-33.599V86.149h22.049v67.647
		c0,27.599-11.699,48.448-41.998,48.448s-41.998-20.85-41.998-48.448V86.149z"/>
	<path d="M928.597,199.244h-22.05v-93.896h-22.799V86.149h67.647v19.199h-22.799V199.244z"/>
	<path d="M996.245,199.244h-22.05v-93.896h-22.799V86.149h67.647v19.199h-22.799V199.244z"/>
	<path d="M1038.245,175.396l-9.299,23.849h-23.249l44.098-116.095h17.1l42.898,116.095h-23.55l-8.699-23.849H1038.245z
		 M1057.295,116.297h-0.3l-12.45,41.098h26.85L1057.295,116.297z"/>
	<path d="M1216.442,139.097v2.85c0,31.949-16.35,60.298-51.448,60.298c-32.999,0-53.848-27.899-53.848-59.098
		c0-32.249,21.449-59.998,55.197-59.998c19.199,0,35.999,9.75,44.698,26.999l-19.499,10.5c-4.5-10.2-14.1-18-25.799-18
		c-21.3,0-31.799,21.749-31.799,40.499c0,18.749,10.649,39.599,31.948,39.599c13.8,0,25.35-12,25.8-25.649h-23.999v-17.999H1216.442
		z"/>
	<path d="M1249.444,105.348v24.899h35.099v19.199h-35.099v30.599h36.449v19.199h-58.498V86.149h58.498v19.199H1249.444z"/>
</g>
</svg>
