<?xml version="1.0" encoding="utf-8"?>
<!-- Generator: Adobe Illustrator 16.0.0, SVG Export Plug-In . SVG Version: 6.00 Build 0)  -->
<!DOCTYPE svg PUBLIC "-//W3C//DTD SVG 1.1//EN" "http://www.w3.org/Graphics/SVG/1.1/DTD/svg11.dtd">
<svg version="1.1" id="Calque_1" xmlns="http://www.w3.org/2000/svg" xmlns:xlink="http://www.w3.org/1999/xlink" x="0px" y="0px"
	 width="1492.029px" height="283.465px" viewBox="0 0 1492.029 283.465" enable-background="new 0 0 1492.029 283.465"
	 xml:space="preserve">
<rect x="283.464" y="0" fill="#FFFFFF" width="1208.565" height="283.466"/>
<rect y="0" fill="#FFD400" width="283.464" height="283.466"/>
<g>
	<path d="M585.673,25.883h12.72l47.638,63.237h0.24V28.283h17.64v92.276h-12.72l-47.638-63.237h-0.24v61.438h-17.64V25.883z"/>
	<path d="M717.189,121.159c-27.599,0-44.758-21.119-44.758-47.758c0-26.879,17.759-47.518,44.758-47.518
		s44.759,20.639,44.759,47.518C761.948,100.04,744.788,121.159,717.189,121.159z M717.189,43.282
		c-16.679,0-26.519,14.76-26.519,29.399c0,13.919,6.959,31.078,26.519,31.078s26.519-17.159,26.519-31.078
		C743.708,58.042,733.869,43.282,717.189,43.282z"/>
	<path d="M770.111,28.283h17.639V78.92c0,11.16,0.96,26.879,15.96,26.879c14.999,0,15.959-15.719,15.959-26.879V28.283h17.64v54.118
		c0,22.079-9.36,38.758-33.599,38.758c-24.239,0-33.599-16.679-33.599-38.758V28.283z"/>
	<path d="M882.308,89.241h0.24l20.159-60.958h18.959l-35.158,92.876h-10.319L841.63,28.283h18.959L882.308,89.241z"/>
	<path d="M944.107,43.642v19.919h28.079V78.92h-28.079V103.4h29.159v15.359h-46.799V28.283h46.799v15.359H944.107z"/>
	<path d="M1002.666,103.4h24.959v15.359h-42.599V28.283h17.64V103.4z"/>
	<path d="M1050.905,103.4h24.959v15.359h-42.599V28.283h17.64V103.4z"/>
	<path d="M1099.145,43.642v19.919h28.079V78.92h-28.079V103.4h29.159v15.359h-46.799V28.283h46.799v15.359H1099.145z"/>
	<path d="M1182.662,48.202c-3.36-4.56-7.68-7.439-13.56-7.439c-5.64,0-11.039,4.32-11.039,10.199c0,15.24,35.878,8.88,35.878,39.239
		c0,18.119-11.279,30.958-29.759,30.958c-12.479,0-21.599-7.199-27.839-17.639l11.399-11.16c2.4,6.96,8.76,13.2,16.319,13.2
		c7.2,0,11.64-6.12,11.64-13.08c0-9.359-8.64-11.999-15.719-14.759c-11.64-4.8-20.16-10.68-20.16-24.72
		c0-14.999,11.16-27.118,26.399-27.118c8.04,0,19.199,3.959,24.719,10.079L1182.662,48.202z"/>
	<path d="M492.312,187.282c-4.92-5.999-12.359-9.6-19.919-9.6c-16.919,0-26.639,15.6-26.639,31.199
		c0,15.239,10.079,30.479,26.519,30.479c7.56,0,15.119-3.96,20.039-9.6v20.999c-6.6,3.12-13.199,5.4-20.519,5.4
		c-25.439,0-44.278-21.96-44.278-46.919c0-25.679,18.119-48.357,44.638-48.357c7.08,0,14.04,1.92,20.159,5.279V187.282z"/>
	<path d="M544.393,256.16c-27.599,0-44.758-21.119-44.758-47.759c0-26.879,17.759-47.518,44.758-47.518s44.759,20.639,44.759,47.518
		C589.151,235.041,571.991,256.16,544.393,256.16z M544.393,178.283c-16.679,0-26.519,14.759-26.519,29.398
		c0,13.92,6.959,31.079,26.519,31.079s26.519-17.159,26.519-31.079C570.911,193.042,561.072,178.283,544.393,178.283z"/>
	<path d="M597.794,160.883h12.72l47.638,63.237h0.24v-60.838h17.64v92.276h-12.72l-47.638-63.237h-0.24v61.438h-17.64V160.883z"/>
	<path d="M731.471,183.203c-3.36-4.561-7.68-7.44-13.56-7.44c-5.64,0-11.039,4.32-11.039,10.2c0,15.239,35.878,8.879,35.878,39.238
		c0,18.119-11.279,30.959-29.759,30.959c-12.479,0-21.599-7.2-27.839-17.64l11.399-11.159c2.4,6.959,8.76,13.199,16.319,13.199
		c7.2,0,11.64-6.12,11.64-13.08c0-9.359-8.64-11.999-15.719-14.759c-11.64-4.8-20.16-10.68-20.16-24.72
		c0-14.999,11.16-27.118,26.399-27.118c8.04,0,19.199,3.96,24.719,10.079L731.471,183.203z"/>
	<path d="M781.39,253.759h-17.64v-75.117h-18.239v-15.359h54.118v15.359H781.39V253.759z"/>
	<path d="M867.308,253.759h-21.359l-21.959-36.479h-0.24v36.479h-17.64v-90.477h23.879c17.88,0,30.239,7.92,30.239,27.239
		c0,11.52-6.359,23.039-18.479,25.079L867.308,253.759z M823.749,204.921h2.279c9.72,0,16.56-2.88,16.56-13.92
		c0-11.159-7.079-13.319-16.439-13.319h-2.399V204.921z"/>
	<path d="M872.59,163.283h17.639v50.639c0,11.159,0.96,26.879,15.96,26.879c14.999,0,15.959-15.72,15.959-26.879v-50.639h17.64
		v54.118c0,22.079-9.36,38.759-33.599,38.759c-24.239,0-33.599-16.68-33.599-38.759V163.283z"/>
	<path d="M1012.745,187.282c-4.92-5.999-12.359-9.6-19.919-9.6c-16.919,0-26.639,15.6-26.639,31.199
		c0,15.239,10.079,30.479,26.519,30.479c7.56,0,15.119-3.96,20.039-9.6v20.999c-6.6,3.12-13.199,5.4-20.519,5.4
		c-25.439,0-44.278-21.96-44.278-46.919c0-25.679,18.119-48.357,44.638-48.357c7.08,0,14.04,1.92,20.159,5.279V187.282z"/>
	<path d="M1053.787,253.759h-17.64v-75.117h-18.239v-15.359h54.118v15.359h-18.239V253.759z"/>
	<path d="M1096.146,253.759h-17.64v-90.477h17.64V253.759z"/>
	<path d="M1149.424,256.16c-27.599,0-44.758-21.119-44.758-47.759c0-26.879,17.759-47.518,44.758-47.518
		s44.759,20.639,44.759,47.518C1194.183,235.041,1177.022,256.16,1149.424,256.16z M1149.424,178.283
		c-16.679,0-26.519,14.759-26.519,29.398c0,13.92,6.959,31.079,26.519,31.079s26.519-17.159,26.519-31.079
		C1175.942,193.042,1166.104,178.283,1149.424,178.283z"/>
	<path d="M1202.825,160.883h12.72l47.638,63.237h0.24v-60.838h17.64v92.276h-12.72l-47.638-63.237h-0.24v61.438h-17.64V160.883z"/>
	<path d="M1336.502,183.203c-3.36-4.561-7.68-7.44-13.56-7.44c-5.64,0-11.039,4.32-11.039,10.2c0,15.239,35.878,8.879,35.878,39.238
		c0,18.119-11.279,30.959-29.759,30.959c-12.479,0-21.599-7.2-27.839-17.64l11.399-11.159c2.4,6.959,8.76,13.199,16.319,13.199
		c7.2,0,11.64-6.12,11.64-13.08c0-9.359-8.64-11.999-15.719-14.759c-11.64-4.8-20.16-10.68-20.16-24.72
		c0-14.999,11.16-27.118,26.399-27.118c8.04,0,19.199,3.96,24.719,10.079L1336.502,183.203z"/>
</g>
<g>

		<rect x="33.847" y="53.024" fill="#777777" stroke="#4C4C4C" stroke-width="3.44" stroke-linecap="round" stroke-linejoin="round" stroke-miterlimit="10" width="104.758" height="36.031"/>

		<rect x="93.229" y="99.876" fill="#777777" stroke="#4C4C4C" stroke-width="3.44" stroke-linecap="round" stroke-linejoin="round" stroke-miterlimit="10" width="104.758" height="35.991"/>

		<rect x="33.847" y="194.41" fill="#BCBCBC" stroke="#4C4C4C" stroke-width="3.44" stroke-linecap="round" stroke-linejoin="round" stroke-miterlimit="10" width="48.189" height="36.03"/>

		<rect x="33.847" y="99.856" fill="#BCBCBC" stroke="#4C4C4C" stroke-width="3.44" stroke-linecap="round" stroke-linejoin="round" stroke-miterlimit="10" width="48.189" height="36.031"/>

		<rect x="207.098" y="194.41" fill="#BCBCBC" stroke="#4C4C4C" stroke-width="3.44" stroke-linecap="round" stroke-linejoin="round" stroke-miterlimit="10" width="42.52" height="36.03"/>

		<rect x="33.847" y="147.028" fill="#777777" stroke="#4C4C4C" stroke-width="3.44" stroke-linecap="round" stroke-linejoin="round" stroke-miterlimit="10" width="102.047" height="36.031"/>

		<rect x="147.57" y="147.028" fill="#BCBCBC" stroke="#4C4C4C" stroke-width="3.44" stroke-linecap="round" stroke-linejoin="round" stroke-miterlimit="10" width="102.047" height="36.031"/>

		<rect x="93.46" y="194.43" fill="#777777" stroke="#4C4C4C" stroke-width="3.44" stroke-linecap="round" stroke-linejoin="round" stroke-miterlimit="10" width="102.047" height="35.99"/>
</g>
</svg>
