{
	"clients": [
        {
            "id": 0,
            "company": "00000000",
            "firstname": "firstname",
            "secondname": "secondname",
            "mail": "webmail",
            "street": "street",
            "streetno": "streetno",
            "zip": "zip",
            "city": "city",
            "country": "country",
            "tva": "tva",
            "iban": "BE00 0000 0000 0000",
            "account": "000-000000-000",
            "quote_prefix": "DEV",
            "invoice_prefix": "FACT",
            "phone": "phone",
            "extra": "extra"
        }, {
            "id": 1,
            "company": "1111111111",
            "firstname": "firstname",
            "secondname": "secondname",
            "mail": "webmail",
            "street": "street",
            "streetno": "streetno",
            "zip": "zip",
            "city": "city",
            "country": "country",
            "tva": "tva",
            "iban": "BE00 0000 0000 0000",
            "account": "000-000000-000",
            "quote_prefix": "DEV",
            "invoice_prefix": "FACT",
            "phone": "phone",
            "extra": "extra"
        }, {
            "id": 2,
            "company": "222222222222",
            "firstname": "firstname",
            "secondname": "secondname",
            "mail": "webmail",
            "street": "street",
            "streetno": "streetno",
            "zip": "zip",
            "city": "city",
            "country": "country",
            "tva": "tva",
            "iban": "BE00 0000 0000 0000",
            "account": "000-000000-000",
            "quote_prefix": "DEV",
            "invoice_prefix": "FACT",
            "phone": "phone",
            "extra": "extra"
        }
    ]
}