<?xml version="1.0" encoding="utf-8"?>
<!-- Generator: Adobe Illustrator 25.2.3, SVG Export Plug-In . SVG Version: 6.00 Build 0)  -->
<svg version="1.1" id="Calque_1" xmlns="http://www.w3.org/2000/svg" xmlns:xlink="http://www.w3.org/1999/xlink" x="0px" y="0px"
	 viewBox="0 0 216.6 178.1" style="enable-background:new 0 0 216.6 178.1;" xml:space="preserve">
<style type="text/css">
	.st0{fill:#E20613;}
	.st1{fill:#FFFFFF;}
</style>
<g id="Calque_1_1_">
	<g>
		<path class="st0" d="M171.1,73.3c-0.1-0.4-0.2-0.9-0.3-1.3c-1.4-5.1-3.7-10.5-6.6-15.2c-2.6-4.3-6.2-9.4-10.4-13
			c-3.8-2.9-7.5-5.8-11.3-8.7c-0.2-0.2-0.4-0.3-0.6-0.5c-0.4-0.2-0.8-0.4-1.2-0.6c-4.9-2.5-10-5-15.3-6.3c-2.6-0.5-5.3-0.8-7.9-1.1
			c-2.6-0.4-5.1-0.7-7.7-1c-0.4,0-0.9-0.1-1.3-0.1c-3.8,0.1-7.7,0.4-11.4,1.1c-7.6,0.9-14.9,3.3-21.7,7.2C70.7,37,66.2,40.4,62,44.2
			c-2.5,2.2-4.6,5.5-6.5,8s-4.4,5.1-5.9,8c-2.7,5.1-4.9,10.5-6.7,15.9c-0.3,1-0.5,2-0.7,3.1c-0.9,5-1.6,10.7-2.1,15.8
			c0,0.5-0.1,1-0.1,1.6c0,7,0.6,14.4,3.2,21c1.7,7.3,5.1,13.6,10,19c3.9,6.1,9.2,10.9,15.7,14.4c4.4,1.9,8.9,3.8,13.3,5.6
			c9.9,2.7,19.8,2.7,29.7,0c4.7-0.8,8.8-2.9,13.2-4.7c4.5-1.9,8.6-3.4,12.5-6.2c4.5-3.3,9.2-6.7,13.4-10.5c0.8-0.8,1.6-1.6,2.4-2.4
			c3.6-4.3,7.2-8.9,10.4-13.4c2.1-3,3.1-6.1,4.6-9.6c2.5-4.4,3.8-9,3.8-14.1C173.7,88.1,173.4,80.7,171.1,73.3z"/>
	</g>
</g>
<g id="Calque_3">
	<g>
		<path class="st1" d="M103.8,130.8c0,0-0.1,0-0.1,0c-1.4,0-2.7-0.7-3.5-1.8c-11.8-15.3-27-38.5-30.9-53.3c-0.7-2.5,0.8-5,3.3-5.6
			c2.5-0.6,5,0.8,5.6,3.3c3,11.4,14.6,30.2,25.8,45.4c11.6-14.6,20.1-30.3,25.1-46.6c0.8-2.4,3.3-3.8,5.8-3c2.4,0.8,3.8,3.3,3,5.8
			c-6,19.2-16.3,37.5-30.6,54.3C106.4,130.2,105.1,130.8,103.8,130.8z"/>
	</g>
</g>
</svg>
