<?xml version="1.0" encoding="utf-8"?>
<!-- Generator: Adobe Illustrator 25.2.3, SVG Export Plug-In . SVG Version: 6.00 Build 0)  -->
<svg version="1.1" id="Calque_1" xmlns="http://www.w3.org/2000/svg" xmlns:xlink="http://www.w3.org/1999/xlink" x="0px" y="0px"
	 viewBox="0 0 105 111.4" style="enable-background:new 0 0 105 111.4;" xml:space="preserve">
<style type="text/css">
	.st0{fill:#009FE3;}
	.st1{fill:none;stroke:#009FE3;stroke-width:2;stroke-linecap:round;stroke-linejoin:round;stroke-miterlimit:10;}
</style>
<g>
	<g>
		<g>
			<path class="st0" d="M51.9,3.7c-12.8,0-19.7,10.5-19.7,18c0,4.2,2.6,11.2,19.7,11.2c17.1,0,19.7-7,19.7-11.2
				C71.6,13,64,3.7,51.9,3.7z M51.9,30.7c-6.6,0-17.5-1.2-17.5-9.1c0-6.6,6.1-15.8,17.5-15.8c12,0,17.5,9.5,17.5,15.8
				C69.4,29.6,58.4,30.7,51.9,30.7z"/>
		</g>
		<g>
			<path class="st0" d="M29.6,36c-0.1,0.2-0.1,0.4,0,0.5l0,0.1c2.7,28.2,11.7,47.1,22.3,47.1c10.7,0,19.6-19,22.3-47.3
				c0-0.4-0.1-0.7-0.4-0.9c-0.3-0.2-0.7-0.3-1-0.2c-4.6,1.4-12.5,2.3-20.9,2.3c-8.5,0-16.3-0.8-20.9-2.3c-0.1,0-0.2-0.1-0.3-0.1
				c-0.2,0-0.3,0-0.5,0.1C29.9,35.5,29.7,35.7,29.6,36z M32.7,37.9c4.9,1.1,11.9,1.7,19.2,1.7c7.3,0,14.3-0.6,19.2-1.7l0.8-0.2
				l-0.1,0.9c-2.8,25.3-11,42.9-19.9,42.9c-8.9,0-17.1-17.6-19.9-42.9l-0.1-0.9L32.7,37.9z"/>
		</g>
		<g>
			<path class="st0" d="M29.7,35.8c-0.1,0.3-0.1,0.5-0.1,0.8c0.1,0.3,0.3,0.5,0.5,0.6c0.5,0.3,1.2,0,1.4-0.5c0.3-0.5,0-1.2-0.5-1.4
				c-0.2-0.1-0.3-0.1-0.5-0.1C30.2,35.2,29.9,35.4,29.7,35.8z"/>
		</g>
		<g>
			<circle class="st0" cx="40" cy="45.4" r="1.1"/>
		</g>
		<g>
			<circle class="st0" cx="46.8" cy="45.4" r="1.1"/>
		</g>
		<g>
			<path class="st0" d="M54.7,45.4c0-0.6-0.5-1.1-1.1-1.1c-0.6,0-1.1,0.5-1.1,1.1c0,0.6,0.5,1.1,1.1,1.1
				C54.2,46.4,54.7,45.9,54.7,45.4z"/>
		</g>
		<g>
			<path class="st0" d="M43.4,18.9c-0.1,0-0.1,0-0.2,0c-2.3,0.1-3.8,1.9-4,2.1c-0.4,0.5-0.3,1.1,0.2,1.5c0.4,0.4,1.2,0.3,1.5-0.2
				l0,0c0.2-0.2,1.2-1.2,2.4-1.3c0.9,0,1.8,0.4,2.7,1.4c0.2,0.2,0.5,0.3,0.8,0.3c0.3,0,0.6-0.1,0.8-0.3c0.2-0.2,0.3-0.5,0.3-0.8
				c0-0.3-0.1-0.6-0.3-0.8C46.3,19.6,44.9,18.9,43.4,18.9z"/>
		</g>
		<g>
			<path class="st0" d="M64.8,21.7c0-0.3-0.1-0.6-0.3-0.8c-1.4-1.4-2.8-2.1-4.3-2c-2.3,0.1-3.9,1.9-4,2.1c-0.4,0.5-0.3,1.1,0.1,1.5
				c0.5,0.4,1.1,0.3,1.5-0.1l0,0c0.2-0.2,1.2-1.2,2.5-1.3l0,0l0,0c1,0.1,1.8,0.5,2.6,1.3c0.4,0.4,1.1,0.4,1.5,0
				C64.7,22.2,64.8,22,64.8,21.7z"/>
		</g>
		<g>
			<path class="st0" d="M37,78.6c-5.3-7.9-9.3-20.7-11.3-36c0,0,0,0,0,0c0,0,0-0.1,0-0.1c0-0.2-0.1-0.4-0.1-0.6c0,0,0,0,0,0
				c-0.2-1.6-0.4-3.6-0.6-5.4c0-0.2,0-0.4-0.1-0.7c0.9,0.3,1.8,0.5,2.7,0.8c1,0.3,1.9,0.5,2.7,0.8c0.6,0.2,1.2-0.1,1.3-0.7
				c0.2-0.6-0.1-1.2-0.7-1.3c-0.9-0.3-1.8-0.5-2.8-0.8c-1.2-0.3-2.4-0.7-3.5-1c-0.6-5-1.1-7.5-2.8-7.9c-1.5-0.3-2.5,1.6-2.9,2.5
				c-0.7,1.4-0.8,2.6-0.3,3.8c0.6,1.4,2.1,2.4,4,3.1c0.1,0.6,0.1,1.1,0.2,1.7c0.2,1.8,0.4,3.7,0.6,5.4c0,0,0,0,0,0.1
				c2,16,6.2,29.4,11.7,37.7c0.2,0.3,0.5,0.5,0.9,0.5c0.2,0,0.4-0.1,0.6-0.2c0.2-0.2,0.4-0.4,0.5-0.7C37.2,79.1,37.1,78.8,37,78.6z
				 M20.6,31c-0.1-0.2-0.3-0.8,0.2-1.9c0.3-0.5,0.5-0.9,0.6-1.1c0.3,0.8,0.6,2.6,0.9,4.5C21.5,32,20.9,31.5,20.6,31z"/>
		</g>
		<g>
			<path class="st0" d="M84.8,28c-0.4-0.8-1.4-2.7-2.9-2.5c-1.6,0.3-2.2,2.8-2.8,7.9c-1.1,0.4-2.4,0.7-3.5,1
				c-0.9,0.3-1.9,0.5-2.8,0.8c-0.6,0.2-0.9,0.8-0.7,1.3c0.2,0.6,0.8,0.9,1.3,0.7c0.9-0.3,1.8-0.5,2.7-0.8c0.9-0.3,1.8-0.5,2.7-0.8
				c0,0.2,0,0.4-0.1,0.7c-0.2,1.8-0.4,3.8-0.6,5.4c0,0.1,0-0.1,0,0c-2,15.7-6,28.7-11.4,36.8c-0.3,0.5-0.2,1.2,0.3,1.5
				c0.5,0.3,1.2,0.2,1.5-0.3c5.5-8.2,9.6-21.4,11.7-37.1c0.3-1.8,0.5-4,0.7-6.1c0.1-0.5,0.1-1.1,0.2-1.7c1.9-0.8,3.4-1.7,4-3.1
				C85.6,30.7,85.5,29.4,84.8,28z M83.2,31c-0.3,0.6-0.9,1.1-1.7,1.5c0.2-1.9,0.5-3.7,0.9-4.5c0.1,0.2,0.4,0.5,0.6,1.1
				C83.5,30.2,83.2,30.8,83.2,31z"/>
		</g>
	</g>
	<path class="st1" d="M16.7,11.1H7.5c-1.8,0-3.3,1.5-3.3,3.3V55c0,2.8,1.1,5.5,3.1,7.5l42,42c2.1,2.1,4.9,3.3,7.9,3.3h39.2
		c2.5,0,4.5-2,4.5-4.5V64.1c0-3-1.2-5.9-3.3-8l-9.4-9.4"/>
</g>
</svg>
