<?xml version="1.0" encoding="utf-8"?>
<!-- Generator: Adobe Illustrator 25.2.3, SVG Export Plug-In . SVG Version: 6.00 Build 0)  -->
<svg version="1.1" id="Calque_1" xmlns="http://www.w3.org/2000/svg" xmlns:xlink="http://www.w3.org/1999/xlink" x="0px" y="0px"
	 viewBox="0 0 105 111.4" style="enable-background:new 0 0 105 111.4;" xml:space="preserve">
<style type="text/css">
	.st0{fill:#009FE3;}
</style>
<g>
	<g>
		<g>
			<g>
				<path class="st0" d="M51.7,65.5c-0.2,0-0.4-0.1-0.6-0.2c-0.4-0.3-0.5-1-0.1-1.4c6-7.4,8.4-13.9,7.3-19.8
					c-1.3-7.3-7.8-14.1-20.3-21.4c-0.5-0.3-0.6-0.9-0.4-1.4c0.3-0.5,0.9-0.6,1.4-0.4c13,7.6,19.8,14.9,21.2,22.8
					c1.2,6.6-1.3,13.6-7.7,21.5C52.3,65.4,52,65.5,51.7,65.5z"/>
			</g>
			<g>
				<path class="st0" d="M55.9,37.2c-0.6,0-1-0.4-1-1c0-11.5,6.9-25,19.7-27.4c0.5-0.1,1.1,0.3,1.2,0.8c0.1,0.5-0.3,1.1-0.8,1.2
					c-11.7,2.2-18.1,14.8-18.1,25.4C56.9,36.7,56.5,37.2,55.9,37.2z"/>
			</g>
			<g>
				<path class="st0" d="M42.5,36.2c-0.2,0-0.4,0-0.6,0c-3.4-0.2-6.3-2-7.5-4.8c-0.6-1.5-1.1-2.8-1.5-4.1c-1.1-3.4-2-5.9-5.6-7.8
					c-0.3-0.2-0.5-0.5-0.5-0.9c0-0.4,0.3-0.7,0.6-0.9c14.5-6,21.3,0,23,2c2.8,3.3,3.3,7.7,1.2,11.2C49.6,34.2,46.2,36.2,42.5,36.2z
					 M29.9,18.8c2.9,2.2,3.8,4.8,4.8,7.8c0.4,1.2,0.8,2.5,1.5,3.9c0.9,2.1,3.1,3.5,5.8,3.6c3.2,0.2,6.2-1.4,7.9-4.3
					c1.6-2.8,1.2-6.2-1-8.9C45.9,17.6,39.5,15.4,29.9,18.8z"/>
			</g>
			<g>
				<path class="st0" d="M66.9,30.4c-4.3,0-8.3-2.1-11-5.8c-3-4.2-2.9-9.9,0.4-14.4c2-2.8,10.1-11.3,29.5-5.2
					c0.4,0.1,0.6,0.4,0.7,0.8c0.1,0.4-0.1,0.8-0.4,1c-4.4,2.9-5.4,6.6-6.6,11.3c-0.4,1.7-0.9,3.4-1.5,5.2c-1.3,3.6-4.7,6.3-9,6.9
					C68.2,30.3,67.5,30.4,66.9,30.4z M73.2,4.9c-7.7,0-12.8,2.9-15.3,6.5c-2.7,3.8-2.9,8.5-0.4,12c2.6,3.7,6.8,5.5,11.1,4.8
					c3.6-0.5,6.4-2.7,7.4-5.6c0.6-1.8,1.1-3.5,1.5-5.1c1.1-4.3,2.1-8.1,5.8-11.2C79.5,5.4,76.2,4.9,73.2,4.9z"/>
			</g>
			<g>
				<path class="st0" d="M46.8,83.3c-0.3,0-0.5-0.1-0.7-0.3L34.7,71.6c-0.4-0.4-0.4-1,0-1.4l5.7-5.7c1.7-1.7,4-2.6,6.4-2.6
					c2.4,0,4.7,0.9,6.4,2.6c3.5,3.5,3.5,9.3,0,12.8L47.5,83C47.3,83.2,47,83.3,46.8,83.3z M36.9,70.9l9.9,10l5-5
					c2.7-2.7,2.7-7.2,0-9.9c-1.3-1.4-3.1-2.1-5-2.1c-1.9,0-3.6,0.7-4.9,2.1L36.9,70.9z"/>
			</g>
			<g>
				<path class="st0" d="M36.4,77.3c-0.3,0-0.5-0.1-0.7-0.3c-0.4-0.4-0.4-1,0-1.4l2.2-2.2c0.4-0.4,1-0.4,1.4,0c0.4,0.4,0.4,1,0,1.4
					L37.1,77C37,77.2,36.7,77.3,36.4,77.3z"/>
			</g>
			<g>
				<path class="st0" d="M41.4,82.2c-0.3,0-0.5-0.1-0.7-0.3c-0.4-0.4-0.4-1,0-1.4l2.2-2.2c0.4-0.4,1-0.4,1.4,0c0.4,0.4,0.4,1,0,1.4
					l-2.2,2.2C41.9,82.1,41.6,82.2,41.4,82.2z"/>
			</g>
		</g>
		<g>
			<path class="st0" d="M62.5,68.8c-0.2,0-0.3,0-0.5-0.1c-3.1-1.7-6-3.7-8.6-5.8c-0.2,0.7-0.5,1.3-0.8,2c-0.2,0.5-0.8,0.8-1.3,0.6
				c-0.5-0.2-0.8-0.8-0.6-1.3c0.4-0.9,0.7-1.8,1-2.7c-6.7-5.8-11-12.2-10.3-16.4c0.3-2,1.8-3.3,4.2-3.7c4.3-0.7,6.6,1,7.8,2.5
				c2.7,3.3,2.8,9.5,0.6,16.9c2.6,2.2,5.6,4.2,8.9,6.1c0.5,0.3,0.7,0.9,0.4,1.4C63.2,68.6,62.9,68.8,62.5,68.8z M47.6,43.2
				c-0.5,0-1,0-1.6,0.1c-2.2,0.4-2.4,1.6-2.5,2.1c-0.5,3.1,2.9,8.6,8.9,14c1.8-6.4,1.7-11.6-0.5-14.2C51,43.9,49.5,43.2,47.6,43.2z"
				/>
		</g>
	</g>
	<g>
		<path class="st0" d="M96.3,108.5H57.1c-3.2,0-6.3-1.3-8.6-3.6l-42-42c-2.2-2.2-3.4-5.1-3.4-8.2V14.2c0-2.4,1.9-4.3,4.3-4.3h9.3
			c0.6,0,1,0.4,1,1s-0.4,1-1,1H7.5c-1.3,0-2.3,1-2.3,2.3v40.6c0,2.6,1,5,2.8,6.8l42,42c1.9,1.9,4.5,3,7.2,3h39.2
			c1.9,0,3.5-1.6,3.5-3.5V63.9c0-2.8-1.1-5.4-3-7.3l-9.4-9.4c-0.4-0.4-0.4-1,0-1.4s1-0.4,1.4,0l9.4,9.4c2.3,2.3,3.6,5.4,3.6,8.7V103
			C101.8,106.1,99.4,108.5,96.3,108.5z"/>
	</g>
</g>
</svg>
