<?xml version="1.0" encoding="utf-8"?>
<!-- Generator: Adobe Illustrator 25.3.1, SVG Export Plug-In . SVG Version: 6.00 Build 0)  -->
<svg version="1.1" id="Calque_1" xmlns="http://www.w3.org/2000/svg" xmlns:xlink="http://www.w3.org/1999/xlink" x="0px" y="0px"
	 viewBox="0 0 1920 760.5" style="enable-background:new 0 0 1920 760.5;" xml:space="preserve">
<style type="text/css">
	.st0{clip-path:url(#SVGID_2_);}
	.st1{fill:none;}
	.st2{opacity:0.25;fill:#E30613;}
	.st3{opacity:0.1;fill:#E30613;}
	.st4{opacity:0.5;fill:#E30613;}
</style>
<g>
	<defs>
		<path id="SVGID_1_" d="M1919.5,638.1c-162.5-11.2-359.3-31.4-535.7-55.9c-231.3-32.2-436.8-77.8-613-102.4
			c-74.4-10.4-142.1,49.5-114.9,137.4C677.5,687.1,606.5,769,517.5,752c-92.6-17.7-366.9-86.3-518-115.4V-84h1920V638.1z"/>
	</defs>
	<clipPath id="SVGID_2_">
		<use xlink:href="#SVGID_1_"  style="overflow:visible;"/>
	</clipPath>
	<g class="st0">
		<path class="st1" d="M1454.8,431.4c-0.3-0.3-0.7-0.6-1-0.9C1454.1,430.8,1454.5,431.1,1454.8,431.4z"/>
		<path class="st1" d="M827.3,429.9c0,0.1,0,0.2,0,0.3h0C827.3,430.1,827.3,430,827.3,429.9z"/>
		<polygon class="st1" points="49.7,444.6 55.3,441.4 55.3,441.4 		"/>
		<path class="st1" d="M1294.6,441.2c0.8-1.2,1.5-2.4,2.3-3.5c0,0,0,0,0,0C1296.1,438.8,1295.3,440,1294.6,441.2z"/>
		<path class="st1" d="M829,419.3c0.1-0.5,0.1-1.1,0.2-1.6C829.1,418.2,829,418.8,829,419.3z"/>
		<polygon class="st1" points="547,425.7 549.9,430.9 549.9,430.9 		"/>
		<path class="st1" d="M823.9,445.7c0.3-1.3,0.6-2.6,0.9-3.9C824.5,443.1,824.2,444.4,823.9,445.7z"/>
		<path class="st1" d="M1451.9,428.7c-0.6-0.6-1.2-1.1-1.7-1.7C1450.7,427.5,1451.3,428.1,1451.9,428.7z"/>
		<path class="st1" d="M828.4,423.2c0.1-0.5,0.1-0.9,0.2-1.4C828.5,422.3,828.5,422.8,828.4,423.2z"/>
		<path class="st1" d="M745.8,208.9v54.6h40.1C775.2,244.1,763.6,225.1,745.8,208.9z"/>
		<path class="st1" d="M825.6,438.3c0-0.1,0-0.2,0.1-0.3C825.7,438.1,825.6,438.2,825.6,438.3z"/>
		<path class="st1" d="M827.8,427.1c0.1-0.4,0.1-0.8,0.2-1.1C827.9,426.3,827.9,426.7,827.8,427.1z"/>
		<polygon class="st2" points="55.3,441.4 55.3,441.4 61.4,437.9 122.7,437.9 122.7,388.5 125.4,389.2 125.4,369.3 115.2,369.3 
			115.2,364.4 91.6,364.4 91.6,350.2 96.1,347.6 97.3,343.1 85.3,343.1 85.3,366.8 62.3,366.8 62.3,389.8 56.7,389.8 56.7,423.9 
			55.3,423.5 55.3,437.9 55.3,439.3 59,439.3 		"/>
		<path class="st2" d="M1304.3,427h-5.2v7.2C1300.9,431.7,1302.6,429.3,1304.3,427z"/>
		<polygon class="st2" points="1792.9,427.3 1812.1,422.1 1822.9,415.8 1822.9,389.9 1818.9,391 1818.9,378.5 1798.9,378.5 
			1798.9,403.8 1790.5,403.8 1790.5,394.8 1785.5,394.8 1785.5,399.7 		"/>
		<polygon class="st2" points="500.8,383.4 500.8,340.4 491.1,340.4 491.1,317.4 485.5,307.6 478.6,305.7 474.9,299.2 474.9,269.3 
			473.2,270.1 470.7,299.2 470.7,319 469,321.9 465.2,325.7 465.2,357 459.6,357 459.6,374.3 458.7,374.3 458.7,383.4 		"/>
		<polygon class="st2" points="412.2,383.4 412.2,377.3 403.1,377.3 398.2,375.9 398.2,372 396.5,372 396.5,383.4 		"/>
		<polygon class="st2" points="353.5,428.6 369.9,428.6 369.9,425.9 361.2,425.9 360.7,404.2 354.5,402.5 351.4,399.5 346.1,399.5 
			346.1,394.8 341.7,394.8 340.5,399.4 327.2,399.4 326.6,401.7 326.6,413.1 		"/>
		<polygon class="st2" points="287.6,438.5 302,438.5 302,430.2 305.7,430.2 305.7,392 296.9,392 296.9,416.3 287.3,416.3 
			287.3,411.5 276.6,411.5 276.6,419.8 271.4,419.8 271.4,424 287.6,424 		"/>
		<polygon class="st2" points="673.8,415.2 673.8,384.5 665.5,382.3 663.8,375.7 652.6,375.7 640.3,372.4 638.7,369.5 623.9,369.5 
			623.9,415.2 627.2,415.2 		"/>
		<polygon class="st2" points="579.3,423 585,432.7 601.2,432.7 601.2,429.1 587.3,429.1 587.3,350.4 584.9,346.4 566.5,346.4 
			561.7,338 561.7,330.9 567,329.5 567,325.2 549.4,325.2 549.4,331.3 554,331.3 554,336.2 551.5,338.7 549.9,341.5 549.9,355.9 
			554.5,355.9 		"/>
		<polygon class="st2" points="549.9,430.9 550.8,432.4 549.9,430.9 		"/>
		<polygon class="st2" points="219.4,390.1 219.4,371.9 216.7,371.9 216.7,364.9 213,363.9 213,349.5 204.5,349.5 204.5,326.8 
			201,326.8 201,349.8 189.5,349.8 189.5,341.2 185.5,341.2 185.5,349.8 178,349.8 178,386.7 180,390.1 		"/>
		<polygon class="st2" points="265.6,424 267.6,424 267.6,417.3 260,415.2 260,437.6 265.6,437.6 		"/>
		<path class="st2" d="M827.2,430.2L827.2,430.2c0,0.2-0.1,0.4-0.1,0.6C827.2,430.6,827.2,430.4,827.2,430.2z"/>
		<path class="st2" d="M825.7,437.8c0,0,0,0.1,0,0.1c0,0.1,0,0.2-0.1,0.3c-0.1,0.4-0.2,0.7-0.2,1.1
			C825.5,438.9,825.6,438.4,825.7,437.8z"/>
		<path class="st2" d="M826.5,433.9c-0.1,0.3-0.1,0.6-0.2,0.9C826.4,434.6,826.5,434.2,826.5,433.9z"/>
		<path class="st2" d="M824.8,441.8c-0.3,1.3-0.6,2.6-0.9,3.9C824.2,444.4,824.5,443.1,824.8,441.8
			C824.8,441.8,824.8,441.8,824.8,441.8z"/>
		<polygon class="st2" points="890.7,337.9 887.5,337.9 887.5,315.3 883.8,315.3 883.8,295.3 876.2,293.2 876.2,272.6 874.8,271.2 
			873.4,272.6 873.4,293.2 865.7,295.3 865.7,315.3 862.1,315.3 862.1,337.9 858.9,337.9 858.9,415.2 890.7,415.2 		"/>
		<path class="st2" d="M1451.9,428.7c0.6,0.6,1.3,1.2,1.9,1.8c0.3,0.3,0.7,0.6,1,0.9c0.9,0.8,1.8,1.6,2.7,2.3v-5.8h6.5v7h15.8
			l0.9,4.1l-0.6-2.7h33.9v-0.9h3.4l0.9-1.5h4.7v-1.7l4.3-0.5v4.5h11.3v-11.5h5.7v-3.5h2.3V402h5.1v-22h-8.7v-4.5h-18.1v-23
			c0,0-32.5,1.5-32.9,0c-0.4-1.5,0-27.2,0-27.2s-1.4,0.4-4.4-10.8c-3-11.1-12.3-12.3-12.3-12.3v-19.3h-6.4V304l-1.5,5.8v12.5
			l-2.3,2.3l-2.6,9.7V427h-12.4c0,0,0,0,0,0C1450.7,427.5,1451.3,428.1,1451.9,428.7z"/>
		<polygon class="st2" points="1661.4,408.7 1666.2,408.7 1666.2,316.5 1665.1,307.1 1653,290.8 1651.9,275.7 1650.7,291.2 
			1639.4,308.6 1638.2,318 1638.2,399.2 1644.9,399.2 		"/>
		<path class="st2" d="M1192.5,431v-13.8h7.9v2.7h4.9v-12.9h8.7v-6.4h5.7v7.6h4.2V431h10.7v-2.3l0-0.1v-6.1h0v-69.3h7.7V270l1.6-2.7
			l-1.8-6.6l-9.4-2.5v-6.9l1.9-0.5l0.5-2.7l-2.9-2.1l-2.7-1.3c0,0-1.1-4.3-1.1-5.4c0-1.1-2.9-2.4-2.9-2.4l-1.9-21.6l-1.6,1.1
			l-0.8,20.9l-2.7,2.1l-1.9,3.7v3.2l-1.6-0.8l-2.9-4.5l-2.1-1.1l-1.1-24.3l-1.6-0.3c0,0-1.9,23-1.9,24.3s-3.2,2.4-3.2,2.4l-2.7,3.7
			l-2.7,0.8l0.3,3.8l2.7,2.6v6.8l-6.9,4l1.9,6.9h4.4v50.6h-20.4v107.3H1158v2.6H1192.5z"/>
		<polygon class="st2" points="1073.3,415.4 1080.9,417.2 1080.9,435.3 1086.8,435.3 1086.8,428.9 1097.9,428.9 1097.9,435.3 
			1100.2,435.3 1100.2,407.7 1105.5,402.4 1105.5,400.5 1096.7,398.1 1096.7,359.6 1093.7,356.6 1093.7,336.6 1076.3,336.6 
			1076.3,354.7 1072.9,358.1 1072.9,430.6 1073.3,430.4 		"/>
		<polygon class="st2" points="955.6,424.2 1010,392.8 1010,377.1 997.6,355.6 995.5,347.8 989,323.7 989,313.1 982.6,313.1 
			980,279.9 978.9,315 970.5,315 970.5,323.1 967.4,322.2 964.5,317.3 949.4,317.3 949.4,324.1 945.6,324.1 945.6,414.1 
			952.9,414.1 		"/>
		<polygon class="st2" points="1097.9,441.3 1100.2,441.3 1100.2,436.8 1098,436.1 1100.2,436.1 1100.2,435.3 1097.9,435.3 		"/>
		<polygon class="st3" points="1097.9,441.3 1100.2,441.3 1100.2,436.8 1098,436.1 1100.2,436.1 1100.2,435.3 1097.9,435.3 		"/>
		<polygon class="st2" points="1080.9,439.9 1086.8,438.5 1086.8,435.3 1080.9,435.3 		"/>
		<polygon class="st3" points="1080.9,439.9 1086.8,438.5 1086.8,435.3 1080.9,435.3 		"/>
		<polygon class="st2" points="1158,448.8 1165.7,448.8 1174.1,446.1 1174.2,435.2 1182.9,435.2 1182.9,443.9 1189.8,443.9 
			1189.8,433.4 1192.5,433.4 1192.5,431 1158,431 		"/>
		<polygon class="st3" points="1158,448.8 1165.7,448.8 1174.1,446.1 1174.2,435.2 1182.9,435.2 1182.9,443.9 1189.8,443.9 
			1189.8,433.4 1192.5,433.4 1192.5,431 1158,431 		"/>
		<polygon class="st2" points="1480.7,439 1483.2,439 1483.2,443.9 1492.1,443.9 1492.1,440.5 1501.1,440.5 1501.1,437.6 
			1514,437.6 1514,436.3 1480.1,436.3 		"/>
		<polygon class="st3" points="1480.7,439 1483.2,439 1483.2,443.9 1492.1,443.9 1492.1,440.5 1501.1,440.5 1501.1,437.6 
			1514,437.6 1514,436.3 1480.1,436.3 		"/>
		<rect x="890.7" y="415.2" class="st3" width="13.1" height="15"/>
		<path class="st3" d="M829,419.3c-0.1,0.9-0.2,1.7-0.4,2.5c-0.1,0.5-0.1,0.9-0.2,1.4c-0.1,0.9-0.3,1.8-0.4,2.7
			c-0.1,0.4-0.1,0.8-0.2,1.1c-0.2,0.9-0.3,1.9-0.5,2.8c0,0.1,0,0.2,0,0.3h31.7v-15h-29.4c0,0,0,0,0,0c-0.1,0.8-0.2,1.6-0.3,2.4
			C829.1,418.2,829,418.8,829,419.3z"/>
		<path class="st2" d="M827.2,430.2c0,0.2-0.1,0.4-0.1,0.6c-0.2,1.1-0.4,2.1-0.6,3.2c-0.1,0.3-0.1,0.6-0.2,0.9c-0.2,1-0.4,2-0.6,3
			c-0.1,0.5-0.2,1-0.3,1.5c-0.2,0.8-0.4,1.6-0.5,2.4c-0.3,1.3-0.6,2.6-0.9,3.9h3.2v2l11-0.1v-2.7h11.1l1.8-0.3h7.1v1.8h7.1v2.9
			l5.8,0.2v-5.8h5.8v-2.3h19.5l7.6,1.5v-12.7h-13.1v-15h-31.8v15H827.2z"/>
		<path class="st3" d="M827.2,430.2c0,0.2-0.1,0.4-0.1,0.6c-0.2,1.1-0.4,2.1-0.6,3.2c-0.1,0.3-0.1,0.6-0.2,0.9c-0.2,1-0.4,2-0.6,3
			c-0.1,0.5-0.2,1-0.3,1.5c-0.2,0.8-0.4,1.6-0.5,2.4c-0.3,1.3-0.6,2.6-0.9,3.9h3.2v2l11-0.1v-2.7h11.1l1.8-0.3h7.1v1.8h7.1v2.9
			l5.8,0.2v-5.8h5.8v-2.3h19.5l7.6,1.5v-12.7h-13.1v-15h-31.8v15H827.2z"/>
		<polygon class="st3" points="1891.8,448.4 1894.4,448.4 1892.9,442.7 1889.7,442.7 1891.8,443.2 		"/>
		<polygon class="st2" points="287.6,452.1 291.3,452.1 291.3,440.9 302,440.9 302,438.5 287.6,438.5 		"/>
		<polygon class="st3" points="287.6,452.1 291.3,452.1 291.3,440.9 302,440.9 302,438.5 287.6,438.5 		"/>
		<polygon class="st3" points="1056,442 1056,435.3 1050.4,435.3 1052.3,437.4 1052.3,442 		"/>
		<polygon class="st2" points="1052.3,444.8 1052.3,444.7 1056,444.7 1056,442 1052.3,442 		"/>
		<polygon class="st3" points="1052.3,444.8 1052.3,444.7 1056,444.7 1056,442 1052.3,442 		"/>
		<polygon class="st2" points="1234.5,431 1223.9,431 1223.9,435.2 1227.5,435.2 1227.5,434.2 1233.1,434.2 1233.1,435.2 
			1235.7,435.2 1235.7,431.2 1234.5,428.7 		"/>
		<polygon class="st3" points="1234.5,431 1223.9,431 1223.9,435.2 1227.5,435.2 1227.5,434.2 1233.1,434.2 1233.1,435.2 
			1235.7,435.2 1235.7,431.2 1234.5,428.7 		"/>
		<polygon class="st3" points="1878,446.2 1878,442.7 1872.2,442.7 1872.2,445.6 		"/>
		<polygon class="st3" points="123.7,437.9 126.2,428.5 132,428.5 133.6,434.4 145.9,437.7 148.8,436.1 155.5,436.1 155.5,441.9 
			164.3,441.9 164.3,402.9 167.3,402.9 167.3,398.1 178,398.1 178,386.7 174.7,380.9 168.1,387.5 163.6,379.7 156.9,386.4 
			156.9,359.4 152.1,359.4 152.1,345.5 147.8,345.5 147.8,335.9 139.2,335.9 139.2,347.3 136.8,347.3 136.8,359.9 132.8,359.9 
			132.8,391.2 125.4,389.2 125.4,431.7 		"/>
		<path class="st3" d="M219.9,429.7h4.3v-23h6.2V389h5.9v17.7h10.2v18.7h10.2v12.2h3.3v-41.8l-3.3-12.1v-50.2l-13.4-13.4l-2.1-17.6
			l-0.8,21.9c0,0-11.5,0-14.3,0c-2.8,0,0,11.3,0,11.3l-2.7,1.5v6.7l-3.9,1v27h0.5V429.7z"/>
		<polygon class="st2" points="122.7,437.9 123.7,437.9 125.4,431.7 125.4,389.2 122.7,388.5 		"/>
		<polygon class="st3" points="122.7,437.9 123.7,437.9 125.4,431.7 125.4,389.2 122.7,388.5 		"/>
		<polygon class="st2" points="167.3,398.1 167.3,402.9 164.3,402.9 164.3,441.9 155.5,441.9 155.5,443.1 164.4,452.1 168.3,452.1 
			168.3,434 173.2,438.9 173.2,452.1 177.7,452.1 177.7,429.9 182.6,434.8 182.9,452.1 206.3,452.1 206.3,437.7 211.6,437.7 
			211.6,436.3 216.5,436.3 216.5,429.7 219.9,429.7 219.9,371.9 219.4,371.9 219.4,390.1 180,390.1 178,386.7 178,398.1 		"/>
		<polygon class="st3" points="167.3,398.1 167.3,402.9 164.3,402.9 164.3,441.9 155.5,441.9 155.5,443.1 164.4,452.1 168.3,452.1 
			168.3,434 173.2,438.9 173.2,452.1 177.7,452.1 177.7,429.9 182.6,434.8 182.9,452.1 206.3,452.1 206.3,437.7 211.6,437.7 
			211.6,436.3 216.5,436.3 216.5,429.7 219.9,429.7 219.9,371.9 219.4,371.9 219.4,390.1 180,390.1 178,386.7 178,398.1 		"/>
		<polygon class="st3" points="310,407.7 324.9,407.7 326.6,401.7 326.6,342.5 323.9,340.9 326.3,336.9 324.4,334 324.4,328.6 
			321.8,326.2 317.6,310.5 313.6,325.3 310.4,328.5 308.5,335.7 310.2,338.6 305.7,341.2 305.7,392 310,392 		"/>
		<polygon class="st3" points="375.8,432.3 381.1,432.3 381.1,385.3 385.6,384.1 385.6,376.7 390.3,372 396.5,372 396.5,321.5 
			389.5,309.4 389.5,302.9 386.3,290.9 383.1,302.7 383.1,311.9 376,319 376,347.3 372.5,350.8 372.5,359.1 370.2,363.1 
			370.2,386.4 369.9,425.9 374.1,425.9 		"/>
		<polygon class="st2" points="310.5,430.2 310.5,449.8 318.8,447.6 318.8,436.7 329.3,436.7 329.3,445.4 344.8,445.4 374.3,445.4 
			374.3,436.7 392.4,436.7 392.4,409.5 390.9,406.8 390.9,400.8 401.8,400.8 401.8,406.8 399.7,408.9 399.7,437.5 412.2,437.5 
			412.2,383.4 396.5,383.4 396.5,372 390.3,372 385.6,376.7 385.6,384.1 381.1,385.3 381.1,432.3 375.8,432.3 374.1,425.9 
			369.9,425.9 369.9,428.6 353.5,428.6 326.6,413.1 326.6,401.7 324.9,407.7 310,407.7 310,392 305.7,392 305.7,430.2 		"/>
		<polygon class="st3" points="310.5,430.2 310.5,449.8 318.8,447.6 318.8,436.7 329.3,436.7 329.3,445.4 344.8,445.4 374.3,445.4 
			374.3,436.7 392.4,436.7 392.4,409.5 390.9,406.8 390.9,400.8 401.8,400.8 401.8,406.8 399.7,408.9 399.7,437.5 412.2,437.5 
			412.2,383.4 396.5,383.4 396.5,372 390.3,372 385.6,376.7 385.6,384.1 381.1,385.3 381.1,432.3 375.8,432.3 374.1,425.9 
			369.9,425.9 369.9,428.6 353.5,428.6 326.6,413.1 326.6,401.7 324.9,407.7 310,407.7 310,392 305.7,392 305.7,430.2 		"/>
		<polygon class="st3" points="1563.6,432.3 1568.8,432.3 1568.8,436.3 1599.9,436.3 1599.9,435.4 1603.6,435.4 1603.6,436.3 
			1626.8,436.3 1626.8,429.3 1631.4,429.3 1631.4,430.8 1632.8,430.8 1632.8,436.3 1638.2,436.3 1638.2,399.2 1632.6,399.2 
			1632.6,392.2 1622.9,392.2 1622.9,399.6 1619,403.5 1619,413.1 1594.4,413.1 1594.4,364.4 1583.5,364.4 1583.5,360.7 
			1589.9,360.7 1589.9,355.9 1577.6,355.9 1577.6,361 1581.1,361 1581.1,364.7 1564.5,364.7 1559.4,373.5 1559.4,414.1 
			1563.6,414.1 		"/>
		<polygon class="st3" points="1682.4,436.7 1682.4,431.2 1685,431.2 1685,420.6 1688.2,420.6 1688.2,404.3 1689.8,404.3 
			1689.8,420.6 1693.8,420.6 1693.8,427.8 1699.7,427.8 1699.7,436.7 1703.5,436.7 1703.5,417.9 1706,417.9 1706,411.1 
			1710.7,411.1 1710.7,392.8 1718.1,392.8 1718.1,411.1 1724.2,411.1 1724.2,428 1731,428 1731,436.7 1773.9,436.7 1773.9,394.8 
			1785.5,394.8 1785.5,385.3 1763.5,385.3 1763.5,371.6 1761.6,368.3 1757.4,370.8 1750.8,370.8 1747.6,367.5 1744.6,372.7 
			1744.6,382.9 1731,382.9 1731,397.3 1721.6,397.3 1721.6,335.3 1719.2,335.3 1719.2,326.2 1693.8,326.2 1690.6,329.4 
			1689.3,334.3 1684.3,334.3 1684.3,361.5 1676.4,363.6 1676.4,371.5 1670.1,375.1 1670.1,408.7 1666.2,408.7 1666.2,436.7 		"/>
		<polygon class="st3" points="1828.5,433.7 1828.5,442.4 1847.2,442.4 1847.5,443.9 1848.9,443.9 1847,446.8 1847.8,445.6 
			1848,446.8 1861,446.8 1861,441.1 1870.2,441.1 1870.2,435.3 1852.8,435.3 1852.8,419 1845.9,419 1845.1,422.2 1839.2,422.2 
			1839.2,413.8 1826.4,413.8 1822.9,415.8 1822.9,433.7 		"/>
		<polygon class="st2" points="1568.8,442.4 1577.7,442.4 1577.7,438.9 1585.6,437 1585.6,438.7 1590.7,438.7 1595.7,436.7 
			1595.7,438.7 1599.9,438.7 1599.9,436.3 1568.8,436.3 		"/>
		<polygon class="st3" points="1568.8,442.4 1577.7,442.4 1577.7,438.9 1585.6,437 1585.6,438.7 1590.7,438.7 1595.7,436.7 
			1595.7,438.7 1599.9,438.7 1599.9,436.3 1568.8,436.3 		"/>
		<polygon class="st2" points="1603.6,438.8 1603.6,440.4 1607.2,440.4 1608,439.3 1613,439.3 1613,440.4 1620.7,440.4 
			1620.7,437.9 1624.1,437.9 1624.1,438.9 1626.8,438.9 1626.8,436.3 1603.6,436.3 		"/>
		<polygon class="st3" points="1603.6,438.8 1603.6,440.4 1607.2,440.4 1608,439.3 1613,439.3 1613,440.4 1620.7,440.4 
			1620.7,437.9 1624.1,437.9 1624.1,438.9 1626.8,438.9 1626.8,436.3 1603.6,436.3 		"/>
		<rect x="1699.7" y="436.7" class="st2" width="3.7" height="6.3"/>
		<rect x="1699.7" y="436.7" class="st3" width="3.7" height="6.3"/>
		<polygon class="st2" points="1828.5,442.4 1828.5,443.9 1836.7,443.9 1847.5,443.9 1847.2,442.4 		"/>
		<polygon class="st3" points="1828.5,442.4 1828.5,443.9 1836.7,443.9 1847.5,443.9 1847.2,442.4 		"/>
		<polygon class="st2" points="1847,446.8 1848,446.8 1847.8,445.6 		"/>
		<polygon class="st3" points="1847,446.8 1848,446.8 1847.8,445.6 		"/>
		<polygon class="st2" points="1773.9,436.7 1731,436.7 1731,443.5 1731.4,443.5 1731.4,446.4 1737.3,446.4 1737.3,441.9 
			1740.6,441.9 1740.6,445 1746,445.6 1749.1,444.9 1749.1,436.9 1764.6,436.9 1764.6,450.3 1774.7,450.3 1821,450.3 1821,433.7 
			1822.9,433.7 1822.9,415.8 1812.1,422.1 1792.9,427.3 1785.5,399.7 1785.5,394.8 1773.9,394.8 		"/>
		<polygon class="st3" points="1773.9,436.7 1731,436.7 1731,443.5 1731.4,443.5 1731.4,446.4 1737.3,446.4 1737.3,441.9 
			1740.6,441.9 1740.6,445 1746,445.6 1749.1,444.9 1749.1,436.9 1764.6,436.9 1764.6,450.3 1774.7,450.3 1821,450.3 1821,433.7 
			1822.9,433.7 1822.9,415.8 1812.1,422.1 1792.9,427.3 1785.5,399.7 1785.5,394.8 1773.9,394.8 		"/>
		<polygon class="st2" points="1632.8,436.3 1632.8,436.5 1632.8,441.9 1632.8,446.8 1636.3,446.8 1636.3,442.2 1641.1,442.2 
			1641.1,439.9 1657.5,439.9 1667.1,442.1 1667.1,446.8 1669.8,446.8 1669.8,442.1 1673,442.1 1673,443.1 1679.4,442.4 1679.4,438 
			1682.4,438 1682.4,436.7 1666.2,436.7 1666.2,408.7 1661.4,408.7 1644.9,399.2 1638.2,399.2 1638.2,436.3 		"/>
		<polygon class="st3" points="1632.8,436.3 1632.8,436.5 1632.8,441.9 1632.8,446.8 1636.3,446.8 1636.3,442.2 1641.1,442.2 
			1641.1,439.9 1657.5,439.9 1667.1,442.1 1667.1,446.8 1669.8,446.8 1669.8,442.1 1673,442.1 1673,443.1 1679.4,442.4 1679.4,438 
			1682.4,438 1682.4,436.7 1666.2,436.7 1666.2,408.7 1661.4,408.7 1644.9,399.2 1638.2,399.2 1638.2,436.3 		"/>
		<polygon class="st3" points="623.9,415.2 615.4,415.2 615.4,427.2 610.9,427.2 610.9,424.3 601.2,424.3 601.2,429.1 623.9,429.1 
					"/>
		<rect x="673.8" y="415.2" class="st3" width="57.8" height="15"/>
		<polygon class="st3" points="525.8,435.8 525.8,434.8 536.4,434.8 536.4,435.8 538.6,435.8 538.6,425.7 547,425.7 549.9,430.9 
			549.9,355.9 531.9,355.9 531.9,329.1 528,328.1 528,308.6 519.5,287.8 510.5,309.9 510.5,323.2 508.3,327 508.3,347.1 
			503.7,347.1 503.7,383.4 500.8,383.4 500.8,435.8 		"/>
		<polygon class="st2" points="536.4,438.2 538.6,438.8 538.6,435.8 536.4,435.8 		"/>
		<polygon class="st3" points="536.4,438.2 538.6,438.8 538.6,435.8 536.4,435.8 		"/>
		<polygon class="st2" points="458.7,448.8 486.1,448.8 486.1,435.2 497.8,435.2 505.8,443.1 525.8,443.1 525.8,435.8 500.8,435.8 
			500.8,383.4 458.7,383.4 		"/>
		<polygon class="st3" points="458.7,448.8 486.1,448.8 486.1,435.2 497.8,435.2 505.8,443.1 525.8,443.1 525.8,435.8 500.8,435.8 
			500.8,383.4 458.7,383.4 		"/>
		<polygon class="st2" points="550.8,432.4 550.8,446.9 576.9,446.9 576.9,443.5 603.9,443.5 603.9,449.2 622.9,449.2 622.9,447.9 
			639.8,447.9 639.8,443 650.4,443 650.4,441.2 668.1,441.2 668.1,443.8 674.7,443.8 674.7,440.5 688,440.5 688,449.1 698.7,449.1 
			698.7,442 709.3,442 709.3,439.1 731.6,439.1 731.6,430.2 673.8,430.2 673.8,415.2 627.2,415.2 623.9,415.2 623.9,429.1 
			601.2,429.1 601.2,432.7 585,432.7 579.3,423 554.5,355.9 549.9,355.9 549.9,430.9 		"/>
		<polygon class="st3" points="550.8,432.4 550.8,446.9 576.9,446.9 576.9,443.5 603.9,443.5 603.9,449.2 622.9,449.2 622.9,447.9 
			639.8,447.9 639.8,443 650.4,443 650.4,441.2 668.1,441.2 668.1,443.8 674.7,443.8 674.7,440.5 688,440.5 688,449.1 698.7,449.1 
			698.7,442 709.3,442 709.3,439.1 731.6,439.1 731.6,430.2 673.8,430.2 673.8,415.2 627.2,415.2 623.9,415.2 623.9,429.1 
			601.2,429.1 601.2,432.7 585,432.7 579.3,423 554.5,355.9 549.9,355.9 549.9,430.9 		"/>
		<polygon class="st3" points="31.1,444.6 49.7,444.6 55.3,441.4 55.3,439.3 52.9,439.3 52.9,429.4 46.3,429.4 46.3,417.6 42,417.6 
			42,429.6 37.7,429.6 37.7,421.4 29.7,421.4 29.7,428.3 15,428.3 15,440.3 13.7,447.3 28.5,447.3 		"/>
		<polygon class="st2" points="59,439.3 55.3,439.3 55.3,441.4 		"/>
		<polygon class="st3" points="59,439.3 55.3,439.3 55.3,441.4 		"/>
		<polygon class="st2" points="1538.6,436.3 1527.3,436.3 1527.3,437.6 1527.7,437.6 1527.7,437.6 1535.1,437.6 1535.1,439.9 
			1544.3,439.9 1544.3,424.8 1538.6,424.8 		"/>
		<polygon class="st3" points="1538.6,436.3 1527.3,436.3 1527.3,437.6 1527.7,437.6 1527.7,437.6 1535.1,437.6 1535.1,439.9 
			1544.3,439.9 1544.3,424.8 1538.6,424.8 		"/>
		<polygon class="st3" points="1243.7,422.5 1243.7,427 1275.4,427 1275.4,422.2 1279.5,422.2 1279.5,427 1299.2,427 1299.2,305.4 
			1291.7,305.4 1291.7,290.7 1274.9,290.7 1274.9,307.5 1266,307.5 1266,341.1 1254,344.3 1251.6,353.2 1242.2,353.2 1242.2,422.5 
					"/>
		<path class="st2" d="M1279.5,431.8l6.4,1.5v-2.3h3.3v10.2h5.4c0.8-1.2,1.5-2.4,2.3-3.5c0,0,0,0,0,0c0.8-1.2,1.5-2.3,2.3-3.4V427
			h-19.6V431.8z"/>
		<path class="st3" d="M1279.5,431.8l6.4,1.5v-2.3h3.3v10.2h5.4c0.8-1.2,1.5-2.4,2.3-3.5c0,0,0,0,0,0c0.8-1.2,1.5-2.3,2.3-3.4V427
			h-19.6V431.8z"/>
		<polygon class="st2" points="1243.7,428.6 1241.9,430.7 1241.9,435.9 1253.1,435.9 1254.4,441.8 1259.3,441.8 1265.2,441.8 
			1265.2,435.8 1273.5,435.8 1275.4,435.3 1275.4,427 1243.7,427 		"/>
		<polygon class="st3" points="1243.7,428.6 1241.9,430.7 1241.9,435.9 1253.1,435.9 1254.4,441.8 1259.3,441.8 1265.2,441.8 
			1265.2,435.8 1273.5,435.8 1275.4,435.3 1275.4,427 1243.7,427 		"/>
		<rect x="1234.5" y="353.2" class="st2" width="7.7" height="69.3"/>
		<rect x="1234.5" y="353.2" class="st3" width="7.7" height="69.3"/>
		<polygon class="st3" points="1010.8,436.3 1012.9,427 1017.8,427 1019.1,432.9 1029.4,436.2 1031.8,434.6 1037.4,434.6 
			1037.4,441.6 1037.7,442 1048.1,442 1048.1,435.3 1047.6,435.3 1047.6,387.1 1040.7,361.6 1018.6,374.3 1018.6,391.5 
			1012.3,391.5 1010,392.8 1010,436.3 		"/>
		<polygon class="st3" points="931.7,416.8 931.7,430.2 945.6,430.2 945.6,414.1 935.2,414.1 935.2,408.8 928.3,408.8 928.3,416.8 
					"/>
		<polygon class="st2" points="1046.2,452.1 1048.1,452.1 1048.1,442 1037.7,442 		"/>
		<polygon class="st3" points="1046.2,452.1 1048.1,452.1 1048.1,442 1037.7,442 		"/>
		<polygon class="st2" points="931.7,430.2 931.7,441.9 944.9,441.9 944.9,443.1 948.8,443.1 958.6,436.3 1010,436.3 1010,392.8 
			955.6,424.2 952.9,414.1 945.6,414.1 945.6,430.2 		"/>
		<polygon class="st3" points="931.7,430.2 931.7,441.9 944.9,441.9 944.9,443.1 948.8,443.1 958.6,436.3 1010,436.3 1010,392.8 
			955.6,424.2 952.9,414.1 945.6,414.1 945.6,430.2 		"/>
		<polygon class="st3" points="1067.1,442 1067.1,435.3 1064.6,435.3 1060.1,435.3 1060.2,438.3 1060.3,442 		"/>
		<polygon class="st2" points="1060.3,444.7 1067.1,444.7 1067.1,442 1060.3,442 		"/>
		<polygon class="st3" points="1060.3,444.7 1067.1,444.7 1067.1,442 1060.3,442 		"/>
		<path class="st4" d="M1909,452.1l-2.4-3.7h-12.2h-2.6v-5.2l-2.2-0.5h0l-4.1-0.9v-6.9l-7.6,0.8v7.1v3.5l-5.9-0.7v-2.8v-1.6h-2h-9.2
			v5.8h-13h-1l1.9-2.9h-1.4h-10.7h-8.2v-1.6v-8.7h-5.6h-1.9v16.6h-46.3h-10.2v-13.4h-15.4v8l-3.1,0.8l-5.4-0.6v-3.1h-3.3v4.5h-5.9
			v-2.8h-0.5v-6.9V428h-6.8v-16.9h-6v-18.3h-7.5v18.3h-4.7v6.8h-2.5v18.8v6.3h-3.7v-6.3v-8.9h-5.9v-7.2h-4v-16.3h-1.6v16.3h-3.2
			v10.7h-2.6v5.4v1.3h-3v4.4l-6.3,0.7v-1.1h-3.3v4.7h-2.6v-4.7l-9.6-2.2h-16.4v2.3h-4.8v4.5h-3.5v-4.9v-5.4v-0.2v-5.5h-1.5v-1.5
			h-4.6v7v2.6h-2.6v-1h-3.4v2.4h-7.7v-1h-5l-0.7,1.1h-3.6v-1.6v-2.5v-0.9h-3.8v0.9v2.4h-4.2v-2.1l-5,2.1h-5V437l-7.9,1.9v3.5h-8.9
			v-6.1v-4.1h-5.3v-18.2h-4.1h-0.4v-9.8h-1.5V402h-5.8h-5.1v19.3h-2.3v3.5v15h-9.2v-2.3h-7.3v0h-0.5v-1.2v-4.5l-4.3,0.5v1.7h-4.7
			l-0.9,1.5h-3.4v0.9v1.2h-12.9v2.9h-8.9v3.4h-8.9V439h-2.6l-0.9-4.1H1464v-7h-6.5v5.8c-0.9-0.7-1.8-1.5-2.7-2.3
			c-0.3-0.3-0.7-0.6-1-0.9c-0.6-0.6-1.3-1.2-1.9-1.8c-0.6-0.6-1.2-1.1-1.7-1.7c0,0,0,0,0,0h0c-1.8-1.8-3.5-3.7-5.2-5.7v-4.5h-3.4
			l-0.9-3.1h-1.4c-8.3-12.3-14.8-28.2-18.3-49.6l-3-0.8V359v-11.6l-2.4-8.9h-15.5v-8.2l10.6-0.3l-2-3.3l1.4-3.6l-6,1l-4.9-1v15.5
			h-3.6v5.9h-4.9v3.8l-2.4,0.7v4h-4.3v5.8c-28.7,15.7-55.9,36.2-79.7,68.2h0c-1.7,2.3-3.5,4.8-5.2,7.2c-0.8,1.1-1.5,2.3-2.3,3.4
			c-0.8,1.2-1.5,2.3-2.3,3.5h-5.4v-10.2h-3.3v2.3l-6.4-1.5V427v-4.7h-4.1v4.7v8.4l-1.9,0.5h-8.3v6h-5.9h-4.9l-1.3-5.8h-11.2v-5.3
			l1.8-2.1V427v-4.4h-1.4h-7.7h0v6.1l0,0.1l1.2,2.5v3.9h-2.6v-1h-5.6v1h-3.6V431v-22.9h-4.2v-7.6h-5.7v6.4h-8.7v12.9h-4.9v-2.7h-7.9
			V431v2.4h-2.6v10.5h-6.9v-8.7h-8.8l0,10.8l-8.5,2.7h-7.6V431v-2.6v-25.3h-11.4v-6.7l-4.1-2.4v-35.9h4.4v-3.7l-7.4-2v-21.2v-44.6h3
			v-6.8h-3.8l-1-82.6l1.6-1.6v-7.1l-4.4-1.2v-17.5l2.2-0.6v-5.3l-2.7-0.7l-0.1-11l-4.4-15.6l1.9-7.1l-1.1-27.2l1.9-3.4l-3.4-10.2
			V62.7l-1.5-3.8l0-4.9l0-47.2h-3l-0.6,75.3l-4,9v22.4l-2.9,5.1l-1.1,4.3h2.6l-3,29.9v6.4h1v92.7l-9.3,2.5v5.6l1.8,0.5v67l-3.7,1
			v72.2v1.9l-5.3,5.3v27.6v0.8h-2.2l2.2,0.7v4.6h-2.3v-6.1v-6.3h-11.1v6.3v3.3l-5.9,1.4v-4.7v-18l-7.6-1.8v14.9l-0.4,0.2v0l-5.8,3
			v1.7v6.7v2.7h-6.8l0-2.7l-0.1-3.6l-0.1-5l-4.1-5v6.9v6.7v2.7h-3.7l0,0.1V442v-4.6l-4.1-4.9v2.7v6.7v10.1h-2l-8.5-10.1l-0.3-0.4v-7
			h-5.6l-2.3,1.6l-10.3-3.3l-1.4-5.9h-4.9l-2.1,9.3h-0.8h-51.4l-9.8,6.8h-4v-1.3h-13.1v-11.7v-13.4h-3.4v-8V404h-8.6v-8.8h-7.6v8.8
			h-5.2v6h-3.1v5.2v15v12.7l-7.6-1.5h-19.5v2.3h-5.8v5.8l-5.8-0.2v-2.9h-7.1v-1.8H851l-1.8,0.3h-11.1v2.7l-11,0.1v-2h-3.2
			c0.3-1.3,0.6-2.6,0.9-3.9c0.3-1.2,0.5-2.3,0.8-3.5c0-0.1,0-0.2,0.1-0.3c0.6-2.6,1.1-5.2,1.6-7.8h0c0-0.1,0-0.2,0-0.3
			c0.2-0.9,0.3-1.9,0.5-2.8c0.1-0.4,0.1-0.8,0.2-1.1c0.1-0.9,0.3-1.8,0.4-2.7c0.1-0.5,0.1-0.9,0.2-1.4c0.1-0.8,0.2-1.7,0.4-2.5
			c0.1-0.5,0.1-1.1,0.2-1.6c0.1-0.8,0.2-1.6,0.3-2.4c4.2-37.2-1.1-80.3-29.4-137.7l-1.1-4.1l2.6-2.6l6.2-6.2l6.4-1.7l1.7-1.7h-24.2
			c-13.5-21.3-26.2-42.5-51-66.3v-50.2l-4.3,7.5v38.2l-1.6,1.6v71.1h-4.1v7.2l-12.7,3.4v3l13.7,3.7v134.9v15v8.9h-22.3v2.9h-10.6
			v7.1H688v-8.6h-13.3v3.2h-6.6v-2.6h-17.7v1.8h-10.6v4.9h-16.8v1.3h-19v-5.8h-27v3.4h-26.1v-14.4l-0.9-1.5v0l-3-5.2h-8.4v10.1v3
			l-2.2-0.6v-2.4v-1h-10.6v1v7.3h-20l-7.9-7.9h-11.7v13.7h-27.4v-65.4v-9.1v-37.8h-4v-21.3h-4v-11.4h-3.7v-16.4h-4.7v-20.3l-3.1-1
			v-19.7l-3.7-1.2v24c-7.9,4.8-15.9,9.5-19.2,29.7v41.9h-4v36.6v6.2v54h-12.5v-28.5l2.1-2.1v-6.1h-11v6.1l1.5,2.6v27.2h-18.1v8.7
			h-29.5h-15.5v-8.7h-10.5l0,10.8l-8.2,2.2v-19.6h-4.8H302v8.3v2.4h-10.7v11.2h-3.7v-13.6V424h-16.2h-3.7h-2v13.6H260h-0.2h-3.3
			v-12.2h-10.2v-18.7h-10.2V389h-5.9v17.7h-6.2v23h-4.3h-3.5v6.7h-4.8v1.3h-5.3v14.4h-23.4l-0.3-17.3l-5-5v22.2h-4.4v-13.2l-4.9-4.9
			v18.1h-3.9l-9-9v-1.2v-5.8h-6.7l-2.8,1.6l-12.3-3.3l-1.6-5.9h-5.8l-2.5,9.3h-1H61.4l-6.1,3.5v0l-5.7,3.3H31.1l-2.6,2.6H13.7H4.7
			v4.8h-5.2v302.2h1920V452.1H1909z M745.8,263.5v-54.6c17.8,16.2,29.3,35.2,40.1,54.6H745.8z"/>
		<polygon class="st2" points="55.3,441.4 61.4,437.9 55.3,441.4 		"/>
		<polygon class="st4" points="55.3,441.4 61.4,437.9 55.3,441.4 		"/>
		<path class="st2" d="M1299.2,434.2c1.7-2.5,3.4-4.9,5.2-7.2h0C1302.6,429.3,1300.9,431.7,1299.2,434.2L1299.2,434.2z"/>
		<path class="st4" d="M1299.2,434.2c1.7-2.5,3.4-4.9,5.2-7.2h0C1302.6,429.3,1300.9,431.7,1299.2,434.2L1299.2,434.2z"/>
		<polygon class="st2" points="549.9,430.9 550.8,432.4 549.9,430.9 		"/>
		<polygon class="st4" points="549.9,430.9 550.8,432.4 549.9,430.9 		"/>
		<path class="st2" d="M825.4,439.4c0.1-0.4,0.2-0.7,0.2-1.1c-0.3,1.2-0.5,2.3-0.8,3.5c0,0,0,0,0,0C825,441,825.2,440.2,825.4,439.4
			z"/>
		<path class="st4" d="M825.4,439.4c0.1-0.4,0.2-0.7,0.2-1.1c-0.3,1.2-0.5,2.3-0.8,3.5c0,0,0,0,0,0C825,441,825.2,440.2,825.4,439.4
			z"/>
		<path class="st2" d="M826.3,434.9c0.1-0.3,0.1-0.6,0.2-0.9c0.2-1.1,0.4-2.1,0.6-3.2c0-0.2,0.1-0.4,0.1-0.6h0
			c-0.5,2.6-1,5.2-1.6,7.8c0,0,0-0.1,0-0.1C825.9,436.9,826.1,435.9,826.3,434.9z"/>
		<path class="st4" d="M826.3,434.9c0.1-0.3,0.1-0.6,0.2-0.9c0.2-1.1,0.4-2.1,0.6-3.2c0-0.2,0.1-0.4,0.1-0.6h0
			c-0.5,2.6-1,5.2-1.6,7.8c0,0,0-0.1,0-0.1C825.9,436.9,826.1,435.9,826.3,434.9z"/>
		<polygon class="st2" points="1450.1,427 1450.1,427 1450.1,427 		"/>
		<polygon class="st4" points="1450.1,427 1450.1,427 1450.1,427 		"/>
		<path class="st2" d="M1453.8,430.5c-0.6-0.6-1.3-1.2-1.9-1.8C1452.5,429.3,1453.1,429.9,1453.8,430.5z"/>
		<path class="st4" d="M1453.8,430.5c-0.6-0.6-1.3-1.2-1.9-1.8C1452.5,429.3,1453.1,429.9,1453.8,430.5z"/>
		<path class="st2" d="M1457.5,433.7c-0.9-0.7-1.8-1.5-2.7-2.3C1455.7,432.2,1456.6,433,1457.5,433.7z"/>
		<path class="st4" d="M1457.5,433.7c-0.9-0.7-1.8-1.5-2.7-2.3C1455.7,432.2,1456.6,433,1457.5,433.7z"/>
		<polygon class="st2" points="1234.5,428.7 1234.5,428.6 1234.5,428.7 		"/>
		<polygon class="st4" points="1234.5,428.7 1234.5,428.6 1234.5,428.7 		"/>
		<polygon class="st2" points="1073.3,430.4 1072.9,430.6 1072.9,430.6 		"/>
		<polygon class="st4" points="1073.3,430.4 1072.9,430.6 1072.9,430.6 		"/>
		<path class="st3" d="M828,425.9c0.1-0.9,0.3-1.8,0.4-2.7C828.3,424.1,828.1,425,828,425.9z"/>
		<path class="st4" d="M828,425.9c0.1-0.9,0.3-1.8,0.4-2.7C828.3,424.1,828.1,425,828,425.9z"/>
		<path class="st3" d="M827.3,429.9c0.2-0.9,0.3-1.9,0.5-2.8C827.6,428,827.5,429,827.3,429.9z"/>
		<path class="st4" d="M827.3,429.9c0.2-0.9,0.3-1.9,0.5-2.8C827.6,428,827.5,429,827.3,429.9z"/>
		<path class="st3" d="M829.5,415.2c-0.1,0.8-0.2,1.6-0.3,2.4C829.3,416.8,829.4,416,829.5,415.2z"/>
		<path class="st4" d="M829.5,415.2c-0.1,0.8-0.2,1.6-0.3,2.4C829.3,416.8,829.4,416,829.5,415.2z"/>
		<path class="st3" d="M828.6,421.8c0.1-0.8,0.2-1.7,0.4-2.5C828.9,420.1,828.7,421,828.6,421.8z"/>
		<path class="st4" d="M828.6,421.8c0.1-0.8,0.2-1.7,0.4-2.5C828.9,420.1,828.7,421,828.6,421.8z"/>
		<path class="st2" d="M826.3,434.9c-0.2,1-0.4,2-0.6,3C825.9,436.9,826.1,435.9,826.3,434.9z"/>
		<path class="st3" d="M826.3,434.9c-0.2,1-0.4,2-0.6,3C825.9,436.9,826.1,435.9,826.3,434.9z"/>
		<path class="st4" d="M826.3,434.9c-0.2,1-0.4,2-0.6,3C825.9,436.9,826.1,435.9,826.3,434.9z"/>
		<path class="st2" d="M825.4,439.4c-0.2,0.8-0.4,1.6-0.5,2.4C825,441,825.2,440.2,825.4,439.4z"/>
		<path class="st3" d="M825.4,439.4c-0.2,0.8-0.4,1.6-0.5,2.4C825,441,825.2,440.2,825.4,439.4z"/>
		<path class="st4" d="M825.4,439.4c-0.2,0.8-0.4,1.6-0.5,2.4C825,441,825.2,440.2,825.4,439.4z"/>
		<path class="st2" d="M827.1,430.7c-0.2,1.1-0.4,2.1-0.6,3.2C826.7,432.9,826.9,431.8,827.1,430.7z"/>
		<path class="st3" d="M827.1,430.7c-0.2,1.1-0.4,2.1-0.6,3.2C826.7,432.9,826.9,431.8,827.1,430.7z"/>
		<path class="st4" d="M827.1,430.7c-0.2,1.1-0.4,2.1-0.6,3.2C826.7,432.9,826.9,431.8,827.1,430.7z"/>
		<polygon class="st3" points="1891.8,443.2 1889.7,442.7 1889.7,442.7 		"/>
		<polygon class="st4" points="1891.8,443.2 1889.7,442.7 1889.7,442.7 		"/>
		<polygon class="st2" points="1235.7,431.2 1234.5,428.7 1234.5,428.7 		"/>
		<polygon class="st3" points="1235.7,431.2 1234.5,428.7 1234.5,428.7 		"/>
		<polygon class="st4" points="1235.7,431.2 1234.5,428.7 1234.5,428.7 		"/>
		<path class="st2" d="M1296.9,437.6c0.8-1.2,1.5-2.3,2.3-3.4v0C1298.4,435.3,1297.6,436.5,1296.9,437.6z"/>
		<path class="st3" d="M1296.9,437.6c0.8-1.2,1.5-2.3,2.3-3.4v0C1298.4,435.3,1297.6,436.5,1296.9,437.6z"/>
		<path class="st4" d="M1296.9,437.6c0.8-1.2,1.5-2.3,2.3-3.4v0C1298.4,435.3,1297.6,436.5,1296.9,437.6z"/>
		<polygon class="st3" points="1037.4,441.6 1037.7,442 1037.7,442 		"/>
		<polygon class="st4" points="1037.4,441.6 1037.7,442 1037.7,442 		"/>
		<polygon class="st2" points="1037.7,442 1046.2,452.1 1037.7,442 		"/>
		<polygon class="st3" points="1037.7,442 1046.2,452.1 1037.7,442 		"/>
		<polygon class="st4" points="1037.7,442 1046.2,452.1 1037.7,442 		"/>
		<polygon class="st3" points="1060.3,442 1060.2,438.3 1060.3,442 		"/>
		<polygon class="st4" points="1060.3,442 1060.2,438.3 1060.3,442 		"/>
		<polygon class="st2" points="1060.3,442 1060.3,444.7 1060.3,442 		"/>
		<polygon class="st3" points="1060.3,442 1060.3,444.7 1060.3,442 		"/>
		<polygon class="st4" points="1060.3,442 1060.3,444.7 1060.3,442 		"/>
	</g>
</g>
</svg>
