<?xml version="1.0" encoding="utf-8"?>
<!-- Generator: Adobe Illustrator 25.3.1, SVG Export Plug-In . SVG Version: 6.00 Build 0)  -->
<svg version="1.1" id="Calque_1" xmlns="http://www.w3.org/2000/svg" xmlns:xlink="http://www.w3.org/1999/xlink" x="0px" y="0px"
	 viewBox="0 0 105 111.4" style="enable-background:new 0 0 105 111.4;" xml:space="preserve">
<style type="text/css">
	.st0{fill:#009FE3;}
</style>
<g>
	<g>
		<path class="st0" d="M96.3,108.6H57.1c-3.3,0-6.3-1.3-8.6-3.6l-42-42c-2.2-2.2-3.4-5.1-3.4-8.3V14.2c0-2.4,2-4.4,4.4-4.4h9.3
			c0.6,0,1.1,0.5,1.1,1.1c0,0.6-0.5,1.1-1.1,1.1H7.5c-1.2,0-2.2,1-2.2,2.2v40.6c0,2.5,1,4.9,2.8,6.7l42,42c1.9,1.9,4.4,2.9,7.1,2.9
			h39.2c1.9,0,3.4-1.5,3.4-3.4V63.9c0-2.7-1.1-5.3-3-7.3l-9.4-9.4c-0.4-0.4-0.4-1.1,0-1.5c0.4-0.4,1.1-0.4,1.5,0l9.4,9.4
			c2.3,2.3,3.6,5.5,3.6,8.8V103C101.9,106.1,99.4,108.6,96.3,108.6z"/>
	</g>
</g>
<rect x="118.9" y="-151.4" style="fill:none;" width="221.6" height="50.6"/>
<text transform="matrix(1 0 0 1 155.6293 -132.3882)" style="fill:#00334C; font-family:'Gotham-ExtraLight'; font-size:26px;">Programme</text>
<g>
	<g>
		<path class="st0" d="M64.8,63.4H29.2c-0.6,0-1.1-0.5-1.1-1.1V19.7c0-0.6,0.5-1.1,1.1-1.1h35.6c0.6,0,1.1,0.5,1.1,1.1v20.6
			c0,0.6-0.5,1.1-1.1,1.1c-0.6,0-1.1-0.5-1.1-1.1V20.8H30.3v40.4h33.5v-4.2c0-0.6,0.5-1.1,1.1-1.1c0.6,0,1.1,0.5,1.1,1.1v5.2
			C65.9,62.9,65.4,63.4,64.8,63.4z"/>
	</g>
	<g>
		<path class="st0" d="M56.5,34.3H37.1c-0.6,0-1.1-0.5-1.1-1.1c0-0.6,0.5-1.1,1.1-1.1h19.3c0.6,0,1.1,0.5,1.1,1.1
			C57.5,33.8,57.1,34.3,56.5,34.3z"/>
	</g>
	<g>
		<path class="st0" d="M56.5,43H37.1c-0.6,0-1.1-0.5-1.1-1.1c0-0.6,0.5-1.1,1.1-1.1h19.3c0.6,0,1.1,0.5,1.1,1.1
			C57.5,42.5,57.1,43,56.5,43z"/>
	</g>
	<g>
		<path class="st0" d="M56.5,52.3H37.1c-0.6,0-1.1-0.5-1.1-1.1c0-0.6,0.5-1.1,1.1-1.1h19.3c0.6,0,1.1,0.5,1.1,1.1
			C57.5,51.8,57.1,52.3,56.5,52.3z"/>
	</g>
	<g>
		<g>
			<path class="st0" d="M63.6,53.5c-0.2,0-0.5-0.1-0.7-0.2c-0.5-0.4-0.6-1-0.2-1.5l13.7-17.6L76,33.8L62.3,51.4
				c-0.4,0.5-1,0.6-1.5,0.2c-0.5-0.4-0.6-1-0.2-1.5L75,31.6c0.4-0.5,1-0.6,1.5-0.2l2.2,1.7c0.2,0.2,0.4,0.4,0.4,0.7
				c0,0.3,0,0.6-0.2,0.8L64.4,53.1C64.2,53.4,63.9,53.5,63.6,53.5z"/>
		</g>
		<g>
			<path class="st0" d="M58.4,57.3c-0.3,0-0.5-0.1-0.7-0.3c-0.4-0.3-0.5-0.8-0.3-1.2l2.1-5.3c0.1-0.3,0.4-0.5,0.7-0.6
				c0.3-0.1,0.7,0,0.9,0.2l3,2.1c0.3,0.2,0.5,0.6,0.5,0.9c0,0.4-0.2,0.7-0.5,0.9L59,57.2C58.8,57.3,58.6,57.3,58.4,57.3z M61,52.6
				l-0.4,1l1-0.6L61,52.6z"/>
		</g>
		<g>
			<path class="st0" d="M74.6,43.5c-0.2,0-0.4-0.1-0.6-0.2c-0.5-0.3-0.6-1-0.3-1.5c1.5-2.1,4.2-2.2,6.7-2.2c3.3-0.1,4.4-0.4,4.6-1.9
				c0-0.1-0.1-0.1-0.2-0.2c-0.4,1.1-1.3,1.7-2.6,1.8c-0.9,0.1-1.9-0.3-2.5-1c-0.6-0.6-0.8-1.4-0.7-2.2c0.2-1.4,1.7-2.2,3.8-2
				c-0.1-0.6-0.2-1.2-0.4-1.9c-0.1-0.4-0.3-0.8-0.5-1.2c-0.5,0.3-1,0.7-1.6,1c-0.8,0.5-1.6,1-2.2,1.4c-0.5,0.3-1.2,0.2-1.5-0.3
				c-0.3-0.5-0.2-1.2,0.3-1.5c0.7-0.4,1.5-0.9,2.3-1.4c0.6-0.4,1.3-0.8,1.9-1.2c-0.1-0.2-0.1-0.5-0.1-0.7c0,0,0-0.1,0-0.2
				c-0.1-0.8-0.3-2.7,0.6-3.9c0.6-0.8,1.6-1.2,2.5-1c1,0.2,1.7,0.8,2,1.7c0.4,1.5-0.3,3.2-1.8,4.5c-0.2,0.1-0.4,0.3-0.6,0.5
				c0,0,0,0,0,0c0.3,0.5,0.6,1.1,0.8,1.9c0.3,1.1,0.5,2.2,0.6,3.3c1.1,0.7,2.2,1.7,2.2,2.7c-0.3,3.8-3.8,3.9-6.7,4
				c-2,0.1-4.1,0.1-5,1.3C75.2,43.3,74.9,43.5,74.6,43.5z M85,37.8L85,37.8L85,37.8z M82.1,36.2c-0.6,0-1,0.1-1,0.2
				c0,0.1,0,0.2,0.2,0.4c0.2,0.2,0.5,0.4,0.8,0.3c0.5,0,0.8-0.2,0.9-0.8c0,0-0.1,0-0.1,0C82.5,36.2,82.3,36.2,82.1,36.2z M83.6,25.2
				c-0.1,0-0.2,0-0.3,0.2C82.9,25.9,83,27,83,27.6c0.8-0.7,1.2-1.5,1-2.1C84,25.3,83.8,25.3,83.6,25.2
				C83.7,25.2,83.6,25.2,83.6,25.2z"/>
		</g>
	</g>
</g>
</svg>
