<?xml version="1.0" encoding="utf-8"?>
<!-- Generator: Adobe Illustrator 25.2.3, SVG Export Plug-In . SVG Version: 6.00 Build 0)  -->
<svg version="1.1" id="Calque_1" xmlns="http://www.w3.org/2000/svg" xmlns:xlink="http://www.w3.org/1999/xlink" x="0px" y="0px"
	 viewBox="0 0 105 111.4" style="enable-background:new 0 0 105 111.4;" xml:space="preserve">
<style type="text/css">
	.st0{fill:#009FE3;}
</style>
<g>
	<g>
		<g>
			<path class="st0" d="M51.5,68c-0.2,0-0.3,0-0.4-0.1L23.5,54.1c-0.3-0.2-0.6-0.5-0.6-0.9V19.4c0-0.3,0.2-0.7,0.5-0.9
				c0.3-0.2,0.7-0.2,1,0l27.5,13.7c0.3,0.2,0.6,0.5,0.6,0.9V67c0,0.3-0.2,0.7-0.5,0.9C51.8,67.9,51.6,68,51.5,68z M24.9,52.6
				l25.5,12.8V33.7L24.9,21V52.6z"/>
		</g>
		<g>
			<path class="st0" d="M51.5,68c-0.2,0-0.4-0.1-0.5-0.2c-0.3-0.2-0.5-0.5-0.5-0.8V33.1c0-0.4,0.2-0.7,0.6-0.9l28.3-13.7
				c0.3-0.1,0.7-0.1,1,0.1c0.3,0.2,0.5,0.5,0.5,0.8v33.7c0,0.4-0.2,0.7-0.6,0.9L51.9,67.9C51.8,67.9,51.6,68,51.5,68z M52.5,33.7
				v31.7l26.3-12.9V21L52.5,33.7z"/>
		</g>
		<g>
			<path class="st0" d="M51.5,34.1c-0.2,0-0.3,0-0.4-0.1L23.5,20.3c-0.3-0.2-0.6-0.5-0.6-0.9s0.2-0.7,0.6-0.9L51.8,4.9
				c0.3-0.1,0.6-0.1,0.9,0l27.5,13.6c0.3,0.2,0.6,0.5,0.6,0.9c0,0.4-0.2,0.7-0.6,0.9L51.9,34C51.8,34,51.6,34.1,51.5,34.1z
				 M26.2,19.4l25.3,12.5l26-12.6L52.2,6.9L26.2,19.4z"/>
		</g>
		<g>
			<path class="st0" d="M67.5,37.5c-0.6,0-1-0.4-1-1V25.9L39.5,12.6c-0.5-0.2-0.7-0.8-0.5-1.3c0.2-0.5,0.8-0.7,1.3-0.5l27.5,13.6
				c0.3,0.2,0.6,0.5,0.6,0.9v11.2C68.5,37.1,68,37.5,67.5,37.5z"/>
		</g>
	</g>
	<g>
		<path class="st0" d="M96.3,106.6H57.1c-3.2,0-6.3-1.3-8.6-3.6l-42-42c-2.2-2.2-3.4-5.1-3.4-8.2V12.3C3.2,9.9,5.1,8,7.5,8h9.3
			c0.6,0,1,0.4,1,1s-0.4,1-1,1H7.5c-1.3,0-2.3,1-2.3,2.3v40.6c0,2.6,1,5,2.8,6.8l42,42c1.9,1.9,4.5,3,7.2,3h39.2
			c1.9,0,3.5-1.6,3.5-3.5V62c0-2.8-1.1-5.4-3-7.3l-9.4-9.4c-0.4-0.4-0.4-1,0-1.4s1-0.4,1.4,0l9.4,9.4c2.3,2.3,3.6,5.4,3.6,8.7v39.1
			C101.8,104.1,99.4,106.6,96.3,106.6z"/>
	</g>
</g>
</svg>
