<?xml version="1.0" encoding="utf-8"?>
<!-- Generator: Adobe Illustrator 25.2.3, SVG Export Plug-In . SVG Version: 6.00 Build 0)  -->
<svg version="1.1" id="Calque_1" xmlns="http://www.w3.org/2000/svg" xmlns:xlink="http://www.w3.org/1999/xlink" x="0px" y="0px"
	 viewBox="0 0 105 111.4" style="enable-background:new 0 0 105 111.4;" xml:space="preserve">
<style type="text/css">
	.st0{fill:#009FE3;}
	.st1{fill:none;stroke:#009FE3;stroke-width:2;stroke-linecap:round;stroke-linejoin:round;stroke-miterlimit:10;}
</style>
<g>
	<g>
		<path class="st0" d="M96.3,108.5H57.1c-3.2,0-6.3-1.3-8.6-3.6l-42-42c-2.2-2.2-3.4-5.1-3.4-8.2V14.1c0-2.4,1.9-4.3,4.3-4.3h9.3
			c0.6,0,1,0.4,1,1s-0.4,1-1,1H7.5c-1.3,0-2.3,1-2.3,2.3v40.6c0,2.6,1,5,2.8,6.8l42,42c1.9,1.9,4.5,3,7.2,3h39.2
			c1.9,0,3.5-1.6,3.5-3.5V63.9c0-2.8-1.1-5.4-3-7.3l-9.4-9.4c-0.4-0.4-0.4-1,0-1.4s1-0.4,1.4,0l9.4,9.4c2.3,2.3,3.6,5.4,3.6,8.7V103
			C101.8,106,99.4,108.5,96.3,108.5z"/>
	</g>
	<g>
		<path class="st1" d="M62.1,61.2C70.4,58,76.3,50,76.3,40.7c0-7.8-4.2-15.1-10.9-19l3.4-5.4l-1.9-1.1l1.2-2l2,1.2l0.8-1.2l-2-1.2
			l0,0l-4.4-2.7l-4.3-2.7l-0.8,1.2l1.9,1.1l-1.2,2l-1.9-1.1L46.8,28L45.3,27c-0.4-0.2-0.8-0.1-1,0.2l0,0c-0.2,0.4-0.1,0.8,0.2,1
			l3.4,2.1L44.3,36l6.8,4.3l3.5-5.6l1.9,1.1l0,0l2.2,1.4l0.8-1.2l-2.2-1.4l4.7-7.5 M34.8,51c1.8,3.4,4.5,6.3,7.8,8.3
			c1.2,0.7,2.5,1.4,3.8,1.9h-7.1v7.9h30.1"/>
		<path class="st1" d="M33,33.7c2.2,0,4-1.8,4-4s-1.8-4-4-4s-4,1.8-4,4S30.8,33.7,33,33.7z"/>
		<path class="st1" d="M35.9,7.7c-3.6,0-6.4,2.9-6.4,6.4s2.9,6.4,6.4,6.4c3.6,0,6.4-2.9,6.4-6.4S39.5,7.7,35.9,7.7z"/>
	</g>
	<path class="st1" d="M32.2,46.6c11.2-1.1,19.2-5.5,20.6,0.3c1.3,5.4-9.8,3-16.7,2.6c-0.8,0-1.5,0.6-1.4,1.5"/>
</g>
</svg>
