<?xml version="1.0" encoding="utf-8"?>
<!-- Generator: Adobe Illustrator 26.0.1, SVG Export Plug-In . SVG Version: 6.00 Build 0)  -->
<svg version="1.1" id="Calque_1" xmlns="http://www.w3.org/2000/svg" xmlns:xlink="http://www.w3.org/1999/xlink" x="0px" y="0px"
	 viewBox="0 0 283.46 141.73" style="enable-background:new 0 0 283.46 141.73;" xml:space="preserve">
<style type="text/css">
	.st0{fill:#77C7C8;}
	.st1{fill:#007EAE;}
	.st2{fill:#F29593;}
	.st3{fill:#FCE1DF;}
	.st4{fill:#FFFFFF;}
</style>
<path class="st0" d="M142.85,69.59c-6.01,0-10.56-0.98-14.08-1.74l-0.69-0.15c-3.04-0.65-5.79-1.3-8.45-1.94
	c-10.43-2.48-18.66-4.43-33.79-3.88c-0.57,0.04-1.02-0.41-1.04-0.96c-0.02-0.55,0.41-1.02,0.96-1.04
	c15.4-0.57,24.17,1.51,34.33,3.93c2.65,0.63,5.39,1.28,8.41,1.93l0.69,0.15c8.25,1.78,20.73,4.47,43.62-5.4
	c0.51-0.22,1.09,0.01,1.31,0.52c0.22,0.51-0.01,1.1-0.52,1.31C160.47,67.99,150.49,69.59,142.85,69.59z"/>
<path class="st1" d="M105.19,66.5c-5.55,0-11.94-1.37-19.77-4.7c-0.51-0.22-0.74-0.8-0.53-1.31c0.22-0.51,0.8-0.75,1.31-0.53
	c20.15,8.57,30.37,3.53,41.63-3.95c11.21-7.45,25.45-12.72,46.03,4.63c0.42,0.36,0.48,0.99,0.12,1.41
	c-0.36,0.42-0.99,0.48-1.41,0.12c-19.52-16.45-32.51-11.88-43.64-4.49C121.54,62.59,114.57,66.5,105.19,66.5z"/>
<path class="st2" d="M173.21,62.41c-0.34,0-0.66-0.17-0.85-0.48c-9.09-14.77-19.01-21.59-31.36-21.42
	c-7.8,0.1-13.86,4.16-20.87,8.86c-8.75,5.86-18.66,12.51-34.32,12.51c-0.55,0-1-0.45-1-1s0.45-1,1-1c15.05,0,24.7-6.46,33.21-12.17
	c6.98-4.68,13.57-9.09,21.96-9.2c13.12-0.18,23.6,6.94,33.09,22.37c0.29,0.47,0.14,1.09-0.33,1.38
	C173.57,62.36,173.39,62.41,173.21,62.41z"/>
<path class="st3" d="M152.93,64.91c-6.13,0-12.65-0.94-20.48-3.55c-3.02-1-5.69-2.03-8.27-3.02c-12.7-4.86-20.36-7.79-37.84,3.38
	c-0.47,0.3-1.08,0.16-1.38-0.3c-0.3-0.46-0.16-1.08,0.3-1.38c18.33-11.71,26.81-8.47,39.64-3.56c2.56,0.98,5.21,2,8.19,2.99
	c16.13,5.38,26.12,3.53,39.94,0.96c0.54-0.11,1.06,0.26,1.17,0.8c0.1,0.54-0.26,1.07-0.8,1.17
	C166.21,63.72,159.82,64.91,152.93,64.91z"/>
<g>
	<path class="st4" d="M201.45,64.69c-10.62,0-19.27,8.64-19.27,19.27s8.64,19.27,19.27,19.27s19.27-8.64,19.27-19.27
		S212.08,64.69,201.45,64.69z M201.45,101.23c-9.52,0-17.27-7.75-17.27-17.27s7.75-17.27,17.27-17.27s17.27,7.75,17.27,17.27
		S210.98,101.23,201.45,101.23z"/>
	<path class="st4" d="M74.84,100.1h-10.1V78.36c0-0.55-0.45-1-1-1s-1,0.45-1,1v22.74c0,0.55,0.45,1,1,1h11.1c0.55,0,1-0.45,1-1
		S75.39,100.1,74.84,100.1z"/>
	<path class="st4" d="M86.32,77.36c-0.55,0-1,0.45-1,1v22.74c0,0.55,0.45,1,1,1s1-0.45,1-1V78.36
		C87.32,77.8,86.87,77.36,86.32,77.36z"/>
	<path class="st4" d="M161.47,100.1h-10.1V78.36c0-0.55-0.45-1-1-1s-1,0.45-1,1v22.74c0,0.55,0.45,1,1,1h11.1c0.55,0,1-0.45,1-1
		S162.03,100.1,161.47,100.1z"/>
	<path class="st4" d="M172.96,77.36c-0.55,0-1,0.45-1,1v22.74c0,0.55,0.45,1,1,1s1-0.45,1-1V78.36
		C173.96,77.8,173.51,77.36,172.96,77.36z"/>
	<path class="st4" d="M115.67,77.42c-0.52-0.19-1.09,0.06-1.29,0.58l-7.6,20.05L99.18,78c-0.2-0.52-0.77-0.77-1.29-0.58
		c-0.52,0.2-0.78,0.77-0.58,1.29l8.53,22.52c0,0.01,0.01,0.02,0.02,0.03c0.01,0.03,0.03,0.06,0.05,0.09
		c0.04,0.08,0.09,0.14,0.15,0.21c0.03,0.03,0.05,0.05,0.08,0.08c0.07,0.06,0.14,0.1,0.22,0.14c0.02,0.01,0.04,0.03,0.06,0.04
		c0.01,0,0.02,0,0.03,0.01c0.1,0.04,0.21,0.06,0.32,0.06s0.22-0.02,0.32-0.06c0.01,0,0.02,0,0.03-0.01
		c0.02-0.01,0.04-0.03,0.06-0.04c0.08-0.04,0.16-0.08,0.22-0.14c0.03-0.03,0.06-0.05,0.08-0.08c0.06-0.06,0.1-0.13,0.15-0.21
		c0.02-0.03,0.04-0.06,0.05-0.09c0-0.01,0.01-0.02,0.02-0.03l8.53-22.52C116.45,78.19,116.19,77.62,115.67,77.42z"/>
	<path class="st4" d="M138.92,79.36c0.55,0,1-0.45,1-1s-0.45-1-1-1h-12.19c-0.55,0-1,0.45-1,1v22.74c0,0.55,0.45,1,1,1h12.17
		c0.55,0,1-0.45,1-1s-0.45-1-1-1h-11.17v-9.48h7.24v-2h-7.24v-9.26H138.92z"/>
</g>
</svg>
