<?xml version="1.0" encoding="utf-8"?>
<!-- Generator: Adobe Illustrator 26.0.1, SVG Export Plug-In . SVG Version: 6.00 Build 0)  -->
<svg version="1.1" id="Calque_1" xmlns="http://www.w3.org/2000/svg" xmlns:xlink="http://www.w3.org/1999/xlink" x="0px" y="0px"
	 viewBox="0 0 566.93 283.46" style="enable-background:new 0 0 566.93 283.46;" xml:space="preserve">
<style type="text/css">
	.st0{fill:#77C7C8;}
	.st1{fill:#007EAE;}
	.st2{fill:#F29593;}
	.st3{fill:#FCE1DF;}
	.st4{fill:#304958;}
</style>
<path class="st0" d="M287.74,137.34c-13.06,0-23.11-2.17-31.33-3.94l-1.53-0.33c-6.73-1.44-12.83-2.89-18.73-4.3
	c-23.19-5.51-41.5-9.86-75.17-8.62c-0.67,0.05-1.35-0.55-1.38-1.28c-0.03-0.73,0.55-1.35,1.28-1.38
	c34.03-1.26,53.43,3.35,75.89,8.69c5.89,1.4,11.98,2.85,18.68,4.28l1.54,0.33c18.42,3.98,46.25,9.98,97.27-12.03
	c0.67-0.29,1.46,0.02,1.75,0.69c0.29,0.67-0.02,1.46-0.7,1.75C326.19,133.77,304.49,137.34,287.74,137.34z"/>
<path class="st1" d="M203.87,130.37c-12.2,0-26.26-3-43.47-10.32c-0.68-0.29-0.99-1.07-0.7-1.75c0.29-0.68,1.07-0.99,1.75-0.7
	c45.1,19.19,67.96,7.91,93.16-8.83c24.59-16.33,55.82-27.89,101.02,10.21c0.56,0.47,0.63,1.31,0.16,1.88
	c-0.47,0.56-1.31,0.63-1.88,0.16c-43.74-36.87-72.87-26.61-97.83-10.03C239.82,121.78,224.5,130.37,203.87,130.37z"/>
<path class="st2" d="M354.77,121.32c-0.45,0-0.88-0.23-1.13-0.63c-20.34-33.05-42.67-48.34-70.32-47.93
	c-17.55,0.22-31.09,9.3-46.77,19.81c-19.3,12.93-41.17,27.59-75.63,27.59c-0.74,0-1.33-0.6-1.33-1.33s0.6-1.33,1.33-1.33
	c33.65,0,55.16-14.42,74.14-27.14c15.36-10.3,29.88-20.02,48.22-20.26c0.33,0,0.66-0.01,0.99-0.01c28.21,0,51,15.66,71.63,49.2
	c0.39,0.63,0.19,1.45-0.44,1.83C355.25,121.26,355.01,121.32,354.77,121.32z"/>
<path class="st3" d="M309.67,126.94c-13.44,0-27.64-2.11-45-7.9c-6.67-2.22-12.59-4.49-18.31-6.68
	c-27.44-10.5-45.57-17.44-84.72,7.57c-0.62,0.39-1.44,0.22-1.84-0.4c-0.4-0.62-0.21-1.44,0.4-1.84
	c40.28-25.74,58.91-18.61,87.11-7.82c5.69,2.18,11.58,4.43,18.2,6.64c36,12,58.23,7.87,89.01,2.16c0.73-0.14,1.42,0.34,1.55,1.07
	c0.13,0.72-0.34,1.42-1.07,1.55C338.61,124.34,324.6,126.94,309.67,126.94z"/>
<g>
	<path class="st4" d="M417.41,123.73c-23.07,0-41.84,18.77-41.84,41.84s18.77,41.84,41.84,41.84c23.07,0,41.84-18.77,41.84-41.84
		S440.48,123.73,417.41,123.73z M417.41,204.75c-21.61,0-39.18-17.58-39.18-39.18s17.58-39.18,39.18-39.18
		c21.61,0,39.18,17.58,39.18,39.18S439.01,204.75,417.41,204.75z"/>
	<path class="st4" d="M136.61,202.25h-23.28v-49.1c0-0.74-0.6-1.33-1.33-1.33c-0.74,0-1.33,0.6-1.33,1.33v50.44
		c0,0.74,0.6,1.33,1.33,1.33h24.61c0.74,0,1.33-0.6,1.33-1.33S137.34,202.25,136.61,202.25z"/>
	<path class="st4" d="M162.07,151.81c-0.74,0-1.33,0.6-1.33,1.33v50.44c0,0.74,0.6,1.33,1.33,1.33c0.74,0,1.33-0.6,1.33-1.33v-50.44
		C163.4,152.41,162.81,151.81,162.07,151.81z"/>
	<path class="st4" d="M328.74,202.25h-23.28v-49.1c0-0.74-0.6-1.33-1.33-1.33s-1.33,0.6-1.33,1.33v50.44c0,0.74,0.6,1.33,1.33,1.33
		h24.61c0.73,0,1.33-0.6,1.33-1.33S329.47,202.25,328.74,202.25z"/>
	<path class="st4" d="M354.21,151.81c-0.73,0-1.33,0.6-1.33,1.33v50.44c0,0.74,0.6,1.33,1.33,1.33c0.73,0,1.33-0.6,1.33-1.33v-50.44
		C355.54,152.41,354.94,151.81,354.21,151.81z"/>
	<path class="st4" d="M226.85,151.9c-0.69-0.26-1.46,0.08-1.72,0.77l-17.68,46.66l-17.68-46.66c-0.26-0.69-1.03-1.03-1.72-0.77
		c-0.69,0.26-1.03,1.03-0.77,1.72l18.93,49.95c0,0.01,0.01,0.01,0.02,0.02c0.09,0.22,0.24,0.4,0.43,0.55
		c0.05,0.04,0.09,0.06,0.14,0.09c0.06,0.04,0.11,0.09,0.18,0.11c0.15,0.06,0.31,0.09,0.47,0.09c0.16,0,0.32-0.03,0.47-0.09
		c0.07-0.03,0.12-0.08,0.18-0.11c0.05-0.03,0.1-0.05,0.14-0.09c0.19-0.15,0.34-0.33,0.43-0.55c0-0.01,0.01-0.01,0.02-0.02
		l18.93-49.95C227.89,152.93,227.54,152.16,226.85,151.9z"/>
	<path class="st4" d="M278.72,154.48c0.74,0,1.33-0.6,1.33-1.33c0-0.74-0.6-1.33-1.33-1.33h-27.03c-0.74,0-1.33,0.6-1.33,1.33v50.44
		c0,0.74,0.6,1.33,1.33,1.33h26.98c0.74,0,1.33-0.6,1.33-1.33s-0.6-1.33-1.33-1.33h-25.65v-22.8h16.94v-2.66h-16.94v-22.31H278.72z"
		/>
</g>
</svg>
