<?xml version="1.0" encoding="utf-8"?>
<!-- Generator: Adobe Illustrator 16.0.0, SVG Export Plug-In . SVG Version: 6.00 Build 0)  -->
<!DOCTYPE svg PUBLIC "-//W3C//DTD SVG 1.1//EN" "http://www.w3.org/Graphics/SVG/1.1/DTD/svg11.dtd">
<svg version="1.1" id="Calque_1" xmlns="http://www.w3.org/2000/svg" xmlns:xlink="http://www.w3.org/1999/xlink" x="0px" y="0px"
	 width="432.5px" height="303px" viewBox="0 0 432.5 303" enable-background="new 0 0 432.5 303" xml:space="preserve">
<polygon fill="#FFFFFF" stroke="#FED500" stroke-width="3" stroke-linejoin="round" stroke-miterlimit="10" points="428.5,198.333
	6.5,198.333 26.5,174.916 6.5,151.5 428.5,151.5 408.5,174.916 "/>
<polygon fill="#FED500" stroke="#FED500" stroke-width="3" stroke-linecap="round" stroke-linejoin="round" stroke-miterlimit="10" points="
	59,171.5 82.917,159.084 82.917,171.5 "/>
<polygon fill="#FED500" stroke="#FED500" stroke-width="3" stroke-linecap="round" stroke-linejoin="round" stroke-miterlimit="10" points="
	376,171.5 352.084,159.084 352.084,171.5 "/>
<polygon fill="#0E244A" stroke="#FED500" stroke-width="3" stroke-linejoin="round" stroke-miterlimit="10" points="217.5,13.5
	233.179,2.322 246.191,16.516 263.853,8.842 273.63,25.431 292.5,21.596 298.614,39.856 317.869,40.028 320.055,59.16
	338.853,63.333 337.012,82.5 354.532,90.49 348.746,108.856 364.223,120.313 354.744,137.075 367.5,151.5 354.744,165.926
	364.223,182.687 348.746,194.145 354.532,212.511 337.012,220.5 338.853,239.668 320.054,243.84 317.869,262.972 298.614,263.145
	292.5,281.403 273.63,277.569 263.853,294.158 246.191,286.484 233.179,300.679 217.5,289.5 201.821,300.679 188.808,286.484
	171.147,294.158 161.371,277.569 142.5,281.403 136.386,263.145 117.13,262.972 114.946,243.84 96.147,239.668 97.988,220.5
	80.468,212.511 86.254,194.145 70.778,182.687 80.256,165.925 67.5,151.5 80.256,137.075 70.778,120.313 86.254,108.856
	80.468,90.49 97.988,82.5 96.147,63.333 114.946,59.16 117.13,40.028 136.386,39.856 142.5,21.596 161.371,25.431 171.147,8.842
	188.808,16.516 201.821,2.322 "/>
<g>

		<circle fill="none" stroke="#FED500" stroke-width="3" stroke-linecap="round" stroke-linejoin="round" stroke-dasharray="4.9089,9.8179,4.9089,9.8179,4.9089,9.8179" cx="217.5" cy="151.5" r="112.5"/>
</g>
<g>
	<path fill="#FED500" d="M176.387,124v-5.273l18.633-20.703c3.333-3.724,5.592-6.68,6.777-8.867
		c1.185-2.188,1.777-4.427,1.777-6.719c0-2.838-0.834-5.228-2.5-7.168c-1.667-1.939-3.867-2.91-6.602-2.91
		c-3.933,0-6.823,1.003-8.672,3.008c-1.85,2.006-2.773,4.844-2.773,8.516h-7.383l-0.078-0.234c-0.131-4.896,1.49-9.01,4.863-12.344
		c3.372-3.333,8.053-5,14.043-5c5.13,0,9.212,1.491,12.246,4.473c3.033,2.982,4.551,6.777,4.551,11.387
		c0,3.1-0.918,6.198-2.754,9.297c-1.836,3.1-4.421,6.445-7.754,10.039l-14.961,16.289l0.078,0.195h20.195l0.625-6.523h6.523V124
		H176.387z"/>
	<path fill="#FED500" d="M257.715,102.32c0,7.266-1.615,12.832-4.844,16.699c-3.229,3.867-7.644,5.801-13.242,5.801
		c-5.573,0-9.987-1.939-13.242-5.82c-3.256-3.88-4.883-9.439-4.883-16.68V88.844c0-7.239,1.614-12.806,4.844-16.699
		c3.229-3.893,7.63-5.84,13.203-5.84c5.599,0,10.025,1.947,13.281,5.84c3.255,3.894,4.883,9.46,4.883,16.699V102.32z M250.02,87.203
		c0-4.922-0.893-8.626-2.676-11.113c-1.784-2.486-4.382-3.73-7.793-3.73c-3.359,0-5.925,1.244-7.695,3.73
		c-1.771,2.487-2.656,6.191-2.656,11.113v16.68c0,4.922,0.898,8.64,2.695,11.152c1.797,2.514,4.375,3.77,7.734,3.77
		c3.411,0,5.996-1.25,7.754-3.75s2.637-6.224,2.637-11.172V87.203z"/>
	<path fill="#FED500" d="M172.371,155.924l1.978-0.342l10.083-25.024h4.517l10.059,25.024l1.978,0.342V159h-9.546v-3.076
		l2.612-0.439l-1.172-3.027h-12.402l-1.172,3.027l2.637,0.439V159h-9.57V155.924z M181.917,148.697h9.521l-4.712-12.183h-0.146
		L181.917,148.697z"/>
	<path fill="#FED500" d="M234.48,130.558v3.101l-3.979,0.684V159h-4.785l-14.404-20.972l-0.146,0.049v17.163l3.979,0.684V159
		h-12.769v-3.076l3.979-0.684v-20.898l-3.979-0.684v-3.101h3.979h4.81l14.404,20.972l0.146-0.049v-17.139l-3.979-0.684v-3.101h8.765
		H234.48z"/>
	<path fill="#FED500" d="M255.867,151.578c0-1.155-0.505-2.091-1.514-2.808c-1.01-0.716-2.841-1.399-5.493-2.051
		c-3.63-0.944-6.271-2.022-7.923-3.235c-1.651-1.212-2.478-3.04-2.478-5.481c0-2.393,0.992-4.297,2.979-5.713
		c1.985-1.416,4.654-2.124,8.008-2.124c3.401,0,6.063,0.757,7.983,2.271c1.92,1.514,2.84,3.638,2.759,6.372l-0.049,0.146h-4.565
		c0-1.497-0.537-2.714-1.611-3.65c-1.074-0.936-2.58-1.404-4.517-1.404c-2.051,0-3.589,0.378-4.614,1.135s-1.538,1.738-1.538,2.942
		c0,1.188,0.464,2.112,1.392,2.771s2.84,1.339,5.737,2.039c3.516,0.944,6.104,2.051,7.764,3.32s2.49,3.084,2.49,5.444
		c0,2.507-1.038,4.443-3.112,5.811c-2.076,1.367-4.88,2.051-8.411,2.051c-3.305,0-6.071-0.691-8.301-2.075
		c-2.23-1.383-3.296-3.572-3.198-6.567l0.024-0.146h4.614c0,1.758,0.663,3.044,1.99,3.857c1.326,0.813,2.949,1.221,4.87,1.221
		c2.132,0,3.784-0.382,4.956-1.147C255.281,153.792,255.867,152.799,255.867,151.578z"/>
</g>
<rect x="59" y="171.5" fill="#FFFFFF" stroke="#FED500" stroke-width="2.8044" stroke-linejoin="round" stroke-miterlimit="10" width="317" height="63.5"/>
<g>
	<path fill="#0E244A" d="M89.52,191.18c3.091,0,5.691,0.984,7.8,2.955c2.109,1.97,3.164,4.486,3.164,7.547v4.615
		c0,3.076-1.055,5.592-3.164,7.547c-2.109,1.956-4.709,2.934-7.8,2.934H76.688v-2.769l3.582-0.615v-18.809l-3.582-0.615v-2.79h3.582
		H89.52z M84.598,194.541v18.896h4.922c1.846,0,3.413-0.682,4.702-2.043c1.289-1.363,1.934-3.062,1.934-5.098v-4.637
		c0-2.007-0.645-3.695-1.934-5.064c-1.289-1.37-2.856-2.055-4.702-2.055H84.598z"/>
	<path fill="#0E244A" d="M110.548,186.543c0,1.465-0.355,2.981-1.066,4.549s-1.673,2.855-2.889,3.867l-2.461-1.627
		c0.688-1.039,1.208-2.105,1.56-3.196c0.352-1.092,0.527-2.267,0.527-3.526V182.5h4.329V186.543z"/>
	<path fill="#0E244A" d="M131.29,205.132h-10.371v8.306h9.536l0.352-3.713h3.691v7.053h-21.489v-2.769l3.582-0.615v-18.809
		l-3.582-0.615v-2.79h3.582h17.908v7.074h-3.713l-0.33-3.713h-9.536v7.207h10.371V205.132z"/>
	<path fill="#0E244A" d="M138.014,214.009l2.769-0.462l6.614-9.689l-6.416-9.404l-2.747-0.483v-2.79h9.207v2.79l-1.648,0.286
		l4.087,6.438l4.131-6.438l-1.604-0.286v-2.79h9.25v2.79l-2.769,0.483l-6.394,9.404l6.592,9.689l2.769,0.462v2.769h-9.185v-2.769
		l1.604-0.264l-4.329-6.68l-4.307,6.68l1.626,0.264v2.769h-9.25V214.009z"/>
	<path fill="#0E244A" d="M176.488,191.18c2.959,0,5.295,0.762,7.009,2.285s2.571,3.493,2.571,5.91s-0.857,4.384-2.571,5.899
		c-1.714,1.517-4.05,2.274-7.009,2.274h-5.911v5.845l3.582,0.615v2.769h-11.492v-2.769l3.56-0.615v-18.809l-3.56-0.615v-2.79h3.56
		H176.488z M170.577,204.165h5.911c1.714,0,3.01-0.462,3.889-1.384c0.879-0.924,1.318-2.044,1.318-3.362
		c0-1.348-0.439-2.497-1.318-3.45c-0.879-0.951-2.175-1.428-3.889-1.428h-5.911V204.165z"/>
	<path fill="#0E244A" d="M206.986,205.132h-10.371v8.306h9.536l0.352-3.713h3.691v7.053h-21.489v-2.769l3.582-0.615v-18.809
		l-3.582-0.615v-2.79h3.582h17.908v7.074h-3.713l-0.33-3.713h-9.536v7.207h10.371V205.132z M202.152,183.818h5.054l0.044,0.132
		l-5.911,5.713h-3.23L202.152,183.818z"/>
	<path fill="#0E244A" d="M227.398,191.18c3.002,0,5.328,0.658,6.977,1.977s2.471,3.164,2.471,5.537c0,1.305-0.361,2.418-1.086,3.34
		c-0.727,0.924-1.791,1.67-3.197,2.242c1.523,0.439,2.617,1.186,3.285,2.24c0.666,1.055,0.998,2.352,0.998,3.89v2.593v0.637
		l2.176,0.374v2.769h-6.107c-0.176-0.337-0.287-0.864-0.33-1.582c-0.045-0.718-0.066-1.457-0.066-2.219v-2.549
		c0-1.318-0.385-2.344-1.152-3.076c-0.77-0.732-1.873-1.1-3.309-1.1h-6.459v7.142l3.582,0.615v2.769h-11.492v-2.769l3.582-0.615
		v-18.809l-3.582-0.615v-2.79h3.582H227.398z M221.598,202.869h5.801c1.758,0,3.047-0.345,3.867-1.033s1.23-1.677,1.23-2.967
		c0-1.347-0.414-2.405-1.242-3.175c-0.826-0.769-2.113-1.153-3.855-1.153h-5.801V202.869z"/>
	<path fill="#0E244A" d="M240.868,193.97v-2.79h11.469v2.79l-3.581,0.615v18.809l3.581,0.615v2.769h-11.469v-2.769l3.581-0.615
		v-18.809L240.868,193.97z"/>
	<path fill="#0E244A" d="M272.004,205.132h-10.371v8.306h9.535l0.352-3.713h3.691v7.053h-21.488v-2.769l3.581-0.615v-18.809
		l-3.581-0.615v-2.79h3.581h17.907v7.074h-3.713l-0.33-3.713h-9.535v7.207h10.371V205.132z"/>
	<path fill="#0E244A" d="M307.599,191.18v2.79l-3.581,0.615v22.192h-4.307l-12.965-18.875l-0.131,0.045v15.446l3.581,0.615v2.769
		h-11.491v-2.769l3.581-0.615v-18.809l-3.581-0.615v-2.79h3.581h4.329l12.963,18.874l0.133-0.044v-15.425l-3.582-0.615v-2.79h7.889
		H307.599z"/>
	<path fill="#0E244A" d="M331.483,208.406l0.043,0.131c0.059,2.77-0.82,4.896-2.637,6.384c-1.816,1.486-4.174,2.229-7.074,2.229
		c-3.194,0-5.834-1.12-7.922-3.361c-2.087-2.241-3.131-5.31-3.131-9.207v-0.769c0-4.014,1.04-7.182,3.12-9.503
		c2.08-2.322,4.724-3.482,7.933-3.482c2.973,0,5.354,0.743,7.141,2.229c1.787,1.487,2.651,3.601,2.593,6.339l-0.044,0.133h-4.175
		c0-1.772-0.487-3.105-1.461-4c-0.975-0.893-2.326-1.34-4.054-1.34c-1.964,0-3.575,0.872-4.834,2.615
		c-1.261,1.743-1.891,4.072-1.891,6.986v0.791c0,2.799,0.63,5.036,1.891,6.713c1.259,1.678,2.87,2.516,4.834,2.516
		c1.728,0,3.076-0.446,4.043-1.34s1.449-2.248,1.449-4.064H331.483z"/>
	<path fill="#0E244A" d="M352.973,205.132h-10.371v8.306h9.535l0.352-3.713h3.691v7.053h-21.488v-2.769l3.581-0.615v-18.809
		l-3.581-0.615v-2.79h3.581h17.907v7.074h-3.713l-0.33-3.713h-9.535v7.207h10.371V205.132z"/>
</g>
</svg>
