<?xml version="1.0" encoding="utf-8"?>
<!-- Generator: Adobe Illustrator 16.0.0, SVG Export Plug-In . SVG Version: 6.00 Build 0)  -->
<!DOCTYPE svg PUBLIC "-//W3C//DTD SVG 1.1//EN" "http://www.w3.org/Graphics/SVG/1.1/DTD/svg11.dtd">
<svg version="1.1" id="Calque_1" xmlns="http://www.w3.org/2000/svg" xmlns:xlink="http://www.w3.org/1999/xlink" x="0px" y="0px"
	 width="113.57px" height="35.11px" viewBox="0 0 113.57 35.11" enable-background="new 0 0 113.57 35.11" xml:space="preserve">
<g>
	
		<polyline fill="none" stroke="#FFFFFF" stroke-width="3" stroke-linecap="round" stroke-linejoin="round" stroke-miterlimit="10" points="
		-128.594,24.616 -120.643,27.868 -112.672,24.614 	"/>
	
		<polygon fill="none" stroke="#FFFFFF" stroke-width="3" stroke-linecap="round" stroke-linejoin="round" stroke-miterlimit="10" points="
		-170.667,-78.263 -120.643,-58.345 -70.667,-78.281 -120.643,-2.995 	"/>
	
		<polygon fill="none" stroke="#FFFFFF" stroke-width="3" stroke-linecap="round" stroke-linejoin="round" stroke-miterlimit="10" points="
		-127.915,27.45 -120.643,45.241 -113.368,27.45 -120.643,30.575 	"/>
	
		<polygon fill="none" stroke="#FFFFFF" stroke-width="3" stroke-linecap="round" stroke-linejoin="round" stroke-miterlimit="10" points="
		-120.643,30.575 -120.643,45.241 -127.915,27.45 	"/>
	
		<polyline fill="none" stroke="#FFFFFF" stroke-width="3" stroke-linecap="round" stroke-linejoin="round" stroke-miterlimit="10" points="
		-84.268,-65.791 -113.063,-55.733 -100.445,-50.937 	"/>
	
		<line fill="none" stroke="#FFFFFF" stroke-width="3" stroke-linecap="round" stroke-linejoin="round" stroke-miterlimit="10" x1="-170.667" y1="-78.263" x2="-150.665" y2="-70.317"/>
	<path fill="none" stroke="#FFFFFF" stroke-width="3" stroke-linecap="round" stroke-linejoin="round" stroke-miterlimit="10" d="
		M-70.667-78.281"/>
	
		<line fill="none" stroke="#FFFFFF" stroke-width="3" stroke-linecap="round" stroke-linejoin="round" stroke-miterlimit="10" x1="-170.667" y1="-78.263" x2="-150.665" y2="-70.317"/>
	<path fill="none" stroke="#FFFFFF" stroke-width="3" stroke-linecap="round" stroke-linejoin="round" stroke-miterlimit="10" d="
		M-70.667-78.281"/>
	<path fill="none" stroke="#FFFFFF" stroke-width="3" stroke-linecap="round" stroke-linejoin="round" stroke-miterlimit="10" d="
		M-90.676-70.089"/>
	<path fill="none" stroke="#FFFFFF" stroke-width="3" stroke-linecap="round" stroke-linejoin="round" stroke-miterlimit="10" d="
		M-70.667-78.281"/>
	
		<polygon fill="none" stroke="#FFFFFF" stroke-width="3" stroke-linecap="round" stroke-linejoin="round" stroke-miterlimit="10" points="
		-120.643,27.868 -110.755,-1.652 -112.672,24.614 	"/>
	
		<polygon fill="none" stroke="#FFFFFF" stroke-width="3" stroke-linecap="round" stroke-linejoin="round" stroke-miterlimit="10" points="
		-110.755,-1.652 -92.575,-24.614 -112.672,24.614 	"/>
	
		<polygon fill="none" stroke="#FFFFFF" stroke-width="3" stroke-linecap="round" stroke-linejoin="round" stroke-miterlimit="10" points="
		-110.755,-1.652 -120.643,-2.995 -120.643,27.868 	"/>
	
		<polygon fill="none" stroke="#FFFFFF" stroke-width="3" stroke-linecap="round" stroke-linejoin="round" stroke-miterlimit="10" points="
		-120.643,-2.995 -92.724,-45.038 -110.755,-1.652 	"/>
	
		<polygon fill="none" stroke="#FFFFFF" stroke-width="3" stroke-linecap="round" stroke-linejoin="round" stroke-miterlimit="10" points="
		-110.755,-1.652 -92.724,-45.038 -92.575,-24.614 	"/>
	
		<polygon fill="none" stroke="#FFFFFF" stroke-width="3" stroke-linecap="round" stroke-linejoin="round" stroke-miterlimit="10" points="
		-92.575,-24.614 -70.667,-78.281 -92.724,-45.038 	"/>
	
		<polygon fill="none" stroke="#FFFFFF" stroke-width="3" stroke-linecap="round" stroke-linejoin="round" stroke-miterlimit="10" points="
		-120.643,27.868 -130.506,-1.643 -128.584,24.628 	"/>
	
		<polygon fill="none" stroke="#FFFFFF" stroke-width="3" stroke-linecap="round" stroke-linejoin="round" stroke-miterlimit="10" points="
		-130.506,-1.643 -148.682,-24.605 -128.584,24.628 	"/>
	
		<polygon fill="none" stroke="#FFFFFF" stroke-width="3" stroke-linecap="round" stroke-linejoin="round" stroke-miterlimit="10" points="
		-130.506,-1.643 -120.643,-2.985 -120.643,27.868 	"/>
	
		<polygon fill="none" stroke="#FFFFFF" stroke-width="3" stroke-linecap="round" stroke-linejoin="round" stroke-miterlimit="10" points="
		-120.643,-2.985 -148.532,-45.036 -130.506,-1.643 	"/>
	
		<polygon fill="none" stroke="#FFFFFF" stroke-width="3" stroke-linecap="round" stroke-linejoin="round" stroke-miterlimit="10" points="
		-130.506,-1.643 -148.532,-45.036 -148.682,-24.605 	"/>
	
		<polygon fill="none" stroke="#FFFFFF" stroke-width="3" stroke-linecap="round" stroke-linejoin="round" stroke-miterlimit="10" points="
		-148.682,-24.605 -170.667,-78.263 -148.532,-45.036 	"/>
	
		<polygon fill="none" stroke="#FFFFFF" stroke-width="3" stroke-linecap="round" stroke-linejoin="round" stroke-miterlimit="10" points="
		-120.643,-113.878 -120.643,-58.345 -170.667,-78.263 	"/>
	
		<polygon fill="none" stroke="#FFFFFF" stroke-width="3" stroke-linecap="round" stroke-linejoin="round" stroke-miterlimit="10" points="
		-120.643,-113.878 -70.667,-78.281 -120.643,-58.345 	"/>
	
		<polyline fill="none" stroke="#FFFFFF" stroke-width="3" stroke-linecap="round" stroke-linejoin="round" stroke-miterlimit="10" points="
		-77.311,-68.268 -120.643,-2.995 -120.643,-32.407 -84.268,-65.791 -77.311,-68.268 	"/>
	
		<polygon fill="none" stroke="#FFFFFF" stroke-width="3" stroke-linecap="round" stroke-linejoin="round" stroke-miterlimit="10" points="
		-120.643,-53.088 -120.643,-32.407 -140.809,-50.937 -127.981,-55.647 	"/>
	
		<polygon fill="none" stroke="#FFFFFF" stroke-width="3" stroke-linecap="round" stroke-linejoin="round" stroke-miterlimit="10" points="
		-127.981,-55.647 -140.809,-50.937 -157.095,-65.841 	"/>
	
		<polygon fill="none" stroke="#FFFFFF" stroke-width="3" stroke-linecap="round" stroke-linejoin="round" stroke-miterlimit="10" points="
		-164.001,-68.256 -120.643,-53.082 -77.308,-68.249 -84.431,-72.789 -120.643,-58.345 -156.914,-72.727 	"/>
	
		<polygon fill="none" stroke="#FFFFFF" stroke-width="3" stroke-linecap="round" stroke-linejoin="round" stroke-miterlimit="10" points="
		-164.001,-68.256 -120.643,-2.995 -120.643,-32.407 -156.838,-65.75 	"/>
	
		<polygon fill="none" stroke="#FFFFFF" stroke-width="3" stroke-linecap="round" stroke-linejoin="round" stroke-miterlimit="10" points="
		-113.063,-55.733 -100.445,-50.937 -120.643,-32.407 -120.643,-53.084 	"/>
	
		<polygon fill="none" stroke="#FFFFFF" stroke-width="3" stroke-linecap="round" stroke-linejoin="round" stroke-miterlimit="10" points="
		-164.001,-68.256 -170.667,-78.263 -128.594,24.616 -120.643,27.868 -120.643,-53.093 	"/>
	
		<polyline fill="none" stroke="#FFFFFF" stroke-width="3" stroke-linecap="round" stroke-linejoin="round" stroke-miterlimit="10" points="
		-70.667,-78.281 -77.311,-68.268 -120.643,-53.099 -120.643,27.868 -112.672,24.614 -70.667,-78.281 	"/>
</g>
<g>
	<g>
		<polygon fill="#FFFFFF" points="25.269,3.953 25.269,3.953 25.375,4.167 		"/>
		<polygon fill="#FFFFFF" points="13.623,0.338 0,0.338 0,3.953 5.023,3.953 5.023,18.425 8.629,18.425 8.629,3.953 13.623,3.953 		
			"/>
		<path fill="#FFFFFF" d="M32.634,18.425l8.27-18.087H23.486l1.782,3.615l0,0l0.107,0.214l0.003,0.006l0,0l1.614,3.285l-1.594,3.045
			l-3.002-6.307l-1.846-3.858h-3.961l8.241,18.087h0.875l3.04-6.631l3.016,6.631H32.634z M35.211,3.953l-3.014,6.395l-2.985-6.395
			H35.211z"/>
		<path fill="#FFFFFF" d="M56.861,15.988c1.826-1.831,2.747-4.037,2.747-6.62c0-2.579-0.92-4.785-2.747-6.618
			C55.029,0.916,52.828,0,50.252,0c-2.574,0-4.773,0.916-6.606,2.75c-1.831,1.833-2.741,4.039-2.741,6.618
			c0,2.583,0.91,4.789,2.741,6.62c1.833,1.834,4.032,2.75,6.606,2.75C52.828,18.738,55.029,17.822,56.861,15.988z M44.611,9.368
			c0-1.563,0.552-2.897,1.651-3.997c1.099-1.101,2.429-1.654,3.99-1.654c1.562,0,2.897,0.554,3.993,1.654
			c1.096,1.1,1.646,2.434,1.646,3.997c0,1.568-0.55,2.9-1.646,4.002c-1.096,1.101-2.432,1.652-3.993,1.652
			c-1.561,0-2.891-0.552-3.99-1.652C45.163,12.269,44.611,10.937,44.611,9.368z"/>
		<path fill="#FFFFFF" d="M51.967,11.098c0.455-0.447,0.682-1.02,0.682-1.729c0-0.704-0.228-1.285-0.682-1.723
			c-0.456-0.454-1.029-0.676-1.715-0.676c-0.685,0-1.257,0.222-1.711,0.676c-0.458,0.438-0.684,1.019-0.684,1.723
			c0,0.71,0.227,1.282,0.684,1.729c0.454,0.446,1.026,0.669,1.711,0.669C50.938,11.767,51.511,11.544,51.967,11.098z"/>
		<path fill="#FFFFFF" d="M71.012,18.789c2.24,0,4.227-0.722,5.98-2.168l-2.315-2.659c-0.827,0.634-1.768,0.999-2.841,1.09
			c-1.063,0.081-2.042-0.076-2.949-0.472c-0.895-0.393-1.658-1.045-2.277-1.962c-0.619-0.908-0.929-1.975-0.929-3.2
			c0-1.169,0.298-2.194,0.892-3.086c0.59-0.879,1.328-1.531,2.188-1.947c0.868-0.412,1.817-0.594,2.859-0.551
			c1.038,0.042,1.989,0.341,2.843,0.889l2.32-2.688c-1.697-1.318-3.619-1.984-5.771-1.984c-2.567,0-4.771,0.918-6.605,2.744
			c-1.824,1.837-2.74,4.046-2.74,6.623c0,2.583,0.916,4.79,2.74,6.624C66.24,17.873,68.444,18.789,71.012,18.789z"/>
		<path fill="#FFFFFF" d="M96.619,17.476L88.528,0.338h-1.055l-8.707,17.138v0.949h17.853V17.476z M84.154,14.815l3.762-7.387
			l3.45,7.387H84.154z"/>
		<polygon fill="#FFFFFF" points="109.963,0.338 109.963,10.452 99.997,0.338 98.859,0.338 98.859,18.425 102.461,18.425 
			102.461,7.875 112.617,18.425 113.57,18.425 113.57,0.338 		"/>
	</g>
	<g>
		<path fill="#FFFFFF" d="M11.614,30.586c-0.337-0.087-0.961-0.248-1.538-0.641c-0.816-0.539-1.267-1.325-1.311-2.301
			c-0.044-0.816,0.221-1.528,0.74-2.082c0.758-0.786,1.844-1.002,2.37-1.002c1.481,0,2.31,0.538,3.048,1.018l0.335,0.22L14.2,27.524
			l-0.364-0.23c-0.652-0.421-1.076-0.698-1.96-0.698c-0.135,0-0.642,0.099-0.897,0.379c-0.09,0.089-0.193,0.248-0.179,0.578
			c0.016,0.529,0.379,0.819,1.311,1.055c0.115,0.027,0.203,0.058,0.29,0.087c0.974,0.334,1.728,0.786,2.248,1.352
			c0.526,0.576,0.802,1.265,0.802,1.989c0,0.716-0.306,1.458-0.813,2.026c-0.596,0.669-1.426,1.049-2.342,1.049
			c-0.449,0-1.06-0.027-1.783-0.249c-0.917-0.289-1.728-0.8-2.424-1.539l1.48-1.398c1.075,1.147,2.278,1.147,2.727,1.147
			c0.844,0,1.12-0.77,1.12-1.036c0-0.554-0.623-1.059-1.683-1.423L11.687,30.6L11.614,30.586z"/>
		<path fill="#FFFFFF" d="M24.222,24.707v2.035h-2.817v8.166h-2.037v-8.166h-2.831v-2.035H24.222z"/>
		<path fill="#FFFFFF" d="M29.639,24.707l4.804,10.201h-2.247l-2.905-6.204l-3.157,6.204h-2.278l5.185-10.201H29.639z"/>
		<path fill="#FFFFFF" d="M37.498,26.731v8.163h-2.036v-10.2h3.982c1.683,0,3.052,1.376,3.052,3.064
			c0,1.242-0.728,2.302-1.789,2.777l2.016,4.372H40.56l-1.901-4.092V28.78h0.786c0.565,0,1.016-0.45,1.016-1.021
			c0-0.565-0.451-1.027-1.016-1.027H37.498z"/>
		<path fill="#FFFFFF" d="M50.83,24.707v2.035h-2.82v8.166h-2.032v-8.166h-2.833v-2.035H50.83z"/>
		<path fill="#FFFFFF" d="M65.241,24.707l-3.312,6.458v3.743h-2.033v-3.743l-3.332-6.458h2.256l2.09,3.838l2.077-3.838H65.241z"/>
		<path fill="#FFFFFF" d="M75.932,29.798c0,2.912-2.367,5.285-5.276,5.285c-2.901,0-5.269-2.373-5.269-5.285
			c0-2.906,2.367-5.283,5.269-5.283C73.564,24.515,75.932,26.892,75.932,29.798z M67.475,29.798c0,1.759,1.424,3.189,3.181,3.189
			c1.759,0,3.183-1.431,3.183-3.189c0-1.762-1.424-3.189-3.183-3.189C68.898,26.608,67.475,28.036,67.475,29.798z"/>
		<path fill="#FFFFFF" d="M84.833,31.137c0,2.186-1.771,3.946-3.944,3.946c-2.172,0-3.934-1.761-3.942-3.934v-6.442h2.031v6.43
			c0,0.505,0.207,0.988,0.567,1.354c0.361,0.364,0.84,0.555,1.344,0.555c0.514,0,0.982-0.19,1.342-0.555
			c0.363-0.365,0.554-0.83,0.57-1.341h-0.017v-6.442h2.031v6.43H84.833z"/>
		<path fill="#FFFFFF" d="M97.881,31.137c0,2.186-1.776,3.946-3.936,3.946c-2.18,0-3.933-1.761-3.955-3.934v-6.442h2.035v6.43
			c0,0.505,0.203,0.988,0.571,1.354c0.358,0.364,0.834,0.555,1.349,0.555c0.505,0,0.965-0.19,1.338-0.555
			c0.359-0.365,0.548-0.83,0.561-1.341h-0.013v-6.442h2.034v6.43H97.881z"/>
		<path fill="#FFFFFF" d="M102.522,24.707c1.688,0,3.053,1.38,3.053,3.067c0,1.686-1.364,3.059-3.053,3.059h-1.261v4.075h-2.034
			V24.707H102.522z M102.522,28.795c0.555,0,1.018-0.457,1.018-1.021c0-0.564-0.463-1.032-1.018-1.032h-1.261v2.053H102.522z"/>
	</g>
	<path fill="#FFFFFF" d="M-0.004,29.812c0-1.097,0.885-1.983,1.983-1.983c1.096,0,1.986,0.887,1.986,1.983
		c0,1.102-0.89,1.986-1.986,1.986C0.881,31.798-0.004,30.913-0.004,29.812z"/>
	<path fill="#FFFFFF" d="M109.598,29.812c0-1.097,0.89-1.983,1.985-1.983c1.094,0,1.987,0.887,1.987,1.983
		c0,1.102-0.894,1.986-1.987,1.986C110.487,31.798,109.598,30.913,109.598,29.812z"/>
</g>
<g>
	<g>
		<path fill="#FFFFFF" d="M-170.114,213.797l1.914-5.005l1.913,5.005l1.897-4.861h0.916l-2.813,7.059l-1.913-4.98l-1.914,4.98
			l-2.813-7.059h0.917L-170.114,213.797z"/>
		<path fill="#FFFFFF" d="M-163.083,213.754c0.01,0.718,0.494,1.395,1.268,1.395c0.62,0,0.952-0.314,1.257-0.819l0.683,0.387
			c-0.395,0.73-1.133,1.152-1.949,1.152c-1.285,0-2.068-0.973-2.068-2.213c0-1.297,0.693-2.27,2.05-2.27
			c1.338,0,1.968,0.987,1.968,2.24v0.128H-163.083z M-160.683,213.141c-0.1-0.631-0.512-1.054-1.16-1.054
			c-0.63,0-1.095,0.448-1.194,1.054H-160.683z"/>
		<path fill="#FFFFFF" d="M-159.245,207.908h0.81v4.305h0.018c0.333-0.504,0.836-0.827,1.465-0.827c1.214,0,1.978,1.052,1.978,2.206
			c0,1.206-0.719,2.276-2.014,2.276c-0.593,0-1.105-0.324-1.429-0.8h-0.018v0.655h-0.81V207.908z M-155.783,213.618
			c0-0.818-0.495-1.515-1.367-1.515c-0.836,0-1.33,0.732-1.33,1.515c0,0.791,0.477,1.53,1.33,1.53
			C-156.27,215.148-155.783,214.445-155.783,213.618z"/>
		<path fill="#FFFFFF" d="M-140.124,212.305v0.269c0,1.865-1.311,3.295-3.207,3.295s-3.424-1.639-3.424-3.521
			c0-1.951,1.563-3.556,3.516-3.556c1.05,0,2.093,0.477,2.758,1.313l-0.593,0.567c-0.485-0.667-1.304-1.106-2.129-1.106
			c-1.52,0-2.707,1.233-2.707,2.757c0,1.422,1.169,2.772,2.634,2.772c1.051,0,2.183-0.91,2.22-2.018h-1.753v-0.773H-140.124z"/>
		<path fill="#FFFFFF" d="M-138.509,212.195h0.026c0.197-0.495,0.612-0.81,1.152-0.81c0.232,0,0.467,0.082,0.664,0.205l-0.368,0.741
			c-0.146-0.128-0.306-0.171-0.496-0.171c-0.872,0-0.978,0.807-0.978,1.494v2.068h-0.81v-4.215h0.81V212.195z"/>
		<path fill="#FFFFFF" d="M-132.271,215.724h-0.811v-0.655h-0.016c-0.325,0.476-0.829,0.8-1.429,0.8
			c-1.288,0-2.013-1.07-2.013-2.276c0-1.154,0.764-2.206,1.985-2.206c0.622,0,1.125,0.323,1.458,0.827h0.016v-0.704h0.811V215.724z
			 M-133.036,213.618c0-0.818-0.494-1.515-1.365-1.515c-0.835,0-1.331,0.732-1.331,1.515c0,0.791,0.477,1.53,1.331,1.53
			C-133.52,215.148-133.036,214.445-133.036,213.618z"/>
		<path fill="#FFFFFF" d="M-130.472,212.213h0.019c0.333-0.504,0.835-0.827,1.465-0.827c1.213,0,1.976,1.052,1.976,2.206
			c0,1.206-0.718,2.276-2.013,2.276c-0.593,0-1.105-0.324-1.428-0.8h-0.019v3.069h-0.81v-6.629h0.81V212.213z M-127.82,213.618
			c0-0.818-0.494-1.515-1.369-1.515c-0.835,0-1.329,0.732-1.329,1.515c0,0.791,0.478,1.53,1.329,1.53
			C-128.308,215.148-127.82,214.445-127.82,213.618z"/>
		<path fill="#FFFFFF" d="M-125.411,207.908v4.172h0.02c0.251-0.452,0.754-0.694,1.268-0.694c1.183,0,1.49,0.8,1.49,1.826v2.512
			h-0.809v-2.412c0-0.72-0.098-1.208-0.926-1.208c-1.042,0-1.042,0.921-1.042,1.685v1.936h-0.807v-7.815H-125.411z"/>
		<path fill="#FFFFFF" d="M-120.375,209.583c0,0.309-0.251,0.552-0.556,0.552s-0.557-0.243-0.557-0.552
			c0-0.314,0.251-0.567,0.557-0.567S-120.375,209.269-120.375,209.583z M-120.526,215.724h-0.811v-4.215h0.811V215.724z"/>
		<path fill="#FFFFFF" d="M-116.142,212.707c-0.324-0.369-0.72-0.566-1.204-0.566c-0.791,0-1.402,0.702-1.402,1.478
			c0,0.863,0.602,1.495,1.458,1.495c0.467,0,0.843-0.218,1.149-0.559v1.036c-0.369,0.195-0.736,0.277-1.158,0.277
			c-1.242,0-2.255-0.953-2.255-2.213c0-1.308,1.007-2.27,2.3-2.27c0.377,0,0.79,0.09,1.113,0.278V212.707z"/>
		<path fill="#FFFFFF" d="M-112.652,208.936h1.402c2.076,0,3.802,1.099,3.802,3.358c0,2.314-1.69,3.43-3.829,3.43h-1.375V208.936z
			 M-111.807,214.95h0.297c1.726,0,3.215-0.649,3.215-2.618c0-1.983-1.489-2.621-3.215-2.621h-0.297V214.95z"/>
		<path fill="#FFFFFF" d="M-106.206,213.754c0.007,0.718,0.494,1.395,1.266,1.395c0.62,0,0.956-0.314,1.258-0.819l0.683,0.387
			c-0.393,0.73-1.132,1.152-1.952,1.152c-1.283,0-2.064-0.973-2.064-2.213c0-1.297,0.692-2.27,2.049-2.27
			c1.336,0,1.967,0.987,1.967,2.24v0.128H-106.206z M-103.806,213.141c-0.098-0.631-0.514-1.054-1.16-1.054
			c-0.628,0-1.096,0.448-1.196,1.054H-103.806z"/>
		<path fill="#FFFFFF" d="M-100.617,212.475c-0.093-0.209-0.303-0.371-0.536-0.371c-0.224,0-0.442,0.182-0.442,0.416
			c0,0.368,0.486,0.53,0.978,0.754c0.498,0.229,0.976,0.533,0.976,1.198c0,0.804-0.665,1.396-1.45,1.396
			c-0.613,0-1.229-0.349-1.456-0.944l0.69-0.315c0.173,0.315,0.381,0.54,0.766,0.54c0.343,0,0.639-0.233,0.639-0.594
			c0-0.226-0.108-0.335-0.296-0.458l-0.792-0.425c-0.467-0.249-0.809-0.487-0.809-1.063c0-0.684,0.557-1.223,1.24-1.223
			c0.513,0,0.925,0.278,1.154,0.737L-100.617,212.475z"/>
		<path fill="#FFFFFF" d="M-97.709,209.583c0,0.309-0.25,0.552-0.562,0.552c-0.303,0-0.553-0.243-0.553-0.552
			c0-0.314,0.25-0.567,0.553-0.567C-97.959,209.016-97.709,209.269-97.709,209.583z M-97.861,215.724h-0.811v-4.215h0.811V215.724z"
			/>
		<path fill="#FFFFFF" d="M-92.635,215.645c0,1.449-0.412,2.493-2.043,2.493c-1.167,0-2.014-0.721-2.032-1.909h0.806
			c0,0.756,0.523,1.188,1.259,1.188c0.997,0,1.206-0.684,1.206-1.549v-0.8h-0.02c-0.323,0.476-0.835,0.8-1.428,0.8
			c-1.293,0-2.014-1.07-2.014-2.276c0-1.154,0.764-2.206,1.979-2.206c0.628,0,1.131,0.323,1.463,0.846h0.02v-0.723h0.805V215.645z
			 M-93.396,213.618c0-0.818-0.493-1.515-1.361-1.515c-0.838,0-1.333,0.732-1.333,1.515c0,0.791,0.479,1.53,1.333,1.53
			C-93.883,215.148-93.396,214.445-93.396,213.618z"/>
		<path fill="#FFFFFF" d="M-90.769,212.08h0.018c0.252-0.452,0.755-0.694,1.268-0.694c1.188,0,1.491,0.8,1.491,1.826v2.512h-0.809
			v-2.412c0-0.72-0.098-1.208-0.925-1.208c-1.043,0-1.043,0.921-1.043,1.685v1.936h-0.809v-4.215h0.809V212.08z"/>
		<path fill="#FFFFFF" d="M-78.147,215.724h-0.842v-6.788h0.969c2.086,0,2.729,0.72,2.729,1.965c0,1.432-1.085,1.979-2.365,1.979
			h-0.49V215.724z M-78.147,212.123h0.269c0.864,0,1.802-0.162,1.802-1.242c0-1.063-1.006-1.188-1.844-1.188h-0.227V212.123z"/>
		<path fill="#FFFFFF" d="M-73.769,212.195h0.028c0.198-0.495,0.613-0.81,1.148-0.81c0.235,0,0.47,0.082,0.665,0.205l-0.363,0.741
			c-0.149-0.128-0.311-0.171-0.497-0.171c-0.872,0-0.981,0.807-0.981,1.494v2.068h-0.807v-4.215h0.807V212.195z"/>
		<path fill="#FFFFFF" d="M-70.336,209.583c0,0.309-0.251,0.552-0.555,0.552c-0.306,0-0.556-0.243-0.556-0.552
			c0-0.314,0.25-0.567,0.556-0.567C-70.587,209.016-70.336,209.269-70.336,209.583z M-70.487,215.724h-0.806v-4.215h0.806V215.724z"
			/>
		<path fill="#FFFFFF" d="M-68.382,212.08h0.018c0.254-0.452,0.756-0.694,1.269-0.694c1.185,0,1.491,0.8,1.491,1.826v2.512h-0.809
			v-2.412c0-0.72-0.098-1.208-0.925-1.208c-1.044,0-1.044,0.921-1.044,1.685v1.936h-0.808v-4.215h0.808V212.08z"/>
		<path fill="#FFFFFF" d="M-63.563,215.724h-0.81v-3.458h-0.441v-0.757h0.441v-1.609h0.81v1.609h0.789v0.757h-0.789V215.724z"/>
	</g>
	<polygon fill="#FFFFFF" points="-83.637,212.036 -82.337,212.036 -82.991,213.171 -83.637,214.301 -84.294,213.171 
		-84.947,212.036 	"/>
	<polygon fill="#FFFFFF" points="-150.757,212.036 -149.457,212.036 -150.111,213.171 -150.757,214.301 -151.416,213.171 
		-152.071,212.036 	"/>
</g>
</svg>
