<?xml version="1.0" encoding="utf-8"?>
<!-- Generator: Adobe Illustrator 16.0.0, SVG Export Plug-In . SVG Version: 6.00 Build 0)  -->
<!DOCTYPE svg PUBLIC "-//W3C//DTD SVG 1.1//EN" "http://www.w3.org/Graphics/SVG/1.1/DTD/svg11.dtd">
<svg version="1.1" id="Calque_1" xmlns="http://www.w3.org/2000/svg" xmlns:xlink="http://www.w3.org/1999/xlink" x="0px" y="0px"
	 width="500px" height="500px" viewBox="0 0 500 500" enable-background="new 0 0 500 500" xml:space="preserve">
<g>
	<g>
		<path fill="none" stroke="#FFFFFF" stroke-width="33.9679" stroke-miterlimit="10" d="M990.154,249.458
			c0-125.282,101.57-226.878,226.861-226.878c125.306,0,226.896,101.597,226.896,226.878c0,125.306-101.59,226.878-226.896,226.878
			C1091.725,476.336,990.154,374.764,990.154,249.458z"/>
	</g>
	<g>
		
			<polygon fill="none" stroke="#FFFFFF" stroke-width="16.9839" stroke-linecap="round" stroke-linejoin="round" stroke-miterlimit="10" points="
			1327.842,121.39 1139.096,310.194 1113.221,396.491 1199.501,370.601 1388.249,181.812 		"/>
		<polygon fill="#FFFFFF" points="1198.953,371.099 1170.674,342.737 1359.97,153.45 1388.249,181.812 		"/>
		<polygon fill="#FFFFFF" points="1149.793,386.489 1113.52,396.209 1123.223,359.919 		"/>
		<polygon fill="#FFFFFF" points="1198.953,371.099 1138.549,310.677 1145.464,303.859 1205.836,364.215 		"/>
	</g>
	
		<line fill="none" stroke="#FFFFFF" stroke-width="16.9839" stroke-linecap="round" stroke-linejoin="round" stroke-miterlimit="10" x1="1160.061" y1="182.998" x2="1105.193" y2="128.124"/>
	
		<line fill="none" stroke="#FFFFFF" stroke-width="16.9839" stroke-linecap="round" stroke-linejoin="round" stroke-miterlimit="10" x1="1227.498" y1="137.702" x2="1211.51" y2="61.755"/>
	
		<line fill="none" stroke="#FFFFFF" stroke-width="16.9839" stroke-linecap="round" stroke-linejoin="round" stroke-miterlimit="10" x1="1107.648" y1="253.537" x2="1031.718" y2="237.549"/>
</g>
<g>
	<path fill="none" stroke="#FFFFFF" stroke-width="33.9679" stroke-miterlimit="10" d="M1565.88,252.542
		c0-125.289,101.588-226.878,226.879-226.878c125.288,0,226.878,101.589,226.878,226.878c0,125.291-101.59,226.878-226.878,226.878
		C1667.468,479.42,1565.88,377.833,1565.88,252.542z"/>
	<g>
		<path fill="#FFFFFF" d="M1707.622,203.448l-49.524,43.819l51.565,60.505c2.388,2.854,3.582,6.37,3.582,10.533
			c0,4.396-1.956,8.244-5.871,11.594c-3.947,3.301-8.128,4.992-12.673,4.992c-4.875,0-8.789-1.726-11.774-5.174l-61.633-72.001
			c-2.388-2.853-4.131-6.617-5.176-11.228c0.697-4.661,2.788-8.807,6.237-12.473l62.03-55.447c3.301-2.952,6.999-4.429,11.046-4.429
			c4.761,0,8.774,1.825,12.108,5.523c3.317,3.699,4.975,8.144,4.975,13.236C1712.515,196.963,1710.891,200.479,1707.622,203.448z"/>
		<path fill="#FFFFFF" d="M1841.521,162.962c-11.876,70.838-34.101,139.703-66.642,206.594c-3.119,6.418-7.862,9.618-14.282,9.618
			c-4.161,0-8.242-1.624-12.222-4.825c-3.981-3.202-5.938-6.867-5.938-11.03l2.288-8.027
			c31.978-65.232,53.174-131.277,63.64-198.201c1.542-9.487,7.016-14.231,16.37-14.231c4.512,0,8.458,1.576,11.775,4.793
			C1839.861,150.854,1841.521,155.963,1841.521,162.962z"/>
		<path fill="#FFFFFF" d="M1877.711,308.835l49.426-44.103l-51.881-58.548c-2.753-3.798-4.478-7.281-5.175-10.498
			c0-4.645,1.958-8.658,5.871-12.042c3.915-3.383,8.295-5.075,13.037-5.075c5.573,0,9.553,1.659,11.908,5.009l62.944,71.286
			c2.853,3.218,4.261,7.199,4.261,11.942c0,4.013-1.973,7.828-5.87,11.411l-62.031,55.943c-3.217,2.854-6.95,4.296-11.212,4.296
			c-4.18,0-7.961-1.842-11.41-5.457c-3.45-3.599-5.176-7.579-5.176-11.842C1873.1,315.453,1874.891,311.339,1877.711,308.835z"/>
	</g>
</g>
<g>
	<g>
		<path fill-rule="evenodd" clip-rule="evenodd" fill="#F26F21" d="M-2380.365,577.129c31.344,2.152,59.531-5.58,85.269-24.713
			c-1.376-0.266-1.987-0.452-2.611-0.506c-23.69-2.577-40.445-14.695-50.185-36.459c-0.206-0.479-0.392-0.93-0.544-1.435
			c-0.817-2.418-0.445-3.003,2.039-2.631c6.139,0.957,12.244,0.718,18.329-0.372c0.95-0.186,1.894-0.451,2.91-1.302
			c-0.725-0.239-1.436-0.532-2.173-0.744c-23.059-6.616-39.847-26.414-42.564-50.251c-0.159-1.408-0.186-2.844-0.133-4.305
			c0.073-2.471,0.632-2.816,2.93-1.647c5.92,3.003,12.204,4.757,18.774,5.527c0.95,0.133,1.92,0.026,3.807,0.026
			c-18.097-14.004-26.46-31.756-24.985-53.944c0.531-8.024,4.298-19.585,8.064-23.995c1.343,1.461,2.658,2.922,3.946,4.357
			c13.6,15.439,29.45,27.982,47.634,37.602c18.495,9.832,38.152,15.811,58.906,18.336c2.246,0.238,4.505,0.531,6.764,0.664
			c3.175,0.239,3.753-0.426,3.262-3.561c-2-12.861-0.359-25.271,5.906-36.698c11.174-20.302,28.467-31.251,51.885-31.782
			c16.216-0.372,30.067,5.475,41.747,16.556c1.66,1.595,3.262,1.728,5.274,1.222c10.77-2.551,21.047-6.43,30.792-11.719
			c0.758-0.425,1.568-0.744,2.585-0.823c-3.827,12.94-11.919,22.641-22.555,30.665c10.603-0.717,20.481-4.092,30.268-7.865
			c0.106,0.186,0.212,0.346,0.318,0.559c-0.432,0.664-0.844,1.355-1.322,2.02c-6.855,9.539-14.827,18.043-24.241,25.111
			c-2.318,1.754-3.216,3.773-3.129,6.644c0.671,24.022-4.179,46.982-13.42,69.038c-7.899,18.867-18.794,35.795-32.745,50.809
			c-17.99,19.373-39.442,33.35-64.309,42.119c-14.11,4.97-28.673,7.786-43.627,8.796c-17.299,1.196-34.426,0.239-51.354-3.693
			c-17.831-4.146-34.585-10.976-50.164-20.595C-2379.495,577.846-2379.913,577.447-2380.365,577.129z"/>
	</g>
	<g>
		<g>
			<path fill="#F26F21" d="M-2237.532,275.253c28.475,0,56.084,5.571,82.061,16.559c25.103,10.618,47.654,25.825,67.027,45.197
				c19.372,19.372,34.579,41.923,45.196,67.025c10.987,25.976,16.558,53.582,16.558,82.054s-5.571,56.078-16.558,82.053
				c-10.618,25.104-25.824,47.654-45.196,67.026c-19.373,19.372-41.924,34.579-67.027,45.197
				c-25.977,10.987-53.586,16.558-82.061,16.558s-56.084-5.57-82.061-16.558c-25.103-10.618-47.654-25.825-67.027-45.197
				c-19.372-19.372-34.579-41.923-45.196-67.026c-10.987-25.975-16.558-53.581-16.558-82.053s5.571-56.078,16.558-82.054
				c10.618-25.103,25.824-47.653,45.196-67.025c19.373-19.372,41.924-34.579,67.027-45.197
				C-2293.616,280.824-2266.006,275.253-2237.532,275.253 M-2237.532,248.042c-131.473,0-238.053,106.587-238.053,238.046
				s106.58,238.046,238.053,238.046s238.053-106.587,238.053-238.046S-2106.059,248.042-2237.532,248.042L-2237.532,248.042z"/>
		</g>
	</g>
</g>
<g>
	<g>
		<path fill-rule="evenodd" clip-rule="evenodd" fill="#F26F21" d="M267.232,392.833c-17.146,0-34.253,0-51.454,0
			c0-44.538,0-89.021,0-133.666c-3.992-0.053-7.879-0.026-11.765-0.026c-3.913,0-7.819,0-11.726,0s-7.807,0-11.687,0
			c-0.266-0.851-0.378-46.265-0.146-48.656c0.026,0,0.053-0.026,0.073-0.053c0.033-0.054,0.06-0.08,0.093-0.08
			c0.033-0.026,0.073-0.026,0.106-0.026c0.112,0,0.219-0.027,0.339-0.027c11.453,0,22.906,0,34.366-0.025
			c0.04,0,0.073,0,0.272-0.054c0.013-0.398,0.033-0.823,0.033-1.249c0-12.012-0.027-24.022,0.02-36.033
			c0.014-3.535,0-7.096,0.392-10.576c2.631-23.598,14.483-40.419,36.625-49.561c6.152-2.524,12.609-3.959,19.207-4.81
			c6.922-0.877,13.865-0.956,20.826-0.69c5.242,0.213,10.484,0.425,15.713,0.77c3.309,0.187,6.596,0.586,9.891,0.904
			c0.287,0.026,0.578,0.105,0.984,0.186c-0.373,15.147-0.758,30.241-1.143,45.521c-0.545,0-1.018,0-1.482,0
			c-9.824-0.027-19.645-0.08-29.469-0.107c-2.719-0.025-5.422,0.133-8.086,0.744c-0.432,0.107-0.869,0.187-1.303,0.319
			c-5.453,1.515-8.623,5.129-9.771,10.63c-0.605,2.843-0.771,5.739-0.771,8.636c-0.025,11.427-0.02,22.827-0.012,34.28
			c0,0.318,0.033,0.638,0.059,1.115c17.393,0,34.746,0,52.244,0c-0.777,16.344-1.541,32.553-2.313,48.843
			c-16.688,0-33.23,0-49.691,0c-0.121,0.08-0.146,0.106-0.174,0.133c-0.02,0.026-0.039,0.054-0.059,0.106
			c-0.021,0.027-0.027,0.053-0.033,0.08c-0.008,0.053-0.021,0.08-0.021,0.133c-0.006,0.053-0.012,0.133-0.012,0.213
			c-0.008,0.025,0,0.079-0.008,0.105c0,0.053,0,0.08,0,0.106c0,0.133,0,0.239,0,0.346c0,43.899,0,87.799,0,131.698
			c0,0.027,0,0.08,0,0.106c0,0.079-0.006,0.159-0.014,0.213c0,0.053,0,0.079-0.006,0.133c-0.006,0.026-0.02,0.054-0.027,0.106
			C267.293,392.646,267.279,392.673,267.232,392.833z"/>
	</g>
	<g>
		<g>
			<path fill="#F26F21" d="M250,39.165c28.476,0,56.086,5.57,82.061,16.556c25.104,10.616,47.655,25.82,67.027,45.19
				c19.371,19.371,34.578,41.92,45.195,67.023c10.986,25.976,16.558,53.586,16.558,82.064c0,28.473-5.571,56.079-16.558,82.054
				c-10.618,25.103-25.824,47.653-45.196,67.026c-19.372,19.372-41.924,34.579-67.027,45.197
				c-25.976,10.987-53.585,16.559-82.06,16.559c-28.475,0-56.084-5.571-82.061-16.559c-25.104-10.618-47.655-25.825-67.027-45.197
				c-19.372-19.373-34.578-41.924-45.196-67.026c-10.987-25.975-16.558-53.581-16.558-82.054c0-28.479,5.571-56.089,16.558-82.064
				c10.618-25.104,25.824-47.652,45.196-67.023c19.372-19.37,41.922-34.574,67.026-45.19C193.914,44.735,221.523,39.165,250,39.165
				 M250,11.954c-131.473,0-238.053,106.56-238.053,238.045c0,131.46,106.58,238.047,238.053,238.047
				c131.473,0,238.053-106.587,238.053-238.047C488.053,118.514,381.473,11.954,250,11.954L250,11.954z"/>
		</g>
	</g>
</g>
<g opacity="0.4">
	<g>
		<path fill-rule="evenodd" clip-rule="evenodd" fill="#F26F21" d="M107.174,701.652c0.465,0,0.87,0,1.269,0
			c27.976,0,55.958-0.025,83.927,0c8.151,0,16.183,0.957,23.982,3.402c6.284,1.966,12.038,4.942,16.987,9.326
			c6.331,5.607,10.363,12.597,12.323,20.781c2.06,8.53,2.072,17.113-0.12,25.617c-2.053,7.972-6.397,14.43-13.24,19.105
			c-2.139,1.463-4.397,2.764-6.689,4.199c0.346,0.133,0.697,0.293,1.057,0.451c4.417,1.754,8.523,4.04,12.157,7.148
			c6.045,5.156,9.905,11.693,12.058,19.293c1.913,6.776,2.266,13.686,1.621,20.674c-1.063,11.613-5.707,21.711-13.467,30.348
			c-6.782,7.547-15.232,12.383-25.111,14.695c-4.97,1.169-10.012,1.833-15.094,2.285c-4.152,0.371-8.317,0.451-12.483,0.451
			c-25.889,0-51.785,0-77.681,0c-0.472,0-0.95,0-1.495,0C107.174,820.171,107.174,760.992,107.174,701.652z M148.23,801.277
			c-0.253,1.169-0.206,46.45,0.053,47.274c0.213,0,0.432,0.026,0.651,0.026c12.98,0,25.962,0.026,38.943-0.026
			c3.906-0.026,7.793-0.479,11.572-1.542c7.826-2.179,12.855-7.148,14.875-15.066c1.109-4.385,1.342-8.822,0.651-13.287
			c-0.997-6.431-4.345-11.214-10.231-14.084c-1.229-0.611-2.524-1.116-3.826-1.515c-4.159-1.302-8.444-1.78-12.769-1.808
			c-13.055-0.053-26.108-0.053-39.163-0.053C148.735,801.197,148.476,801.25,148.23,801.277z M148.157,771.754
			c0.531,0,0.977,0,1.422,0c11.492,0,22.985,0.026,34.479,0c2.744-0.026,5.501-0.16,8.231-0.426
			c4.099-0.451,8.005-1.594,11.626-3.641c3.222-1.807,5.447-4.464,6.59-7.972c1.528-4.677,1.647-9.434,0.465-14.19
			c-1.381-5.554-4.896-9.141-10.403-10.735c-1.003-0.266-2.013-0.531-3.029-0.744c-5.182-1.116-10.443-1.515-15.731-1.541
			c-10.822,0-21.645,0-32.466,0c-0.372,0-0.738,0-1.183,0C148.157,745.605,148.157,758.6,148.157,771.754z"/>
		<path fill-rule="evenodd" clip-rule="evenodd" fill="#F26F21" d="M391.013,836.779c-0.292,2.764-1.036,5.314-2.053,7.813
			c-1.946,4.757-4.863,8.93-8.171,12.836c-9.102,10.762-20.721,17.06-34.513,19.531c-7.368,1.328-14.781,1.7-22.229,1.063
			c-15.194-1.328-28.573-7.016-40.033-17.087c-5.793-5.075-9.746-11.453-12.517-18.628c-2.072-5.367-3.349-10.922-4.092-16.635
			c-0.964-7.309-1.13-14.669-0.618-22.029c0.618-8.902,2.232-17.592,5.859-25.777c7.354-16.582,19.99-27.131,37.31-32.18
			c6.577-1.914,13.34-2.551,20.183-2.525c8.092,0.054,16.004,1.17,23.71,3.721c12.058,3.959,21.412,11.373,28.321,22.003
			c4.637,7.122,7.58,14.882,9.141,23.198c0.884,4.65,1.223,9.354,1.349,14.084c0.106,4.014,0.12,8.025,0.166,12.039
			c0.007,0.398,0,0.823,0,1.328c-2.637,0.133-5.188,0.053-7.739,0.053c-2.564,0.027-5.136,0.027-7.699,0.027
			c-2.604,0-5.209,0-7.813,0c-2.564,0-5.135,0-7.706,0c-2.564,0-5.136,0-7.699,0c-2.571,0-5.136,0-7.7,0c-2.571,0-5.135,0-7.706,0
			c-2.564,0-5.136,0-7.7,0c-2.604,0-5.208,0-7.819,0c-2.563,0-5.128,0-7.699,0c-2.564,0-5.129,0-7.7,0c-2.558,0-5.108,0-7.766,0
			c0.06,1.036,0.093,1.966,0.18,2.896c0.365,3.854,1.109,7.627,2.558,11.267c3.142,7.866,8.882,12.995,16.82,15.651
			c6.783,2.26,13.739,2.498,20.694,0.852c6.205-1.462,11.121-4.863,14.669-10.178c0.724-1.09,1.382-2.206,2.079-3.322
			C368.365,836.779,379.659,836.779,391.013,836.779z M358.208,797.584c0-0.213,0.013-0.373,0-0.506
			c-0.199-1.488-0.332-2.977-0.611-4.41c-2.053-10.684-8.311-17.672-18.688-20.781c-5.806-1.754-11.745-1.701-17.651-0.346
			c-5.573,1.303-10.098,4.226-13.592,8.77c-3.096,4.013-4.977,8.584-6.086,13.5c-0.272,1.222-0.478,2.471-0.737,3.773
			C320.055,797.584,339.114,797.584,358.208,797.584z"/>
		<path fill-rule="evenodd" clip-rule="evenodd" fill="#F26F21" d="M293.594,726.632c0-5.819,0-11.64,0-17.538
			c23.83,0,47.62,0,71.49,0c0,5.846,0,11.666,0,17.484c-0.021,0.027-0.04,0.054-0.066,0.08c-0.027,0.027-0.061,0.054-0.094,0.054
			c-0.332,0.026-0.664,0.079-0.996,0.079c-23.325,0-46.65-0.026-69.975-0.026C293.854,726.765,293.754,726.712,293.594,726.632z"/>
	</g>
	<g>
		<g>
			<path fill="#F26F21" d="M250,579.706c28.475,0,56.084,5.571,82.061,16.559c25.104,10.618,47.654,25.825,67.026,45.197
				s34.579,41.923,45.197,67.025c10.986,25.975,16.558,53.582,16.558,82.054c0,28.473-5.571,56.079-16.558,82.054
				c-10.618,25.103-25.825,47.653-45.197,67.026c-19.372,19.372-41.923,34.579-67.026,45.197
				c-25.977,10.987-53.586,16.559-82.061,16.559c-28.475,0-56.084-5.571-82.06-16.559c-25.104-10.618-47.655-25.825-67.027-45.197
				c-19.372-19.373-34.578-41.924-45.196-67.026c-10.987-25.975-16.558-53.581-16.558-82.054c0-28.472,5.571-56.079,16.558-82.054
				c10.618-25.103,25.824-47.653,45.196-67.025c19.373-19.372,41.924-34.579,67.027-45.197
				C193.916,585.277,221.525,579.706,250,579.706 M250,552.495c-131.473,0-238.053,106.587-238.053,238.046
				c0,131.46,106.58,238.047,238.053,238.047s238.053-106.587,238.053-238.047C488.053,659.082,381.473,552.495,250,552.495
				L250,552.495z"/>
		</g>
	</g>
</g>
</svg>
