<?xml version="1.0" encoding="utf-8"?>
<!-- Generator: Adobe Illustrator 16.0.0, SVG Export Plug-In . SVG Version: 6.00 Build 0)  -->
<!DOCTYPE svg PUBLIC "-//W3C//DTD SVG 1.1//EN" "http://www.w3.org/Graphics/SVG/1.1/DTD/svg11.dtd">
<svg version="1.1" id="Calque_1" xmlns="http://www.w3.org/2000/svg" xmlns:xlink="http://www.w3.org/1999/xlink" x="0px" y="0px"
	 width="500px" height="500px" viewBox="0 0 500 500" enable-background="new 0 0 500 500" xml:space="preserve">
<g>
	<g>
		<path fill="none" stroke="#FFFFFF" stroke-width="33.9679" stroke-miterlimit="10" d="M21,249.458
			C21,124.176,122.571,22.579,247.861,22.579c125.306,0,226.896,101.597,226.896,226.878c0,125.306-101.59,226.878-226.896,226.878
			C122.571,476.336,21,374.764,21,249.458z"/>
	</g>
	<g>
		
			<polygon fill="none" stroke="#FFFFFF" stroke-width="16.9839" stroke-linecap="round" stroke-linejoin="round" stroke-miterlimit="10" points="
			358.688,121.39 169.942,310.194 144.067,396.491 230.347,370.601 419.095,181.812 		"/>
		<polygon fill="#FFFFFF" points="229.799,371.099 201.52,342.737 390.815,153.45 419.095,181.812 		"/>
		<polygon fill="#FFFFFF" points="180.639,386.489 144.365,396.209 154.069,359.919 		"/>
		<polygon fill="#FFFFFF" points="229.799,371.099 169.395,310.677 176.31,303.859 236.682,364.215 		"/>
	</g>
	
		<line fill="none" stroke="#FFFFFF" stroke-width="16.9839" stroke-linecap="round" stroke-linejoin="round" stroke-miterlimit="10" x1="190.907" y1="182.998" x2="136.04" y2="128.124"/>
	
		<line fill="none" stroke="#FFFFFF" stroke-width="16.9839" stroke-linecap="round" stroke-linejoin="round" stroke-miterlimit="10" x1="258.344" y1="137.702" x2="242.355" y2="61.755"/>
	
		<line fill="none" stroke="#FFFFFF" stroke-width="16.9839" stroke-linecap="round" stroke-linejoin="round" stroke-miterlimit="10" x1="138.494" y1="253.537" x2="62.563" y2="237.549"/>
</g>
<g>
	<path fill="none" stroke="#FFFFFF" stroke-width="33.9679" stroke-miterlimit="10" d="M610.726,252.542
		c0-125.289,101.588-226.878,226.879-226.878c125.288,0,226.878,101.589,226.878,226.878c0,125.291-101.59,226.878-226.878,226.878
		C712.313,479.42,610.726,377.833,610.726,252.542z"/>
	<g>
		<path fill="#FFFFFF" d="M752.468,203.448l-49.524,43.819l51.565,60.505c2.388,2.854,3.582,6.37,3.582,10.533
			c0,4.396-1.956,8.244-5.871,11.594c-3.947,3.301-8.128,4.992-12.673,4.992c-4.875,0-8.789-1.726-11.774-5.174l-61.633-72.001
			c-2.388-2.853-4.131-6.617-5.176-11.228c0.697-4.661,2.788-8.807,6.237-12.473l62.03-55.447c3.301-2.952,6.999-4.429,11.046-4.429
			c4.761,0,8.774,1.825,12.108,5.523c3.317,3.699,4.975,8.144,4.975,13.236C757.36,196.963,755.736,200.479,752.468,203.448z"/>
		<path fill="#FFFFFF" d="M886.366,162.962c-11.876,70.838-34.101,139.703-66.642,206.594c-3.119,6.418-7.862,9.618-14.282,9.618
			c-4.161,0-8.242-1.624-12.222-4.825c-3.981-3.202-5.938-6.867-5.938-11.03l2.288-8.027
			c31.978-65.232,53.174-131.277,63.64-198.201c1.542-9.487,7.016-14.231,16.37-14.231c4.512,0,8.458,1.576,11.775,4.793
			C884.707,150.854,886.366,155.963,886.366,162.962z"/>
		<path fill="#FFFFFF" d="M922.557,308.835l49.426-44.103l-51.881-58.548c-2.753-3.798-4.478-7.281-5.175-10.498
			c0-4.645,1.958-8.658,5.871-12.042c3.915-3.383,8.295-5.075,13.037-5.075c5.573,0,9.553,1.659,11.908,5.009l62.944,71.286
			c2.853,3.218,4.261,7.199,4.261,11.942c0,4.013-1.973,7.828-5.87,11.411l-62.031,55.943c-3.217,2.854-6.95,4.296-11.212,4.296
			c-4.18,0-7.961-1.842-11.41-5.457c-3.45-3.599-5.176-7.579-5.176-11.842C917.945,315.453,919.736,311.339,922.557,308.835z"/>
	</g>
</g>
<g>
	<g>
		<path fill-rule="evenodd" clip-rule="evenodd" fill="#F26F21" d="M-785.533,492.865c2.304,0.158,4.375-0.41,6.267-1.816
			c-0.101-0.02-0.146-0.033-0.192-0.037c-1.741-0.189-2.973-1.08-3.688-2.68c-0.015-0.035-0.029-0.068-0.04-0.105
			c-0.06-0.178-0.033-0.221,0.15-0.193c0.451,0.07,0.9,0.053,1.347-0.027c0.07-0.014,0.139-0.033,0.214-0.096
			c-0.053-0.018-0.105-0.039-0.16-0.055c-1.695-0.486-2.929-1.941-3.128-3.693c-0.012-0.104-0.014-0.209-0.01-0.316
			c0.005-0.182,0.046-0.207,0.215-0.121c0.435,0.221,0.897,0.35,1.38,0.406c0.07,0.01,0.141,0.002,0.28,0.002
			c-1.33-1.029-1.945-2.334-1.836-3.965c0.039-0.59,0.316-1.439,0.593-1.764c0.099,0.107,0.195,0.215,0.29,0.32
			c1,1.135,2.165,2.057,3.501,2.764c1.359,0.723,2.804,1.162,4.33,1.348c0.165,0.018,0.331,0.039,0.497,0.049
			c0.233,0.018,0.276-0.031,0.24-0.262c-0.147-0.945-0.026-1.857,0.434-2.697c0.821-1.492,2.092-2.297,3.813-2.336
			c1.192-0.027,2.21,0.402,3.068,1.217c0.122,0.117,0.24,0.127,0.388,0.09c0.792-0.188,1.547-0.473,2.263-0.861
			c0.056-0.031,0.115-0.055,0.19-0.061c-0.281,0.951-0.876,1.664-1.658,2.254c0.779-0.053,1.505-0.301,2.225-0.578
			c0.008,0.014,0.016,0.025,0.023,0.041c-0.032,0.049-0.062,0.1-0.097,0.148c-0.504,0.701-1.09,1.326-1.782,1.846
			c-0.17,0.129-0.236,0.277-0.23,0.488c0.049,1.766-0.307,3.453-0.986,5.074c-0.581,1.387-1.381,2.631-2.407,3.734
			c-1.322,1.424-2.899,2.451-4.727,3.096c-1.037,0.365-2.107,0.572-3.207,0.646c-1.271,0.088-2.53,0.018-3.774-0.271
			c-1.311-0.305-2.542-0.807-3.687-1.514C-785.469,492.918-785.5,492.889-785.533,492.865z"/>
	</g>
	<g>
		<g>
			<path fill="#F26F21" d="M-775.035,470.678c8.545,0,15.497,6.951,15.497,15.496s-6.952,15.496-15.497,15.496
				s-15.497-6.951-15.497-15.496S-783.58,470.678-775.035,470.678 M-775.035,468.678c-9.663,0-17.497,7.834-17.497,17.496
				s7.833,17.496,17.497,17.496s17.497-7.834,17.497-17.496S-765.372,468.678-775.035,468.678L-775.035,468.678z"/>
		</g>
	</g>
</g>
<g>
	<g>
		<path fill-rule="evenodd" clip-rule="evenodd" fill="#F26F21" d="M-706.959,496.686c-1.26,0-2.518,0-3.782,0
			c0-3.273,0-6.543,0-9.824c-0.293-0.004-0.579-0.002-0.865-0.002c-0.288,0-0.575,0-0.862,0s-0.574,0-0.859,0
			c-0.02-0.063-0.028-3.4-0.011-3.576c0.002,0,0.004-0.002,0.005-0.004c0.002-0.004,0.004-0.006,0.007-0.006
			c0.002-0.002,0.005-0.002,0.008-0.002c0.008,0,0.016-0.002,0.025-0.002c0.842,0,1.684,0,2.526-0.002c0.003,0,0.005,0,0.02-0.004
			c0.001-0.029,0.002-0.061,0.002-0.092c0-0.883-0.002-1.766,0.001-2.648c0.001-0.26,0-0.521,0.029-0.777
			c0.193-1.734,1.064-2.971,2.692-3.643c0.452-0.186,0.927-0.291,1.412-0.354c0.509-0.064,1.019-0.07,1.531-0.051
			c0.385,0.016,0.771,0.031,1.155,0.057c0.243,0.014,0.485,0.043,0.727,0.066c0.021,0.002,0.042,0.008,0.072,0.014
			c-0.027,1.113-0.056,2.223-0.084,3.346c-0.04,0-0.075,0-0.109,0c-0.722-0.002-1.444-0.006-2.166-0.008
			c-0.2-0.002-0.398,0.01-0.594,0.055c-0.032,0.008-0.064,0.014-0.096,0.023c-0.401,0.111-0.634,0.377-0.718,0.781
			c-0.044,0.209-0.057,0.422-0.057,0.635c-0.002,0.84-0.001,1.678-0.001,2.52c0,0.023,0.002,0.047,0.004,0.082
			c1.278,0,2.554,0,3.84,0c-0.057,1.201-0.113,2.393-0.17,3.59c-1.227,0-2.442,0-3.652,0c-0.009,0.006-0.011,0.008-0.013,0.01
			c-0.001,0.002-0.003,0.004-0.004,0.008c-0.001,0.002-0.002,0.004-0.002,0.006c0,0.004-0.001,0.006-0.001,0.01
			c0,0.004-0.001,0.01-0.001,0.016c0,0.002,0,0.006,0,0.008c0,0.004,0,0.006,0,0.008c0,0.01,0,0.018,0,0.025c0,3.227,0,6.453,0,9.68
			c0,0.002,0,0.006,0,0.008c0,0.006,0,0.012-0.001,0.016c0,0.004,0,0.006,0,0.01c0,0.002-0.001,0.004-0.002,0.008
			C-706.955,496.672-706.956,496.674-706.959,496.686z"/>
	</g>
	<g>
		<g>
			<path fill="#F26F21" d="M-708.226,470.691c8.545,0,15.497,6.951,15.497,15.496s-6.952,15.496-15.497,15.496
				s-15.497-6.951-15.497-15.496S-716.771,470.691-708.226,470.691 M-708.226,468.691c-9.663,0-17.497,7.832-17.497,17.496
				c0,9.662,7.833,17.496,17.497,17.496s17.497-7.834,17.497-17.496C-690.729,476.523-698.563,468.691-708.226,468.691
				L-708.226,468.691z"/>
		</g>
	</g>
</g>
<g opacity="0.5">
	<g>
		<path fill-rule="evenodd" clip-rule="evenodd" fill="#F26F21" d="M-651.91,479.645c0.034,0,0.064,0,0.093,0
			c2.056,0,4.113-0.002,6.168,0c0.599,0,1.189,0.07,1.763,0.25c0.462,0.145,0.885,0.363,1.249,0.686
			c0.465,0.412,0.762,0.926,0.906,1.527c0.151,0.627,0.152,1.258-0.009,1.883c-0.151,0.586-0.47,1.061-0.973,1.404
			c-0.157,0.107-0.323,0.203-0.492,0.309c0.025,0.01,0.051,0.021,0.078,0.033c0.325,0.129,0.626,0.297,0.894,0.525
			c0.444,0.379,0.728,0.859,0.886,1.418c0.141,0.498,0.167,1.006,0.119,1.52c-0.078,0.854-0.419,1.596-0.99,2.23
			c-0.499,0.555-1.12,0.91-1.846,1.08c-0.365,0.086-0.736,0.135-1.109,0.168c-0.305,0.027-0.611,0.033-0.917,0.033
			c-1.903,0-3.806,0-5.709,0c-0.035,0-0.07,0-0.11,0C-651.91,488.355-651.91,484.006-651.91,479.645z M-648.893,486.967
			c-0.019,0.086-0.015,3.414,0.004,3.475c0.016,0,0.032,0.002,0.048,0.002c0.954,0,1.908,0.002,2.862-0.002
			c0.287-0.002,0.573-0.035,0.851-0.113c0.575-0.16,0.945-0.525,1.093-1.107c0.082-0.322,0.099-0.648,0.048-0.977
			c-0.073-0.473-0.319-0.824-0.752-1.035c-0.09-0.045-0.186-0.082-0.281-0.111c-0.306-0.096-0.621-0.131-0.938-0.133
			c-0.959-0.004-1.919-0.004-2.878-0.004C-648.855,486.961-648.875,486.965-648.893,486.967z M-648.898,484.797
			c0.039,0,0.072,0,0.104,0c0.845,0,1.689,0.002,2.534,0c0.202-0.002,0.404-0.012,0.605-0.031c0.301-0.033,0.588-0.117,0.854-0.268
			c0.237-0.133,0.4-0.328,0.484-0.586c0.112-0.344,0.121-0.693,0.034-1.043c-0.102-0.408-0.36-0.672-0.765-0.789
			c-0.074-0.02-0.148-0.039-0.223-0.055c-0.381-0.082-0.768-0.111-1.156-0.113c-0.795,0-1.591,0-2.386,0c-0.027,0-0.054,0-0.087,0
			C-648.898,482.875-648.898,483.83-648.898,484.797z"/>
		<path fill-rule="evenodd" clip-rule="evenodd" fill="#F26F21" d="M-631.048,489.576c-0.021,0.203-0.076,0.391-0.151,0.574
			c-0.143,0.35-0.357,0.656-0.601,0.943c-0.669,0.791-1.523,1.254-2.537,1.436c-0.542,0.098-1.086,0.125-1.634,0.078
			c-1.117-0.098-2.1-0.516-2.942-1.256c-0.426-0.373-0.716-0.842-0.92-1.369c-0.152-0.395-0.246-0.803-0.301-1.223
			c-0.071-0.537-0.083-1.078-0.045-1.619c0.045-0.654,0.164-1.293,0.431-1.895c0.541-1.219,1.469-1.994,2.742-2.365
			c0.483-0.141,0.98-0.188,1.483-0.186c0.595,0.004,1.176,0.086,1.743,0.273c0.886,0.291,1.574,0.836,2.082,1.617
			c0.341,0.523,0.557,1.094,0.672,1.705c0.065,0.342,0.09,0.688,0.099,1.035c0.008,0.295,0.009,0.59,0.012,0.885
			c0,0.029,0,0.061,0,0.098c-0.194,0.01-0.381,0.004-0.569,0.004c-0.188,0.002-0.377,0.002-0.566,0.002c-0.191,0-0.383,0-0.574,0
			c-0.188,0-0.377,0-0.566,0c-0.188,0-0.377,0-0.566,0c-0.189,0-0.377,0-0.566,0c-0.189,0-0.377,0-0.566,0c-0.188,0-0.377,0-0.566,0
			c-0.191,0-0.383,0-0.575,0c-0.188,0-0.377,0-0.566,0c-0.188,0-0.377,0-0.566,0c-0.188,0-0.375,0-0.571,0
			c0.004,0.076,0.007,0.145,0.013,0.213c0.027,0.283,0.082,0.561,0.188,0.828c0.231,0.578,0.653,0.955,1.236,1.15
			c0.499,0.166,1.01,0.184,1.521,0.063c0.456-0.107,0.817-0.357,1.078-0.748c0.053-0.08,0.102-0.162,0.153-0.244
			C-632.713,489.576-631.883,489.576-631.048,489.576z M-633.459,486.695c0-0.016,0.001-0.027,0-0.037
			c-0.015-0.109-0.024-0.219-0.045-0.324c-0.151-0.785-0.611-1.299-1.374-1.527c-0.427-0.129-0.863-0.125-1.297-0.025
			c-0.41,0.096-0.742,0.311-0.999,0.645c-0.228,0.295-0.366,0.631-0.447,0.992c-0.02,0.09-0.035,0.182-0.054,0.277
			C-636.264,486.695-634.863,486.695-633.459,486.695z"/>
		<path fill-rule="evenodd" clip-rule="evenodd" fill="#F26F21" d="M-638.208,481.48c0-0.428,0-0.855,0-1.289c1.751,0,3.5,0,5.254,0
			c0,0.43,0,0.857,0,1.285c-0.001,0.002-0.003,0.004-0.005,0.006s-0.004,0.004-0.007,0.004c-0.024,0.002-0.049,0.006-0.073,0.006
			c-1.714,0-3.429-0.002-5.143-0.002C-638.189,481.49-638.197,481.486-638.208,481.48z"/>
	</g>
	<g>
		<g>
			<path fill="#F26F21" d="M-641.413,470.682c8.545,0,15.497,6.951,15.497,15.496s-6.952,15.496-15.497,15.496
				s-15.497-6.951-15.497-15.496S-649.958,470.682-641.413,470.682 M-641.413,468.682c-9.663,0-17.497,7.834-17.497,17.496
				s7.833,17.496,17.497,17.496s17.497-7.834,17.497-17.496S-631.75,468.682-641.413,468.682L-641.413,468.682z"/>
		</g>
	</g>
</g>
</svg>
