<?xml version="1.0" encoding="utf-8"?>
<!-- Generator: Adobe Illustrator 16.0.0, SVG Export Plug-In . SVG Version: 6.00 Build 0)  -->
<!DOCTYPE svg PUBLIC "-//W3C//DTD SVG 1.1//EN" "http://www.w3.org/Graphics/SVG/1.1/DTD/svg11.dtd">
<svg version="1.1" id="Calque_1" xmlns="http://www.w3.org/2000/svg" xmlns:xlink="http://www.w3.org/1999/xlink" x="0px" y="0px"
	 width="500px" height="500px" viewBox="0 0 500 500" enable-background="new 0 0 500 500" xml:space="preserve">
<g>
	<g>
		<path fill="#F26F21" d="M250.369,42.291c55.954,0,108.561,21.791,148.127,61.358c39.569,39.567,61.358,92.173,61.358,148.13
			c0,55.956-21.789,108.563-61.358,148.13c-39.567,39.569-92.173,61.358-148.127,61.358c-55.956,0-108.563-21.789-148.13-61.358
			c-39.568-39.567-61.357-92.174-61.357-148.13c0-55.956,21.789-108.563,61.357-148.13
			C141.806,64.083,194.413,42.291,250.369,42.291 M250.369,13.724c-131.475,0-238.054,106.583-238.054,238.053
			c0,131.472,106.576,238.057,238.054,238.057c131.475,0,238.053-106.583,238.053-238.055
			C488.422,120.309,381.844,13.724,250.369,13.724L250.369,13.724z"/>
	</g>
	<g enable-background="new    ">
		<path fill="#F26F21" d="M140.183,148.73c0-7.186,2.537-13.319,7.611-18.393c5.074-5.074,11.152-7.611,18.234-7.611
			c7.188,0,13.32,2.537,18.394,7.611c5.074,5.074,7.611,11.205,7.611,18.393c0,7.083-2.537,13.188-7.611,18.314
			c-5.074,5.129-11.206,7.69-18.394,7.69c-7.083,0-13.161-2.561-18.234-7.69C142.72,161.918,140.183,155.813,140.183,148.73z
			 M189.813,197.41v149.679H142.72V197.41H189.813L189.813,197.41z"/>
		<path fill="#F26F21" d="M276.861,197.41v21.247c13.848-16.278,30.072-24.417,48.678-24.417c15.539,0,28.515,4.975,38.927,14.918
			c10.411,9.947,15.618,24.18,15.618,42.697v95.234H332.99v-91.29c0-20.004-7.769-30.007-23.308-30.007
			c-11.1,0-22.04,8.246-32.822,24.736v96.563H229.77v-149.68L276.861,197.41L276.861,197.41z"/>
	</g>
</g>
</svg>
