<?xml version="1.0" encoding="utf-8"?>
<!-- Generator: Adobe Illustrator 16.0.0, SVG Export Plug-In . SVG Version: 6.00 Build 0)  -->
<!DOCTYPE svg PUBLIC "-//W3C//DTD SVG 1.1//EN" "http://www.w3.org/Graphics/SVG/1.1/DTD/svg11.dtd">
<svg version="1.1" id="Calque_1" xmlns="http://www.w3.org/2000/svg" xmlns:xlink="http://www.w3.org/1999/xlink" x="0px" y="0px"
	 width="113.492px" height="21.879px" viewBox="0 0 113.492 21.879" enable-background="new 0 0 113.492 21.879"
	 xml:space="preserve">
<g>
	<path fill="#F0F0F0" d="M9.332,21.879c-1.295,0-2.527-0.267-3.67-0.786c-1.142-0.52-2.148-1.251-2.998-2.175
		c-0.846-0.92-1.509-1.99-1.967-3.179C0.233,14.552,0,13.292,0,12.002c0-1.332,0.231-2.628,0.684-3.854
		c0.451-1.223,1.108-2.319,1.943-3.269C3.46,3.935,4.468,3.181,5.621,2.642c1.158-0.538,2.425-0.811,3.781-0.811
		c1.481,0,2.913,0.374,4.256,1.117l0.107,0.056v5.031l-0.356-0.434c-0.489-0.604-1.088-1.073-1.784-1.406
		c-1.461-0.694-3.114-0.643-4.367,0.01C6.604,6.543,6.041,7.014,5.583,7.596c-0.466,0.593-0.82,1.271-1.061,2.017
		c-0.242,0.76-0.358,1.537-0.358,2.314c0,0.767,0.124,1.528,0.37,2.252c0.246,0.728,0.607,1.392,1.071,1.97
		c0.456,0.576,1.014,1.039,1.664,1.366c1.234,0.638,2.841,0.704,4.313-0.022c0.702-0.347,1.32-0.818,1.831-1.389l0.353-0.391v4.979
		l-0.12,0.056c-0.741,0.344-1.472,0.625-2.167,0.83C10.774,21.776,10.054,21.879,9.332,21.879z"/>
</g>
<path fill="#F0F0F0" d="M19.704,21.383H15.84V8.835h3.864V21.383z M17.768,6.188c-0.63,0-1.166-0.217-1.6-0.654
	c-0.432-0.427-0.652-0.968-0.652-1.598c0-0.613,0.222-1.151,0.665-1.587c0.443-0.443,0.976-0.665,1.587-0.665
	s1.149,0.222,1.592,0.665c0.438,0.436,0.665,0.974,0.665,1.587c0,0.63-0.222,1.171-0.654,1.598
	C18.939,5.972,18.398,6.188,17.768,6.188z"/>
<g>
	<path fill="#F0F0F0" d="M26.209,21.383h-3.864v-9.228h-1.188V8.835h1.188v-4.11h3.864v4.11h2.128v3.321h-2.128V21.383z"/>
</g>
<g>
	<path fill="#F0F0F0" d="M32.565,21.383h-3.86V8.835h3.86v0.922c0.731-0.876,1.702-1.32,2.876-1.32c0.466,0,0.974,0.108,1.507,0.312
		l0.144,0.062l-0.485,3.695l-0.268-0.189c-0.386-0.275-0.816-0.41-1.321-0.41c-0.524,0-0.951,0.102-1.282,0.309
		c-0.329,0.199-0.577,0.476-0.741,0.818c-0.17,0.35-0.283,0.754-0.342,1.188c-0.059,0.44-0.089,0.931-0.089,1.498L32.565,21.383
		L32.565,21.383z"/>
</g>
<g>
	<path fill="#F0F0F0" d="M62.637,21.383h-3.864v-6.631c0-0.513-0.016-0.963-0.052-1.33c-0.027-0.353-0.097-0.674-0.206-0.965
		c-0.105-0.265-0.266-0.474-0.496-0.621c-0.229-0.15-0.541-0.224-0.929-0.224c-0.425,0-0.771,0.103-1.021,0.312
		c-0.259,0.216-0.45,0.48-0.569,0.83c-0.129,0.348-0.207,0.723-0.24,1.098c-0.031,0.383-0.046,0.824-0.046,1.32v6.211h-3.866V8.835
		h3.866v0.798c0.312-0.342,0.687-0.613,1.112-0.807c0.584-0.257,1.22-0.39,1.904-0.39c0.818,0,1.52,0.14,2.088,0.406
		c0.574,0.266,1.039,0.657,1.381,1.156c0.334,0.485,0.576,1.053,0.721,1.687c0.146,0.626,0.219,1.323,0.219,2.078L62.637,21.383
		L62.637,21.383z"/>
</g>
<g>
	<path fill="#F0F0F0" d="M75.998,21.383h-3.859v-6.631c0-0.513-0.02-0.963-0.053-1.33c-0.026-0.353-0.1-0.674-0.211-0.965
		c-0.102-0.265-0.26-0.465-0.49-0.623c-0.227-0.148-0.541-0.222-0.928-0.222c-0.431,0-0.774,0.103-1.022,0.312
		c-0.263,0.214-0.455,0.49-0.572,0.824c-0.126,0.354-0.202,0.729-0.235,1.104c-0.031,0.395-0.047,0.835-0.047,1.32v6.211h-3.865
		V8.835h3.865v0.798c0.311-0.342,0.688-0.613,1.111-0.807c0.578-0.257,1.221-0.39,1.904-0.39c0.818,0,1.519,0.14,2.087,0.406
		c0.573,0.268,1.041,0.657,1.383,1.156c0.334,0.485,0.576,1.053,0.72,1.687C75.929,12.311,76,13.008,76,13.763v7.62H75.998z"/>
</g>
<g>
	<path fill="#F0F0F0" d="M94.337,21.383h-3.865V0h3.865V21.383z"/>
</g>
<g>
	<path fill="#F0F0F0" d="M100.253,21.383h-3.865V0h3.865V21.383z"/>
</g>
<g>
	<path fill="#F0F0F0" d="M32.952,5.141c0-0.264-0.102-0.471-0.311-0.62c-0.212-0.153-0.598-0.311-1.167-0.466
		c-0.551-0.149-0.95-0.311-1.205-0.495c-0.253-0.181-0.378-0.445-0.378-0.798c0-0.348,0.144-0.632,0.432-0.843
		C30.615,1.707,31.007,1.6,31.494,1.6c0.5,0,0.891,0.118,1.175,0.353c0.279,0.231,0.412,0.563,0.399,0.983l-0.009,0.023h-0.183
		c0-0.34-0.116-0.611-0.362-0.829c-0.244-0.211-0.585-0.319-1.02-0.319c-0.46,0-0.803,0.094-1.038,0.275
		c-0.232,0.187-0.351,0.408-0.351,0.674c0,0.264,0.094,0.475,0.283,0.624c0.19,0.161,0.569,0.311,1.151,0.464
		c0.56,0.151,0.97,0.313,1.234,0.497c0.259,0.179,0.39,0.443,0.39,0.79c0,0.362-0.155,0.648-0.465,0.854
		c-0.312,0.207-0.731,0.309-1.254,0.309c-0.477,0-0.879-0.104-1.21-0.319c-0.329-0.213-0.485-0.554-0.475-1.015l0.009-0.027h0.181
		c0,0.408,0.149,0.698,0.439,0.883c0.294,0.178,0.645,0.267,1.055,0.267c0.466,0,0.833-0.091,1.106-0.275
		C32.817,5.628,32.952,5.401,32.952,5.141z"/>
	<path fill="#F0F0F0" d="M37.385,4.703L36.34,2.097l-0.076-0.201l-0.022,0.002l-0.068,0.208L35.12,4.703l-0.088,0.21l-0.449,1.108
		h0.553v0.211h-1.208V6.021h0.431l1.782-4.357h0.235l1.771,4.357h0.427v0.211h-1.21V6.021h0.554l-0.445-1.108L37.385,4.703z"/>
	<path fill="#F0F0F0" d="M39.243,1.875V1.664h1.489v0.211h-0.637v4.146h0.637v0.211h-1.489V6.021h0.635V1.875H39.243z"/>
	<path fill="#F0F0F0" d="M46.573,1.664v0.211h-0.636v4.357h-0.21l-3.133-4.18l-0.022,0.001v3.968h0.641v0.211H41.72V6.021h0.639
		V1.875H41.72V1.664h0.639h0.212l3.131,4.179l0.024-0.004V1.875h-0.643V1.664h0.853H46.573z"/>
	<path fill="#F0F0F0" d="M51.155,1.664v1.149h-0.214V1.875h-1.653v4.146h0.641v0.211h-1.492V6.021h0.641V1.875h-1.563v0.938h-0.212
		V1.664H51.155z"/>
	<path fill="#F0F0F0" d="M53.904,3.883h-1.847V3.672h1.847V3.883z"/>
	<path fill="#F0F0F0" d="M58.566,5.621c-0.109,0.164-0.305,0.317-0.593,0.464c-0.294,0.144-0.647,0.212-1.073,0.212
		c-0.564,0-1.018-0.17-1.365-0.514c-0.345-0.351-0.519-0.803-0.519-1.357V3.471c0-0.556,0.166-1.007,0.501-1.352
		c0.342-0.344,0.781-0.52,1.328-0.52c0.545,0,0.953,0.109,1.232,0.329c0.28,0.214,0.438,0.535,0.465,0.957l-0.006,0.021
		l-0.186,0.031c-0.046-0.386-0.18-0.666-0.408-0.853c-0.227-0.182-0.591-0.275-1.099-0.275c-0.49,0-0.88,0.155-1.178,0.471
		c-0.297,0.305-0.441,0.704-0.441,1.188v0.957c0,0.487,0.148,0.893,0.455,1.197c0.307,0.309,0.713,0.462,1.219,0.462
		c0.388,0,0.698-0.054,0.951-0.165c0.244-0.11,0.412-0.241,0.501-0.38V4.347h-1.297V4.132h1.511L58.566,5.621L58.566,5.621z"/>
	<path fill="#F0F0F0" d="M59.574,1.875V1.664h1.492v0.211h-0.641v1.993h2.992V1.875h-0.641V1.664h0.641h0.211h0.643v0.211h-0.643
		v4.146h0.643v0.211h-1.493V6.021h0.64V4.078h-2.99v1.943h0.64v0.211h-1.493V6.021h0.643V1.875H59.574z"/>
	<path fill="#F0F0F0" d="M65.179,1.875V1.664h1.492v0.211H66.03v4.146h0.642v0.211h-1.492V6.021h0.641V1.875H65.179z"/>
	<path fill="#F0F0F0" d="M70.876,5.141c0-0.264-0.102-0.471-0.312-0.62c-0.211-0.153-0.601-0.311-1.164-0.466
		c-0.553-0.149-0.95-0.311-1.208-0.495c-0.253-0.181-0.377-0.445-0.377-0.798c0-0.348,0.145-0.632,0.434-0.843
		C68.539,1.707,68.927,1.6,69.416,1.6c0.506,0,0.894,0.118,1.174,0.353c0.285,0.231,0.412,0.563,0.404,0.983l-0.009,0.023h-0.183
		c0-0.34-0.119-0.611-0.362-0.829c-0.249-0.211-0.586-0.319-1.024-0.319c-0.455,0-0.799,0.094-1.031,0.275
		C68.151,2.273,68.03,2.494,68.03,2.76c0,0.264,0.097,0.475,0.287,0.624c0.187,0.161,0.565,0.311,1.147,0.464
		c0.562,0.151,0.977,0.313,1.234,0.497c0.258,0.179,0.391,0.443,0.391,0.79c0,0.362-0.155,0.648-0.467,0.854
		c-0.313,0.207-0.73,0.309-1.252,0.309c-0.479,0-0.881-0.104-1.211-0.319c-0.33-0.213-0.484-0.554-0.475-1.015l0.01-0.027h0.18
		c0,0.408,0.149,0.698,0.441,0.883c0.289,0.178,0.643,0.267,1.055,0.267c0.465,0,0.832-0.091,1.104-0.275
		C70.744,5.628,70.876,5.401,70.876,5.141z"/>
	<path fill="#F0F0F0" d="M71.971,6.232V6.021h0.641V1.875h-0.641V1.664h0.641h0.214h0.635v0.211h-0.635v4.146h2.228V5.085h0.211
		v1.147H71.971z"/>
	<path fill="#F0F0F0" d="M79.353,4.703l-1.05-2.606l-0.075-0.201l-0.023,0.002l-0.068,0.208l-1.053,2.598l-0.082,0.21L76.55,6.021
		h0.555v0.211h-1.209V6.021h0.426l1.78-4.357h0.235l1.771,4.357h0.432v0.211h-1.209V6.021h0.553l-0.445-1.108L79.353,4.703z"/>
	<path fill="#F0F0F0" d="M81.207,1.875V1.664h1.492v0.211h-0.641v4.146h0.641v0.211h-1.492V6.021h0.642V1.875H81.207z"/>
	<path fill="#F0F0F0" d="M88.542,1.664v0.211H87.9v4.357h-0.21l-3.129-4.18l-0.022,0.001v3.968h0.642v0.211h-1.494V6.021h0.638
		V1.875h-0.638V1.664h0.638h0.215l3.129,4.179l0.023-0.004V1.875h-0.643V1.664h0.853H88.542z"/>
</g>
<path fill="#F0F0F0" d="M49.643,12.452c-0.314-0.814-0.769-1.532-1.354-2.133c-0.586-0.606-1.293-1.072-2.097-1.395
	c-0.806-0.321-1.702-0.487-2.66-0.487c-0.963,0-1.859,0.166-2.662,0.487c-0.808,0.324-1.515,0.79-2.101,1.395
	c-0.582,0.603-1.042,1.32-1.354,2.133c-0.311,0.814-0.468,1.711-0.468,2.67c0,0.963,0.157,1.858,0.468,2.658
	c0.312,0.805,0.772,1.518,1.354,2.124c0.588,0.603,1.295,1.069,2.101,1.396c0.802,0.315,1.7,0.48,2.662,0.48
	c0.959,0,1.862-0.165,2.671-0.48c0.811-0.326,1.519-0.793,2.099-1.396c0.576-0.604,1.027-1.317,1.341-2.124
	c0.31-0.8,0.471-1.695,0.471-2.658C50.114,14.163,49.954,13.265,49.643,12.452z M45.753,17.593
	c-0.575,0.741-1.321,1.116-2.221,1.116c-0.907,0-1.657-0.375-2.226-1.116c-0.562-0.726-0.844-1.556-0.844-2.472
	c0-0.932,0.282-1.775,0.844-2.498c0.569-0.74,1.319-1.117,2.226-1.117c0.92,0,1.668,0.377,2.237,1.117
	c0.549,0.723,0.828,1.566,0.828,2.498C46.597,16.038,46.316,16.868,45.753,17.593z"/>
<path fill="#F0F0F0" d="M89.263,15.247c0-0.953-0.121-1.855-0.354-2.668c-0.236-0.82-0.602-1.549-1.088-2.162
	c-0.486-0.611-1.117-1.099-1.881-1.453c-0.756-0.349-1.646-0.528-2.643-0.528c-1.951,0-3.475,0.645-4.522,1.917
	c-1.04,1.262-1.569,2.899-1.569,4.867c0,1.925,0.574,3.514,1.703,4.727c1.129,1.22,2.663,1.833,4.563,1.833
	c1.321,0,2.509-0.347,3.526-1.035c1.023-0.692,1.756-1.66,2.18-2.887l0.082-0.222l-3.576-0.582l-0.066,0.133
	c-0.231,0.483-0.531,0.868-0.88,1.144c-0.351,0.27-0.763,0.401-1.264,0.401c-0.392,0-0.731-0.087-1.015-0.255
	c-0.287-0.176-0.514-0.404-0.686-0.688c-0.179-0.293-0.311-0.621-0.384-0.979c-0.063-0.3-0.104-0.62-0.117-0.943h7.989V15.247z
	 M80.939,13.713l0.033-0.226c0.102-0.729,0.365-1.349,0.787-1.85c0.432-0.513,1.018-0.773,1.738-0.773
	c0.686,0,1.256,0.264,1.698,0.787c0.427,0.509,0.696,1.126,0.798,1.834l0.034,0.228H80.939z"/>
<path fill="#F0F0F0" d="M113.492,15.247c0-0.957-0.121-1.855-0.354-2.668c-0.24-0.82-0.601-1.549-1.087-2.162
	c-0.486-0.617-1.121-1.104-1.883-1.453c-0.756-0.349-1.644-0.528-2.644-0.528c-1.948,0-3.474,0.645-4.521,1.917
	c-1.039,1.262-1.567,2.899-1.567,4.867c0,1.925,0.571,3.514,1.698,4.727c1.133,1.22,2.666,1.833,4.566,1.833
	c1.32,0,2.508-0.347,3.528-1.035c1.019-0.687,1.751-1.658,2.176-2.887l0.077-0.222l-3.57-0.582l-0.063,0.133
	c-0.235,0.483-0.532,0.868-0.89,1.144c-0.344,0.27-0.756,0.401-1.256,0.401c-0.394,0-0.731-0.087-1.016-0.255
	c-0.28-0.168-0.51-0.402-0.688-0.688c-0.177-0.293-0.308-0.621-0.381-0.979c-0.064-0.3-0.105-0.62-0.115-0.943h7.988V15.247z
	 M105.164,13.713l0.033-0.228c0.104-0.728,0.37-1.349,0.789-1.848c0.434-0.513,1.018-0.773,1.737-0.773
	c0.687,0,1.257,0.264,1.696,0.787c0.431,0.507,0.697,1.125,0.8,1.834l0.036,0.228H105.164z"/>
</svg>
