<?xml version="1.0" encoding="utf-8"?>
<!-- Generator: Adobe Illustrator 16.0.0, SVG Export Plug-In . SVG Version: 6.00 Build 0)  -->
<!DOCTYPE svg PUBLIC "-//W3C//DTD SVG 1.1//EN" "http://www.w3.org/Graphics/SVG/1.1/DTD/svg11.dtd">
<svg version="1.1" id="Calque_1" xmlns="http://www.w3.org/2000/svg" xmlns:xlink="http://www.w3.org/1999/xlink" x="0px" y="0px"
	 width="113.492px" height="54.143px" viewBox="0 0 113.492 54.143" enable-background="new 0 0 113.492 54.143"
	 xml:space="preserve">
<rect x="-550.857" y="663.556" fill="#00926D" width="1920" height="200"/>
<g>
	<g>
		<path fill="#FFFFFF" d="M26.061,19.726c-1.74-1.526-4.773-1.949-5.785-2.049c-0.004,0.002-0.008,0.004-0.008,0.004v0.004
			c-0.049,0.008-0.171,0.184-0.207,0.18c-0.005,0.002-0.008,0.004-0.008,0.004s-1.237,4.828,1.618,6.079
			c3.343,1.463,5.938-0.06,8.079,2.002c0.008-0.065,0.151-0.075,0.163-0.146c0,0.002,0.003,0.002,0.003,0.004
			c0-0.002,0-0.006,0-0.01c0,0,0.004,0,0.004-0.002c0-0.006-0.004-0.014-0.004-0.021C30.043,24.482,28.008,21.439,26.061,19.726z"/>
		<path fill="#FFFFFF" d="M27.938,16.898c-2.823-2.09-6.654,0.041-7.183,0.352c-0.019,0.012-0.056,0.028-0.073,0.039
			c-0.005,0.004-1.444-0.273-1.995-0.379l0.004-0.002l-1.253-2.255c0.008-0.026,0.019-0.063,0.025-0.093
			c0.236-0.696,2.01-6.424-2.516-9.52C10.225,1.814,2.52,3.872,0.569,4.454C0.573,4.458,0.581,4.46,0.583,4.463
			C0.628,4.45,0.702,4.452,0.75,4.441C0.702,4.455,0.632,4.469,0.583,4.482C0.295,4.56,0.514,4.664,0.326,4.719
			c0.007,0.004,0.011,0.006,0.018,0.01c1.938-0.59,7.638,1.174,11.168,3.22c3.045,1.762,5.036,5.562,5.689,6.966
			c0.377,0.816,1.09,2.855,1.205,3.162c0.003,0.129,0.007,0.221,0.007,0.229c0.004,0.004,0.077-0.475,0.656-0.688
			c0.495-0.184,1.136-0.166,1.457-0.131c1.101,0.115,4.107,0.564,5.796,2.05c1.958,1.72,4.013,4.799,3.856,6.079
			c0.004,0.002,0.008,0.006,0.008,0.008c0.016-0.124,0.117-0.014,0.137-0.201c0-0.029,0.004-0.072,0.004-0.105
			c0,0.031,0.011,0.07,0.008,0.102c0.003,0.004,0.007,0.006,0.011,0.008C30.495,24.136,30.908,19.101,27.938,16.898z"/>
		<path fill="#FFFFFF" d="M11.321,8.349C7.811,6.318,2.169,4.566,0.197,5.124c-0.007,0-0.022-0.002-0.029,0v0.003
			c-0.008,0.002-0.015,0-0.019,0.002C0.153,5.131,0.157,5.133,0.16,5.135C0.053,5.17,0.1,5.363,0.001,5.392
			c4.142,2.184,2.87,6.035,6.594,9.973C9.77,18.72,16.803,15.65,16.803,15.65s0-0.004,0-0.012c-0.019-0.047,0.203-0.264,0.195-0.328
			l0,0c0,0,0.004-0.004,0.008-0.01C16.415,14.01,14.458,10.165,11.321,8.349z"/>
	</g>
	<g>
		<path fill="#FFFFFF" d="M16.282,46.383h-2.604v-0.941h6.337v0.941h-2.615v7.619h-1.116L16.282,46.383L16.282,46.383z"/>
		<path fill="#FFFFFF" d="M20.357,49.773c0-0.725-0.011-1.348-0.052-1.918h0.979l0.052,1.22h0.037
			c0.281-0.826,0.965-1.347,1.714-1.347c0.115,0,0.204,0.013,0.308,0.024v1.054c-0.114-0.023-0.229-0.023-0.385-0.023
			c-0.786,0-1.345,0.584-1.495,1.422c-0.026,0.152-0.041,0.342-0.041,0.521v3.274h-1.115L20.357,49.773L20.357,49.773z"/>
		<path fill="#FFFFFF" d="M28.764,52.529c0,0.533,0.026,1.053,0.09,1.473h-1.006l-0.089-0.773h-0.036
			c-0.345,0.481-1.006,0.914-1.881,0.914c-1.244,0-1.881-0.875-1.881-1.767c0-1.485,1.322-2.298,3.698-2.284v-0.127
			c0-0.496-0.141-1.424-1.4-1.41c-0.584,0-1.179,0.164-1.609,0.457l-0.255-0.748c0.51-0.318,1.256-0.535,2.03-0.535
			c1.882,0,2.339,1.283,2.339,2.502V52.529z M27.686,50.865c-1.224-0.023-2.604,0.189-2.604,1.385c0,0.734,0.48,1.066,1.042,1.066
			c0.813,0,1.334-0.508,1.511-1.029c0.037-0.125,0.053-0.253,0.053-0.354L27.686,50.865L27.686,50.865z"/>
		<path fill="#FFFFFF" d="M31.813,46.129c0,0.381-0.271,0.686-0.713,0.686c-0.406,0-0.674-0.305-0.674-0.686
			c0-0.383,0.277-0.697,0.698-0.697C31.532,45.431,31.813,45.734,31.813,46.129z M30.568,54.002v-6.146h1.116v6.146H30.568z"/>
		<path fill="#FFFFFF" d="M34.883,46.383v1.473h1.604v0.852h-1.604v3.314c0,0.762,0.219,1.193,0.838,1.193
			c0.308,0,0.484-0.025,0.65-0.076l0.048,0.851c-0.214,0.077-0.558,0.153-0.989,0.153c-0.521,0-0.938-0.178-1.204-0.469
			c-0.308-0.345-0.433-0.892-0.433-1.613v-3.354H32.84v-0.852h0.953v-1.143L34.883,46.383z"/>
		<path fill="#FFFFFF" d="M38.286,51.133c0.025,1.512,0.979,2.135,2.109,2.135c0.802,0,1.297-0.142,1.703-0.318l0.202,0.8
			c-0.396,0.179-1.079,0.394-2.058,0.394c-1.892,0-3.021-1.258-3.021-3.111s1.09-3.301,2.882-3.301c2.021,0,2.542,1.752,2.542,2.884
			c0,0.229-0.017,0.394-0.041,0.521h-4.318V51.133z M41.566,50.331c0.011-0.698-0.296-1.803-1.552-1.803
			c-1.143,0-1.625,1.028-1.715,1.803H41.566z"/>
		<path fill="#FFFFFF" d="M44.026,49.517c0-0.646-0.025-1.153-0.051-1.662h0.979l0.052,1.004h0.037
			c0.344-0.584,0.916-1.131,1.943-1.131c0.827,0,1.463,0.508,1.729,1.231h0.026c0.188-0.356,0.443-0.61,0.698-0.8
			c0.364-0.279,0.761-0.434,1.345-0.434c0.827,0,2.031,0.535,2.031,2.668V54H51.72v-3.466c0-1.194-0.442-1.894-1.329-1.894
			c-0.649,0-1.131,0.469-1.334,1.002c-0.052,0.166-0.093,0.356-0.093,0.561V54h-1.09v-3.682c0-0.979-0.432-1.678-1.281-1.678
			c-0.688,0-1.208,0.56-1.386,1.117c-0.063,0.153-0.089,0.356-0.089,0.547v3.694h-1.094L44.026,49.517L44.026,49.517z"/>
		<path fill="#FFFFFF" d="M55.239,51.133c0.025,1.512,0.979,2.135,2.109,2.135c0.802,0,1.297-0.142,1.702-0.318l0.203,0.8
			c-0.396,0.179-1.079,0.394-2.058,0.394c-1.893,0-3.022-1.258-3.022-3.111s1.091-3.301,2.882-3.301
			c2.021,0,2.543,1.752,2.543,2.884c0,0.229-0.016,0.394-0.041,0.521h-4.318V51.133z M58.514,50.331
			c0.016-0.698-0.291-1.803-1.548-1.803c-1.142,0-1.625,1.028-1.714,1.803H58.514z"/>
		<path fill="#FFFFFF" d="M60.98,49.517c0-0.646-0.013-1.153-0.053-1.662h0.99l0.066,1.017h0.024
			c0.304-0.573,1.017-1.144,2.032-1.144c0.851,0,2.168,0.508,2.168,2.615v3.657h-1.115v-3.543c0-0.989-0.368-1.815-1.423-1.815
			c-0.724,0-1.296,0.521-1.5,1.144c-0.048,0.14-0.072,0.331-0.072,0.521v3.695h-1.119L60.98,49.517L60.98,49.517z"/>
		<path fill="#FFFFFF" d="M69.325,46.383v1.473h1.6v0.852h-1.6v3.314c0,0.762,0.215,1.193,0.839,1.193
			c0.303,0,0.48-0.025,0.646-0.076l0.052,0.851c-0.218,0.077-0.563,0.153-0.994,0.153c-0.521,0-0.938-0.178-1.204-0.469
			c-0.307-0.345-0.432-0.892-0.432-1.613v-3.354h-0.953v-0.852h0.953v-1.143L69.325,46.383z"/>
		<path fill="#FFFFFF" d="M80.168,44.984v7.431c0,0.547,0.025,1.167,0.051,1.587h-0.988l-0.053-1.066h-0.036
			c-0.333,0.687-1.068,1.207-2.072,1.207c-1.485,0-2.642-1.258-2.642-3.123c-0.013-2.045,1.271-3.291,2.756-3.291
			c0.953,0,1.576,0.445,1.854,0.929h0.025v-3.671h1.105V44.984z M79.063,50.357c0-0.141-0.012-0.332-0.053-0.471
			c-0.162-0.697-0.771-1.283-1.609-1.283c-1.156,0-1.844,1.017-1.844,2.363c0,1.244,0.625,2.272,1.817,2.272
			c0.75,0,1.433-0.509,1.636-1.334c0.041-0.151,0.053-0.306,0.053-0.481V50.357z"/>
		<path fill="#FFFFFF" d="M82.658,51.133c0.026,1.512,0.979,2.135,2.106,2.135c0.801,0,1.296-0.142,1.702-0.318l0.203,0.8
			c-0.396,0.179-1.079,0.394-2.059,0.394c-1.892,0-3.021-1.258-3.021-3.111s1.095-3.301,2.882-3.301
			c2.021,0,2.541,1.752,2.541,2.884c0,0.229-0.015,0.394-0.035,0.521h-4.319V51.133z M85.935,50.331
			c0.011-0.698-0.292-1.803-1.553-1.803c-1.142,0-1.626,1.028-1.715,1.803H85.935z"/>
		<path fill="#FFFFFF" d="M91.088,44.984h1.119v9.018h-1.119V44.984z"/>
		<path fill="#FFFFFF" d="M95.557,45.215c-0.291,1.065-0.838,2.438-1.182,3.021l-0.71,0.076c0.267-0.748,0.61-2.059,0.75-2.973
			L95.557,45.215z"/>
		<path fill="#FFFFFF" d="M96.434,51.133c0.024,1.512,0.979,2.135,2.108,2.135c0.798,0,1.297-0.142,1.703-0.318l0.203,0.8
			c-0.396,0.179-1.082,0.394-2.062,0.394c-1.893,0-3.021-1.258-3.021-3.111s1.093-3.301,2.885-3.301
			c2.019,0,2.538,1.752,2.538,2.884c0,0.229-0.011,0.394-0.037,0.521h-4.317V51.133z M99.711,50.331
			c0.016-0.698-0.292-1.803-1.549-1.803c-1.145,0-1.625,1.028-1.714,1.803H99.711z"/>
		<path fill="#FFFFFF" d="M106.494,52.529c0,0.533,0.026,1.053,0.089,1.473h-1.005l-0.089-0.773h-0.037
			c-0.344,0.481-1.005,0.914-1.88,0.914c-1.245,0-1.881-0.875-1.881-1.767c0-1.485,1.323-2.298,3.698-2.284v-0.127
			c0-0.496-0.142-1.424-1.4-1.41c-0.584,0-1.179,0.164-1.61,0.457l-0.255-0.748c0.51-0.318,1.26-0.535,2.031-0.535
			c1.881,0,2.339,1.283,2.339,2.502V52.529z M105.415,50.865c-1.219-0.023-2.604,0.189-2.604,1.385c0,0.734,0.479,1.066,1.042,1.066
			c0.813,0,1.334-0.508,1.512-1.029c0.036-0.125,0.051-0.253,0.051-0.354L105.415,50.865L105.415,50.865z"/>
		<path fill="#FFFFFF" d="M113.439,52.312c0,0.648,0.011,1.207,0.052,1.688h-0.99l-0.066-1.004h-0.021
			c-0.28,0.497-0.941,1.144-2.035,1.144c-0.964,0-2.12-0.547-2.12-2.69v-3.595h1.119v3.392c0,1.168,0.365,1.968,1.37,1.968
			c0.75,0,1.271-0.521,1.475-1.029c0.063-0.15,0.101-0.354,0.101-0.569v-3.761h1.119v4.457H113.439z"/>
	</g>
	<g>
		<rect x="75.18" y="0" fill="#FFFFFF" width="3.681" height="40.93"/>
		<rect x="82.218" y="0" fill="#FFFFFF" width="3.681" height="40.93"/>
		<path fill="#FFFFFF" d="M55.782,1.922c-1.95-1.943-4.67-1.924-6.478-1.92h-0.421V0h-3.68v40.93h3.68v-0.004l0.421,0.002
			c0.13,0,0.264,0.002,0.399,0.002c1.788,0,4.263-0.117,6.077-1.922c1.308-1.3,1.969-3.22,1.973-5.703l0,0V7.625l0,0
			C57.75,5.138,57.089,3.22,55.782,1.922z M53.188,36.398c-0.868,0.865-2.526,0.854-3.864,0.852
			c-0.151-0.002-0.299-0.002-0.439-0.002V3.681c0.142,0.002,0.288,0,0.439-0.002c1.338-0.006,2.996-0.016,3.864,0.851
			c0.588,0.583,0.883,1.625,0.887,3.096l0,0v25.679l0,0C54.075,34.773,53.776,35.816,53.188,36.398z"/>
		<path fill="#FFFFFF" d="M70.027,37.248c-0.077,0-0.159,0-0.24,0.002H69c-1.216-0.01-2.561-0.102-3.313-0.852
			c-0.58-0.575-0.875-1.6-0.888-3.041V30.15h2.919h3.681v-3.68V12.681h-3.681v0.012c-4.515,0.05-6.564,3.38-6.599,6.697l0,0v0.021
			c0,0.006,0,0.015,0,0.019l0,0V33.56h0.008c0.048,2.359,0.702,4.195,1.962,5.447c1.641,1.631,3.819,1.883,5.541,1.916v0.006h0.454
			c0.026,0,0.057,0,0.086,0c0.044,0,0.088,0,0.134,0h2.241v-3.68h-1.519V37.248L70.027,37.248z M67.718,16.371v10.102h-2.919v-7.08
			l0,0C64.818,18.017,65.354,16.415,67.718,16.371z"/>
		<path fill="#FFFFFF" d="M93.106,12.824v0.002h-3.662v3.686h3.68v-0.008c0.462,0.014,2.83,0.176,2.838,2.102h0.004v3.129
			c-3.827,0.021-6.396,2.834-6.405,7.006h-0.009v5.162h0.005c0.008,4.185,2.579,7.004,6.409,7.025v0.002h3.664V18.588h0.013
			C99.625,15.289,96.877,12.865,93.106,12.824z M93.235,33.883h-0.004V28.78h0.004c-0.004-1.007,0.262-3.339,2.729-3.367v11.835
			C93.497,37.219,93.231,34.886,93.235,33.883z"/>
		<path fill="#FFFFFF" d="M113.432,19.419c-0.017-3.476-3.142-6.556-6.691-6.595v0.006h-3.631v28.1h3.68V16.508
			c1.518,0.068,2.934,1.442,2.959,2.895l0,0v21.527h3.68V19.419H113.432z"/>
	</g>
	<path fill="#FFFFFF" d="M34.225,15.506c-0.714-0.982-1.448-1.994-2.136-3.003c-3.198-4.72-5.051-10.767-5.346-12.034l-0.021-0.123
		c-0.026-0.16-0.179-0.281-0.366-0.287c-0.182-0.006-0.348,0.103-0.384,0.262c-0.02,0.068-1.813,6.934-5.375,12.184
		c-0.691,1.02-1.438,2.039-2.154,3.025c-0.155,0.211-0.308,0.424-0.462,0.636c0.252,0.037,0.521,0.108,0.806,0.224
		c0.418,0.172,0.77,0.414,1.075,0.672c1.884-1.752,4.33-2.416,7.016-1.803c2.719,0.621,3.842,3.399,4.078,4.817
		c0.236,1.419,0.65,3.547-0.354,6.147l-1.033,0.442c-0.563-1.005-2.619-1.39-4.346-1.3c-1.726,0.088-3.724-0.385-4.905-1.391
		c-1.293-1.097-1.322-3.377-1.126-5.146c-0.211-0.043-0.427-0.096-0.654-0.188c-0.661-0.271-1.193-0.695-1.52-1.129
		c-2.438,3.448-4.588,7.069-4.588,11.275c0,3.169,1.484,6.346,4.071,8.713c2.671,2.441,6.169,3.786,9.853,3.786
		s7.183-1.345,9.854-3.786c2.59-2.367,4.071-5.544,4.071-8.713C40.277,23.824,37.203,19.595,34.225,15.506z"/>
</g>
</svg>
