<?xml version="1.0" encoding="utf-8"?>
<!-- Generator: Adobe Illustrator 16.0.0, SVG Export Plug-In . SVG Version: 6.00 Build 0)  -->
<!DOCTYPE svg PUBLIC "-//W3C//DTD SVG 1.1//EN" "http://www.w3.org/Graphics/SVG/1.1/DTD/svg11.dtd">
<svg version="1.1" id="Calque_1" xmlns="http://www.w3.org/2000/svg" xmlns:xlink="http://www.w3.org/1999/xlink" x="0px" y="0px"
	 width="63.938px" height="100.917px" viewBox="0 0 63.938 100.917" enable-background="new 0 0 63.938 100.917"
	 xml:space="preserve">
<rect x="339.75" y="-44.833" opacity="0.65" width="354" height="231"/>
<rect x="491.13" y="134.397" opacity="0.35" fill="#00926D" width="51.287" height="11.332"/>
<g>
	<g>
		<polygon fill="#FFFFFF" points="360.39,-26.783 360.39,-26.783 360.42,-26.722 		"/>
		<polygon fill="#FFFFFF" points="357.043,-27.822 353.128,-27.822 353.128,-26.783 354.571,-26.783 354.571,-22.624 
			355.607,-22.624 355.607,-26.783 357.043,-26.783 		"/>
		<path fill="#FFFFFF" d="M362.507-22.624l2.376-5.198h-5.005l0.512,1.039l0,0l0.03,0.061l0.002,0.002l0,0l0.463,0.944l-0.458,0.875
			l-0.862-1.812l-0.53-1.109h-1.139l2.368,5.198h0.252l0.873-1.906l0.867,1.906H362.507z M363.247-26.783l-0.866,1.837l-0.858-1.837
			H363.247z"/>
		<path fill="#FFFFFF" d="M369.469-23.324c0.524-0.526,0.789-1.16,0.789-1.902c0-0.741-0.265-1.375-0.789-1.902
			c-0.526-0.527-1.159-0.79-1.899-0.79c-0.739,0-1.372,0.263-1.898,0.79s-0.788,1.161-0.788,1.902c0,0.742,0.262,1.376,0.788,1.902
			c0.526,0.527,1.159,0.79,1.898,0.79C368.31-22.534,368.942-22.797,369.469-23.324z M365.948-25.227
			c0-0.45,0.159-0.833,0.475-1.149c0.315-0.316,0.698-0.476,1.146-0.476c0.449,0,0.832,0.159,1.147,0.476
			c0.315,0.316,0.473,0.699,0.473,1.149c0,0.451-0.157,0.833-0.473,1.15s-0.698,0.475-1.147,0.475c-0.448,0-0.831-0.158-1.146-0.475
			S365.948-24.776,365.948-25.227z"/>
		<path fill="#FFFFFF" d="M368.063-24.73c0.131-0.128,0.196-0.293,0.196-0.497c0-0.203-0.065-0.37-0.196-0.495
			c-0.131-0.131-0.296-0.194-0.493-0.194s-0.361,0.063-0.491,0.194c-0.132,0.125-0.197,0.292-0.197,0.495
			c0,0.204,0.065,0.368,0.197,0.497c0.13,0.128,0.294,0.192,0.491,0.192S367.932-24.602,368.063-24.73z"/>
		<path fill="#FFFFFF" d="M373.535-22.52c0.644,0,1.215-0.208,1.719-0.623l-0.665-0.764c-0.238,0.182-0.509,0.287-0.816,0.313
			c-0.306,0.023-0.587-0.022-0.848-0.136c-0.257-0.113-0.477-0.3-0.654-0.564c-0.179-0.261-0.268-0.567-0.268-0.919
			c0-0.336,0.086-0.631,0.257-0.887c0.169-0.253,0.381-0.44,0.629-0.56c0.249-0.119,0.521-0.171,0.821-0.159
			c0.299,0.012,0.571,0.098,0.817,0.255l0.666-0.772c-0.487-0.379-1.04-0.57-1.658-0.57c-0.737,0-1.371,0.264-1.898,0.789
			c-0.524,0.528-0.787,1.163-0.787,1.903c0,0.742,0.263,1.376,0.787,1.903C372.164-22.783,372.798-22.52,373.535-22.52z"/>
		<path fill="#FFFFFF" d="M380.895-22.897l-2.325-4.925h-0.304l-2.502,4.925v0.273h5.131V-22.897z M377.313-23.661l1.081-2.123
			l0.991,2.123H377.313z"/>
		<polygon fill="#FFFFFF" points="384.729,-27.822 384.729,-24.915 381.865,-27.822 381.538,-27.822 381.538,-22.624 
			382.573,-22.624 382.573,-25.656 385.492,-22.624 385.766,-22.624 385.766,-27.822 		"/>
	</g>
	<g>
		<path fill="#FFFFFF" d="M356.466-19.129c-0.097-0.025-0.276-0.071-0.442-0.184c-0.234-0.155-0.364-0.381-0.376-0.661
			c-0.014-0.234,0.063-0.439,0.212-0.598c0.218-0.226,0.53-0.288,0.682-0.288c0.426,0,0.664,0.155,0.876,0.292l0.096,0.063
			l-0.304,0.496l-0.104-0.066c-0.188-0.121-0.31-0.201-0.563-0.201c-0.039,0-0.185,0.028-0.258,0.109
			c-0.026,0.025-0.056,0.071-0.052,0.166c0.005,0.152,0.108,0.235,0.377,0.303c0.033,0.008,0.058,0.017,0.083,0.025
			c0.279,0.096,0.496,0.226,0.646,0.388c0.151,0.166,0.23,0.364,0.23,0.572c0,0.206-0.088,0.419-0.233,0.583
			c-0.172,0.192-0.41,0.301-0.673,0.301c-0.129,0-0.305-0.008-0.513-0.071c-0.264-0.083-0.496-0.23-0.696-0.442l0.425-0.402
			c0.309,0.33,0.655,0.33,0.784,0.33c0.242,0,0.322-0.221,0.322-0.298c0-0.159-0.18-0.304-0.484-0.409l-0.013-0.004L356.466-19.129z
			"/>
		<path fill="#FFFFFF" d="M360.089-20.819v0.585h-0.81v2.347h-0.585v-2.347h-0.813v-0.585H360.089z"/>
		<path fill="#FFFFFF" d="M361.646-20.819l1.381,2.932h-0.646l-0.835-1.783l-0.907,1.783h-0.655l1.49-2.932H361.646z"/>
		<path fill="#FFFFFF" d="M363.904-20.237v2.346h-0.586v-2.931h1.145c0.484,0,0.878,0.396,0.878,0.88
			c0,0.357-0.21,0.662-0.515,0.798l0.579,1.256h-0.621l-0.547-1.176v-0.585h0.226c0.163,0,0.292-0.129,0.292-0.294
			c0-0.162-0.129-0.295-0.292-0.295H363.904z"/>
		<path fill="#FFFFFF" d="M367.735-20.819v0.585h-0.811v2.347h-0.584v-2.347h-0.813v-0.585H367.735z"/>
		<path fill="#FFFFFF" d="M371.877-20.819l-0.951,1.856v1.076h-0.585v-1.076l-0.957-1.856h0.647l0.602,1.103l0.597-1.103H371.877z"
			/>
		<path fill="#FFFFFF" d="M374.949-19.356c0,0.837-0.681,1.519-1.517,1.519c-0.834,0-1.514-0.682-1.514-1.519
			c0-0.835,0.68-1.518,1.514-1.518C374.269-20.874,374.949-20.191,374.949-19.356z M372.519-19.356c0,0.506,0.409,0.917,0.914,0.917
			c0.506,0,0.915-0.411,0.915-0.917s-0.409-0.917-0.915-0.917C372.928-20.272,372.519-19.862,372.519-19.356z"/>
		<path fill="#FFFFFF" d="M377.507-18.971c0,0.628-0.509,1.134-1.133,1.134s-1.131-0.506-1.134-1.13v-1.852h0.584v1.848
			c0,0.146,0.06,0.284,0.163,0.389c0.104,0.104,0.241,0.159,0.387,0.159c0.147,0,0.282-0.055,0.386-0.159
			c0.104-0.105,0.158-0.239,0.163-0.385h-0.005v-1.852h0.584v1.848H377.507z"/>
		<path fill="#FFFFFF" d="M381.257-18.971c0,0.628-0.511,1.134-1.131,1.134c-0.627,0-1.13-0.506-1.137-1.13v-1.852h0.585v1.848
			c0,0.146,0.059,0.284,0.164,0.389c0.103,0.104,0.239,0.159,0.388,0.159c0.145,0,0.277-0.055,0.385-0.159
			c0.103-0.105,0.157-0.239,0.161-0.385h-0.004v-1.852h0.584v1.848H381.257z"/>
		<path fill="#FFFFFF" d="M382.591-20.819c0.485,0,0.877,0.396,0.877,0.882c0,0.484-0.392,0.879-0.877,0.879h-0.362v1.171h-0.585
			v-2.932H382.591z M382.591-19.644c0.159,0,0.292-0.131,0.292-0.293c0-0.163-0.133-0.297-0.292-0.297h-0.362v0.59H382.591z"/>
	</g>
	<circle fill="#FFFFFF" cx="353.697" cy="-19.352" r="0.57"/>
	<circle fill="#FFFFFF" cx="385.195" cy="-19.352" r="0.571"/>
</g>
<g>
	<g>
		<path fill="#FFFFFF" d="M-194.924,276.992l1.914-5.005l1.913,5.005l1.897-4.861h0.916l-2.813,7.059l-1.913-4.98l-1.914,4.98
			l-2.813-7.059h0.917L-194.924,276.992z"/>
		<path fill="#FFFFFF" d="M-187.893,276.949c0.01,0.718,0.494,1.395,1.268,1.395c0.62,0,0.952-0.314,1.257-0.819l0.683,0.387
			c-0.395,0.73-1.133,1.152-1.949,1.152c-1.285,0-2.068-0.973-2.068-2.213c0-1.297,0.693-2.27,2.05-2.27
			c1.338,0,1.968,0.987,1.968,2.24v0.128H-187.893z M-185.493,276.335c-0.1-0.631-0.512-1.054-1.16-1.054
			c-0.63,0-1.095,0.448-1.194,1.054H-185.493z"/>
		<path fill="#FFFFFF" d="M-184.055,271.103h0.81v4.305h0.018c0.333-0.504,0.836-0.827,1.465-0.827c1.214,0,1.978,1.052,1.978,2.206
			c0,1.206-0.719,2.276-2.014,2.276c-0.593,0-1.105-0.324-1.429-0.8h-0.018v0.655h-0.81V271.103z M-180.594,276.813
			c0-0.818-0.495-1.515-1.367-1.515c-0.836,0-1.33,0.732-1.33,1.515c0,0.791,0.477,1.53,1.33,1.53
			C-181.08,278.343-180.594,277.64-180.594,276.813z"/>
		<path fill="#FFFFFF" d="M-164.934,275.5v0.269c0,1.865-1.311,3.295-3.207,3.295s-3.424-1.639-3.424-3.521
			c0-1.951,1.563-3.556,3.516-3.556c1.05,0,2.093,0.477,2.758,1.313l-0.593,0.567c-0.485-0.667-1.304-1.106-2.129-1.106
			c-1.52,0-2.707,1.233-2.707,2.757c0,1.422,1.169,2.772,2.634,2.772c1.051,0,2.183-0.91,2.22-2.018h-1.753V275.5H-164.934z"/>
		<path fill="#FFFFFF" d="M-163.32,275.39h0.026c0.197-0.495,0.612-0.81,1.152-0.81c0.232,0,0.467,0.082,0.664,0.205l-0.368,0.741
			c-0.146-0.128-0.306-0.171-0.496-0.171c-0.872,0-0.978,0.807-0.978,1.494v2.068h-0.81v-4.215h0.81V275.39z"/>
		<path fill="#FFFFFF" d="M-157.082,278.918h-0.811v-0.655h-0.016c-0.325,0.476-0.829,0.8-1.429,0.8
			c-1.288,0-2.013-1.07-2.013-2.276c0-1.154,0.764-2.206,1.985-2.206c0.622,0,1.125,0.323,1.458,0.827h0.016v-0.704h0.811V278.918z
			 M-157.847,276.813c0-0.818-0.494-1.515-1.365-1.515c-0.835,0-1.331,0.732-1.331,1.515c0,0.791,0.477,1.53,1.331,1.53
			C-158.33,278.343-157.847,277.64-157.847,276.813z"/>
		<path fill="#FFFFFF" d="M-155.283,275.408h0.019c0.333-0.504,0.835-0.827,1.465-0.827c1.213,0,1.976,1.052,1.976,2.206
			c0,1.206-0.718,2.276-2.013,2.276c-0.593,0-1.105-0.324-1.428-0.8h-0.019v3.069h-0.81v-6.629h0.81V275.408z M-152.63,276.813
			c0-0.818-0.494-1.515-1.369-1.515c-0.835,0-1.329,0.732-1.329,1.515c0,0.791,0.478,1.53,1.329,1.53
			C-153.119,278.343-152.63,277.64-152.63,276.813z"/>
		<path fill="#FFFFFF" d="M-150.222,271.103v4.172h0.02c0.251-0.452,0.754-0.694,1.268-0.694c1.183,0,1.49,0.8,1.49,1.826v2.512
			h-0.809v-2.412c0-0.72-0.098-1.208-0.926-1.208c-1.042,0-1.042,0.921-1.042,1.685v1.936h-0.807v-7.815H-150.222z"/>
		<path fill="#FFFFFF" d="M-145.186,272.778c0,0.309-0.251,0.552-0.556,0.552s-0.557-0.243-0.557-0.552
			c0-0.314,0.251-0.567,0.557-0.567S-145.186,272.463-145.186,272.778z M-145.337,278.918h-0.811v-4.215h0.811V278.918z"/>
		<path fill="#FFFFFF" d="M-140.952,275.902c-0.324-0.369-0.72-0.566-1.204-0.566c-0.791,0-1.402,0.702-1.402,1.478
			c0,0.863,0.602,1.495,1.458,1.495c0.467,0,0.843-0.218,1.149-0.559v1.036c-0.369,0.195-0.736,0.277-1.158,0.277
			c-1.242,0-2.255-0.953-2.255-2.213c0-1.308,1.007-2.27,2.3-2.27c0.377,0,0.79,0.09,1.113,0.278V275.902z"/>
		<path fill="#FFFFFF" d="M-137.463,272.13h1.402c2.076,0,3.802,1.099,3.802,3.358c0,2.314-1.69,3.43-3.829,3.43h-1.375V272.13z
			 M-136.618,278.145h0.297c1.726,0,3.215-0.649,3.215-2.618c0-1.983-1.489-2.621-3.215-2.621h-0.297V278.145z"/>
		<path fill="#FFFFFF" d="M-131.016,276.949c0.007,0.718,0.494,1.395,1.266,1.395c0.62,0,0.956-0.314,1.258-0.819l0.683,0.387
			c-0.393,0.73-1.132,1.152-1.952,1.152c-1.283,0-2.064-0.973-2.064-2.213c0-1.297,0.692-2.27,2.049-2.27
			c1.336,0,1.967,0.987,1.967,2.24v0.128H-131.016z M-128.616,276.335c-0.098-0.631-0.514-1.054-1.16-1.054
			c-0.628,0-1.096,0.448-1.196,1.054H-128.616z"/>
		<path fill="#FFFFFF" d="M-125.427,275.669c-0.093-0.209-0.303-0.371-0.536-0.371c-0.224,0-0.442,0.182-0.442,0.416
			c0,0.368,0.486,0.53,0.978,0.754c0.498,0.229,0.976,0.533,0.976,1.198c0,0.804-0.665,1.396-1.45,1.396
			c-0.613,0-1.229-0.349-1.456-0.944l0.69-0.315c0.173,0.315,0.381,0.54,0.766,0.54c0.343,0,0.639-0.233,0.639-0.594
			c0-0.226-0.108-0.335-0.296-0.458l-0.792-0.425c-0.467-0.249-0.809-0.487-0.809-1.063c0-0.684,0.557-1.223,1.24-1.223
			c0.513,0,0.925,0.278,1.154,0.737L-125.427,275.669z"/>
		<path fill="#FFFFFF" d="M-122.52,272.778c0,0.309-0.25,0.552-0.562,0.552c-0.303,0-0.553-0.243-0.553-0.552
			c0-0.314,0.25-0.567,0.553-0.567C-122.77,272.21-122.52,272.463-122.52,272.778z M-122.672,278.918h-0.811v-4.215h0.811V278.918z"
			/>
		<path fill="#FFFFFF" d="M-117.445,278.839c0,1.449-0.412,2.493-2.043,2.493c-1.167,0-2.014-0.721-2.032-1.909h0.806
			c0,0.756,0.523,1.188,1.259,1.188c0.997,0,1.206-0.684,1.206-1.549v-0.8h-0.02c-0.323,0.476-0.835,0.8-1.428,0.8
			c-1.293,0-2.014-1.07-2.014-2.276c0-1.154,0.764-2.206,1.979-2.206c0.628,0,1.131,0.323,1.463,0.846h0.02v-0.723h0.805V278.839z
			 M-118.207,276.813c0-0.818-0.493-1.515-1.361-1.515c-0.838,0-1.333,0.732-1.333,1.515c0,0.791,0.479,1.53,1.333,1.53
			C-118.693,278.343-118.207,277.64-118.207,276.813z"/>
		<path fill="#FFFFFF" d="M-115.579,275.275h0.018c0.252-0.452,0.755-0.694,1.268-0.694c1.188,0,1.491,0.8,1.491,1.826v2.512h-0.809
			v-2.412c0-0.72-0.098-1.208-0.925-1.208c-1.043,0-1.043,0.921-1.043,1.685v1.936h-0.809v-4.215h0.809V275.275z"/>
		<path fill="#FFFFFF" d="M-102.958,278.918h-0.842v-6.788h0.969c2.086,0,2.729,0.72,2.729,1.965c0,1.432-1.085,1.979-2.365,1.979
			h-0.49V278.918z M-102.958,275.318h0.269c0.864,0,1.802-0.162,1.802-1.242c0-1.063-1.006-1.188-1.844-1.188h-0.227V275.318z"/>
		<path fill="#FFFFFF" d="M-98.579,275.39h0.028c0.198-0.495,0.613-0.81,1.148-0.81c0.235,0,0.47,0.082,0.665,0.205l-0.363,0.741
			c-0.149-0.128-0.311-0.171-0.497-0.171c-0.872,0-0.981,0.807-0.981,1.494v2.068h-0.807v-4.215h0.807V275.39z"/>
		<path fill="#FFFFFF" d="M-95.146,272.778c0,0.309-0.251,0.552-0.555,0.552c-0.306,0-0.556-0.243-0.556-0.552
			c0-0.314,0.25-0.567,0.556-0.567C-95.397,272.21-95.146,272.463-95.146,272.778z M-95.298,278.918h-0.806v-4.215h0.806V278.918z"
			/>
		<path fill="#FFFFFF" d="M-93.192,275.275h0.018c0.254-0.452,0.756-0.694,1.269-0.694c1.185,0,1.491,0.8,1.491,1.826v2.512h-0.809
			v-2.412c0-0.72-0.098-1.208-0.925-1.208c-1.044,0-1.044,0.921-1.044,1.685v1.936H-94v-4.215h0.808V275.275z"/>
		<path fill="#FFFFFF" d="M-88.374,278.918h-0.81v-3.458h-0.441v-0.757h0.441v-1.609h0.81v1.609h0.789v0.757h-0.789V278.918z"/>
	</g>
	<polygon fill="#FFFFFF" points="-108.447,275.231 -107.147,275.231 -107.802,276.366 -108.447,277.496 -109.104,276.366 
		-109.758,275.231 	"/>
	<polygon fill="#FFFFFF" points="-175.568,275.231 -174.268,275.231 -174.921,276.366 -175.568,277.496 -176.227,276.366 
		-176.881,275.231 	"/>
</g>
<text transform="matrix(1 0 0 1 161.6455 -19.9219)"><tspan x="0" y="0" font-family="'MyriadPro-Regular'" font-size="12">Orange F26F21</tspan><tspan x="0" y="14.4" font-family="'MyriadPro-Regular'" font-size="12">Emeraude 00926D</tspan></text>
<rect x="339.75" y="-44.833" fill="none" stroke="#00926D" stroke-width="2" stroke-miterlimit="10" width="354" height="231"/>
<g>
	<polygon fill="#8A1F04" points="106.534,277.292 110.439,278.969 114.339,277.291 110.439,275.7 	"/>
	<polygon fill="#670000" points="106.167,276.383 110.439,278.126 114.713,276.378 110.439,274.674 	"/>
	<linearGradient id="SVGID_1_" gradientUnits="userSpaceOnUse" x1="90.8467" y1="218.061" x2="117.5816" y2="273.4293">
		<stop  offset="0" style="stop-color:#FFDD00"/>
		<stop  offset="1" style="stop-color:#FCB813"/>
	</linearGradient>
	<polygon fill="url(#SVGID_1_)" points="83.583,221.265 110.439,232.045 110.439,278.126 106.167,276.383 	"/>
	<linearGradient id="SVGID_2_" gradientUnits="userSpaceOnUse" x1="129.3721" y1="217.6313" x2="103.1054" y2="274.7537">
		<stop  offset="0" style="stop-color:#FCB813"/>
		<stop  offset="1" style="stop-color:#F6921E"/>
	</linearGradient>
	<polyline fill="url(#SVGID_2_)" points="137.259,221.258 110.439,231.937 110.439,278.126 114.713,276.378 137.259,221.258 	"/>
	<polygon fill="#EC1C24" points="83.583,221.265 110.439,231.937 137.259,221.258 110.439,261.59 	"/>
	<polygon opacity="0.3" fill="#EC1C24" points="106.534,277.292 110.439,278.969 114.339,277.291 110.439,286.827 	"/>
	<polygon fill="#F26F21" points="106.534,277.292 110.439,286.827 114.339,277.291 110.439,278.969 	"/>
	<polygon fill="#F6921E" points="110.439,278.969 110.439,286.827 106.534,277.292 	"/>
	<polyline opacity="0.7" fill="#F6921E" points="137.259,221.258 110.439,231.937 110.439,278.126 114.713,276.378 137.259,221.258 
			"/>
	<polygon opacity="0.7" fill="#FFC10E" points="83.583,221.265 110.439,231.937 110.439,278.126 106.167,276.383 	"/>
	<polygon opacity="0.3" fill="#EC1C24" points="110.439,261.59 110.439,245.833 137.259,221.258 	"/>
	<polygon opacity="0.15" fill="#EC1C24" points="110.439,231.897 121.274,235.907 110.439,245.833 	"/>
	<polygon opacity="0" fill="#EC1C24" points="121.274,235.907 137.259,221.258 110.439,231.937 	"/>
	<polygon opacity="0.3" fill="#EC1C24" points="110.442,261.59 110.442,245.833 83.583,221.265 	"/>
	<polygon opacity="0.15" fill="#EC1C24" points="110.442,231.937 99.61,235.907 110.442,245.833 	"/>
	<polygon opacity="0" fill="#EC1C24" points="99.61,235.907 83.583,221.265 110.442,231.937 	"/>
	<polygon fill="#049775" points="131.121,223.306 133.692,226.633 110.439,234.758 87.161,226.629 89.899,221.809 110.439,230.879 	
		"/>
	<path fill="#03943F" d="M83.583,221.265"/>
	<path fill="#03943F" d="M87.455,219.911"/>
	<line opacity="0.5" fill="#03943F" x1="83.583" y1="221.265" x2="94.321" y2="225.525"/>
	<path fill="#03943F" d="M137.259,221.258"/>
	<path fill="#03943F" d="M133.315,220.045"/>
	<line opacity="0.5" fill="#03943F" x1="137.259" y1="221.258" x2="126.521" y2="225.646"/>
	<path fill="#03943F" d="M83.583,221.265"/>
	<path fill="#03943F" d="M87.455,219.911"/>
	<line opacity="0.5" fill="#03943F" x1="83.583" y1="221.265" x2="94.321" y2="225.525"/>
	<path fill="#03943F" d="M137.259,221.258"/>
	<path fill="#03943F" d="M133.315,220.045"/>
	<line opacity="0.5" fill="#03943F" x1="137.259" y1="221.258" x2="126.521" y2="225.646"/>
	<polygon fill="#007055" points="110.424,211.952 87.161,226.629 83.583,221.265 	"/>
	<polygon fill="#007055" points="110.424,211.952 133.692,226.633 137.259,221.258 	"/>
	<polygon opacity="0.2" points="83.583,221.265 84.653,222.872 110.439,233.678 136.188,222.872 137.259,221.258 122.927,225.426 
		110.439,231.937 98.821,225.075 	"/>
	<polygon fill="#B24215" points="110.424,211.952 83.583,221.265 110.439,231.937 137.259,221.258 	"/>
	<polygon fill="#B24215" points="110.424,211.952 83.583,221.265 110.439,231.937 137.259,221.258 	"/>
	<polyline points="110.439,231.937 94.305,225.526 83.583,221.265 110.424,202.188 137.259,221.258 	"/>
	<polygon opacity="0.5" fill="#FFFFFF" points="110.424,202.188 110.439,231.937 83.583,221.265 	"/>
	<polygon opacity="0.3" fill="#EC1C24" points="110.439,278.126 115.739,262.31 114.713,276.378 	"/>
	<polygon opacity="0.4" fill="#EC1C24" points="115.739,262.31 125.502,250.006 114.713,276.378 	"/>
	<polygon opacity="0.2" fill="#EC1C24" points="115.739,262.31 110.439,261.59 110.439,278.126 	"/>
	<polygon opacity="0.05" fill="#EC1C24" points="110.439,261.59 125.42,239.065 115.739,262.31 	"/>
	<polygon opacity="0.2" fill="#EC1C24" points="115.739,262.31 125.42,239.065 125.502,250.006 	"/>
	<polygon opacity="0.1" fill="#EC1C24" points="125.502,250.006 137.259,221.258 125.42,239.065 	"/>
	<polygon opacity="0.3" fill="#F16522" points="110.439,278.126 105.141,262.313 106.169,276.391 	"/>
	<polygon opacity="0.4" fill="#F16522" points="105.141,262.313 95.382,250.01 106.169,276.391 	"/>
	<polygon opacity="0.2" fill="#F16522" points="105.141,262.313 110.439,261.594 110.439,278.126 	"/>
	<polygon opacity="0.05" fill="#F16522" points="110.439,261.594 95.46,239.069 105.141,262.313 	"/>
	<polygon opacity="0.2" fill="#F16522" points="105.141,262.313 95.46,239.069 95.382,250.01 	"/>
	<polygon opacity="0.1" fill="#F16522" points="95.382,250.01 83.621,221.262 95.46,239.069 	"/>
</g>
<g>
	<polyline fill="none" stroke="#FFFFFF" stroke-linecap="round" stroke-linejoin="round" stroke-miterlimit="10" points="
		511.805,87.311 516.766,89.337 521.742,87.306 	"/>
	<polygon fill="none" stroke="#FFFFFF" stroke-linecap="round" stroke-linejoin="round" stroke-miterlimit="10" points="
		485.544,23.226 516.766,35.632 547.957,23.215 516.766,70.113 	"/>
	<polygon fill="none" stroke="#FFFFFF" stroke-linecap="round" stroke-linejoin="round" stroke-miterlimit="10" points="
		512.229,89.074 516.766,100.16 521.308,89.074 516.766,91.023 	"/>
	<polygon fill="none" stroke="#FFFFFF" stroke-linecap="round" stroke-linejoin="round" stroke-miterlimit="10" points="
		516.766,91.023 516.766,100.16 512.229,89.074 	"/>
	<polyline fill="none" stroke="#FFFFFF" stroke-linecap="round" stroke-linejoin="round" stroke-miterlimit="10" points="
		539.472,30.993 521.498,37.259 529.372,40.248 	"/>
	
		<line fill="none" stroke="#FFFFFF" stroke-linecap="round" stroke-linejoin="round" stroke-miterlimit="10" x1="485.544" y1="23.226" x2="498.028" y2="28.176"/>
	<path fill="none" stroke="#FFFFFF" stroke-linecap="round" stroke-linejoin="round" stroke-miterlimit="10" d="M547.957,23.215"/>
	
		<line fill="none" stroke="#FFFFFF" stroke-linecap="round" stroke-linejoin="round" stroke-miterlimit="10" x1="485.544" y1="23.226" x2="498.028" y2="28.176"/>
	<path fill="none" stroke="#FFFFFF" stroke-linecap="round" stroke-linejoin="round" stroke-miterlimit="10" d="M547.957,23.215"/>
	<path fill="none" stroke="#FFFFFF" stroke-linecap="round" stroke-linejoin="round" stroke-miterlimit="10" d="M535.469,28.316"/>
	<path fill="none" stroke="#FFFFFF" stroke-linecap="round" stroke-linejoin="round" stroke-miterlimit="10" d="M547.957,23.215"/>
	<polygon fill="none" stroke="#FFFFFF" stroke-linecap="round" stroke-linejoin="round" stroke-miterlimit="10" points="
		516.766,89.337 522.939,70.948 521.742,87.306 	"/>
	<polygon fill="none" stroke="#FFFFFF" stroke-linecap="round" stroke-linejoin="round" stroke-miterlimit="10" points="
		522.939,70.948 534.288,56.642 521.742,87.306 	"/>
	<polygon fill="none" stroke="#FFFFFF" stroke-linecap="round" stroke-linejoin="round" stroke-miterlimit="10" points="
		522.939,70.948 516.766,70.113 516.766,89.337 	"/>
	<polygon fill="none" stroke="#FFFFFF" stroke-linecap="round" stroke-linejoin="round" stroke-miterlimit="10" points="
		516.766,70.113 534.19,43.92 522.939,70.948 	"/>
	<polygon fill="none" stroke="#FFFFFF" stroke-linecap="round" stroke-linejoin="round" stroke-miterlimit="10" points="
		522.939,70.948 534.19,43.92 534.288,56.642 	"/>
	<polygon fill="none" stroke="#FFFFFF" stroke-linecap="round" stroke-linejoin="round" stroke-miterlimit="10" points="
		534.288,56.642 547.957,23.215 534.19,43.92 	"/>
	<polygon fill="none" stroke="#FFFFFF" stroke-linecap="round" stroke-linejoin="round" stroke-miterlimit="10" points="
		516.766,89.337 510.612,70.954 511.81,87.319 	"/>
	<polygon fill="none" stroke="#FFFFFF" stroke-linecap="round" stroke-linejoin="round" stroke-miterlimit="10" points="
		510.612,70.954 499.265,56.646 511.81,87.319 	"/>
	<polygon fill="none" stroke="#FFFFFF" stroke-linecap="round" stroke-linejoin="round" stroke-miterlimit="10" points="
		510.612,70.954 516.766,70.118 516.766,89.337 	"/>
	<polygon fill="none" stroke="#FFFFFF" stroke-linecap="round" stroke-linejoin="round" stroke-miterlimit="10" points="
		516.766,70.118 499.357,43.923 510.612,70.954 	"/>
	<polygon fill="none" stroke="#FFFFFF" stroke-linecap="round" stroke-linejoin="round" stroke-miterlimit="10" points="
		510.612,70.954 499.357,43.923 499.265,56.646 	"/>
	<polygon fill="none" stroke="#FFFFFF" stroke-linecap="round" stroke-linejoin="round" stroke-miterlimit="10" points="
		499.265,56.646 485.544,23.226 499.357,43.923 	"/>
	<polygon fill="none" stroke="#FFFFFF" stroke-linecap="round" stroke-linejoin="round" stroke-miterlimit="10" points="
		516.766,1.042 516.766,35.632 485.544,23.226 	"/>
	<polygon fill="none" stroke="#FFFFFF" stroke-linecap="round" stroke-linejoin="round" stroke-miterlimit="10" points="
		516.766,1.042 547.957,23.215 516.766,35.632 	"/>
	<polyline fill="none" stroke="#FFFFFF" stroke-linecap="round" stroke-linejoin="round" stroke-miterlimit="10" points="
		543.813,29.453 516.766,70.113 516.766,51.79 539.472,30.993 543.813,29.453 	"/>
	<polygon fill="none" stroke="#FFFFFF" stroke-linecap="round" stroke-linejoin="round" stroke-miterlimit="10" points="
		516.766,38.907 516.766,51.79 504.181,40.248 512.186,37.313 	"/>
	<polygon fill="none" stroke="#FFFFFF" stroke-linecap="round" stroke-linejoin="round" stroke-miterlimit="10" points="
		512.186,37.313 504.181,40.248 494.015,30.962 	"/>
	<polygon fill="none" stroke="#FFFFFF" stroke-linecap="round" stroke-linejoin="round" stroke-miterlimit="10" points="
		489.706,29.459 516.766,38.912 543.813,29.463 539.368,26.634 516.766,35.632 494.129,26.673 	"/>
	<polygon fill="none" stroke="#FFFFFF" stroke-linecap="round" stroke-linejoin="round" stroke-miterlimit="10" points="
		489.706,29.459 516.766,70.113 516.766,51.79 494.174,31.019 	"/>
	<polygon fill="none" stroke="#FFFFFF" stroke-linecap="round" stroke-linejoin="round" stroke-miterlimit="10" points="
		521.498,37.259 529.372,40.248 516.766,51.79 516.766,38.91 	"/>
	<polygon fill="none" stroke="#FFFFFF" stroke-linecap="round" stroke-linejoin="round" stroke-miterlimit="10" points="
		489.706,29.459 485.544,23.226 511.805,87.311 516.766,89.337 516.766,38.903 	"/>
	<polyline fill="none" stroke="#FFFFFF" stroke-linecap="round" stroke-linejoin="round" stroke-miterlimit="10" points="
		547.957,23.215 543.813,29.453 516.766,38.899 516.766,89.337 521.742,87.306 547.957,23.215 	"/>
</g>
<g>
	<g>
		<path fill="#FFFFFF" d="M31.963,89.837c-0.064,0-0.128-0.013-0.189-0.037l-4.961-2.026c-0.256-0.104-0.378-0.396-0.274-0.652
			c0.104-0.255,0.397-0.376,0.652-0.273l4.772,1.949l4.788-1.954c0.254-0.104,0.547,0.018,0.651,0.274
			c0.104,0.255-0.019,0.547-0.274,0.651L32.152,89.8C32.091,89.825,32.027,89.837,31.963,89.837z"/>
	</g>
	<g>
		<path fill="#FFFFFF" d="M31.963,70.613c-0.167,0-0.323-0.083-0.416-0.223L0.325,23.503c-0.122-0.182-0.11-0.422,0.027-0.592
			c0.138-0.169,0.372-0.228,0.573-0.15l31.037,12.333L62.97,22.75c0.2-0.081,0.434-0.021,0.573,0.149
			c0.138,0.17,0.148,0.41,0.027,0.592L32.379,70.39C32.287,70.529,32.13,70.613,31.963,70.613z M2.045,24.282L31.962,69.21
			l29.888-44.938L32.148,36.096c-0.118,0.048-0.25,0.048-0.37,0L2.045,24.282z"/>
	</g>
	<g>
		<path fill="#FFFFFF" d="M31.963,100.66L31.963,100.66c-0.203,0-0.386-0.123-0.463-0.311l-4.536-11.086
			c-0.077-0.188-0.032-0.403,0.112-0.546c0.145-0.143,0.362-0.184,0.548-0.103l4.339,1.864l4.345-1.865
			c0.187-0.078,0.402-0.039,0.548,0.104c0.145,0.143,0.189,0.358,0.112,0.546l-4.542,11.086
			C32.349,100.537,32.166,100.66,31.963,100.66z M28.353,90.016l3.611,8.824l3.616-8.825l-3.419,1.468
			c-0.126,0.054-0.269,0.054-0.395-0.001L28.353,90.016z"/>
	</g>
	<g>
		<path fill="#FFFFFF" d="M31.963,100.66c-0.2,0-0.385-0.12-0.463-0.311l-4.536-11.086c-0.077-0.188-0.032-0.403,0.112-0.546
			c0.145-0.143,0.362-0.184,0.548-0.103l4.536,1.949c0.184,0.078,0.303,0.259,0.303,0.459v9.137c0,0.239-0.169,0.444-0.403,0.49
			C32.027,100.657,31.995,100.66,31.963,100.66z M28.353,90.016l3.11,7.602v-6.266L28.353,90.016z"/>
	</g>
	<g>
		<path fill="#FFFFFF" d="M44.569,40.748c-0.059,0-0.119-0.01-0.178-0.033l-7.874-2.989c-0.196-0.074-0.325-0.264-0.322-0.474
			s0.137-0.396,0.335-0.465l17.974-6.266c0.261-0.09,0.547,0.046,0.637,0.308c0.092,0.261-0.046,0.546-0.307,0.637l-16.677,5.814
			l6.59,2.502c0.258,0.098,0.388,0.387,0.29,0.645C44.961,40.625,44.771,40.748,44.569,40.748z"/>
	</g>
	<g>
		<path fill="#FFFFFF" d="M13.226,28.676c-0.062,0-0.124-0.011-0.184-0.035l-12.484-4.95c-0.257-0.102-0.382-0.393-0.281-0.649
			c0.102-0.257,0.395-0.381,0.649-0.281l12.484,4.95c0.257,0.102,0.382,0.393,0.281,0.649
			C13.613,28.556,13.424,28.676,13.226,28.676z"/>
	</g>
	<g>
		<path fill="none" stroke="#FFFFFF" stroke-linecap="round" stroke-linejoin="round" stroke-miterlimit="10" d="M63.154,23.215"/>
	</g>
	<g>
		<path fill="#FFFFFF" d="M13.226,28.676c-0.062,0-0.124-0.011-0.184-0.035l-12.484-4.95c-0.257-0.102-0.382-0.393-0.281-0.649
			c0.102-0.257,0.395-0.381,0.649-0.281l12.484,4.95c0.257,0.102,0.382,0.393,0.281,0.649
			C13.613,28.556,13.424,28.676,13.226,28.676z"/>
	</g>
	<g>
		<path fill="none" stroke="#FFFFFF" stroke-linecap="round" stroke-linejoin="round" stroke-miterlimit="10" d="M63.154,23.215"/>
	</g>
	<g>
		<path fill="none" stroke="#FFFFFF" stroke-linecap="round" stroke-linejoin="round" stroke-miterlimit="10" d="M50.666,28.316"/>
	</g>
	<g>
		<path fill="none" stroke="#FFFFFF" stroke-linecap="round" stroke-linejoin="round" stroke-miterlimit="10" d="M63.154,23.215"/>
	</g>
	<g>
		<path fill="#FFFFFF" d="M31.963,89.837c-0.125,0-0.248-0.047-0.342-0.136c-0.143-0.134-0.194-0.338-0.132-0.523l6.174-18.39
			c0.08-0.239,0.32-0.386,0.572-0.331c0.247,0.05,0.418,0.275,0.4,0.527l-1.197,16.358c-0.015,0.189-0.134,0.355-0.311,0.427
			L32.152,89.8C32.091,89.826,32.026,89.837,31.963,89.837z M37.349,74.866l-4.564,13.596l3.68-1.502L37.349,74.866z"/>
	</g>
	<g>
		<path fill="#FFFFFF" d="M36.939,87.806c-0.038,0-0.076-0.004-0.114-0.014c-0.239-0.056-0.402-0.277-0.385-0.522l1.197-16.359
			c0.008-0.1,0.045-0.195,0.107-0.274l11.349-14.306c0.154-0.196,0.43-0.246,0.645-0.121c0.215,0.126,0.304,0.391,0.21,0.621
			L37.402,87.496C37.324,87.687,37.139,87.806,36.939,87.806z M38.624,71.138l-0.956,13.068L47.69,59.709L38.624,71.138z"/>
	</g>
	<g>
		<path fill="#FFFFFF" d="M31.963,89.837c-0.027,0-0.054-0.002-0.081-0.007c-0.242-0.039-0.419-0.248-0.419-0.493V70.113
			c0-0.144,0.063-0.282,0.171-0.376c0.109-0.095,0.252-0.137,0.396-0.119l6.174,0.835c0.147,0.02,0.278,0.105,0.357,0.231
			c0.078,0.127,0.097,0.282,0.049,0.423l-6.173,18.39C32.368,89.703,32.175,89.837,31.963,89.837z M32.463,70.685v15.592
			l5.007-14.915L32.463,70.685z"/>
	</g>
	<g>
		<path fill="#FFFFFF" d="M38.137,71.448c-0.022,0-0.045-0.001-0.067-0.004l-6.173-0.835c-0.171-0.023-0.318-0.133-0.389-0.29
			c-0.071-0.157-0.056-0.339,0.039-0.483l17.425-26.193c0.143-0.215,0.426-0.287,0.651-0.164c0.228,0.121,0.325,0.396,0.227,0.633
			L38.599,71.14C38.52,71.328,38.337,71.448,38.137,71.448z M32.822,69.725l5.001,0.676l9.113-21.894L32.822,69.725z"/>
	</g>
	<g>
		<path fill="#FFFFFF" d="M38.137,71.448c-0.087,0-0.175-0.022-0.254-0.069c-0.215-0.126-0.304-0.393-0.208-0.623l11.251-27.028
			c0.092-0.218,0.319-0.343,0.558-0.298c0.233,0.046,0.402,0.249,0.404,0.487l0.098,12.722c0.001,0.114-0.037,0.225-0.108,0.314
			L38.528,71.258C38.431,71.382,38.285,71.448,38.137,71.448z M48.906,46.377l-8.925,21.441l9.003-11.349L48.906,46.377z"/>
	</g>
	<g>
		<path fill="#FFFFFF" d="M49.485,57.142c-0.031,0-0.063-0.003-0.095-0.009c-0.233-0.045-0.403-0.249-0.405-0.487l-0.098-12.722
			c-0.001-0.1,0.028-0.198,0.084-0.281l13.767-20.705c0.143-0.215,0.425-0.286,0.65-0.165c0.227,0.121,0.325,0.394,0.229,0.631
			L49.948,56.831C49.87,57.021,49.686,57.142,49.485,57.142z M49.889,44.069l0.077,10.075l10.826-26.474L49.889,44.069z"/>
	</g>
	<g>
		<path fill="#FFFFFF" d="M31.963,89.837c-0.063,0-0.127-0.012-0.188-0.037l-4.956-2.019c-0.176-0.071-0.296-0.237-0.31-0.427
			L25.311,70.99c-0.019-0.251,0.153-0.477,0.4-0.527c0.244-0.051,0.492,0.092,0.572,0.332l6.153,18.383
			c0.062,0.186,0.01,0.391-0.132,0.523C32.21,89.791,32.087,89.837,31.963,89.837z M27.483,86.973l3.66,1.49l-4.544-13.577
			L27.483,86.973z"/>
	</g>
	<g>
		<path fill="#FFFFFF" d="M27.007,87.819c-0.199,0-0.385-0.119-0.463-0.311L13.999,56.835c-0.094-0.23-0.004-0.495,0.21-0.621
			c0.215-0.125,0.49-0.074,0.644,0.121l11.348,14.308c0.063,0.079,0.1,0.174,0.107,0.274l1.197,16.366
			c0.018,0.245-0.145,0.467-0.384,0.522C27.083,87.815,27.044,87.819,27.007,87.819z M16.257,59.713l10.022,24.504l-0.957-13.074
			L16.257,59.713z"/>
	</g>
	<g>
		<path fill="#FFFFFF" d="M31.962,89.837c-0.211,0-0.405-0.135-0.474-0.341l-6.153-18.384c-0.047-0.141-0.029-0.296,0.049-0.423
			c0.079-0.126,0.21-0.211,0.357-0.231l6.153-0.836c0.143-0.02,0.288,0.024,0.396,0.119c0.108,0.095,0.171,0.232,0.171,0.376v19.22
			c0,0.245-0.178,0.454-0.419,0.493C32.016,89.835,31.989,89.837,31.962,89.837z M26.476,71.368l4.987,14.9V70.69L26.476,71.368z"/>
	</g>
	<g>
		<path fill="#FFFFFF" d="M25.81,71.454c-0.2,0-0.383-0.12-0.461-0.308l-11.255-27.03c-0.099-0.238-0.001-0.512,0.226-0.633
			c0.228-0.123,0.509-0.051,0.652,0.164l17.408,26.194c0.095,0.144,0.11,0.326,0.039,0.483c-0.071,0.157-0.218,0.266-0.388,0.29
			l-6.153,0.836C25.854,71.452,25.832,71.454,25.81,71.454z M17.012,48.524l9.111,21.882l4.981-0.677L17.012,48.524z"/>
	</g>
	<g>
		<path fill="#FFFFFF" d="M25.81,71.454c-0.148,0-0.294-0.066-0.392-0.189L14.07,56.956c-0.071-0.089-0.109-0.2-0.108-0.314
			l0.093-12.722c0.002-0.238,0.17-0.441,0.404-0.487c0.234-0.044,0.467,0.079,0.558,0.298l11.255,27.03
			c0.096,0.23,0.007,0.497-0.208,0.623C25.984,71.431,25.896,71.454,25.81,71.454z M14.963,56.473l9,11.349l-8.927-21.44
			L14.963,56.473z"/>
	</g>
	<g>
		<path fill="#FFFFFF" d="M14.461,57.146c-0.199,0-0.384-0.12-0.462-0.31L0.279,23.416c-0.098-0.238,0-0.511,0.228-0.631
			c0.228-0.121,0.508-0.049,0.651,0.164l13.813,20.697c0.055,0.083,0.084,0.181,0.084,0.281l-0.093,12.722
			c-0.002,0.238-0.171,0.442-0.405,0.487C14.525,57.143,14.493,57.146,14.461,57.146z M3.106,27.671L13.98,54.155l0.074-10.082
			L3.106,27.671z"/>
	</g>
	<g>
		<path fill="#FFFFFF" d="M31.963,36.132c-0.063,0-0.125-0.012-0.185-0.035L0.557,23.691c-0.17-0.068-0.29-0.223-0.312-0.405
			c-0.021-0.182,0.058-0.361,0.207-0.467L31.673,0.634c0.152-0.108,0.353-0.122,0.519-0.037c0.166,0.086,0.271,0.257,0.271,0.444
			v34.59c0,0.166-0.082,0.321-0.219,0.414C32.16,36.103,32.062,36.132,31.963,36.132z M1.78,23.101l29.683,11.794V2.011L1.78,23.101
			z"/>
	</g>
	<g>
		<path fill="#FFFFFF" d="M31.963,36.132c-0.099,0-0.197-0.029-0.281-0.086c-0.137-0.093-0.219-0.248-0.219-0.414V1.042
			c0-0.187,0.104-0.358,0.271-0.444C31.9,0.513,32.1,0.526,32.252,0.634l31.192,22.173c0.148,0.106,0.229,0.286,0.206,0.467
			c-0.021,0.182-0.141,0.337-0.312,0.405L32.148,36.096C32.088,36.12,32.025,36.132,31.963,36.132z M32.463,2.011v32.884
			L62.116,23.09L32.463,2.011z"/>
	</g>
	<g>
		<path fill="#FFFFFF" d="M31.963,70.613c-0.048,0-0.097-0.007-0.145-0.021c-0.211-0.063-0.355-0.258-0.355-0.479V51.79
			c0-0.14,0.059-0.274,0.162-0.369l22.706-20.797c0.05-0.045,0.107-0.08,0.171-0.103l4.341-1.54c0.202-0.072,0.43-0.006,0.562,0.164
			s0.141,0.405,0.021,0.584L32.379,70.39C32.285,70.532,32.127,70.613,31.963,70.613z M32.463,52.01v16.448l25.299-38.033
			l-2.83,1.004L32.463,52.01z"/>
	</g>
	<g>
		<path fill="#FFFFFF" d="M31.963,52.29c-0.123,0-0.244-0.045-0.338-0.131L19.04,40.617c-0.128-0.118-0.187-0.294-0.153-0.466
			c0.034-0.171,0.155-0.312,0.318-0.372l8.005-2.935c0.109-0.041,0.229-0.041,0.337-0.003l4.58,1.594
			c0.201,0.07,0.335,0.259,0.335,0.472V51.79c0,0.198-0.117,0.378-0.299,0.458C32.1,52.276,32.031,52.29,31.963,52.29z
			 M20.321,40.435l11.142,10.218v-11.39l-4.076-1.419L20.321,40.435z"/>
	</g>
	<g>
		<path fill="#FFFFFF" d="M19.378,40.748c-0.123,0-0.244-0.045-0.337-0.131L8.875,31.331c-0.175-0.16-0.214-0.421-0.092-0.625
			c0.122-0.204,0.371-0.294,0.594-0.216l18.171,6.351c0.199,0.07,0.333,0.257,0.335,0.468c0.001,0.211-0.129,0.401-0.328,0.473
			l-8.005,2.935C19.494,40.738,19.436,40.748,19.378,40.748z M11.352,32.24l8.139,7.434l6.409-2.35L11.352,32.24z"/>
	</g>
	<g>
		<path fill="#FFFFFF" d="M31.963,39.412c-0.056,0-0.111-0.009-0.165-0.028l-27.06-9.453c-0.181-0.063-0.31-0.225-0.332-0.416
			c-0.022-0.19,0.068-0.377,0.23-0.479L9.06,26.25c0.135-0.085,0.302-0.1,0.451-0.042l22.452,8.885l22.418-8.924
			c0.148-0.06,0.317-0.044,0.453,0.042l4.444,2.829c0.161,0.103,0.25,0.289,0.229,0.479c-0.022,0.19-0.151,0.351-0.332,0.415
			l-27.047,9.449C32.074,39.403,32.019,39.412,31.963,39.412z M6.048,29.329l25.915,9.053l25.908-9.051l-3.358-2.138l-22.365,8.903
			c-0.118,0.048-0.25,0.048-0.369,0L9.378,27.231L6.048,29.329z"/>
	</g>
	<g>
		<path fill="#FFFFFF" d="M31.963,70.613c-0.164,0-0.322-0.081-0.416-0.223L4.487,29.736c-0.119-0.179-0.111-0.414,0.021-0.583
			c0.132-0.17,0.359-0.236,0.56-0.166l4.468,1.56c0.064,0.022,0.124,0.058,0.174,0.104l22.592,20.771
			c0.103,0.095,0.162,0.228,0.162,0.368v18.323c0,0.22-0.145,0.415-0.355,0.479C32.06,70.606,32.011,70.613,31.963,70.613z
			 M6.145,30.422l25.318,38.037V52.01L9.109,31.457L6.145,30.422z"/>
	</g>
	<g>
		<path fill="#FFFFFF" d="M31.963,52.29c-0.068,0-0.137-0.014-0.202-0.042c-0.181-0.08-0.298-0.259-0.298-0.458V38.91
			c0-0.213,0.135-0.402,0.335-0.472l4.732-1.651c0.111-0.04,0.231-0.038,0.343,0.005l7.874,2.989
			c0.162,0.062,0.28,0.203,0.313,0.373c0.032,0.17-0.025,0.346-0.153,0.463L32.3,52.159C32.207,52.245,32.085,52.29,31.963,52.29z
			 M32.463,39.265v11.39l11.17-10.227l-6.944-2.636L32.463,39.265z"/>
	</g>
	<g>
		<path fill="#FFFFFF" d="M31.963,89.837c-0.064,0-0.128-0.013-0.189-0.037l-4.961-2.026c-0.124-0.051-0.223-0.149-0.274-0.273
			L0.278,23.416c-0.097-0.237,0.001-0.51,0.228-0.631c0.228-0.121,0.508-0.049,0.651,0.164l4.069,6.094l26.901,9.389
			c0.201,0.07,0.335,0.26,0.335,0.472v50.435c0,0.167-0.083,0.322-0.221,0.415C32.158,89.809,32.061,89.837,31.963,89.837z
			 M27.385,86.927l4.078,1.666V39.258L4.739,29.931c-0.103-0.036-0.191-0.104-0.251-0.194l-1.393-2.086L27.385,86.927z"/>
	</g>
	<g>
		<path fill="#FFFFFF" d="M31.963,89.837c-0.098,0-0.195-0.028-0.279-0.085c-0.138-0.093-0.221-0.248-0.221-0.415V38.899
			c0-0.212,0.134-0.402,0.335-0.472l26.889-9.391l4.052-6.098c0.142-0.213,0.424-0.286,0.65-0.165
			c0.227,0.121,0.326,0.394,0.229,0.631L37.402,87.496c-0.051,0.124-0.149,0.223-0.274,0.273L32.152,89.8
			C32.091,89.825,32.027,89.837,31.963,89.837z M32.463,39.254v49.339l4.093-1.671l24.231-59.242l-1.361,2.049
			c-0.06,0.091-0.148,0.159-0.251,0.195L32.463,39.254z"/>
	</g>
</g>
<rect x="339.75" y="112.167" fill="none" width="354" height="61.166"/>
<text transform="matrix(1 0 0 1 430.9395 121.0952)"><tspan x="0" y="0" fill="#FFFFFF" font-family="'JaapokkiRegular'" font-size="12">WE ARE A PRINTING STUDIO</tspan><tspan x="65.666" y="20.4" fill="#FFFFFF" font-family="'JaapokkiRegular'" font-size="5">Discover our work</tspan></text>
<rect x="491.13" y="134.397" fill="none" stroke="#FFFFFF" stroke-width="0.5" stroke-miterlimit="10" width="51.287" height="11.332"/>
<g>
	
		<line fill="none" stroke="#FFFFFF" stroke-width="1.5" stroke-linecap="round" stroke-miterlimit="10" x1="667.918" y1="-25.957" x2="678.918" y2="-25.957"/>
	
		<line fill="none" stroke="#FFFFFF" stroke-width="1.5" stroke-linecap="round" stroke-miterlimit="10" x1="667.918" y1="-22.565" x2="678.918" y2="-22.565"/>
	
		<line fill="none" stroke="#FFFFFF" stroke-width="1.5" stroke-linecap="round" stroke-miterlimit="10" x1="667.918" y1="-19.082" x2="678.918" y2="-19.082"/>
</g>
</svg>
