<?xml version="1.0" encoding="utf-8"?>
<!-- Generator: Adobe Illustrator 25.3.1, SVG Export Plug-In . SVG Version: 6.00 Build 0)  -->
<svg version="1.1" id="Calque_1" xmlns="http://www.w3.org/2000/svg" xmlns:xlink="http://www.w3.org/1999/xlink" x="0px" y="0px"
	 viewBox="0 0 105 111.4" style="enable-background:new 0 0 105 111.4;" xml:space="preserve">
<style type="text/css">
	.st0{fill:#009FE3;}
</style>
<g>
	<g>
		<path class="st0" d="M96.3,108.6H57.1c-3.3,0-6.3-1.3-8.6-3.6l-42-42c-2.2-2.2-3.4-5.1-3.4-8.3V14.2c0-2.4,2-4.4,4.4-4.4h9.3
			c0.6,0,1.1,0.5,1.1,1.1c0,0.6-0.5,1.1-1.1,1.1H7.5c-1.2,0-2.2,1-2.2,2.2v40.6c0,2.5,1,4.9,2.8,6.7l42,42c1.9,1.9,4.4,2.9,7.1,2.9
			h39.2c1.9,0,3.4-1.5,3.4-3.4V63.9c0-2.7-1.1-5.3-3-7.3l-9.4-9.4c-0.4-0.4-0.4-1.1,0-1.5c0.4-0.4,1.1-0.4,1.5,0l9.4,9.4
			c2.3,2.3,3.6,5.5,3.6,8.8V103C101.9,106.1,99.4,108.6,96.3,108.6z"/>
	</g>
	<g>
		<path class="st0" d="M67.4,65.5h-34c-0.6,0-1-0.5-1-1V23.8c0-0.6,0.5-1,1-1h34c0.6,0,1,0.5,1,1v6.9c0,0.6-0.5,1-1,1
			c-0.6,0-1-0.5-1-1v-5.9h-32v38.6h32V45.8c0-0.6,0.5-1,1-1c0.6,0,1,0.5,1,1v18.6C68.5,65.1,68,65.5,67.4,65.5z"/>
	</g>
	<g>
		<path class="st0" d="M69.9,47.2c-3.9,0-7.5-2.7-8.5-6.7c-1.1-4.7,1.7-9.4,6.4-10.5c1.5-0.4,3.1-0.3,4.6,0.1
			c0.5,0.2,0.8,0.7,0.7,1.3c-0.2,0.5-0.7,0.8-1.3,0.7c-1.1-0.3-2.3-0.4-3.5-0.1c-1.7,0.4-3.2,1.5-4.1,3c-0.9,1.5-1.2,3.3-0.8,5
			c0.4,1.7,1.5,3.2,3,4.1c1.5,0.9,3.3,1.2,5,0.8c2.2-0.5,3.9-2.1,4.7-4.2c0.2-0.5,0.8-0.8,1.3-0.6c0.5,0.2,0.8,0.8,0.6,1.3
			c-1,2.7-3.3,4.8-6.1,5.5C71.2,47.1,70.5,47.2,69.9,47.2z"/>
	</g>
	<g>
		<path class="st0" d="M59.4,37.7H41c-0.6,0-1-0.5-1-1s0.5-1,1-1h18.5c0.6,0,1,0.5,1,1S60,37.7,59.4,37.7z"/>
	</g>
	<g>
		<path class="st0" d="M59.4,46H41c-0.6,0-1-0.5-1-1c0-0.6,0.5-1,1-1h18.5c0.6,0,1,0.5,1,1C60.5,45.5,60,46,59.4,46z"/>
	</g>
	<g>
		<path class="st0" d="M59.4,54.9H41c-0.6,0-1-0.5-1-1s0.5-1,1-1h18.5c0.6,0,1,0.5,1,1S60,54.9,59.4,54.9z"/>
	</g>
	<g>
		<path class="st0" d="M68.7,43.7c-0.4,0-0.8-0.3-1-0.6c-0.4-1.1-1-1.8-2.5-2.4c-0.5-0.2-0.8-0.8-0.6-1.3c0.2-0.5,0.8-0.8,1.3-0.6
			c1.2,0.4,2,1,2.6,1.6c0.8-1.5,1.8-2.8,2.9-4l0.2-0.3c1.8-2.1,3.8-4.2,5.6-3.7c0.1,0,0.1,0,0.2,0.1c0.2-0.2,0.4-0.4,0.7-0.6
			c1.2-0.8,2.6-0.7,3.8,0.2c0.5,0.3,0.6,1,0.2,1.4c-0.3,0.5-1,0.6-1.4,0.2c-0.6-0.4-1-0.5-1.5-0.2c0.8,0.8,1.1,1.9,0.9,2.8
			c-0.2,1-1.2,2-2.9,1.7c-0.7-0.1-1.2-0.6-1.4-1.4c-0.1-0.6,0-1.4,0.2-2.2c-0.5,0.3-1.4,1-3,2.9L73,37.7c-1.4,1.6-2.6,3.1-3.3,5.3
			C69.5,43.4,69.1,43.7,68.7,43.7C68.7,43.7,68.7,43.7,68.7,43.7z M78.1,35.4c-0.1,0.3-0.1,0.6-0.1,0.7c0.1,0,0.2-0.1,0.3-0.2
			C78.2,35.8,78.2,35.6,78.1,35.4z"/>
	</g>
</g>
<rect x="118.9" y="-151.4" style="fill:none;" width="221.6" height="50.6"/>
<text transform="matrix(1 0 0 1 155.6293 -132.3882)" style="fill:#00334C; font-family:'Gotham-ExtraLight'; font-size:26px;">Programme</text>
</svg>
