<?xml version="1.0" encoding="utf-8"?>
<!-- Generator: Adobe Illustrator 25.2.3, SVG Export Plug-In . SVG Version: 6.00 Build 0)  -->
<svg version="1.1" id="Calque_1" xmlns="http://www.w3.org/2000/svg" xmlns:xlink="http://www.w3.org/1999/xlink" x="0px" y="0px"
	 viewBox="0 0 125 125" style="enable-background:new 0 0 125 125;" xml:space="preserve">
<style type="text/css">
	.st0{fill:#009FE3;}
</style>
<g>
	<g>
		<g>
			<path class="st0" d="M73.5,47.6c-0.3,0-0.5-0.1-0.7-0.3c-0.4-0.4-0.4-1,0-1.4l8.3-8.2L63.6,18.3C63.5,18.1,50,3.6,27,2.9
				c-0.5,0-1-0.5-1-1c0-0.5,0.5-1,1-1c23.8,0.7,37.4,15.4,38,16L83.2,37c0.4,0.4,0.3,1,0,1.4l-8.9,8.9C74,47.5,73.8,47.6,73.5,47.6z
				"/>
		</g>
		<g>
			<path class="st0" d="M46.7,28.6c-1.8,0-3.6-0.7-5-2.1l0,0c-1.3-1.3-2.1-3.1-2.1-5s0.7-3.7,2.1-5c2.8-2.8,7.3-2.8,10,0
				c1.3,1.3,2.1,3.1,2.1,5s-0.7,3.7-2.1,5C50.3,27.9,48.5,28.6,46.7,28.6z M43.1,25.1c2,2,5.3,2,7.3,0c1-1,1.5-2.3,1.5-3.6
				c0-1.4-0.5-2.7-1.5-3.6c-2-2-5.3-2-7.3,0c-1,1-1.5,2.3-1.5,3.6S42.1,24.1,43.1,25.1L43.1,25.1z"/>
		</g>
		<g>
			<path class="st0" d="M79.2,35c-0.3,0-0.5-0.1-0.7-0.3L66.5,21.5c-0.3-0.3-0.3-0.7-0.2-1c0.2-0.4,0.5-0.6,0.9-0.6
				c10.4-0.3,20.5,3.9,27.7,11.3c0.3,0.3,0.3,0.7,0.2,1c-0.1,0.3-0.4,0.6-0.8,0.7L79.3,35C79.3,35,79.2,35,79.2,35z M69.5,21.8
				L79.6,33l12.6-1.8C86,25.5,77.9,22.1,69.5,21.8z"/>
		</g>
		<g>
			<path class="st0" d="M62.9,58.2c-0.2,0-0.5-0.1-0.7-0.3L42.2,39.8c-0.6-0.6-15.4-14.1-16.1-37.9c0-0.5,0.4-1,1-1c0.5,0,1,0.4,1,1
				c0.7,22.9,15.3,36.4,15.4,36.5l19.4,17.4l4.5-4.5c-3.3-2.5-5.3-6.4-5.5-9.2c-0.1-2.4,1.1-4,3.2-4.4c1.8-0.3,3.6,0.4,4.8,1.9
				c2.1,2.6,2.2,7,0.5,11.2c1.1,0.6,2.4,1,3.7,1.1c0.5,0,0.9,0.5,0.9,1.1c0,0.5-0.5,0.9-1.1,0.9c-1.7-0.1-3.3-0.7-4.7-1.4l-5.5,5.5
				C63.4,58.1,63.2,58.2,62.9,58.2z M66,39.5c-0.2,0-0.4,0-0.5,0c-0.4,0.1-1.6,0.3-1.5,2.4c0.1,2.4,2,5.6,4.8,7.7
				c1.5-3.9,1-7.3-0.3-8.9C67.8,40.2,67.1,39.5,66,39.5z"/>
		</g>
		<g>
			<path class="st0" d="M57.1,69.9c-0.3,0-0.5-0.1-0.7-0.3C48.9,62.5,44.8,52.4,45,42c0-0.4,0.2-0.7,0.6-0.9c0.4-0.2,0.8-0.1,1,0.2
				l13.3,11.9c0.2,0.2,0.4,0.5,0.3,0.9l-2.2,15c-0.1,0.4-0.3,0.7-0.7,0.8C57.3,69.9,57.2,69.9,57.1,69.9z M47,44.2
				c0.3,8.5,3.6,16.4,9.4,22.6l1.8-12.6L47,44.2z"/>
		</g>
		<g>
			<path class="st0" d="M97.7,73.4c-0.1,0-0.2,0-0.3,0c-1.7-0.5-16.7-5.2-20-8.4c-1.7-1.7-2.6-4-2.6-6.4c0-2.4,0.9-4.7,2.6-6.4
				c3.5-3.5,9.3-3.5,12.8,0c3.2,3.2,7.9,18.2,8.4,19.9c0.1,0.3,0,0.7-0.2,1C98.2,73.3,97.9,73.4,97.7,73.4z M83.8,51.5
				c-1.8,0-3.6,0.7-5,2.1c-1.3,1.3-2.1,3.1-2.1,5s0.7,3.7,2.1,5c2.2,2.2,12,5.6,17.4,7.4c-1.7-5.3-5.2-15.2-7.4-17.3
				C87.4,52.2,85.6,51.5,83.8,51.5z"/>
		</g>
	</g>
	<g>
		<path class="st0" d="M118.3,125H68.4c-4,0-7.9-1.6-10.7-4.4L4.2,67.2C1.5,64.4,0,60.8,0,56.9V5.2C0,2.3,2.3,0,5.2,0H17
			c0.5,0,1,0.4,1,1s-0.4,1-1,1H5.2C3.4,2,2,3.4,2,5.2v51.7c0,3.3,1.3,6.5,3.7,8.9L59,119.2c2.5,2.5,5.8,3.9,9.3,3.9h49.9
			c2.6,0,4.7-2.1,4.7-4.7V68.5c0-3.6-1.4-7-3.9-9.5l-12-12c-0.4-0.4-0.4-1,0-1.4c0.4-0.4,1-0.4,1.4,0l12,12
			c2.9,2.9,4.5,6.8,4.5,10.9v49.8C125,122,122,125,118.3,125z"/>
	</g>
</g>
</svg>
