<?xml version="1.0" encoding="utf-8"?>
<!-- Generator: Adobe Illustrator 25.2.3, SVG Export Plug-In . SVG Version: 6.00 Build 0)  -->
<svg version="1.1" id="Calque_1" xmlns="http://www.w3.org/2000/svg" xmlns:xlink="http://www.w3.org/1999/xlink" x="0px" y="0px"
	 viewBox="0 0 216.6 178.1" style="enable-background:new 0 0 216.6 178.1;" xml:space="preserve">
<style type="text/css">
	.st0{fill:none;stroke:#003399;stroke-width:9.2314;stroke-linecap:round;stroke-linejoin:round;stroke-miterlimit:10;}
</style>
<g id="Calque_3">
	<path class="st0" d="M78.4,37.4c3.8,14.4,19.4,37.8,30.1,51.7c15.1-17.7,24.4-35.6,29.7-52.7"/>
</g>
<g id="Calque_3_1_">
	<path class="st0" d="M138.2,140.8c-3.8-14.4-19.4-37.8-30.1-51.7c-15.1,17.7-24.4,35.6-29.7,52.7"/>
</g>
</svg>
