<?xml version="1.0" encoding="utf-8"?>
<!-- Generator: Adobe Illustrator 25.2.3, SVG Export Plug-In . SVG Version: 6.00 Build 0)  -->
<svg version="1.1" id="Calque_1" xmlns="http://www.w3.org/2000/svg" xmlns:xlink="http://www.w3.org/1999/xlink" x="0px" y="0px"
	 viewBox="0 0 105 111.4" style="enable-background:new 0 0 105 111.4;" xml:space="preserve">
<style type="text/css">
	.st0{fill:#009FE3;}
</style>
<g>
	<g>
		<g>
			<path class="st0" d="M53,83.3c-13.6,0-16.1-13.4-16.5-17.6c-0.1-0.7,0.2-1.4,0.6-1.9c0.5-0.5,1.1-0.7,1.8-0.7
				c0.7,0,1.6,0.1,2.6,0.2c6.4,0.5,23.4,1.7,25.8-1.1c0.1-0.2,0.2-0.3,0.1-0.6c-0.9-3.6-12.6-1.8-21.2-0.6c-3.3,0.5-6.4,1-9.1,1.2
				c-0.8,0.1-1.4-0.4-1.6-1.1c-0.2-0.7,0-1.4,0.6-1.8c3.6-2.4,10.2-3.3,14.2-3.9l1.1-0.2c0.5-0.1,0.9-0.6,0.9-1.1V33.8
				c0-0.6,0.4-1,1-1c0.6,0,1,0.4,1,1v20.5c0,1.5-1.1,2.9-2.6,3.1l-1.2,0.2c-3.1,0.5-7.9,1.2-11.3,2.5c2.1-0.3,4.3-0.6,6.7-1
				c11.4-1.7,22.1-3.3,23.4,2.1c0.2,0.9,0,1.7-0.5,2.3c-2.8,3.3-15.6,2.6-27.5,1.8c-1-0.1-1.9-0.1-2.6-0.2c-0.1,0-0.2,0-0.2,0.1
				c-0.1,0.1-0.1,0.2-0.1,0.3c0.5,4.8,3,16.1,15,15.8c10.6-0.6,12.2-12.3,12.3-12.8c0.1-0.5,0.6-0.9,1.1-0.9
				c0.5,0.1,0.9,0.6,0.9,1.1c0,0.1-1.8,13.9-14.2,14.5C53.4,83.3,53.2,83.3,53,83.3z"/>
		</g>
		<g>
			<path class="st0" d="M58.4,47.5c-2,0-4-0.6-5.6-1.8c-0.4-0.3-0.5-0.7-0.3-1.1c0-0.1,3.9-10.2,16.1-8.1c0.3,0,0.5,0.2,0.7,0.4
				c0.2,0.2,0.2,0.5,0.1,0.8c-1.3,4.8-4.1,8.1-7.7,9.3C60.6,47.3,59.5,47.5,58.4,47.5z M54.7,44.5c1.8,1.1,4.2,1.3,6.3,0.6
				c2.8-1,4.9-3.4,6.1-6.9C59.1,37.3,55.7,42.5,54.7,44.5z"/>
		</g>
		<g>
			<path class="st0" d="M50.7,43.9C50.6,43.9,50.6,43.9,50.7,43.9c-3.4-0.1-7.4-4.4-8.2-6.6c-0.1-0.3-0.1-0.6,0.1-0.8
				c0.1-0.3,0.4-0.4,0.7-0.5c0.2-0.1,6.1-1.3,9.3,1c1.2,0.9,1.8,2.1,2,3.6c0,0.2,0,0.3-0.1,0.5C53.4,43.5,51.6,43.9,50.7,43.9z
				 M44.9,37.7c1.2,1.8,3.8,4.1,5.7,4.1c0.5,0,1.2-0.1,1.8-1.3c-0.1-0.8-0.5-1.5-1.1-1.9C49.7,37.5,46.8,37.5,44.9,37.7z"/>
		</g>
		<g>
			<path class="st0" d="M53.4,34.8c-0.6,0-1-0.4-1-1v-2.3c0-0.8-0.9-1.9-1.8-2.9c-0.6-0.7-1.2-1.4-1.6-2.1
				c-1.3-2.4-2.8-6.2-2.5-10.6c0.4-7.1,6.6-12.6,6.9-12.8c0.3-0.3,0.9-0.3,1.2-0.1C55,3.4,55.1,3.8,55,4.2c0,0.2-0.3,2.7,3.9,12.4
				c2.7,6.3-1.7,10.5-4.5,11.9c-0.5,0.2-1,0.1-1.3-0.4c-0.1-0.2-2.6-4.3-1-10.1c0.1-0.5,0.7-0.8,1.2-0.7c0.5,0.1,0.9,0.7,0.7,1.2
				c-0.9,3.5-0.2,6.3,0.4,7.7c1.6-1.1,4.7-4,2.7-8.7c-2.5-5.7-3.5-9.1-3.9-11.1c-1.8,2-4.5,5.7-4.7,9.9c-0.2,4.1,1.3,7.7,2.3,9.5
				c0.3,0.5,0.8,1.1,1.3,1.7c1.1,1.2,2.3,2.6,2.3,4.2v2.3C54.4,34.4,53.9,34.8,53.4,34.8z"/>
		</g>
	</g>
	<g>
		<path class="st0" d="M96.3,108.5H57.1c-3.2,0-6.3-1.3-8.6-3.6l-42-42c-2.2-2.2-3.4-5.1-3.4-8.2V14.1c0-2.4,1.9-4.3,4.3-4.3h9.3
			c0.6,0,1,0.4,1,1s-0.4,1-1,1H7.5c-1.3,0-2.3,1-2.3,2.3v40.6c0,2.6,1,5,2.8,6.8l42,42c1.9,1.9,4.5,3,7.2,3h39.2
			c1.9,0,3.5-1.6,3.5-3.5V63.9c0-2.8-1.1-5.4-3-7.3l-9.4-9.4c-0.4-0.4-0.4-1,0-1.4s1-0.4,1.4,0l9.4,9.4c2.3,2.3,3.6,5.4,3.6,8.7V103
			C101.8,106,99.4,108.5,96.3,108.5z"/>
	</g>
</g>
</svg>
