<?xml version="1.0" encoding="utf-8"?>
<!-- Generator: Adobe Illustrator 25.2.3, SVG Export Plug-In . SVG Version: 6.00 Build 0)  -->
<svg version="1.1" id="Calque_1" xmlns="http://www.w3.org/2000/svg" xmlns:xlink="http://www.w3.org/1999/xlink" x="0px" y="0px"
	 viewBox="0 0 105 111.4" style="enable-background:new 0 0 105 111.4;" xml:space="preserve">
<style type="text/css">
	.st0{fill:#009FE3;}
</style>
<g>
	<g>
		<g>
			<path class="st0" d="M35.6,59.4c-0.1,0-0.2,0-0.3,0c-0.5-0.2-0.8-0.7-0.7-1.2c0.5-1.7,0.2-4.4-0.7-5.7c-1-1.6-0.1-3.8,0.9-6.1
				c0.3-0.8,0.7-1.6,1-2.5c0.2-0.6,0.2-1,0-1.3c-0.4-0.7-2.1-0.8-3.2-0.9c-1.8-0.2-2.4-2.1-2.9-3.6c-0.3-0.8-0.7-2-1.1-2.1
				c-0.5-0.2-0.8-0.8-0.6-1.3c0.2-0.5,0.8-0.8,1.3-0.6c1.3,0.5,1.8,2,2.3,3.4c0.3,0.9,0.7,2.2,1.2,2.2c1.6,0.2,3.7,0.4,4.6,1.9
				c0.5,0.8,0.6,1.8,0.2,3c-0.3,0.9-0.7,1.8-1,2.6c-0.7,1.7-1.5,3.5-1,4.3c1.3,2,1.5,5.4,0.9,7.3C36.4,59.2,36,59.4,35.6,59.4z"/>
		</g>
		<g>
			<path class="st0" d="M55.4,55.2c-0.4,0-0.9-0.1-1.3-0.3c-1.1-0.5-1.7-1.7-1.8-3.5c-0.1-1.4,0-3,0.1-4.5c0.1-2.4,0.3-5.5-0.5-6.2
				c-0.1-0.1-0.2-0.2-0.8-0.1c-0.4,0.1-0.8,0.2-1.3,0.3c-3.6,0.7-8,1.7-9.3-4c-1.3-6,6.7-9.4,7.1-9.6c0.5-0.2,1.1,0,1.3,0.5
				c0.2,0.5,0,1.1-0.5,1.3c-0.1,0-6.9,2.9-5.9,7.3c0.8,3.6,2.9,3.3,6.9,2.5c0.4-0.1,0.9-0.2,1.3-0.3c1.2-0.2,2,0.2,2.5,0.6
				c1.5,1.3,1.4,4.3,1.2,7.8c-0.1,1.5-0.2,3-0.1,4.3c0.1,1,0.3,1.7,0.7,1.8c1,0.5,3.7-1.4,4.7-2.1c1.7-1.2,1.2-5.1,0.9-7.4
				c-0.1-0.5-0.1-0.9-0.1-1.3c-0.3-3.5,3.8-5.3,6.9-6.6c0.5-0.2,1.1,0,1.3,0.5c0.2,0.5,0,1.1-0.5,1.3c-3,1.3-5.8,2.7-5.7,4.6
				c0,0.4,0.1,0.8,0.1,1.2c0.4,3,0.9,7.5-1.8,9.3C58.9,54,57,55.2,55.4,55.2z"/>
		</g>
		<g>
			<path class="st0" d="M50.7,29.6c-3.2,0-6.2-1.3-8.1-3.6c-1.2-1.5-2.2-2.9-3.1-4.3c-2.7-3.9-4.8-6.9-9.8-8.1
				c-0.4-0.1-0.7-0.4-0.7-0.8c-0.1-0.4,0.1-0.8,0.4-1c12.7-9.6,23.3-8.9,29-5c4.5,3.1,6.4,8.2,5,13c-1.4,4.9-5.2,8.5-10.1,9.5
				C52.4,29.5,51.6,29.6,50.7,29.6z M32.2,12.2c4.4,1.6,6.5,4.8,9,8.3c0.9,1.3,1.9,2.7,3.1,4.2c1.9,2.3,5.2,3.3,8.6,2.7
				c4.2-0.8,7.4-3.9,8.6-8.1c1.2-4-0.5-8.3-4.2-10.8C52.3,5.1,43.3,4.4,32.2,12.2z"/>
		</g>
		<g>
			<path class="st0" d="M76.7,32.9c-0.7,0-1.3-0.1-2-0.2c-3.8-0.8-6.7-3.6-7.7-7.4c-1-3.8,0.5-7.7,4-10c4.4-2.9,12.5-3.4,22,4
				c0.3,0.2,0.4,0.6,0.4,1S92.9,21,92.5,21c-3.7,0.8-5.2,3-7.3,5.9c-0.7,1-1.5,2.1-2.4,3.2C81.4,31.9,79.2,32.9,76.7,32.9z
				 M78.1,15.3c-2.5,0-4.5,0.7-6,1.7c-2.7,1.8-4,4.9-3.2,7.8c0.9,3.1,3.2,5.3,6.2,6c2.5,0.5,4.9-0.2,6.2-1.8
				c0.9-1.1,1.6-2.1,2.3-3.1c1.8-2.6,3.4-4.8,6.5-6.1C85.5,16.5,81.4,15.3,78.1,15.3z"/>
		</g>
		<g>
			<path class="st0" d="M48.1,68.7c-14.6,0-26.4-11.9-26.4-26.5c0-4.2,1-8.2,2.8-11.9c0.2-0.5,0.9-0.7,1.3-0.4
				c0.5,0.2,0.7,0.9,0.4,1.3c-1.7,3.4-2.6,7.1-2.6,11c0,13.5,11,24.5,24.4,24.5s24.4-11,24.4-24.5c0-13.5-11-24.5-24.4-24.5
				c-0.6,0-1-0.4-1-1s0.4-1,1-1c14.6,0,26.4,11.9,26.4,26.5S62.6,68.7,48.1,68.7z"/>
		</g>
		<g>
			<path class="st0" d="M69.3,29.2c-0.2,0-0.4-0.1-0.6-0.2c-0.5-0.3-0.6-0.9-0.3-1.4c0.3-0.4,7.1-10.1,17.7-8.9
				c0.5,0.1,0.9,0.6,0.9,1.1s-0.5,1-1.1,0.9c-9.4-1.1-15.7,8-15.8,8C69.9,29.1,69.6,29.2,69.3,29.2z"/>
		</g>
		<g>
			<path class="st0" d="M48.1,63.7c-11.8,0-21.4-9.6-21.4-21.4c0-9.2,5.9-17.4,14.6-20.3c0.5-0.2,1.1,0.1,1.3,0.6
				c0.2,0.5-0.1,1.1-0.6,1.3C34,26.5,28.6,33.9,28.6,42.3c0,10.7,8.7,19.4,19.4,19.4c10.7,0,19.4-8.7,19.4-19.4
				c0-6.6-3.3-12.7-8.9-16.3c-0.5-0.3-0.6-0.9-0.3-1.4c0.3-0.5,0.9-0.6,1.4-0.3c6.1,4,9.8,10.7,9.8,18
				C69.5,54.1,59.9,63.7,48.1,63.7z"/>
		</g>
	</g>
	<g>
		<path class="st0" d="M96.3,107.3H57.1c-3.2,0-6.3-1.3-8.6-3.6l-42-42c-2.2-2.2-3.4-5.1-3.4-8.2V13c0-2.4,1.9-4.3,4.3-4.3h9.3
			c0.6,0,1,0.4,1,1s-0.4,1-1,1H7.5c-1.3,0-2.3,1-2.3,2.3v40.6c0,2.6,1,5,2.8,6.8l42,42c1.9,1.9,4.5,3,7.2,3h39.2
			c1.9,0,3.5-1.6,3.5-3.5V62.7c0-2.8-1.1-5.4-3-7.3L87.4,46c-0.4-0.4-0.4-1,0-1.4s1-0.4,1.4,0l9.4,9.4c2.3,2.3,3.6,5.4,3.6,8.7v39.1
			C101.8,104.9,99.4,107.3,96.3,107.3z"/>
	</g>
</g>
</svg>
