<?xml version="1.0" encoding="utf-8"?>
<!-- Generator: Adobe Illustrator 25.2.3, SVG Export Plug-In . SVG Version: 6.00 Build 0)  -->
<svg version="1.1" id="Calque_1" xmlns="http://www.w3.org/2000/svg" xmlns:xlink="http://www.w3.org/1999/xlink" x="0px" y="0px"
	 viewBox="0 0 216.6 178.1" style="enable-background:new 0 0 216.6 178.1;" xml:space="preserve">
<style type="text/css">
	.st0{fill:none;stroke:#000000;stroke-width:9.2314;stroke-linecap:round;stroke-linejoin:round;stroke-miterlimit:10;}
</style>
<path class="st0" d="M159.2,59.6c-4.1,0.6-9.2,0.3-13,0.5C116.2,62.2,86,62,56,59.4"/>
<path class="st0" d="M56.7,89.4c4.1-0.6,9.2-0.3,13-0.5c30-2.1,60.2-1.8,90.2,0.8"/>
<path class="st0" d="M57.4,118.5c4.1-0.6,9.2-0.3,13-0.5c30-2.1,60.2-1.8,90.2,0.8"/>
</svg>
