<?xml version="1.0" encoding="utf-8"?>
<!-- Generator: Adobe Illustrator 26.0.0, SVG Export Plug-In . SVG Version: 6.00 Build 0)  -->
<svg version="1.1" id="Calque_1" xmlns="http://www.w3.org/2000/svg" xmlns:xlink="http://www.w3.org/1999/xlink" x="0px" y="0px"
	 viewBox="0 0 180 180" style="enable-background:new 0 0 180 180;" xml:space="preserve">
<style type="text/css">
	.st0{fill:url(#SVGID_1_);}
	.st1{fill:url(#SVGID_00000071529189879611101690000004406390826788672899_);}
	.st2{fill:url(#SVGID_00000121259965774531771510000001058581094215447424_);}
	.st3{fill:#F29492;}
	.st4{fill:url(#SVGID_00000099635443672763994720000013649640289285100933_);}
	.st5{fill:url(#SVGID_00000084497143075595846180000014881388786012534420_);}
	.st6{fill:url(#SVGID_00000127737537569705442260000001089736085677967782_);}
	.st7{fill:url(#SVGID_00000134220044140294652760000018281173979371080114_);}
	.st8{fill:url(#SVGID_00000093871491647358602020000003038073935826153898_);}
	.st9{fill:url(#SVGID_00000130647884414190747380000017706893928266153119_);}
	.st10{fill:url(#SVGID_00000142896776102034875650000008438194605351584694_);}
	.st11{fill:url(#SVGID_00000143594954858728220920000009259239851269954714_);}
	.st12{fill:url(#SVGID_00000063627970116248871090000018086514634460672921_);}
	.st13{fill:#78C7C9;stroke:#FCE2DF;stroke-miterlimit:10;}
	.st14{fill:url(#SVGID_00000083782777443632382650000009490839473654697353_);}
	.st15{fill:url(#SVGID_00000045595441902379579700000015408583850318106545_);}
	.st16{fill:url(#SVGID_00000104691382948431500650000016465031953400608131_);}
	.st17{fill:url(#SVGID_00000002361911211490415030000005193055634058935473_);}
	.st18{fill:url(#SVGID_00000139271547123685706500000013479772604121498021_);}
	.st19{fill:url(#SVGID_00000176762002070907980940000002523126063429143228_);}
	.st20{fill:url(#SVGID_00000080173061865497935100000008502343201108652186_);}
	.st21{fill:url(#SVGID_00000168110444602327884720000013039765954341464223_);}
	.st22{fill:url(#SVGID_00000057859179035297262140000002047051524073457584_);}
	.st23{fill:url(#SVGID_00000136412833837966410180000002776987660756858773_);}
	.st24{fill:url(#SVGID_00000013871874869810243580000004403789391448307874_);}
	.st25{fill:url(#SVGID_00000171719875195498861050000015119948242412152990_);}
	.st26{fill:url(#SVGID_00000173845565227954056550000010958398529328124802_);}
	.st27{fill:url(#SVGID_00000026153281979375935090000004170472994129550980_);}
	.st28{fill:url(#SVGID_00000011013130401219616230000002891561017061850774_);}
	.st29{fill:url(#SVGID_00000066487161728137693920000006489331769490511780_);}
	.st30{fill:url(#SVGID_00000016064726771611197370000003904533291773576364_);}
	.st31{fill:url(#SVGID_00000147210173082874691400000014728585845957577388_);}
	.st32{fill:url(#SVGID_00000134237616624506975160000010257024342695596469_);}
	.st33{fill:url(#SVGID_00000106105497320634775090000009616623683967966375_);}
	.st34{fill:url(#SVGID_00000049221360987326385110000003017844062915656122_);}
	.st35{fill:url(#SVGID_00000088108568746563562920000002339635453270362501_);}
	.st36{fill:url(#SVGID_00000022547169098961376680000014961272179744663188_);}
	.st37{fill:url(#SVGID_00000044856740535227206940000016195468465807115184_);}
</style>
<g>
	<polygon class="st13" points="118.43,64.99 128.93,59.33 128.93,62.74 118.43,68.4 117.79,68.75 116.36,66.11 	"/>
	<polygon class="st13" points="118.43,57.23 113.11,60.1 111.7,57.46 118.43,53.82 120.49,52.71 121.92,55.35 	"/>
	<linearGradient id="SVGID_1_" gradientUnits="userSpaceOnUse" x1="128.935" y1="94.5" x2="19.935" y2="94.5">
		<stop  offset="0" style="stop-color:#FCE2DF"/>
		<stop  offset="1" style="stop-color:#F29492"/>
	</linearGradient>
	<path class="st0" d="M128.93,29.5v6.74l-10.5,5.66L97.47,53.2l20.97,38.9l4.65,8.63l5.85-3.15v61.92h-109v-130h33.68
		c-1.05,1.16-1.68,2.7-1.68,4.39v2.05c0,1.53,0.52,2.94,1.4,4.06c1.18,1.52,3.02,2.5,5.09,2.5h32.02c2.07,0,3.91-0.98,5.09-2.5
		c0.88-1.12,1.4-2.53,1.4-4.06v-2.05c0-1.69-0.63-3.23-1.68-4.39H128.93z"/>
	<polygon class="st13" points="121.03,74.77 128.93,70.51 128.93,73.91 122.45,77.41 	"/>
	<polygon class="st13" points="125.68,83.43 128.93,81.68 128.93,85.09 127.11,86.07 	"/>
	<polygon class="st13" points="111.7,57.46 118.43,53.82 118.43,57.23 113.11,60.1 	"/>
	<polygon class="st13" points="116.36,66.11 118.43,64.99 118.43,68.4 117.79,68.75 	"/>
	
		<linearGradient id="SVGID_00000160903626770152114340000000913470853433814970_" gradientUnits="userSpaceOnUse" x1="30.435" y1="94.5" x2="118.435" y2="94.5">
		<stop  offset="0" style="stop-color:#FCE2DF"/>
		<stop  offset="1" style="stop-color:#F29492"/>
	</linearGradient>
	<path style="fill:url(#SVGID_00000160903626770152114340000000913470853433814970_);" d="M118.43,40v1.9L97.47,53.2l20.97,38.9V149
		h-88V40h22.9c1.18,1.52,3.02,2.5,5.09,2.5h32.02c2.07,0,3.91-0.98,5.09-2.5H118.43z"/>
	<path class="st3" d="M96.93,33.89v2.05c0,1.53-0.52,2.94-1.4,4.06c-1.18,1.52-3.02,2.5-5.09,2.5H58.42c-2.07,0-3.91-0.98-5.09-2.5
		c-0.88-1.12-1.4-2.53-1.4-4.06v-2.05c0-1.69,0.63-3.23,1.68-4.39c1.18-1.33,2.9-2.17,4.81-2.17h9.26c0-3.78,3.02-6.83,6.75-6.83
		c3.73,0,6.75,3.05,6.75,6.83h9.26c1.91,0,3.63,0.84,4.81,2.17C96.3,30.66,96.93,32.2,96.93,33.89z"/>
	
		<linearGradient id="SVGID_00000110437229771926436630000007942729785415409802_" gradientUnits="userSpaceOnUse" x1="44.7167" y1="93.582" x2="103.5634" y2="93.582">
		<stop  offset="0" style="stop-color:#78C7C9"/>
		<stop  offset="1" style="stop-color:#007EAD"/>
	</linearGradient>
	<polygon style="fill:url(#SVGID_00000110437229771926436630000007942729785415409802_);" points="73.94,126.82 62.8,81.65 
		57.4,97.5 44.72,97.5 44.72,91.5 53.1,91.5 63.73,60.35 74.59,104.39 85.26,69.86 91.61,90.3 103.56,90.3 103.56,96.3 87.19,96.3 
		85.27,90.14 	"/>
	
		<linearGradient id="SVGID_00000065773941486942699700000002061128234266393229_" gradientUnits="userSpaceOnUse" x1="30.265" y1="137" x2="54.265" y2="137">
		<stop  offset="0" style="stop-color:#78C7C9"/>
		<stop  offset="1" style="stop-color:#007EAD"/>
	</linearGradient>
	<polygon style="fill:url(#SVGID_00000065773941486942699700000002061128234266393229_);" points="54.27,149 30.27,149 30.27,125 	
		"/>
	<polygon class="st3" points="54.27,125 54.27,149 30.27,125 	"/>
	
		<linearGradient id="SVGID_00000155844442325918327450000004980969750828564637_" gradientUnits="userSpaceOnUse" x1="97.465" y1="67" x2="160.065" y2="67">
		<stop  offset="0" style="stop-color:#FCE2DF"/>
		<stop  offset="1" style="stop-color:#F29492"/>
	</linearGradient>
	<path style="fill:url(#SVGID_00000155844442325918327450000004980969750828564637_);" d="M134.45,33.27l-5.51,2.97l-10.5,5.66
		L97.47,53.2l20.97,38.9l4.65,8.63l5.85-3.15l31.13-16.78L134.45,33.27z"/>
	<g>
		
			<linearGradient id="SVGID_00000057149424650651593540000000268424584926330254_" gradientUnits="userSpaceOnUse" x1="111.695" y1="56.405" x2="121.925" y2="56.405">
			<stop  offset="0" style="stop-color:#78C7C9"/>
			<stop  offset="1" style="stop-color:#007EAD"/>
		</linearGradient>
		<polygon style="fill:url(#SVGID_00000057149424650651593540000000268424584926330254_);" points="121.92,55.35 118.43,57.23 
			113.11,60.1 111.7,57.46 118.43,53.82 120.49,52.71 		"/>
	</g>
	<g>
		
			<linearGradient id="SVGID_00000044886997949574384980000007362538830604415626_" gradientUnits="userSpaceOnUse" x1="116.355" y1="62.45" x2="136.265" y2="62.45">
			<stop  offset="0" style="stop-color:#78C7C9"/>
			<stop  offset="1" style="stop-color:#007EAD"/>
		</linearGradient>
		<polygon style="fill:url(#SVGID_00000044886997949574384980000007362538830604415626_);" points="136.27,58.79 128.93,62.74 
			118.43,68.4 117.79,68.75 116.36,66.11 118.43,64.99 128.93,59.33 134.85,56.15 		"/>
	</g>
	<g>
		
			<linearGradient id="SVGID_00000123441031816834943690000007942300674532294539_" gradientUnits="userSpaceOnUse" x1="121.025" y1="71.11" x2="140.935" y2="71.11">
			<stop  offset="0" style="stop-color:#78C7C9"/>
			<stop  offset="1" style="stop-color:#007EAD"/>
		</linearGradient>
		<polygon style="fill:url(#SVGID_00000123441031816834943690000007942300674532294539_);" points="140.93,67.45 128.93,73.91 
			122.45,77.41 121.03,74.77 128.93,70.51 139.52,64.81 		"/>
	</g>
	<g>
		
			<linearGradient id="SVGID_00000124883793861203026410000002777200560332909735_" gradientUnits="userSpaceOnUse" x1="125.685" y1="79.765" x2="145.595" y2="79.765">
			<stop  offset="0" style="stop-color:#78C7C9"/>
			<stop  offset="1" style="stop-color:#007EAD"/>
		</linearGradient>
		<polygon style="fill:url(#SVGID_00000124883793861203026410000002777200560332909735_);" points="145.6,76.1 128.93,85.09 
			127.11,86.07 125.68,83.43 128.93,81.68 144.17,73.46 		"/>
	</g>
</g>
</svg>
