<?xml version="1.0" encoding="utf-8"?>
<!-- Generator: Adobe Illustrator 16.0.0, SVG Export Plug-In . SVG Version: 6.00 Build 0)  -->
<!DOCTYPE svg PUBLIC "-//W3C//DTD SVG 1.1//EN" "http://www.w3.org/Graphics/SVG/1.1/DTD/svg11.dtd">
<svg version="1.1" id="Calque_1" xmlns="http://www.w3.org/2000/svg" xmlns:xlink="http://www.w3.org/1999/xlink" x="0px" y="0px"
	 width="500px" height="354.875px" viewBox="0 0 500 354.875" enable-background="new 0 0 500 354.875" xml:space="preserve">
<g>
	<polygon fill="#303030" points="496.662,174.355 250.272,31.921 3.878,174.355 0.791,172.146 0.791,176.141 250.272,354.744 
		499.75,176.141 499.75,172.144 	"/>
	<polygon points="250.272,350.748 0.791,172.146 250.272,27.923 499.75,172.144 	"/>
	<polygon opacity="0.15" fill="#FFFFFF" points="487.092,185.205 499.75,176.141 499.75,172.144 278.204,44.071 165.029,102.243 
		391.93,249.326 391.93,253.335 	"/>
	<polygon fill="#EC1C24" points="479.889,141.067 250.272,15.16 20.652,141.067 17.227,138.683 17.227,142.945 250.272,305.115 
		483.313,142.945 483.313,138.683 	"/>
	<polygon fill="#F26F21" points="250.272,300.854 17.227,138.683 250.272,10.897 483.313,138.683 	"/>
	<polygon opacity="0.15" fill="#FFFFFF" points="470.633,151.771 483.313,142.945 483.313,138.701 250.272,10.897 148.593,66.65 
		375.498,213.732 375.498,217.904 	"/>
	<g opacity="0.5">
		<polygon points="250.272,258.699 46.662,122.542 250.272,10.897 453.864,122.55 		"/>
	</g>
	<polygon fill="#007055" points="460.843,110.989 250.272,4.035 39.698,110.989 36.366,108.762 36.366,112.682 250.272,255.71 
		464.174,112.682 464.174,108.762 	"/>
	<g>
		<polygon fill="#049775" points="250.272,251.789 36.366,108.762 250.272,0.114 464.174,108.762 		"/>
	</g>
	<g>
		<path fill="#00543E" d="M318.162,161.548c-0.627-0.161-1.1,0.235-1.05,0.88l0.085,1.103c0.05,0.645-0.423,1.041-1.049,0.879
			l-17.684-4.553c-0.626-0.162-1.264-0.808-1.416-1.437l-4.41-11.449c-0.299-0.574-0.073-1.287,0.501-1.585l12.2-6.34
			c0.574-0.298,1.514-0.787,2.087-1.085l0.201-0.104c0.573-0.299,1.043-1.072,1.043-1.719v-1.028c0-0.647-0.382-1.542-0.85-1.99
			l-0.393-0.376c-0.468-0.447-1.02-0.312-1.228,0.3l-0.109,0.325c-0.208,0.612-0.761,0.748-1.228,0.3l-6.84-6.546
			c-0.467-0.448-1.357-0.663-1.978-0.479l-17.264,5.125c-0.62,0.185-1.59,0.077-2.154-0.239l-15.834-7.547
			c-0.602-0.24-1.067-0.964-1.036-1.61l0.596-12.42c0.031-0.646-0.464-1.271-1.1-1.388l-16.586-3.057
			c-0.636-0.117-1.353,0.278-1.593,0.879l-4.671,11.693c-0.24,0.601-0.966,1.099-1.613,1.106l-17.812,1.35
			c-0.641,0.089-1.581-0.165-2.089-0.565l-13.733-10.813c-0.508-0.4-1.416-0.531-2.017-0.291l-10.43,4.166
			c-0.601,0.24-1.092-0.093-1.092-0.74v-1.028c0-0.647-0.492-0.98-1.093-0.741l-0.423,0.169c-0.601,0.239-1.093,0.964-1.093,1.611
			v1.028c0,0.647,0.342,1.581,0.759,2.075l10.165,12.031c0.417,0.494,0.35,1.234-0.151,1.644l-8.919,9.048
			c-0.394,0.513-1.242,0.874-1.885,0.8l-20.407-2.319c-0.643-0.073-1.281,0.384-1.419,1.016l-1.226,5.613
			c-0.138,0.632-0.373,0.951-0.522,0.71c-0.149-0.241-0.353-0.064-0.454,0.394c-0.101,0.458-0.183,1.363-0.183,2.01v1.028
			c0,0.647,0.513,1.308,1.139,1.469l19.788,5.094c0.626,0.161,1.264,0.807,1.416,1.436l4.41,11.447
			c0.299,0.574,0.073,1.288-0.5,1.586l-11.472,5.965c-0.574,0.298-1.21,0.04-1.413-0.574l-0.216-0.652
			c-0.203-0.614-0.833-0.876-1.399-0.583c-0.566,0.294-1.03,1.064-1.03,1.711v1.03c0,0.647,0.34,1.401,0.755,1.677
			c0.415,0.275,1.196,0.793,1.735,1.15l8.026,5.321c0.539,0.357,1.487,0.5,2.107,0.315l17.266-5.125
			c0.62-0.185,1.589-0.077,2.154,0.239l15.831,7.547c0.601,0.239,1.067,0.964,1.037,1.61l-0.591,12.422
			c-0.031,0.646,0.465,1.271,1.101,1.388l16.582,3.056c0.636,0.117,1.353-0.278,1.593-0.879l4.67-11.692
			c0.24-0.601,0.966-1.099,1.613-1.105l17.814-1.354c0.641-0.09,1.581,0.164,2.089,0.564l13.729,10.813
			c0.508,0.4,1.415,0.531,2.016,0.291l13.04-5.207c0.601-0.24,0.75-0.841,0.333-1.335l-10.16-12.026
			c-0.417-0.494-0.35-1.234,0.15-1.645l8.917-9.049c0.395-0.513,1.242-0.873,1.886-0.8l20.405,2.32
			c0.643,0.073,1.322-0.374,1.511-0.993l1.955-6.448c0.188-0.619,0.342-1.655,0.342-2.302v-1.028c0-0.647-0.513-1.308-1.14-1.469
			L318.162,161.548z M248.686,165.143c-6.292,2.513-15.251,0.864-20.002-3.689c-4.754-4.551-3.504-10.277,2.792-12.789
			c6.294-2.517,15.25-0.864,20.002,3.687C256.232,156.902,254.982,162.63,248.686,165.143z"/>
	</g>
	<g>
		<g>
			<path fill="#007055" d="M307.158,134.72c0.832-0.432,0.959-1.316,0.281-1.965l-9.033-8.648c-0.678-0.648-1.967-0.96-2.865-0.693
				l-16.252,4.825c-0.898,0.267-2.304,0.111-3.122-0.347l-14.881-7.093c-0.871-0.347-1.547-1.397-1.502-2.333l0.545-11.365
				c0.045-0.937-0.672-1.842-1.595-2.012l-15.546-2.866c-0.922-0.17-1.961,0.403-2.309,1.274l-4.279,10.712
				c-0.348,0.871-1.399,1.592-2.337,1.603l-16.76,1.272c-0.929,0.13-2.291-0.239-3.028-0.819l-12.903-10.159
				c-0.737-0.58-2.052-0.77-2.922-0.423l-12.057,4.814c-0.871,0.347-1.088,1.218-0.483,1.934l9.482,11.223
				c0.605,0.716,0.507,1.789-0.218,2.383l-8.188,8.294c-0.571,0.744-1.8,1.266-2.732,1.16l-19.356-2.2
				c-0.932-0.106-1.857,0.557-2.057,1.473l-1.909,8.749c-0.2,0.916,0.379,1.856,1.288,2.09l18.764,4.828
				c0.908,0.234,1.831,1.17,2.052,2.082l4.042,10.467c0.433,0.832,0.106,1.866-0.726,2.298l-13.548,7.042
				c-0.832,0.432-0.958,1.316-0.281,1.965l9.033,8.648c0.677,0.648,1.967,0.96,2.866,0.693l16.252-4.825
				c0.899-0.267,2.304-0.111,3.122,0.347l14.878,7.094c0.871,0.347,1.547,1.397,1.502,2.334l-0.541,11.365
				c-0.044,0.937,0.673,1.842,1.595,2.012l15.543,2.864c0.922,0.17,1.961-0.403,2.309-1.274l4.279-10.71
				c0.348-0.871,1.399-1.592,2.337-1.604l16.762-1.274c0.929-0.129,2.291,0.239,3.027,0.819l12.899,10.159
				c0.736,0.58,2.051,0.771,2.922,0.423l12.058-4.816c0.871-0.348,1.088-1.218,0.483-1.934l-9.479-11.22
				c-0.604-0.716-0.507-1.788,0.219-2.383l8.187-8.294c0.571-0.744,1.8-1.265,2.731-1.16l19.356,2.201
				c0.932,0.105,1.857-0.557,2.058-1.473l1.91-8.749c0.2-0.916-0.379-1.857-1.286-2.09l-18.769-4.831
				c-0.907-0.233-1.831-1.17-2.052-2.082l-4.042-10.466c-0.433-0.832-0.106-1.866,0.726-2.298L307.158,134.72z M248.686,161.762
				c-6.292,2.513-15.251,0.864-20.002-3.69c-4.754-4.55-3.504-10.277,2.792-12.789c6.294-2.516,15.25-0.864,20.002,3.686
				C256.232,153.521,254.982,159.249,248.686,161.762z"/>
		</g>
	</g>
	<g>
		<path fill="#00543E" d="M315.246,64.304c-0.196-0.496-0.601-0.678-0.898-0.403c-0.298,0.274-0.737,0.006-0.975-0.596l-0.962-2.427
			c-0.237-0.602-0.962-1.089-1.608-1.084l-14.118,0.119c-0.646,0.005-1.486-0.419-1.865-0.943l-7.767-8.336
			c-0.458-0.457-0.569-1.289-0.246-1.85l5.549-9.644c0.323-0.561,0.064-1.104-0.574-1.208l-9.788-1.584
			c-0.639-0.104-1.574,0.143-2.079,0.547l-7.986,6.394c-0.505,0.404-1.433,0.612-2.062,0.461l-12.81-2.292
			c-0.643-0.075-1.428-0.598-1.745-1.161l-4.876-8.652c-0.317-0.563-1.097-1.125-1.732-1.249l-11.189-2.173
			c-0.635-0.123-1.063,0.297-0.952,0.935l2.166,12.391c0.111,0.637-0.302,1.318-0.918,1.514l-9.928,4.045
			c-0.577,0.292-1.543,0.343-2.148,0.113l-13.049-4.973c-0.604-0.23-1.572-0.18-2.149,0.111l-4.879,2.463
			c-0.577,0.292-0.606,0.82-0.065,1.173l11.487,7.5c0.542,0.354,0.777,1.13,0.523,1.725l-1.437,6.308
			c-0.044,0.646-0.602,1.257-1.241,1.359l-13.216,2.119c-0.639,0.102-0.994,0.688-0.789,1.302l2.88,8.63
			c0.205,0.614,0.902,1.111,1.549,1.106l14.116-0.12c0.647-0.005,1.47,0.431,1.829,0.969l7.843,8.91
			c0.438,0.476,0.487,1.295,0.108,1.819l-3.02,4.184c-0.379,0.524-0.974,0.512-1.322-0.029s-0.872-0.651-1.164-0.247
			s-0.53,1.265-0.53,1.912v1.372c0,0.647,0.479,1.401,1.064,1.676l9.976,4.684c0.585,0.275,1.478,0.169,1.983-0.235l7.991-6.394
			c0.505-0.404,1.433-0.612,2.063-0.462l12.809,2.293c0.643,0.075,1.428,0.598,1.745,1.162l4.874,8.651
			c0.317,0.564,1.104,0.982,1.749,0.929l8.266-0.676c0.645-0.053,1.699-0.139,2.344-0.192l0.546-0.044
			c0.645-0.053,1.172-0.625,1.172-1.272v-1.372c0-0.647-0.121-1.691-0.269-2.321l-0.027-0.118c-0.147-0.63-0.428-0.987-0.621-0.793
			c-0.194,0.193-0.475-0.164-0.621-0.794l-0.765-3.264c-0.146-0.63,0.237-1.305,0.854-1.5l9.928-4.044
			c0.577-0.292,1.543-0.343,2.147-0.113l13.048,4.974c0.604,0.23,1.466,0.038,1.914-0.428l5.35-5.554
			c0.448-0.466,0.815-1.376,0.815-2.023V86.21c0-0.647-0.46-1.438-1.021-1.759l-0.465-0.264c-0.562-0.32-1.107-0.061-1.213,0.578
			l-0.179,1.082c-0.105,0.639-0.651,0.899-1.214,0.579l-8.346-4.753c-0.563-0.32-0.877-1.091-0.7-1.713l1.604-8.892
			c0.029-0.646,0.573-1.274,1.209-1.396l10.067-1.932c0.636-0.122,1.676-0.316,2.313-0.431l0.609-0.11
			c0.637-0.115,1.211-0.61,1.276-1.101C315.549,65.606,315.442,64.799,315.246,64.304z M267.138,71.438
			c-2.885,2.997-9.283,3.518-14.288,1.168c-5.008-2.352-6.724-6.687-3.841-9.68c2.889-2.999,9.285-3.522,14.292-1.171
			C268.308,64.104,270.029,68.439,267.138,71.438z"/>
	</g>
	<g>
		<g>
			<path fill="#007055" d="M292.212,39.133c0.401-0.557,0.222-1.251-0.4-1.543l-9.849-4.623c-0.622-0.292-1.569-0.18-2.105,0.25
				l-7.873,6.303c-0.536,0.429-1.521,0.65-2.189,0.49l-12.666-2.267c-0.682-0.08-1.516-0.635-1.854-1.233l-4.804-8.526
				c-0.337-0.598-1.173-1.042-1.857-0.986l-11.009,0.9c-0.685,0.056-1.117,0.649-0.96,1.318l2.002,8.553
				c0.157,0.668-0.251,1.385-0.906,1.593l-9.794,3.99c-0.613,0.311-1.639,0.364-2.281,0.12l-12.913-4.922
				c-0.642-0.245-1.557-0.04-2.033,0.455l-5.247,5.45c-0.477,0.495-0.378,1.178,0.219,1.518l11.287,6.43
				c0.597,0.34,0.898,1.148,0.67,1.796l-1.494,7.258c-0.038,0.686-0.625,1.335-1.303,1.443l-13.072,2.085
				c-0.678,0.108-1.026,0.719-0.772,1.357l2.705,6.824c0.253,0.638,1.022,1.156,1.708,1.15l13.971-0.118
				c0.687-0.006,1.621,0.41,2.076,0.925l7.491,7.042c0.536,0.43,0.646,1.237,0.244,1.794l-5.263,7.295
				c-0.402,0.557-0.222,1.251,0.4,1.543l9.844,4.621c0.622,0.292,1.569,0.18,2.105-0.25l7.877-6.302
				c0.536-0.429,1.521-0.65,2.19-0.49l12.666,2.268c0.683,0.08,1.516,0.635,1.854,1.233l4.802,8.525
				c0.338,0.598,1.174,1.042,1.857,0.986l11.011-0.901c0.685-0.056,1.116-0.649,0.96-1.318l-2.002-8.552
				c-0.156-0.668,0.252-1.386,0.906-1.593l9.793-3.99c0.613-0.311,1.64-0.364,2.281-0.12l12.911,4.921
				c0.642,0.245,1.557,0.04,2.033-0.455l5.248-5.448c0.477-0.495,0.378-1.178-0.219-1.518l-11.29-6.432
				c-0.597-0.34-0.921-1.156-0.721-1.813l1.557-7.24c0.033-0.686,0.614-1.335,1.293-1.444l13.072-2.086
				c0.679-0.108,1.026-0.719,0.773-1.358l-2.704-6.823c-0.253-0.639-1.021-1.156-1.709-1.15l-13.972,0.118
				c-0.688,0.006-1.621-0.41-2.076-0.925l-7.488-7.043c-0.535-0.43-0.645-1.237-0.243-1.794L292.212,39.133z M267.138,69.45
				c-2.885,2.997-9.283,3.518-14.288,1.167c-5.008-2.351-6.724-6.686-3.841-9.679c2.889-2.999,9.285-3.522,14.292-1.172
				C268.308,62.116,270.029,66.451,267.138,69.45z"/>
		</g>
	</g>
	<polygon opacity="0.15" fill="#FFFFFF" points="451.436,121.202 464.174,112.682 464.174,108.762 250.272,0.114 148.593,51.759 
		356.357,180.854 356.357,184.776 	"/>
</g>
</svg>
