<?xml version="1.0" encoding="utf-8"?>
<!-- Generator: Adobe Illustrator 16.0.0, SVG Export Plug-In . SVG Version: 6.00 Build 0)  -->
<!DOCTYPE svg PUBLIC "-//W3C//DTD SVG 1.1//EN" "http://www.w3.org/Graphics/SVG/1.1/DTD/svg11.dtd">
<svg version="1.1" id="Calque_1" xmlns="http://www.w3.org/2000/svg" xmlns:xlink="http://www.w3.org/1999/xlink" x="0px" y="0px"
	 width="500px" height="82.237px" viewBox="0 0 500 82.237" enable-background="new 0 0 500 82.237" xml:space="preserve">
<polygon fill="#F26F21" points="500,40.77 500,82.237 -0.078,82.237 -0.078,0 455.811,0 "/>
<polygon points="500,0 467.144,0 500,30.614 "/>
</svg>
