<?xml version="1.0" encoding="utf-8"?>
<!-- Generator: Adobe Illustrator 16.0.0, SVG Export Plug-In . SVG Version: 6.00 Build 0)  -->
<!DOCTYPE svg PUBLIC "-//W3C//DTD SVG 1.1//EN" "http://www.w3.org/Graphics/SVG/1.1/DTD/svg11.dtd">
<svg version="1.1" id="Calque_1" xmlns="http://www.w3.org/2000/svg" xmlns:xlink="http://www.w3.org/1999/xlink" x="0px" y="0px"
	 width="500px" height="500px" viewBox="0 0 500 500" enable-background="new 0 0 500 500" xml:space="preserve">
<g>
	<g>
		<path fill="#049775" d="M250,42.291c55.954,0,108.561,21.791,148.127,61.358c39.569,39.567,61.358,92.173,61.358,148.13
			c0,55.956-21.789,108.563-61.358,148.13C358.56,439.479,305.954,461.268,250,461.268c-55.956,0-108.563-21.789-148.131-61.358
			c-39.568-39.567-61.356-92.174-61.356-148.13c0-55.956,21.788-108.563,61.356-148.13C141.437,64.083,194.044,42.291,250,42.291
			 M250,13.724c-131.475,0-238.054,106.583-238.054,238.053c0,131.472,106.576,238.057,238.054,238.057
			c131.475,0,238.053-106.583,238.053-238.055C488.053,120.309,381.475,13.724,250,13.724L250,13.724z"/>
	</g>
	<g>
		<path fill="#049775" d="M199.244,367.121l-14.641,33.334c-25.676-12.449-46.363-30.558-62.063-54.334
			c-18.888-28-28.327-59.109-28.327-93.333c0-21.776,4.028-42.776,12.096-63c8.061-19.552,19.2-36.776,33.419-51.667
			c14.426-15.109,30.872-26.667,49.332-34.667c19.096-8.667,39.147-13,60.153-13c21.216,0,41.48,4.667,60.791,14
			c18.669,8.89,35.01,21,49.015,36.333c14.426,15.558,25.565,33.057,33.419,52.5c7.848,19.448,11.775,39.282,11.775,59.5
			c0,22.448-4.774,42.333-14.322,59.667c-8.274,15.109-19.096,25.552-32.464,31.333c-12.095,5.776-24.722,6.775-37.875,2.999
			c-10.821-3.113-19.732-8.78-26.734-16.999c-4.456-5.334-7.748-11.667-9.866-19c-13.582,12-29.282,18-47.105,18
			c-20.161,0-37.348-7.385-51.56-22.167c-14.219-14.776-21.325-32.719-21.325-53.833c0-21.109,7.106-39.052,21.325-53.833
			c14.212-14.776,31.398-22.167,51.56-22.167c17.823,0,33.523,6,47.105,18l3.182-13.667h30.555v116.666
			c0,3.334,1.164,6.226,3.502,8.668c2.332,2.447,5.195,4.114,8.593,4.999c1.695,0.448,3.605,0.667,5.729,0.667
			c10.186,0,18.564-5.999,25.145-18c6.364-11.333,9.548-25.109,9.548-41.333c0-16-3.342-31.719-10.025-47.167
			c-6.685-15.443-15.491-28.885-26.418-40.333c-10.931-11.442-23.765-20.667-38.51-27.667c-14.75-7-29.759-10.5-45.037-10.5
			c-33.1,0-61.377,12.281-84.819,36.833c-23.448,24.558-35.17,54.167-35.17,88.833c0,26.448,7.32,50.557,21.961,72.333
			C163.28,343.564,179.298,357.564,199.244,367.121z M266.082,280.454c7.002-7.552,10.503-16.775,10.503-27.666
			c0-11.11-3.501-20.333-10.503-27.667c-6.793-7.552-15.173-11.333-25.144-11.333c-9.762,0-18.251,3.782-25.463,11.333
			c-7.001,7.781-10.502,17-10.502,27.667c0,10.448,3.501,19.666,10.502,27.666c7.212,7.558,15.701,11.334,25.463,11.334
			C250.909,291.788,259.289,288.012,266.082,280.454z"/>
	</g>
</g>
</svg>
