<?xml version="1.0" encoding="utf-8"?>
<!-- Generator: Adobe Illustrator 16.0.0, SVG Export Plug-In . SVG Version: 6.00 Build 0)  -->
<!DOCTYPE svg PUBLIC "-//W3C//DTD SVG 1.1//EN" "http://www.w3.org/Graphics/SVG/1.1/DTD/svg11.dtd">
<svg version="1.1" id="Calque_1" xmlns="http://www.w3.org/2000/svg" xmlns:xlink="http://www.w3.org/1999/xlink" x="0px" y="0px"
	 width="606px" height="500px" viewBox="0 0 606 500" enable-background="new 0 0 606 500" xml:space="preserve">
<g>
	<g>
		<rect x="810" y="150.784" fill="#049775" width="298.875" height="27.199"/>
		<rect x="810" y="322.831" fill="#049775" width="298.875" height="27.198"/>
		<rect x="759.988" y="40.43" fill="#1E1E1E" width="400.072" height="74.905"/>
		<polygon fill="#666666" points="771.609,11.582 1147.174,11.582 1160.061,40.43 759.988,40.43 		"/>
		<polygon fill="#BFBFBF" points="810,2.85 1109.123,2.85 1147.174,11.582 771.609,11.582 		"/>
		<polygon fill="#666666" points="771.609,144.184 1147.174,144.184 1160.061,115.335 759.988,115.335 		"/>
		<polygon fill="#BFBFBF" points="810,152.915 1109.123,152.915 1147.174,144.184 771.609,144.184 		"/>
		<rect x="759.988" y="212.476" fill="#1E1E1E" width="400.072" height="74.905"/>
		<polygon fill="#666666" points="771.609,183.627 1147.174,183.627 1160.061,212.476 759.988,212.476 		"/>
		<polygon fill="#BFBFBF" points="810,174.896 1109.123,174.896 1147.174,183.627 771.609,183.627 		"/>
		<polygon fill="#666666" points="771.609,316.23 1147.174,316.23 1160.061,287.381 759.988,287.381 		"/>
		<polygon fill="#BFBFBF" points="810,324.962 1109.123,324.962 1147.174,316.23 771.609,316.23 		"/>
		<rect x="759.988" y="385.479" fill="#1E1E1E" width="400.072" height="74.903"/>
		<polygon fill="#666666" points="771.609,356.629 1147.174,356.629 1160.061,385.479 759.988,385.479 		"/>
		<polygon fill="#BFBFBF" points="810,347.896 1109.123,347.896 1147.174,356.629 771.609,356.629 		"/>
		<polygon fill="#666666" points="771.609,489.233 1147.174,489.233 1160.061,460.382 759.988,460.382 		"/>
		<polygon fill="#BFBFBF" points="810,497.964 1109.123,497.964 1147.174,489.233 771.609,489.233 		"/>
	</g>
	<polygon opacity="0.15" fill="#FFFFFF" enable-background="new    " points="1209.006,539.504 1184.199,539.504 738.5,-50.666 
		1209.006,-50.666 	"/>
</g>
<polygon fill="#DC5A28" points="553.236,389.865 62.984,389.865 60.151,371.439 556.068,371.439 "/>
<path fill="#EAEAEA" d="M517.248,61.022H98.792c-13.458,0-24.468,9.567-24.468,21.263V103.9v161.232v21.263h24.468h418.457h24.468
	v-21.263V103.9V82.285C541.716,70.589,530.702,61.022,517.248,61.022z"/>
<circle fill="#1E1E1E" cx="169.823" cy="236.549" r="34.219"/>
<g>
	<path fill="#1E1E1E" d="M524.416,175.02c0,2.354-1.926,4.28-4.28,4.28h-92.549c-2.354,0-4.279-1.926-4.279-4.28V82.471
		c0-2.354,1.926-4.28,4.279-4.28h92.549c2.354,0,4.28,1.926,4.28,4.28V175.02L524.416,175.02z"/>
</g>
<path fill="#1E1E1E" d="M423.434,236.549c0-12.657,10.256-22.915,22.913-22.915c12.661,0,22.917,10.259,22.917,22.915
	c0,12.658-10.256,22.917-22.917,22.917C433.69,259.466,423.434,249.207,423.434,236.549z"/>
<path fill="#F26F21" d="M146.906,236.549c0-12.657,10.262-22.915,22.917-22.915c12.656,0,22.917,10.259,22.917,22.915
	c0,12.658-10.261,22.917-22.917,22.917S146.906,249.207,146.906,236.549z"/>
<path fill="#007055" d="M431.997,128.749c0-23.12,18.742-41.864,41.864-41.864c23.118,0,41.86,18.744,41.86,41.864
	c0,23.126-18.742,41.867-41.86,41.867C450.74,170.616,431.997,151.875,431.997,128.749z"/>
<polygon fill="#BFBFBF" points="556.068,371.439 60.151,371.439 74.324,286.395 541.896,286.395 "/>
<polygon fill="#049775" points="541.85,466.644 74.324,466.644 68.653,431.68 547.572,431.68 "/>
<polygon fill="#007055" points="139.348,452.946 74.324,466.644 541.85,466.644 478.584,452.946 "/>
<polygon fill="#049775" points="306.658,266.667 314.873,262.064 324.32,266.818 328.336,389.865 315.596,389.865 303.533,389.865 
	"/>
<polygon fill="#007055" points="339.229,389.865 339.229,371.705 334.861,286.66 334.861,264.921 327.864,260.177 321.393,267.526 
	321.393,286.395 324.226,371.439 324.226,389.865 "/>
<polygon fill="#DC5A28" points="308.023,389.865 308.023,371.439 308.023,286.395 308.023,268.327 300.227,262.772 291.959,266.314 
	287.232,363.41 288.043,389.865 304.654,389.865 "/>
<polygon fill="#F26F21" points="294.91,267.238 294.91,286.395 292.073,371.439 292.073,389.865 276.636,389.865 276.636,371.439 
	281,286.395 281,264.123 288.177,260.879 "/>
<polygon fill="#F26F21" points="547.572,431.68 68.653,431.68 62.984,389.865 553.236,389.865 "/>
<rect x="104.385" y="408.294" fill="#1E1E1E" width="409.164" height="23.386"/>
<path opacity="0.15" fill="#FFFFFF" enable-background="new    " d="M423.434,236.549c0-12.657,10.256-22.915,22.913-22.915
	c12.661,0,22.917,10.259,22.917,22.915c0,12.658-10.256,22.917-22.917,22.917C433.69,259.466,423.434,249.207,423.434,236.549z"/>
<path fill="#1E1E1E" d="M428.038,236.549c0-10.113,8.196-18.309,18.309-18.309c10.114,0,18.311,8.196,18.311,18.309
	c0,10.114-8.196,18.312-18.311,18.312C436.235,254.86,428.038,246.663,428.038,236.549z"/>
<g opacity="0.15">
	<path fill="#FFFFFF" d="M426.335,81.217c-1.665-1.664-1.101-3.026,1.253-3.026h92.549c2.354,0,4.28,1.926,4.28,4.28v92.549
		c0,2.354-1.361,2.918-3.026,1.254L426.335,81.217z"/>
</g>
<polygon opacity="0.15" fill="#FFFFFF" enable-background="new    " points="104.385,431.68 115.131,420.933 500.879,420.933 
	513.549,431.68 "/>
<path fill="#049775" d="M436.604,128.749c0-20.579,16.678-37.256,37.258-37.256c20.577,0,37.255,16.677,37.255,37.256
	c0,20.581-16.678,37.258-37.255,37.258C453.281,166.007,436.604,149.33,436.604,128.749z"/>
<polygon opacity="0.3" fill="#EAEAEA" enable-background="new    " points="276.076,286.395 338.805,286.395 338.805,258.439 
	274.74,258.439 "/>
<path fill="#BFBFBF" d="M213.761,172.659c0-52.842,42.834-95.676,95.675-95.676c52.844,0,95.678,42.833,95.678,95.676
	c0,52.84-42.834,95.676-95.678,95.676C256.594,268.335,213.761,225.5,213.761,172.659z"/>
<path opacity="0.15" fill="#1E1E1E" enable-background="new    " d="M254.631,172.659c0-30.268,24.539-54.809,54.805-54.809
	c30.269,0,54.809,24.542,54.809,54.809c0,30.266-24.54,54.808-54.809,54.808C279.17,227.466,254.631,202.925,254.631,172.659z"/>
<path fill="#1E1E1E" stroke="#1E1E1E" stroke-width="2.588" stroke-miterlimit="10" d="M260.068,172.659
	c0-27.266,22.103-49.373,49.368-49.373c27.268,0,49.374,22.107,49.374,49.373c0,27.264-22.106,49.371-49.374,49.371
	C282.17,222.03,260.068,199.923,260.068,172.659z"/>
<path fill="none" stroke="#EAEAEA" stroke-width="5.1761" stroke-linecap="round" stroke-miterlimit="10" d="M335.216,146.882
	c14.231,14.232,14.231,37.321,0,51.555"/>
<path fill="none" stroke="#EAEAEA" stroke-width="5.1761" stroke-linecap="round" stroke-miterlimit="10" d="M283.662,198.438
	c-14.235-14.236-14.235-37.321,0-51.555"/>
<path fill="#EAEAEA" d="M295.855,172.659c0-7.499,6.081-13.582,13.581-13.582c7.502,0,13.584,6.083,13.584,13.582
	c0,7.501-6.081,13.583-13.584,13.583C301.936,186.241,295.855,180.16,295.855,172.659z"/>
<path opacity="0.15" fill="#FFFFFF" stroke="#FFFFFF" stroke-width="2.588" stroke-miterlimit="10" enable-background="new    " d="
	M274.526,137.748c19.281-19.281,50.542-19.281,69.822,0c19.281,19.281,19.281,50.542,0,69.822L274.526,137.748z"/>
<rect x="272.465" y="286.395" opacity="0.15" fill="#BFBFBF" enable-background="new    " width="74.902" height="85.045"/>
</svg>
