<?xml version="1.0" encoding="utf-8"?>
<!-- Generator: Adobe Illustrator 25.2.3, SVG Export Plug-In . SVG Version: 6.00 Build 0)  -->
<svg version="1.1" id="Calque_1" xmlns="http://www.w3.org/2000/svg" xmlns:xlink="http://www.w3.org/1999/xlink" x="0px" y="0px"
	 viewBox="0 0 125 125" style="enable-background:new 0 0 125 125;" xml:space="preserve">
<style type="text/css">
	.st0{fill:#009FE3;}
</style>
<g>
	<g>
		<g>
			<path class="st0" d="M70.5,60c-1.1,0-2.1-0.6-2.9-1.7c-0.8-1.3-0.7-2.9,0.2-4.7c1.1-1.9,3.4-3.9,6-4.9V25.7H51.1v22.8h17.6
				c0.5,0,1,0.4,1,1s-0.4,1-1,1H50.1c-0.5,0-1-0.4-1-1V24.7c0-0.5,0.4-1,1-1h24.7c0.5,0,1,0.4,1,1v23.4c0.9-0.2,1.7-0.3,2.6-0.2
				c0.5,0,1,0.5,0.9,1c0,0.5-0.5,1-1,0.9c-0.8,0-1.7,0.1-2.5,0.3c0,6.2-2.4,9.1-4.4,9.7C71.1,60,70.8,60,70.5,60z M73.9,50.9
				c-1.9,0.9-3.5,2.3-4.3,3.7c-0.3,0.6-0.9,1.8-0.3,2.6c0.3,0.5,0.8,1,1.6,0.8C72,57.7,73.7,55.5,73.9,50.9z"/>
		</g>
		<g>
			<path class="st0" d="M67.7,43.2H57.3c-0.5,0-1-0.4-1-1V31.9c0-0.5,0.4-1,1-1h10.3c0.5,0,1,0.4,1,1v10.3
				C68.6,42.8,68.2,43.2,67.7,43.2z M58.3,41.3h8.4v-8.4h-8.4V41.3z"/>
		</g>
		<g>
			<path class="st0" d="M62.3,14.6c-2.6,0-4.7-2.1-4.7-4.7s2.1-4.7,4.7-4.7s4.7,2.1,4.7,4.7S64.9,14.6,62.3,14.6z M62.3,7.1
				c-1.5,0-2.8,1.2-2.8,2.8s1.2,2.8,2.8,2.8s2.8-1.2,2.8-2.8S63.9,7.1,62.3,7.1z"/>
		</g>
		<g>
			<path class="st0" d="M38.4,10.3c-2.6,0-4.7-2.1-4.7-4.7s2.1-4.7,4.7-4.7c2.6,0,4.7,2.1,4.7,4.7S41,10.3,38.4,10.3z M38.4,2.9
				c-1.5,0-2.8,1.2-2.8,2.8s1.2,2.8,2.8,2.8s2.8-1.2,2.8-2.8S39.9,2.9,38.4,2.9z"/>
		</g>
		<g>
			<path class="st0" d="M94,18c-2.6,0-4.7-2.1-4.7-4.7s2.1-4.7,4.7-4.7s4.7,2.1,4.7,4.7S96.6,18,94,18z M94,10.6
				c-1.5,0-2.8,1.2-2.8,2.8s1.2,2.8,2.8,2.8c1.5,0,2.8-1.2,2.8-2.8S95.5,10.6,94,10.6z"/>
		</g>
		<g>
			<path class="st0" d="M89.7,42c-2.6,0-4.7-2.1-4.7-4.7c0-2.6,2.1-4.7,4.7-4.7s4.7,2.1,4.7,4.7C94.4,39.9,92.3,42,89.7,42z
				 M89.7,34.5c-1.5,0-2.8,1.2-2.8,2.8c0,1.5,1.2,2.8,2.8,2.8c1.5,0,2.8-1.2,2.8-2.8C92.5,35.7,91.2,34.5,89.7,34.5z"/>
		</g>
		<g>
			<path class="st0" d="M35,42c-2.6,0-4.7-2.1-4.7-4.7c0-2.6,2.1-4.7,4.7-4.7s4.7,2.1,4.7,4.7C39.7,39.9,37.6,42,35,42z M35,34.5
				c-1.5,0-2.8,1.2-2.8,2.8c0,1.5,1.2,2.8,2.8,2.8s2.8-1.2,2.8-2.8C37.7,35.7,36.5,34.5,35,34.5z"/>
		</g>
		<g>
			<path class="st0" d="M30.7,65.9c-2.6,0-4.7-2.1-4.7-4.7c0-2.6,2.1-4.7,4.7-4.7c2.6,0,4.7,2.1,4.7,4.7
				C35.4,63.8,33.3,65.9,30.7,65.9z M30.7,58.5c-1.5,0-2.8,1.2-2.8,2.8c0,1.5,1.2,2.8,2.8,2.8c1.5,0,2.8-1.2,2.8-2.8
				C33.5,59.7,32.2,58.5,30.7,58.5z"/>
		</g>
		<g>
			<path class="st0" d="M62.3,69.3c-2.6,0-4.7-2.1-4.7-4.7c0-2.6,2.1-4.7,4.7-4.7s4.7,2.1,4.7,4.7C67.1,67.2,64.9,69.3,62.3,69.3z
				 M62.3,61.9c-1.5,0-2.8,1.2-2.8,2.8c0,1.5,1.2,2.8,2.8,2.8s2.8-1.2,2.8-2.8C65.1,63.1,63.9,61.9,62.3,61.9z"/>
		</g>
		<g>
			<path class="st0" d="M86.3,73.6c-2.6,0-4.7-2.1-4.7-4.7c0-2.6,2.1-4.7,4.7-4.7s4.7,2.1,4.7,4.7C91,71.5,88.9,73.6,86.3,73.6z
				 M86.3,66.1c-1.5,0-2.8,1.2-2.8,2.8s1.2,2.8,2.8,2.8c1.5,0,2.8-1.2,2.8-2.8S87.8,66.1,86.3,66.1z"/>
		</g>
		<g>
			<path class="st0" d="M86.3,66.1c-0.5,0-1-0.4-1-1V47.2H74.9c-0.5,0-1-0.4-1-1s0.4-1,1-1h11.4c0.5,0,1,0.4,1,1v18.9
				C87.3,65.7,86.8,66.1,86.3,66.1z"/>
		</g>
		<g>
			<path class="st0" d="M86,38.2H74.9c-0.5,0-1-0.4-1-1s0.4-1,1-1H86c0.5,0,1,0.4,1,1S86.5,38.2,86,38.2z"/>
		</g>
		<g>
			<path class="st0" d="M50.1,38.2H38.7c-0.5,0-1-0.4-1-1s0.4-1,1-1h11.4c0.5,0,1,0.4,1,1S50.7,38.2,50.1,38.2z"/>
		</g>
		<g>
			<path class="st0" d="M53.4,62.2h-19c-0.5,0-1-0.4-1-1s0.4-1,1-1h18V49.4c0-0.5,0.4-1,1-1c0.5,0,1,0.4,1,1v11.8
				C54.4,61.8,53.9,62.2,53.4,62.2z"/>
		</g>
		<g>
			<path class="st0" d="M50.1,29.3H38.4c-0.5,0-1-0.4-1-1v-19c0-0.5,0.4-1,1-1s1,0.4,1,1v18h10.8c0.5,0,1,0.4,1,1
				S50.7,29.3,50.1,29.3z"/>
		</g>
		<g>
			<path class="st0" d="M62.3,25.7c-0.5,0-1-0.4-1-1V13.6c0-0.5,0.4-1,1-1s1,0.4,1,1v11.1C63.3,25.2,62.9,25.7,62.3,25.7z"/>
		</g>
		<g>
			<path class="st0" d="M71,25.7c-0.5,0-1-0.4-1-1V13.3c0-0.5,0.4-1,1-1h19.2c0.5,0,1,0.4,1,1s-0.4,1-1,1H72v10.4
				C72,25.2,71.6,25.7,71,25.7z"/>
		</g>
		<g>
			<path class="st0" d="M62.3,61.9c-0.5,0-1-0.4-1-1V49.4c0-0.5,0.4-1,1-1s1,0.4,1,1v11.5C63.3,61.4,62.9,61.9,62.3,61.9z"/>
		</g>
	</g>
	<g>
		<path class="st0" d="M118.3,125H68.4c-4,0-7.9-1.6-10.7-4.4L4.2,67.2C1.5,64.4,0,60.8,0,56.9V5.2C0,2.3,2.3,0,5.2,0H17
			c0.5,0,1,0.4,1,1s-0.4,1-1,1H5.2C3.4,2,2,3.4,2,5.2v51.7c0,3.3,1.3,6.5,3.7,8.9L59,119.2c2.5,2.5,5.8,3.9,9.3,3.9h49.9
			c2.6,0,4.7-2.1,4.7-4.7V68.5c0-3.6-1.4-7-3.9-9.5l-12-12c-0.4-0.4-0.4-1,0-1.4c0.4-0.4,1-0.4,1.4,0l12,12
			c2.9,2.9,4.5,6.8,4.5,10.9v49.8C125,122,122,125,118.3,125z"/>
	</g>
</g>
</svg>
