<?xml version="1.0" encoding="utf-8"?>
<!-- Generator: Adobe Illustrator 25.2.3, SVG Export Plug-In . SVG Version: 6.00 Build 0)  -->
<svg version="1.1" id="Calque_1" xmlns="http://www.w3.org/2000/svg" xmlns:xlink="http://www.w3.org/1999/xlink" x="0px" y="0px"
	 viewBox="0 0 105 111.4" style="enable-background:new 0 0 105 111.4;" xml:space="preserve">
<style type="text/css">
	.st0{fill:#009FE3;}
</style>
<g>
	<g>
		<g>
			<g>
				<path class="st0" d="M39.8,59.7c-0.2,0-0.3,0-0.5-0.1c-0.4-0.2-0.6-0.8-0.5-1.2l7.3-19.2h-6.4c-0.3,0-0.6-0.1-0.8-0.4
					c-0.2-0.2-0.3-0.6-0.2-0.9L44,16.1c0.1-0.5,0.5-0.8,1-0.8h15.7c0.4,0,0.7,0.2,0.9,0.5c0.2,0.3,0.2,0.7,0,1l-7,12.2h6.1
					c0.4,0,0.7,0.2,0.9,0.5s0.1,0.7-0.1,1L40.6,59.3C40.4,59.5,40.1,59.7,39.8,59.7z M41,37.2h6.6c0.3,0,0.6,0.2,0.8,0.4
					c0.2,0.3,0.2,0.6,0.1,0.9l-5.2,13.6l15.3-21h-5.9c-0.4,0-0.7-0.2-0.9-0.5c-0.2-0.3-0.2-0.7,0-1l7-12.2H45.8L41,37.2z"/>
			</g>
		</g>
		<g>
			<g>
				<path class="st0" d="M47.6,34.1c-0.5,0-0.9-0.1-1.3-0.3c-0.5-0.3-1.6-1.1-0.9-3.3C46,29,47,28.3,47.8,28c2.4-0.8,5.3,1,5.6,1.2
					c0.2,0.2,0.4,0.4,0.4,0.7s0,0.6-0.2,0.8C51.8,32.8,49.4,34.1,47.6,34.1z M49.2,29.8c-0.3,0-0.5,0-0.7,0.1
					c-0.5,0.2-0.9,0.6-1.1,1.3c-0.2,0.6-0.1,0.8-0.1,0.9c0.4,0.2,2.2-0.2,3.9-1.8C50.6,30,49.8,29.8,49.2,29.8z"/>
			</g>
		</g>
		<g>
			<g>
				<g>
					<path class="st0" d="M49.6,67.9c-11.1,0-21.6-5.9-27.2-15.5c-0.3-0.5-0.1-1.1,0.3-1.4c0.5-0.3,1.1-0.1,1.4,0.3
						c5.3,8.9,15.1,14.5,25.5,14.5c14.7,0,27.3-10.9,29.3-25.4c0.1-0.5,0.6-0.9,1.1-0.9c0.5,0.1,0.9,0.6,0.9,1.1
						C78.7,56.2,65.3,67.9,49.6,67.9z"/>
				</g>
			</g>
			<g>
				<g>
					<g>
						<polygon class="st0" points="32.5,54.3 24.4,54.1 18.7,59.7 19.2,40.6 						"/>
					</g>
				</g>
			</g>
		</g>
		<g>
			<g>
				<g>
					<path class="st0" d="M18.8,33.2c0,0-0.1,0-0.1,0c-0.5-0.1-0.9-0.6-0.9-1.1C20,16.6,33.6,4.9,49.6,4.9
						c11.2,0,21.8,5.9,27.5,15.4c0.3,0.5,0.1,1.1-0.3,1.4c-0.5,0.3-1.1,0.1-1.4-0.3C70,12.5,60.1,6.9,49.6,6.9
						c-14.9,0-27.7,10.9-29.8,25.4C19.7,32.8,19.3,33.2,18.8,33.2z"/>
				</g>
			</g>
			<g>
				<g>
					<g>
						<path class="st0" d="M80.3,32.2c-4-4.6-9.9-9.9-15-12.6l10.1-0.2l7.7-6.6C81.1,18.3,80.3,26.1,80.3,32.2z"/>
					</g>
				</g>
			</g>
		</g>
	</g>
	<g>
		<path class="st0" d="M96.3,106.5H57.1c-3.2,0-6.3-1.3-8.6-3.6l-42-42c-2.2-2.2-3.4-5.1-3.4-8.2V12.1c0-2.4,1.9-4.3,4.3-4.3h9.3
			c0.6,0,1,0.4,1,1s-0.4,1-1,1H7.5c-1.3,0-2.3,1-2.3,2.3v40.6c0,2.6,1,5,2.8,6.8l42,42c1.9,1.9,4.5,3,7.2,3h39.2
			c1.9,0,3.5-1.6,3.5-3.5V61.9c0-2.8-1.1-5.4-3-7.3l-9.4-9.4c-0.4-0.4-0.4-1,0-1.4s1-0.4,1.4,0l9.4,9.4c2.3,2.3,3.6,5.4,3.6,8.7V101
			C101.8,104,99.4,106.5,96.3,106.5z"/>
	</g>
</g>
</svg>
