<?xml version="1.0" encoding="utf-8"?>
<!-- Generator: Adobe Illustrator 25.2.3, SVG Export Plug-In . SVG Version: 6.00 Build 0)  -->
<svg version="1.1" id="Calque_1" xmlns="http://www.w3.org/2000/svg" xmlns:xlink="http://www.w3.org/1999/xlink" x="0px" y="0px"
	 viewBox="0 0 125 125" style="enable-background:new 0 0 125 125;" xml:space="preserve">
<style type="text/css">
	.st0{fill:#009FE3;}
</style>
<g>
	<g>
		<g>
			<path class="st0" d="M92,38.2H33.2c-0.5,0-1-0.4-1-1V31c0-0.3,0.2-0.7,0.5-0.8l29.4-17.9c0.3-0.2,0.7-0.2,1,0l29.4,17.8
				c0.3,0.2,0.5,0.5,0.5,0.8v6.3C93,37.7,92.5,38.2,92,38.2z M34.2,36.2H91v-4.7L62.6,14.3L34.2,31.6V36.2z"/>
		</g>
		<g>
			<path class="st0" d="M62.6,31.8c-2.9,0-5.3-2.4-5.3-5.3c0-2.9,2.4-5.3,5.3-5.3c2.9,0,5.3,2.4,5.3,5.3
				C67.8,29.4,65.5,31.8,62.6,31.8z M62.6,23.2c-1.8,0-3.3,1.5-3.3,3.3c0,1.8,1.5,3.3,3.3,3.3s3.3-1.5,3.3-3.3
				C65.9,24.7,64.4,23.2,62.6,23.2z"/>
		</g>
		<g>
			<path class="st0" d="M47.6,67.1h-7.7c-0.5,0-1-0.4-1-1V37.2c0-0.5,0.4-1,1-1h7.7c0.5,0,1,0.4,1,1v28.9
				C48.6,66.6,48.1,67.1,47.6,67.1z M40.8,65.1h5.7V38.2h-5.7V65.1z"/>
		</g>
		<g>
			<path class="st0" d="M66.5,67.1h-7.7c-0.5,0-1-0.4-1-1V37.2c0-0.5,0.4-1,1-1h7.7c0.5,0,1,0.4,1,1v28.9
				C67.4,66.6,67,67.1,66.5,67.1z M59.7,65.1h5.7V38.2h-5.7V65.1z"/>
		</g>
		<g>
			<path class="st0" d="M86.1,67.1h-7.7c-0.5,0-1-0.4-1-1V37.2c0-0.5,0.4-1,1-1h7.7c0.5,0,1,0.4,1,1v28.9
				C87.1,66.6,86.7,67.1,86.1,67.1z M79.4,65.1h5.7V38.2h-5.7V65.1z"/>
		</g>
		<g>
			<path class="st0" d="M33.2,73.6c-0.3,0-0.5-0.1-0.7-0.3c-0.4-0.4-0.3-1,0.1-1.4c1.8-1.7,2.2-2.9,2.5-4c0.6-1.9,1.3-2.8,4.8-2.8
				h46.3c3.3,0,4,0.9,4.2,2.8c0.1,1,0.3,2.3,2.1,4c0.4,0.4,0.4,1,0,1.4c-0.4,0.4-1,0.4-1.4,0c-2.3-2.2-2.5-4-2.7-5.2
				c-0.1-1-0.1-1.1-2.3-1.1H39.9c-2.5,0-2.6,0.3-2.9,1.5c-0.3,1.1-0.9,2.8-3.1,4.8C33.7,73.5,33.5,73.6,33.2,73.6z"/>
		</g>
		<g>
			<path class="st0" d="M73.3,14.6c-0.4,0-0.7,0-1.1-0.2c-2.1-0.6-3.4-2.8-3.3-5.6c0-1.1,0.3-2.3,0.8-3.5h-6.2v7.7c0,0.5-0.4,1-1,1
				s-1-0.4-1-1V4.4c0-0.5,0.4-1,1-1H71C72.3,1.9,74.2,0.7,77,0c0.5-0.1,1.1,0.2,1.2,0.7c0.1,0.5-0.2,1.1-0.7,1.2
				c-1.9,0.4-3.3,1.2-4.3,2.1c3.6,2.4,4.5,5.9,3.5,8.3C76.1,13.8,74.8,14.6,73.3,14.6z M71.9,5.6c-0.7,1.1-1,2.3-1,3.3
				c0,1.8,0.7,3.4,1.9,3.7c1.3,0.4,1.9-0.6,2.1-1C75.4,10.2,75,7.6,71.9,5.6z"/>
		</g>
	</g>
	<g>
		<path class="st0" d="M118.3,125H68.4c-4,0-7.9-1.6-10.7-4.4L4.2,67.2C1.5,64.4,0,60.8,0,56.9V5.2C0,2.3,2.3,0,5.2,0H17
			c0.5,0,1,0.4,1,1s-0.4,1-1,1H5.2C3.4,2,2,3.4,2,5.2v51.7c0,3.3,1.3,6.5,3.7,8.9L59,119.2c2.5,2.5,5.8,3.9,9.3,3.9h49.9
			c2.6,0,4.7-2.1,4.7-4.7V68.5c0-3.6-1.4-7-3.9-9.5l-12-12c-0.4-0.4-0.4-1,0-1.4c0.4-0.4,1-0.4,1.4,0l12,12
			c2.9,2.9,4.5,6.8,4.5,10.9v49.8C125,122,122,125,118.3,125z"/>
	</g>
</g>
</svg>
