<?xml version="1.0" encoding="utf-8"?>
<!-- Generator: Adobe Illustrator 16.0.0, SVG Export Plug-In . SVG Version: 6.00 Build 0)  -->
<!DOCTYPE svg PUBLIC "-//W3C//DTD SVG 1.1//EN" "http://www.w3.org/Graphics/SVG/1.1/DTD/svg11.dtd">
<svg version="1.1" id="Calque_1" xmlns="http://www.w3.org/2000/svg" xmlns:xlink="http://www.w3.org/1999/xlink" x="0px" y="0px"
	 width="1492.029px" height="283.465px" viewBox="0 0 1492.029 283.465" enable-background="new 0 0 1492.029 283.465"
	 xml:space="preserve">
<rect x="283.464" fill="#FFFFFF" width="1208.565" height="283.465"/>
<rect y="0" fill="#FFD400" width="283.464" height="283.466"/>
<g>
	<path d="M432.852,116.148c-6.149-7.5-15.449-12-24.898-12c-21.149,0-33.299,19.5-33.299,38.999c0,19.049,12.6,38.099,33.148,38.099
		c9.45,0,18.899-4.95,25.049-12v26.249c-8.249,3.9-16.499,6.75-25.648,6.75c-31.799,0-55.348-27.449-55.348-58.647
		c0-32.099,22.648-60.448,55.798-60.448c8.85,0,17.549,2.4,25.198,6.6V116.148z"/>
	<path d="M497.952,202.245c-34.498,0-55.947-26.399-55.947-59.697c0-33.599,22.199-59.398,55.947-59.398
		c33.749,0,55.948,25.799,55.948,59.398C553.9,175.845,532.451,202.245,497.952,202.245z M497.952,104.898
		c-20.849,0-33.148,18.449-33.148,36.749c0,17.399,8.699,38.849,33.148,38.849s33.148-21.449,33.148-38.849
		C531.101,123.348,518.802,104.898,497.952,104.898z"/>
	<path d="M564.704,83.149h15.899l59.548,79.046h0.3V86.149H662.5v115.345h-15.899l-59.547-79.047h-0.301v76.797h-22.049V83.149z"/>
	<path d="M731.8,111.048c-4.2-5.7-9.6-9.3-16.949-9.3c-7.05,0-13.8,5.4-13.8,12.75c0,19.049,44.849,11.099,44.849,49.048
		c0,22.648-14.1,38.698-37.199,38.698c-15.599,0-26.998-9-34.798-22.049l14.249-13.95c3,8.7,10.949,16.5,20.399,16.5
		c8.999,0,14.549-7.65,14.549-16.35c0-11.699-10.799-14.999-19.648-18.449c-14.55-6-25.199-13.35-25.199-30.899
		c0-18.749,13.949-33.898,32.999-33.898c10.049,0,23.998,4.95,30.898,12.6L731.8,111.048z"/>
	<path d="M794.198,199.245h-22.05v-93.896H749.35V86.149h67.647v19.199h-22.799V199.245z"/>
	<path d="M901.595,199.245h-26.699l-27.448-45.599h-0.301v45.599h-22.049V86.149h29.849c22.35,0,37.799,9.899,37.799,34.048
		c0,14.399-7.95,28.799-23.1,31.349L901.595,199.245z M847.146,138.197h2.851c12.149,0,20.699-3.6,20.699-17.399
		c0-13.95-8.85-16.649-20.55-16.649h-3V138.197z"/>
	<path d="M908.198,86.149h22.049v63.297c0,13.949,1.2,33.599,19.949,33.599s19.949-19.649,19.949-33.599V86.149h22.049v67.647
		c0,27.599-11.699,48.448-41.998,48.448s-41.998-20.85-41.998-48.448V86.149z"/>
	<path d="M1083.393,116.148c-6.149-7.5-15.449-12-24.898-12c-21.149,0-33.299,19.5-33.299,38.999
		c0,19.049,12.6,38.099,33.148,38.099c9.45,0,18.899-4.95,25.049-12v26.249c-8.249,3.9-16.499,6.75-25.648,6.75
		c-31.799,0-55.348-27.449-55.348-58.647c0-32.099,22.648-60.448,55.798-60.448c8.85,0,17.549,2.4,25.198,6.6V116.148z"/>
	<path d="M1134.694,199.245h-22.05v-93.896h-22.799V86.149h67.647v19.199h-22.799V199.245z"/>
	<path d="M1187.643,199.245h-22.049V86.149h22.049V199.245z"/>
	<path d="M1254.241,202.245c-34.498,0-55.947-26.399-55.947-59.697c0-33.599,22.199-59.398,55.947-59.398
		c33.749,0,55.948,25.799,55.948,59.398C1310.189,175.845,1288.74,202.245,1254.241,202.245z M1254.241,104.898
		c-20.849,0-33.148,18.449-33.148,36.749c0,17.399,8.699,38.849,33.148,38.849s33.148-21.449,33.148-38.849
		C1287.39,123.348,1275.091,104.898,1254.241,104.898z"/>
	<path d="M1320.993,83.149h15.899l59.548,79.046h0.3V86.149h22.049v115.345h-15.899l-59.547-79.047h-0.301v76.797h-22.049V83.149z"
		/>
</g>
<g>

		<rect x="33.847" y="53.024" fill="#777777" stroke="#4C4C4C" stroke-width="3.44" stroke-linecap="round" stroke-linejoin="round" stroke-miterlimit="10" width="104.758" height="36.031"/>

		<rect x="93.229" y="99.876" fill="#777777" stroke="#4C4C4C" stroke-width="3.44" stroke-linecap="round" stroke-linejoin="round" stroke-miterlimit="10" width="104.758" height="35.991"/>

		<rect x="33.847" y="194.41" fill="#BCBCBC" stroke="#4C4C4C" stroke-width="3.44" stroke-linecap="round" stroke-linejoin="round" stroke-miterlimit="10" width="48.189" height="36.03"/>

		<rect x="33.847" y="99.856" fill="#BCBCBC" stroke="#4C4C4C" stroke-width="3.44" stroke-linecap="round" stroke-linejoin="round" stroke-miterlimit="10" width="48.189" height="36.031"/>

		<rect x="207.098" y="194.41" fill="#BCBCBC" stroke="#4C4C4C" stroke-width="3.44" stroke-linecap="round" stroke-linejoin="round" stroke-miterlimit="10" width="42.52" height="36.03"/>

		<rect x="33.847" y="147.028" fill="#777777" stroke="#4C4C4C" stroke-width="3.44" stroke-linecap="round" stroke-linejoin="round" stroke-miterlimit="10" width="102.047" height="36.031"/>

		<rect x="147.57" y="147.028" fill="#BCBCBC" stroke="#4C4C4C" stroke-width="3.44" stroke-linecap="round" stroke-linejoin="round" stroke-miterlimit="10" width="102.047" height="36.031"/>

		<rect x="93.46" y="194.43" fill="#777777" stroke="#4C4C4C" stroke-width="3.44" stroke-linecap="round" stroke-linejoin="round" stroke-miterlimit="10" width="102.047" height="35.99"/>
</g>
</svg>
