<?xml version="1.0" encoding="utf-8"?>
<!-- Generator: Adobe Illustrator 16.0.0, SVG Export Plug-In . SVG Version: 6.00 Build 0)  -->
<!DOCTYPE svg PUBLIC "-//W3C//DTD SVG 1.1//EN" "http://www.w3.org/Graphics/SVG/1.1/DTD/svg11.dtd">
<svg version="1.1" id="Calque_1" xmlns="http://www.w3.org/2000/svg" xmlns:xlink="http://www.w3.org/1999/xlink" x="0px" y="0px"
	 width="300px" height="220px" viewBox="0 0 300 220" enable-background="new 0 0 300 220" xml:space="preserve">
<g>
	<g>
		<g>
			<rect x="-544.938" y="-260.573" fill="#606060" width="21.647" height="57.861"/>
		</g>
		<path fill="#1E1E1E" d="M-401.741-239.134c0,4.139-3.354,7.493-7.493,7.493h-249.763c-4.138,0-7.492-3.354-7.492-7.493v-172.962
			c0-4.137,3.354-7.492,7.492-7.492h249.763c4.14,0,7.493,3.355,7.493,7.492V-239.134z"/>
		<rect x="-654.761" y="-406.891" fill="#049775" width="241.293" height="153.604"/>
		<path fill="#EAEAEA" d="M-523.292-242.463c0,2.298-1.864,4.162-4.162,4.162h-13.321c-2.299,0-4.164-1.864-4.164-4.162l0,0
			c0-2.301,1.864-4.164,4.164-4.164h13.321C-525.156-246.627-523.292-244.764-523.292-242.463L-523.292-242.463z"/>
		<circle fill="#EAEAEA" cx="-481.508" cy="-242.561" r="2.629"/>
		<circle fill="#EAEAEA" cx="-471.193" cy="-242.561" r="2.629"/>
		<circle fill="#EAEAEA" cx="-460.879" cy="-242.561" r="2.629"/>
		<path fill="#1E1E1E" d="M-499.981-202.711c0,1.725-1.2,3.123-2.681,3.123h-62.906c-1.482,0-2.682-1.398-2.682-3.123l0,0
			c0-1.725,1.2-3.122,2.682-3.122h62.906C-501.181-205.833-499.981-204.436-499.981-202.711L-499.981-202.711z"/>
		<rect x="-654.761" y="-406.891" fill="#EAEAEA" width="241.293" height="7.7"/>
		
			<rect x="-429.014" y="-404.629" fill="none" stroke="#1E1E1E" stroke-width="0.2817" stroke-miterlimit="10" width="2.616" height="2.616"/>
		
			<line fill="none" stroke="#1E1E1E" stroke-width="0.6303" stroke-miterlimit="10" x1="-438.035" y1="-403.041" x2="-434.834" y2="-403.041"/>
		
			<line fill="none" stroke="#1E1E1E" stroke-width="0.6303" stroke-miterlimit="10" x1="-420.59" y1="-404.173" x2="-418.327" y2="-401.911"/>
		
			<line fill="none" stroke="#1E1E1E" stroke-width="0.6303" stroke-miterlimit="10" x1="-420.59" y1="-401.911" x2="-418.327" y2="-404.173"/>
		
			<rect x="-429.572" y="-404.07" fill="#E2E2E2" stroke="#1E1E1E" stroke-width="0.2817" stroke-miterlimit="10" width="2.614" height="2.616"/>
		<rect x="-649.552" y="-404.907" fill="#FFFFFF" width="204.102" height="3.731"/>
		<rect x="-654.761" y="-399.191" fill="#007055" width="74.024" height="145.904"/>
		<g>
			
				<line fill="none" stroke="#007055" stroke-width="1.4059" stroke-miterlimit="10" x1="-529.768" y1="-359.81" x2="-434.834" y2="-359.81"/>
			
				<line fill="none" stroke="#007055" stroke-width="1.4059" stroke-miterlimit="10" x1="-529.768" y1="-353.872" x2="-434.834" y2="-353.872"/>
			
				<line fill="none" stroke="#007055" stroke-width="1.4059" stroke-miterlimit="10" x1="-529.768" y1="-347.93" x2="-434.834" y2="-347.93"/>
			
				<line fill="none" stroke="#007055" stroke-width="1.4059" stroke-miterlimit="10" x1="-529.768" y1="-341.989" x2="-434.834" y2="-341.989"/>
			
				<line fill="none" stroke="#007055" stroke-width="1.4059" stroke-miterlimit="10" x1="-529.768" y1="-336.049" x2="-434.834" y2="-336.049"/>
			
				<line fill="none" stroke="#007055" stroke-width="1.4059" stroke-miterlimit="10" x1="-529.768" y1="-330.108" x2="-434.834" y2="-330.108"/>
			
				<line fill="none" stroke="#007055" stroke-width="1.4059" stroke-miterlimit="10" x1="-567.825" y1="-318.188" x2="-538.231" y2="-318.188"/>
			
				<line fill="none" stroke="#007055" stroke-width="1.4059" stroke-miterlimit="10" x1="-567.825" y1="-312.249" x2="-538.231" y2="-312.249"/>
			
				<line fill="none" stroke="#007055" stroke-width="1.4059" stroke-miterlimit="10" x1="-567.825" y1="-306.31" x2="-538.231" y2="-306.31"/>
			
				<line fill="none" stroke="#007055" stroke-width="1.4059" stroke-miterlimit="10" x1="-567.825" y1="-300.368" x2="-538.231" y2="-300.368"/>
		</g>
		<rect x="-567.825" y="-359.81" fill="#007055" width="29.701" height="29.702"/>
		<rect x="-529.926" y="-324.129" fill="#007055" width="95.092" height="29.703"/>
		<rect x="-654.761" y="-267.545" fill="#F26F21" width="241.293" height="14.259"/>
		
			<line fill="none" stroke="#007055" stroke-width="1.2607" stroke-miterlimit="10" x1="-473.071" y1="-262.446" x2="-434.834" y2="-262.446"/>
		
			<line fill="none" stroke="#007055" stroke-width="1.2607" stroke-miterlimit="10" x1="-473.071" y1="-258.778" x2="-434.834" y2="-258.778"/>
		<circle fill="#EAEAEA" cx="-617.75" cy="-366.513" r="12.8"/>
		
			<line fill="none" stroke="#EAEAEA" stroke-width="1.2607" stroke-miterlimit="10" x1="-640.663" y1="-339" x2="-594.835" y2="-339"/>
		
			<line fill="none" stroke="#EAEAEA" stroke-width="1.2607" stroke-miterlimit="10" x1="-640.663" y1="-333.059" x2="-594.835" y2="-333.059"/>
		
			<line fill="none" stroke="#EAEAEA" stroke-width="1.2607" stroke-miterlimit="10" x1="-640.663" y1="-327.118" x2="-594.835" y2="-327.118"/>
		
			<line fill="none" stroke="#EAEAEA" stroke-width="1.2607" stroke-miterlimit="10" x1="-640.663" y1="-321.179" x2="-594.835" y2="-321.179"/>
		
			<line fill="none" stroke="#EAEAEA" stroke-width="1.2607" stroke-miterlimit="10" x1="-640.663" y1="-315.241" x2="-594.835" y2="-315.241"/>
		
			<line fill="none" stroke="#EAEAEA" stroke-width="1.2607" stroke-miterlimit="10" x1="-640.663" y1="-309.299" x2="-594.835" y2="-309.299"/>
		
			<line fill="none" stroke="#EAEAEA" stroke-width="1.2607" stroke-miterlimit="10" x1="-640.663" y1="-303.358" x2="-594.835" y2="-303.358"/>
		
			<line fill="none" stroke="#EAEAEA" stroke-width="1.2607" stroke-miterlimit="10" x1="-640.663" y1="-297.42" x2="-594.835" y2="-297.42"/>
		<polygon opacity="0.15" fill="#FFFFFF" points="-654.761,-406.891 -413.468,-253.287 -413.468,-406.891 		"/>
	</g>
	<g>
		<path fill="#1E1E1E" d="M-448.891-200.042c-1.375,0-3.115-1.579-3.115-3.532v-117.743c0-1.948,1.74-3.532,3.115-3.532h56.213
			c1.375,0,3.113,1.584,3.113,3.532v117.743c0,1.953-1.738,3.532-3.113,3.532H-448.891z"/>
		<rect x="-447.3" y="-318.045" fill="#EAEAEA" width="52.813" height="3.629"/>
		
			<rect x="-399.47" y="-316.784" fill="none" stroke="#1E1E1E" stroke-width="0.0977" stroke-miterlimit="10" width="0.907" height="0.909"/>
		
			<line fill="none" stroke="#1E1E1E" stroke-width="0.2185" stroke-miterlimit="10" x1="-402.598" y1="-316.231" x2="-401.487" y2="-316.231"/>
		
			<line fill="none" stroke="#1E1E1E" stroke-width="0.2185" stroke-miterlimit="10" x1="-396.549" y1="-316.623" x2="-395.764" y2="-315.839"/>
		
			<line fill="none" stroke="#1E1E1E" stroke-width="0.2185" stroke-miterlimit="10" x1="-396.549" y1="-315.839" x2="-395.764" y2="-316.623"/>
		
			<rect x="-399.664" y="-316.589" fill="#E2E2E2" stroke="#1E1E1E" stroke-width="0.0977" stroke-miterlimit="10" width="0.908" height="0.909"/>
		<rect x="-446.161" y="-317.111" fill="#FFFFFF" width="40.421" height="1.759"/>
		<rect x="-447.3" y="-314.417" fill="#007055" width="52.813" height="61.129"/>
		<rect x="-447.3" y="-254.348" fill="#049775" width="52.813" height="35.371"/>
		<g>
			
				<line fill="none" stroke="#007055" stroke-width="0.5069" stroke-miterlimit="10" x1="-425.95" y1="-248.709" x2="-399.774" y2="-248.709"/>
			
				<line fill="none" stroke="#007055" stroke-width="0.5069" stroke-miterlimit="10" x1="-425.95" y1="-245.909" x2="-399.774" y2="-245.909"/>
			
				<line fill="none" stroke="#007055" stroke-width="0.5069" stroke-miterlimit="10" x1="-425.95" y1="-243.11" x2="-399.774" y2="-243.11"/>
			
				<line fill="none" stroke="#007055" stroke-width="0.5069" stroke-miterlimit="10" x1="-425.95" y1="-240.305" x2="-399.774" y2="-240.305"/>
			
				<line fill="none" stroke="#007055" stroke-width="0.5069" stroke-miterlimit="10" x1="-425.95" y1="-237.508" x2="-399.774" y2="-237.508"/>
			
				<line fill="none" stroke="#007055" stroke-width="0.5069" stroke-miterlimit="10" x1="-425.95" y1="-234.708" x2="-399.774" y2="-234.708"/>
		</g>
		<rect x="-442.15" y="-248.709" fill="#007055" width="14" height="14.002"/>
		<rect x="-425.95" y="-231.883" fill="#007055" width="26.176" height="8.402"/>
		<rect x="-447.3" y="-218.977" fill="#F26F21" width="52.813" height="6.724"/>
		<path fill="#EAEAEA" d="M-427.476-299.364c0-3.693,2.995-6.689,6.691-6.689s6.69,2.996,6.69,6.689c0,3.697-2.994,6.693-6.69,6.693
			S-427.476-295.667-427.476-299.364z"/>
		
			<line fill="none" stroke="#EAEAEA" stroke-width="0.659" stroke-miterlimit="10" x1="-432.764" y1="-284.981" x2="-408.807" y2="-284.981"/>
		
			<line fill="none" stroke="#EAEAEA" stroke-width="0.659" stroke-miterlimit="10" x1="-432.764" y1="-281.877" x2="-408.807" y2="-281.877"/>
		
			<line fill="none" stroke="#EAEAEA" stroke-width="0.659" stroke-miterlimit="10" x1="-432.764" y1="-278.77" x2="-408.807" y2="-278.77"/>
		
			<line fill="none" stroke="#EAEAEA" stroke-width="0.659" stroke-miterlimit="10" x1="-432.764" y1="-275.665" x2="-408.807" y2="-275.665"/>
		
			<line fill="none" stroke="#EAEAEA" stroke-width="0.659" stroke-miterlimit="10" x1="-432.764" y1="-272.559" x2="-408.807" y2="-272.559"/>
		
			<line fill="none" stroke="#EAEAEA" stroke-width="0.659" stroke-miterlimit="10" x1="-432.764" y1="-269.456" x2="-408.807" y2="-269.456"/>
		
			<line fill="none" stroke="#EAEAEA" stroke-width="0.659" stroke-miterlimit="10" x1="-432.764" y1="-266.351" x2="-408.807" y2="-266.351"/>
		
			<line fill="none" stroke="#EAEAEA" stroke-width="0.659" stroke-miterlimit="10" x1="-432.764" y1="-263.245" x2="-408.807" y2="-263.245"/>
		
			<line fill="none" stroke="#007055" stroke-width="0.6628" stroke-miterlimit="10" x1="-442.126" y1="-231.883" x2="-428.175" y2="-231.883"/>
		
			<line fill="none" stroke="#007055" stroke-width="0.6628" stroke-miterlimit="10" x1="-442.126" y1="-229.083" x2="-428.175" y2="-229.083"/>
		
			<line fill="none" stroke="#007055" stroke-width="0.6628" stroke-miterlimit="10" x1="-442.126" y1="-226.284" x2="-428.175" y2="-226.284"/>
		
			<line fill="none" stroke="#007055" stroke-width="0.6628" stroke-miterlimit="10" x1="-442.126" y1="-223.481" x2="-428.175" y2="-223.481"/>
		<circle fill="#EAEAEA" cx="-420.786" cy="-206.293" r="2.629"/>
		<circle fill="#EAEAEA" cx="-420.785" cy="-321.443" r="0.997"/>
		<circle fill="#EAEAEA" cx="-418.073" cy="-321.443" r="0.431"/>
		<polygon opacity="0.15" fill="#FFFFFF" points="-447.3,-318.045 -394.488,-212.253 -394.488,-318.045 		"/>
	</g>
</g>
<g>
	<polygon fill="#303030" points="-748.021,-381.82 -896.158,-470.181 -1044.303,-381.82 -1046.159,-383.19 -1046.159,-380.718 
		-896.158,-269.916 -746.159,-380.718 -746.159,-383.194 	"/>
	<polygon points="-896.158,-272.404 -1046.159,-383.19 -896.158,-472.669 -746.159,-383.194 	"/>
	<polygon opacity="0.15" fill="#FFFFFF" points="-753.771,-375.101 -746.159,-380.718 -746.159,-383.194 -879.364,-462.645 
		-947.405,-426.557 -810.991,-335.306 -810.991,-332.824 	"/>
	<polygon fill="#EC1C24" points="-758.103,-402.472 -896.158,-480.574 -1034.216,-402.472 -1036.273,-403.955 -1036.273,-401.316 
		-896.158,-300.704 -756.041,-401.316 -756.041,-403.955 	"/>
	<polygon fill="#F26F21" points="-896.158,-303.355 -1036.273,-403.955 -896.158,-483.224 -756.041,-403.955 	"/>
	<polygon opacity="0.15" fill="#FFFFFF" points="-763.662,-395.832 -756.041,-401.316 -756.041,-403.943 -896.158,-483.224 
		-957.291,-448.64 -820.868,-357.391 -820.868,-354.803 	"/>
	<g opacity="0.5">
		<polygon points="-896.158,-329.499 -1018.577,-413.957 -896.158,-483.224 -773.751,-413.953 		"/>
	</g>
	<polygon fill="#007055" points="-769.555,-421.136 -896.158,-487.476 -1022.764,-421.136 -1024.762,-422.509 -1024.762,-420.083 
		-896.158,-331.353 -767.556,-420.083 -767.556,-422.509 	"/>
	<g>
		<polygon fill="#049775" points="-896.158,-333.786 -1024.762,-422.509 -896.158,-489.916 -767.556,-422.509 		"/>
	</g>
	<g>
		<path fill="#00543E" d="M-855.38-389.773c-0.352-0.092-0.619,0.129-0.594,0.492l0.058,0.817c0.025,0.363-0.241,0.583-0.593,0.489
			l-10.721-2.86c-0.352-0.094-0.707-0.46-0.79-0.814l-2.693-7.215c-0.163-0.325-0.034-0.731,0.286-0.903l7.422-3.977
			c0.32-0.172,0.845-0.455,1.164-0.628l0.21-0.114c0.319-0.174,0.581-0.613,0.581-0.977v-0.781c0-0.364-0.212-0.87-0.472-1.125
			l-0.316-0.311c-0.26-0.255-0.564-0.181-0.678,0.165l-0.107,0.329c-0.113,0.346-0.418,0.419-0.676,0.163l-4.187-4.146
			c-0.258-0.256-0.754-0.378-1.102-0.271l-10.476,3.216c-0.348,0.106-0.89,0.045-1.204-0.137l-9.61-4.735
			c-0.336-0.139-0.598-0.55-0.58-0.913l0.367-7.829c0.018-0.363-0.261-0.716-0.618-0.784l-10.072-1.913
			c-0.357-0.068-0.757,0.154-0.889,0.493l-2.854,7.374c-0.131,0.339-0.536,0.62-0.9,0.624l-10.799,0.84
			c-0.36,0.052-0.886-0.094-1.168-0.323l-8.343-6.772c-0.282-0.229-0.788-0.303-1.125-0.165l-6.363,2.629
			c-0.336,0.139-0.611-0.045-0.611-0.409v-0.775c0-0.364-0.276-0.55-0.613-0.414l-0.34,0.137c-0.337,0.136-0.613,0.544-0.613,0.908
			v0.775c0,0.364,0.188,0.891,0.419,1.173l6.192,7.557c0.23,0.282,0.192,0.704-0.086,0.939l-5.443,5.706
			c-0.217,0.292-0.69,0.496-1.051,0.454l-12.364-1.451c-0.361-0.042-0.719,0.214-0.794,0.57l-0.767,3.607
			c-0.075,0.356-0.21,0.524-0.3,0.375s-0.212-0.039-0.272,0.246c-0.061,0.285-0.11,0.815-0.11,1.179v0.771
			c0,0.364,0.288,0.737,0.639,0.831l11.996,3.186c0.352,0.094,0.707,0.46,0.789,0.814l2.693,7.216
			c0.164,0.325,0.036,0.731-0.284,0.903l-6.991,3.758c-0.32,0.172-0.672,0.029-0.783-0.317l-0.171-0.539
			c-0.11-0.347-0.461-0.487-0.78-0.312l-0.081,0.044c-0.319,0.175-0.58,0.616-0.58,0.98v0.771c0,0.364,0.205,0.799,0.455,0.967
			s0.7,0.474,1,0.68l4.909,3.371c0.3,0.206,0.83,0.286,1.177,0.18l10.474-3.219c0.348-0.107,0.89-0.045,1.205,0.137l9.612,4.737
			c0.336,0.139,0.598,0.549,0.581,0.912l-0.362,7.838c-0.017,0.363,0.262,0.716,0.619,0.783l10.064,1.914
			c0.357,0.067,0.757-0.154,0.888-0.494l2.852-7.373c0.131-0.34,0.536-0.621,0.899-0.625l10.8-0.84
			c0.359-0.052,0.886,0.094,1.168,0.323l8.339,6.767c0.282,0.229,0.789,0.304,1.125,0.166l7.934-3.259
			c0.336-0.138,0.423-0.481,0.192-0.763l-6.179-7.557c-0.23-0.281-0.192-0.704,0.085-0.939l5.438-5.713
			c0.217-0.292,0.69-0.496,1.051-0.453l12.363,1.46c0.361,0.043,0.741-0.208,0.843-0.557l1.209-4.124
			c0.102-0.349,0.186-0.932,0.186-1.296v-0.778c0-0.364-0.288-0.736-0.64-0.829L-855.38-389.773z M-897.113-387.548
			c-3.788,1.574-9.167,0.547-12.027-2.275c-2.856-2.827-2.106-6.381,1.679-7.937c3.787-1.554,9.173-0.544,12.033,2.294
			C-892.577-392.651-893.331-389.089-897.113-387.548z"/>
	</g>
	<g>
		<g>
			<path fill="#007055" d="M-861.894-406.452c0.464-0.25,0.537-0.757,0.162-1.128l-5.542-5.476
				c-0.375-0.371-1.094-0.547-1.598-0.392l-9.907,3.045c-0.504,0.155-1.289,0.066-1.746-0.198l-9.077-4.473
				c-0.488-0.201-0.866-0.795-0.842-1.322l0.34-7.248c0.024-0.527-0.379-1.038-0.896-1.136l-9.488-1.803
				c-0.518-0.098-1.097,0.224-1.287,0.715l-2.64,6.821c-0.19,0.492-0.777,0.899-1.304,0.905l-10.208,0.793
				c-0.522,0.075-1.284-0.136-1.693-0.468l-7.881-6.396c-0.409-0.332-1.143-0.44-1.63-0.239l-7.38,3.036
				c-0.487,0.201-0.613,0.698-0.278,1.106l5.814,7.092c0.334,0.408,0.279,1.02-0.124,1.361l-5.039,5.284
				c-0.315,0.423-1,0.718-1.524,0.656l-11.774-1.387c-0.523-0.062-1.041,0.31-1.15,0.825l-1.19,5.62
				c-0.109,0.516,0.219,1.048,0.728,1.184l11.421,3.036c0.509,0.135,1.024,0.666,1.144,1.18l2.492,6.663
				c0.237,0.47,0.052,1.06-0.413,1.309l-8.279,4.447c-0.464,0.25-0.538,0.757-0.163,1.127l5.544,5.477
				c0.375,0.371,1.094,0.547,1.598,0.393l9.906-3.044c0.504-0.155,1.29-0.066,1.746,0.198l9.08,4.476
				c0.487,0.201,0.866,0.796,0.842,1.322l-0.334,7.244c-0.024,0.526,0.379,1.037,0.897,1.136l9.481,1.803
				c0.518,0.099,1.097-0.224,1.287-0.715l2.637-6.82c0.19-0.491,0.777-0.898,1.304-0.905l10.208-0.794
				c0.522-0.074,1.284,0.136,1.693,0.468l7.878,6.394c0.409,0.332,1.144,0.439,1.631,0.239l7.383-3.032
				c0.487-0.2,0.613-0.698,0.28-1.106l-5.804-7.096c-0.333-0.408-0.277-1.021,0.124-1.362l5.034-5.283
				c0.314-0.423,1-0.718,1.523-0.657l11.772,1.391c0.523,0.062,1.041-0.31,1.149-0.826l1.186-5.618
				c0.108-0.516-0.22-1.049-0.729-1.184l-11.414-3.032c-0.509-0.135-1.024-0.666-1.145-1.179l-2.492-6.663
				c-0.236-0.471-0.051-1.061,0.413-1.31L-861.894-406.452z M-897.113-389.633c-3.788,1.558-9.167,0.54-12.027-2.292
				c-2.856-2.821-2.106-6.383,1.679-7.93c3.787-1.563,9.173-0.538,12.033,2.287C-892.577-394.747-893.331-391.183-897.113-389.633z"
				/>
		</g>
	</g>
	<g>
		<path fill="#00543E" d="M-857.097-450.093c-0.119-0.307-0.36-0.418-0.537-0.247c-0.176,0.171-0.428,0.033-0.559-0.306
			l-0.634-1.642c-0.131-0.339-0.536-0.614-0.899-0.611l-8.576,0.079c-0.363,0.003-0.832-0.238-1.041-0.536l-4.74-5.251
			c-0.254-0.261-0.316-0.734-0.14-1.052l3.391-6.098c0.177-0.318,0.027-0.627-0.331-0.688l-5.975-1.002
			c-0.358-0.06-0.882,0.08-1.162,0.312l-4.882,4.037c-0.28,0.232-0.799,0.35-1.152,0.263l-7.798-1.443
			c-0.36-0.043-0.799-0.34-0.973-0.66l-2.98-5.476c-0.174-0.32-0.608-0.64-0.965-0.711l-6.821-1.37
			c-0.356-0.072-0.599,0.163-0.539,0.522l1.319,7.826c0.061,0.359-0.173,0.745-0.519,0.858l-6.054,2.551
			c-0.322,0.169-0.863,0.198-1.201,0.064l-7.934-3.134c-0.338-0.133-0.879-0.105-1.202,0.063l-3.032,1.581
			c-0.323,0.168-0.34,0.472-0.038,0.675l6.999,4.714c0.302,0.204,0.435,0.645,0.295,0.981l-0.889,4.04
			c-0.024,0.363-0.337,0.708-0.696,0.768l-8.041,1.332c-0.359,0.059-0.561,0.391-0.449,0.737l1.774,5.485
			c0.112,0.346,0.501,0.626,0.865,0.624l8.58-0.079c0.364-0.003,0.823,0.244,1.02,0.55l4.787,5.622
			c0.242,0.271,0.27,0.737,0.062,1.036l-1.889,2.701c-0.208,0.298-0.536,0.289-0.728-0.02l-0.062-0.101
			c-0.192-0.309-0.492-0.358-0.667-0.108s-0.319,0.751-0.319,1.115v0.991c0,0.364,0.268,0.791,0.595,0.95l6.088,2.951
			c0.328,0.159,0.825,0.099,1.105-0.133l4.888-4.044c0.28-0.232,0.799-0.35,1.151-0.262l7.793,1.438
			c0.36,0.043,0.799,0.34,0.973,0.659l2.996,5.489c0.174,0.319,0.613,0.555,0.976,0.524l5.055-0.43
			c0.362-0.031,0.956-0.082,1.318-0.113l0.413-0.036c0.362-0.031,0.659-0.354,0.659-0.718v-0.982c0-0.364-0.063-0.952-0.142-1.307
			l-0.048-0.214c-0.078-0.355-0.237-0.548-0.354-0.429s-0.278-0.074-0.358-0.428l-0.485-2.153c-0.08-0.354,0.138-0.738,0.482-0.851
			l6.06-2.542c0.322-0.169,0.863-0.198,1.201-0.065l7.939,3.124c0.338,0.133,0.818,0.024,1.066-0.242l3.287-3.529
			c0.248-0.266,0.451-0.781,0.451-1.145v-0.982c0-0.364-0.257-0.812-0.57-0.996l-0.376-0.221c-0.313-0.184-0.616-0.041-0.672,0.318
			l-0.124,0.802c-0.056,0.359-0.358,0.503-0.672,0.319l-5.108-2.998c-0.313-0.184-0.491-0.622-0.395-0.972l0.989-5.641
			c0.017-0.363,0.322-0.719,0.679-0.791l6.136-1.228c0.356-0.071,0.941-0.184,1.299-0.25l0.458-0.084
			c0.357-0.066,0.683-0.369,0.722-0.673S-856.979-449.786-857.097-450.093z M-886.025-445.667c-1.728,1.854-5.574,2.18-8.58,0.73
			c-3.014-1.473-4.044-4.154-2.307-6.002c1.73-1.87,5.577-2.193,8.581-0.736C-885.315-450.217-884.284-447.523-886.025-445.667z"/>
	</g>
	<g>
		<g>
			<path fill="#007055" d="M-870.913-465.758c0.222-0.317,0.118-0.713-0.229-0.881l-6.016-2.912
				c-0.348-0.168-0.876-0.104-1.173,0.141l-4.819,3.978c-0.297,0.246-0.848,0.371-1.223,0.279l-7.718-1.428
				c-0.384-0.047-0.849-0.363-1.033-0.702l-2.941-5.395c-0.185-0.339-0.65-0.59-1.035-0.558l-6.719,0.556
				c-0.385,0.032-0.63,0.366-0.545,0.743l1.229,5.446c0.085,0.377-0.146,0.783-0.512,0.904l-5.978,2.513
				c-0.343,0.178-0.917,0.208-1.277,0.067l-7.857-3.079c-0.36-0.141-0.87-0.026-1.134,0.256l-3.245,3.465
				c-0.264,0.282-0.208,0.672,0.125,0.868l6.885,4.05c0.333,0.196,0.503,0.655,0.378,1.021l-0.921,4.636
				c-0.021,0.386-0.35,0.752-0.731,0.815l-7.959,1.313c-0.381,0.063-0.58,0.409-0.44,0.77l1.676,4.355
				c0.139,0.36,0.568,0.653,0.955,0.649l8.498-0.068c0.386-0.003,0.907,0.234,1.158,0.528l4.589,4.454
				c0.297,0.247,0.36,0.707,0.139,1.023l-3.238,4.627c-0.222,0.316-0.118,0.713,0.229,0.881l6.014,2.906
				c0.348,0.168,0.876,0.105,1.174-0.141l4.823-3.973c0.298-0.246,0.849-0.371,1.224-0.279l7.712,1.429
				c0.384,0.047,0.85,0.362,1.035,0.701l2.953,5.39c0.186,0.339,0.652,0.59,1.037,0.558l6.705-0.555
				c0.386-0.032,0.631-0.366,0.546-0.743l-1.225-5.442c-0.085-0.377,0.146-0.783,0.513-0.904l5.983-2.513
				c0.343-0.177,0.917-0.208,1.276-0.067l7.863,3.08c0.359,0.141,0.869,0.025,1.133-0.257l3.23-3.462
				c0.264-0.282,0.207-0.673-0.126-0.869l-6.882-4.05c-0.333-0.196-0.517-0.659-0.407-1.029l0.963-4.629
				c0.019-0.386,0.346-0.752,0.727-0.815l7.949-1.313c0.381-0.063,0.579-0.409,0.44-0.77l-1.679-4.355
				c-0.139-0.36-0.568-0.653-0.954-0.65l-8.494,0.067c-0.386,0.003-0.907-0.235-1.158-0.528l-4.585-4.455
				c-0.297-0.247-0.359-0.707-0.138-1.024L-870.913-465.758z M-886.025-446.906c-1.728,1.864-5.574,2.18-8.58,0.736
				c-3.014-1.466-4.044-4.162-2.307-6.006c1.73-1.866,5.577-2.184,8.581-0.738C-885.315-451.45-884.284-448.753-886.025-446.906z"/>
		</g>
	</g>
	<polygon opacity="0.15" fill="#FFFFFF" points="-775.21,-414.791 -767.556,-420.083 -767.556,-422.509 -896.158,-489.916 
		-957.291,-457.875 -832.375,-377.789 -832.375,-375.351 	"/>
</g>
<g>
	<path fill="#EAEAEA" d="M190.545,102.449c0-25.813-20.928-46.744-46.744-46.744c-25.813,0-46.742,20.932-46.742,46.744
		c0,12.961,5.275,24.688,13.799,33.156h-0.005c7.092,6.93,11.584,17.203,11.584,27.727h42.729c0-10.523,4.379-20.385,11.586-27.727
		h-0.004C185.268,127.137,190.545,115.41,190.545,102.449z"/>
	<path fill="none" stroke="#BFBFBF" stroke-linecap="round" stroke-linejoin="round" stroke-miterlimit="10" d="M155.826,113.854
		c1.844-2.51,0.09-5.279-2.588-5.246c1.254-2.164-0.168-4.361-2.842-3.955c-0.101-3.078-2.846-4.203-5.248-2.168
		c-0.439-2.465-3.747-3.355-5.417-0.846c-1.657-1.223-4.164,0.307-3.791,2.404c-1.422-0.068-3.218,1.455-2.405,3.928
		c-2.142,0.066-3.589,3.791-2.316,5.883c1.339,2.254,1.362,14.152,0.617,19.842c-0.632,4.83-0.732,10.709-0.162,14.699
		c0.618,4.285,1.366,9.715,0.804,14.938"/>
	<path fill="none" stroke="#BFBFBF" stroke-linecap="round" stroke-linejoin="round" stroke-miterlimit="10" d="M133.536,107.971
		c2.134-0.141,3.561,0.621,4.625,2.75C135.731,110.986,133.943,109.516,133.536,107.971z"/>
	<path fill="none" stroke="#BFBFBF" stroke-linecap="round" stroke-linejoin="round" stroke-miterlimit="10" d="M136.033,104.082
		c2.117,0.301,3.281,1.344,3.885,3.639C137.487,107.482,136.113,105.68,136.033,104.082z"/>
	<path fill="none" stroke="#BFBFBF" stroke-linecap="round" stroke-linejoin="round" stroke-miterlimit="10" d="M139.731,101.639
		c1.28,0.949,1.555,1.721,1.366,4.162C139.507,104.197,139.455,103.256,139.731,101.639z"/>
	<path fill="none" stroke="#BFBFBF" stroke-linecap="round" stroke-linejoin="round" stroke-miterlimit="10" d="M153.238,108.607
		c-2.134-0.135-3.574,0.545-4.638,2.672C151.028,111.541,152.83,110.164,153.238,108.607z"/>
	<path fill="none" stroke="#BFBFBF" stroke-linecap="round" stroke-linejoin="round" stroke-miterlimit="10" d="M150.396,104.652
		c-2.115,0.305-3.324,1.234-3.928,3.533C148.9,107.949,150.316,106.254,150.396,104.652z"/>
	<path fill="none" stroke="#BFBFBF" stroke-linecap="round" stroke-linejoin="round" stroke-miterlimit="10" d="M145.148,102.484
		c-1.363,1.361-2.198,2.705-2.01,5.146C145.165,106.094,145.425,104.102,145.148,102.484z"/>
	<path fill="none" stroke="#BFBFBF" stroke-linecap="round" stroke-linejoin="round" stroke-miterlimit="10" d="M155.809,113.838
		c-1.342,2.254-1.363,14.154-0.619,19.842c0.633,4.83,0.736,10.709,0.162,14.699c-0.613,4.285-1.363,9.715-0.805,14.938"/>
	<path fill="none" stroke="#000000" stroke-miterlimit="10" d="M99.422,87.738"/>
	<path fill="none" stroke="#000000" stroke-miterlimit="10" d="M98.747,90.689"/>
	<path opacity="0.35" fill="#FFFFFF" d="M188.459,82.973c0,13.996-20.057,25.342-44.791,25.342
		c-24.74,0-44.792-11.346-44.792-25.342"/>
	<path fill="#049775" d="M188.154,87.666c-22.791-5.465-65.744-5.354-88.732,0.072l0,0c-4.159-10.758-0.605-21.75,8.718-22.713
		c-1.122-8.035,2.09-13.848,8.193-14.139c-0.481-9.799,9.317-12.369,14.411-8.354c2.136-8.352,16.942-9.479,18.84,3.053
		c3.654-7.709,20.24-5.621,18.795,7.875c10.117-2.416,15.742,6.1,10.281,13.971C190.545,68.232,193.115,80.928,188.154,87.666
		L188.154,87.666z"/>
	<path fill="none" stroke="#007055" stroke-linecap="round" stroke-linejoin="round" stroke-miterlimit="10" d="M108.14,65.025
		c0.726,4.012,2.891,7.061,3.855,8.27"/>
	<path fill="none" stroke="#007055" stroke-linecap="round" stroke-linejoin="round" stroke-miterlimit="10" d="M113.9,57.367
		c0-7.23,9.155-12.408,15.88-7.795"/>
	<path fill="none" stroke="#007055" stroke-linecap="round" stroke-linejoin="round" stroke-miterlimit="10" d="M138.947,49.189
		c4.885-5.326,15.133-2.955,16.973,4.99"/>
	<path fill="none" stroke="#007055" stroke-linecap="round" stroke-linejoin="round" stroke-miterlimit="10" d="M167.75,64.865
		c6.814-2.414,14.758,4.482,12.662,12.355"/>
	<path fill="none" stroke="#007055" stroke-linecap="round" stroke-linejoin="round" stroke-miterlimit="10" d="M145.047,68.297
		c-7.204,0.6-13.121-8.1-9.081-15.184"/>
	<path fill="none" stroke="#007055" stroke-linecap="round" stroke-linejoin="round" stroke-miterlimit="10" d="M157.486,55.027
		c4.342,5.779,0.137,15.418-8.01,15.77"/>
	<path fill="none" stroke="#007055" stroke-linecap="round" stroke-linejoin="round" stroke-miterlimit="10" d="M126.717,65.932
		c3.209,4.273-0.089,11.125-6.107,11.381"/>
	<path fill="none" stroke="#007055" stroke-linecap="round" stroke-linejoin="round" stroke-miterlimit="10" d="M131.497,61.727
		c-1.822,5.021-9.486,6.313-12.993,1.412"/>
	<path fill="none" stroke="#007055" stroke-linecap="round" stroke-linejoin="round" stroke-miterlimit="10" d="M165.471,54.033
		c0.98,4.32-1.609,6.813-6.244,5.832"/>
	<path fill="none" stroke="#007055" stroke-linecap="round" stroke-linejoin="round" stroke-miterlimit="10" d="M175.975,75.229
		c3.654-0.762,6.258,3.486,3.842,6.883"/>
	<line fill="none" stroke="#F26F21" stroke-width="3" stroke-miterlimit="10" x1="143.801" y1="24.096" x2="143.801" y2="0"/>
	<line fill="none" stroke="#F26F21" stroke-width="3" stroke-miterlimit="10" x1="190.545" y1="57.055" x2="207.584" y2="40.021"/>
	<line fill="none" stroke="#F26F21" stroke-width="3" stroke-miterlimit="10" x1="98.092" y1="57.055" x2="81.052" y2="40.021"/>
	<line fill="none" stroke="#F26F21" stroke-width="3" stroke-miterlimit="10" x1="171.264" y1="32.092" x2="183.311" y2="11.229"/>
	<line fill="none" stroke="#F26F21" stroke-width="3" stroke-miterlimit="10" x1="117.113" y1="32.092" x2="105.065" y2="11.229"/>
	<rect x="122.438" y="163.332" fill="#F26F21" width="42.736" height="9.412"/>
	
		<rect x="120.278" y="163.332" fill="#F26F21" stroke="#F26F21" stroke-linecap="round" stroke-linejoin="round" stroke-miterlimit="10" width="47.056" height="1.932"/>
	<path fill="#1E1E1E" d="M165.174,172.744c0,9.795-9.582,17.74-21.405,17.74c-11.825,0-21.331-7.945-21.331-17.74"/>
	<path fill="#BFBFBF" d="M135.733,185.982c-0.453,0.902-2.037,1.023-3.53,0.264c-1.494-0.76-2.334-2.1-1.876-3.002
		c0.456-0.896,2.037-1.014,3.53-0.262C135.35,183.742,136.19,185.08,135.733,185.982z"/>
	<path fill="#BFBFBF" d="M151.891,185.982c0.457,0.902,2.035,1.023,3.529,0.264c1.492-0.76,2.334-2.1,1.881-3.002
		c-0.457-0.896-2.037-1.014-3.531-0.262C152.275,183.742,151.434,185.08,151.891,185.982z"/>
	<line fill="none" stroke="#F26F21" stroke-width="2" stroke-miterlimit="10" x1="143.801" y1="197.949" x2="143.801" y2="220"/>
	
		<line fill="none" stroke="#F26F21" stroke-width="2" stroke-miterlimit="10" x1="130.672" y1="190.965" x2="130.672" y2="207.107"/>
	
		<line fill="none" stroke="#F26F21" stroke-width="2" stroke-miterlimit="10" x1="156.211" y1="191.447" x2="156.211" y2="209.998"/>
	<line fill="none" stroke="#F26F21" stroke-width="2" stroke-miterlimit="10" x1="149.584" y1="202.77" x2="149.584" y2="216.504"/>
	<line fill="none" stroke="#F26F21" stroke-width="2" stroke-miterlimit="10" x1="137.66" y1="199.521" x2="137.66" y2="213.736"/>
	<path fill="#F0F0F0" d="M186.369,192.008c12.49,2.127,25.945,0.967,38.27,0.967c7.969,0,15.805,0.406,23.734,0.633
		c7.268,0.209,23.213,2.379,19.863-6.365c-1.389-2.543-4.551-3.133-7.734-3.623c-2.705-0.418-5.982-0.67-9.186-0.082
		c1.754-8.172,0.912-15.102-8.664-18.203c-9.035-2.922-15.063,2.197-17.113,11.119c0.666-8.141,0.123-15.129-3.248-20.186
		c-4.242-6.359-13.012-8.979-21.377-7.963c-8.066,0.977-13.871,7.877-15.125,13.623c-1.039,4.746-2.592,11.268,2.529,19.363
		c-5.063-4.365-10.785-1.229-11.023,4.035C177.1,189.598,181.209,191.205,186.369,192.008"/>
	<path fill="#F0F0F0" d="M81.258,82.506c-8.146,1.393-16.917,0.629-24.954,0.629c-5.197,0-10.305,0.268-15.476,0.414
		c-4.74,0.133-15.135,1.551-12.951-4.152c0.905-1.656,2.965-2.041,5.043-2.359c1.762-0.275,3.9-0.434,5.989-0.053
		c-1.146-5.336-0.597-9.846,5.646-11.869c5.891-1.906,9.822,1.43,11.158,7.252c-0.434-5.309-0.08-9.869,2.123-13.168
		c2.764-4.141,8.483-5.848,13.937-5.193c5.259,0.641,9.045,5.141,9.862,8.893c0.677,3.092,1.688,7.34-1.652,12.617
		c3.303-2.84,7.034-0.801,7.192,2.631C87.3,80.936,84.622,81.979,81.258,82.506"/>
</g>
<g>
	<path fill="#F26F21" d="M786.55-392.673c-3.021-1.743-5.871-2.252-8.381-1.705v-0.002l-169.694,36.984l0.004,0.008
		c-5.828,1.346-9.803,8.453-9.803,19.292c0,15.554,8.186,32.894,18.289,38.722c3.021,1.748,5.871,2.256,8.383,1.705l0.004,0.008
		l169.8-37.019v-0.001c5.764-1.412,9.688-8.5,9.688-19.266C804.839-369.502,796.649-386.841,786.55-392.673z"/>
	<path fill="#007055" d="M658.754-368.356c10.291,1.839,32.59,30.297,18.213,59.054c-13.645,27.292-9.389,54.276,8.508,73.641
		l85.839-18.245l1.793-0.384c-17.898-19.365-22.859-46.198-9.215-73.49c14.377-28.755-8.723-57.511-19.01-59.35L658.754-368.356z"/>
	<path fill="#1E1E1E" d="M661.494-368.944c10.289,1.84,32.586,30.299,18.209,59.055c-13.645,27.289-9.389,54.276,8.51,73.642
		l85.839-18.245l1.791-0.385c-17.896-19.363-22.857-46.199-9.213-73.488c14.375-28.756-8.721-57.512-19.012-59.35L661.494-368.944z"
		/>
	
		<line fill="none" stroke="#BFBFBF" stroke-width="1.1899" stroke-miterlimit="10" x1="689.096" y1="-359.378" x2="746.894" y2="-372.532"/>
	
		<line fill="none" stroke="#BFBFBF" stroke-width="1.1899" stroke-miterlimit="10" x1="691.195" y1="-355.795" x2="748.995" y2="-368.95"/>
	
		<line fill="none" stroke="#BFBFBF" stroke-width="1.1899" stroke-miterlimit="10" x1="692.906" y1="-351.908" x2="739.782" y2="-362.575"/>
	<g>
		<g>
			<g>
				<path fill="#EAEAEA" d="M699.671-340.134c2.769-2.137,4.104-2.851,6.736-3.997c1.682-0.732,3.189-0.82,4.533-0.375
					c1.345,0.446,2.128,1.32,2.356,2.609c0.228,1.289-0.203,2.881-1.265,4.555c-1.061,1.672-2.436,2.89-4.122,3.655
					c-1.012,0.459-1.52,0.708-2.541,1.238c0.302,3.492,0.436,5.363,0.66,9.411c-1.611,0.617-2.416,0.922-4.018,1.463
					C701.346-330.946,700.763-333.835,699.671-340.134z M704.971-336.653c1.033-0.618,1.545-0.9,2.563-1.405
					c0.566-0.282,1.029-0.711,1.387-1.299c0.359-0.59,0.496-1.065,0.416-1.466c-0.08-0.4-0.348-0.673-0.801-0.8
					c-0.451-0.127-0.957-0.07-1.519,0.185c-1.012,0.458-1.521,0.716-2.554,1.319C704.704-339.01,704.801-338.285,704.971-336.653z"
					/>
				<path fill="#EAEAEA" d="M718.56-341.091c0.263,0.512,0.391,0.796,0.647,1.347c0.711-1.131,1.965-1.622,3.766-1.511
					c0.702,0.043,1.37,0.196,2.006,0.465c-0.389,1.2-0.58,1.787-0.979,3.05c-1.015-0.525-1.93-0.559-2.748-0.082
					c-0.818,0.476-1.272,1.265-1.358,2.366c0.257,2.96,0.369,4.553,0.601,7.702c-1.392,0.219-2.09,0.355-3.497,0.684
					c-0.345-6.246-0.503-9.48-1.113-13.799C716.957-340.987,717.493-341.026,718.56-341.091z"/>
				<path fill="#EAEAEA" d="M726.111-347.929c1.427-0.149,2.141-0.242,3.58-0.487c0.175,1.573,0.263,2.392,0.426,4.048
					c-1.414,0.064-2.12,0.072-3.525,0.067C726.409-345.818,726.313-346.553,726.111-347.929z M726.999-340.672
					c1.393,0.096,2.09,0.141,3.489,0.188c0.491,5.18,0.722,7.863,1.346,12.082c-1.405-0.01-2.105-0.016-3.516,0.011
					C727.746-332.984,727.525-335.745,726.999-340.672z"/>
				<path fill="#EAEAEA" d="M735.455-340.537c0.258,0.48,0.384,0.72,0.643,1.196c0.959-1.131,2.071-1.932,3.319-2.286
					c1.645-0.466,3.113-0.174,4.405,0.888c1.292,1.062,2.028,2.561,2.199,4.533c0.231,2.666,0.409,3.553,0.779,5.211
					c-1.407,0.565-2.104,0.787-3.486,1.166c-0.366-1.689-0.564-2.41-0.795-5.081c-0.084-0.979-0.441-1.762-1.068-2.352
					c-0.627-0.589-1.354-0.777-2.18-0.592c-0.823,0.185-1.485,0.681-1.975,1.46c-0.489,0.779-0.682,1.588-0.587,2.482
					c0.262,2.442,0.427,3.435,0.773,5.266c-1.403,0.21-2.097,0.265-3.47,0.258c-0.648-4.049-0.884-6.708-1.351-12.064
					C733.775-340.455,734.334-340.468,735.455-340.537z"/>
				<path fill="#EAEAEA" d="M753.479-346.948c1.168-0.566,1.749-0.853,2.916-1.411c0.157,1.23,0.242,1.813,0.417,2.919
					c-1.195,0.76-1.789,1.132-2.978,1.846c0.401,3.456,0.631,4.966,1.145,7.623c-1.567,1.325-2.335,1.867-3.848,2.795
					c-0.536-2.487-0.708-4.411-1.053-8.281c-1.059,0.563-1.585,0.826-2.634,1.317c-0.12-1.504-0.178-2.277-0.285-3.87
					c1.043-0.45,1.566-0.686,2.615-1.172c-0.158-2.102-0.231-3.198-0.363-5.49c1.461-0.555,2.188-0.829,3.64-1.317
					C753.207-349.865,753.295-348.858,753.479-346.948z"/>
			</g>
		</g>
	</g>
	
		<line fill="none" stroke="#BFBFBF" stroke-width="1.1899" stroke-miterlimit="10" x1="688.213" y1="-307.643" x2="729.401" y2="-314.904"/>
	
		<line fill="none" stroke="#BFBFBF" stroke-width="1.1899" stroke-miterlimit="10" x1="710.952" y1="-295.819" x2="752.142" y2="-303.083"/>
	
		<line fill="none" stroke="#BFBFBF" stroke-width="1.1899" stroke-miterlimit="10" x1="710.472" y1="-291.56" x2="751.659" y2="-298.821"/>
	
		<line fill="none" stroke="#BFBFBF" stroke-width="1.1899" stroke-miterlimit="10" x1="709.894" y1="-287.286" x2="751.081" y2="-294.55"/>
	
		<line fill="none" stroke="#BFBFBF" stroke-width="1.1899" stroke-miterlimit="10" x1="710.159" y1="-283.29" x2="751.347" y2="-290.552"/>
	
		<line fill="none" stroke="#BFBFBF" stroke-width="1.1899" stroke-miterlimit="10" x1="710.56" y1="-279.013" x2="751.747" y2="-286.276"/>
	
		<line fill="none" stroke="#BFBFBF" stroke-width="1.1899" stroke-miterlimit="10" x1="686.832" y1="-303.122" x2="754.165" y2="-314.995"/>
	
		<line fill="none" stroke="#BFBFBF" stroke-width="1.1899" stroke-miterlimit="10" x1="686.176" y1="-298.843" x2="753.513" y2="-310.714"/>
	<path fill="#BFBFBF" d="M685.717-291.995c-2.639,9.828-1.76,36.236,8.951,44.305l19.585-4.107
		c-6.896-10.123-14.495-24.738-9.139-43.588L685.717-291.995z"/>
	<g>
		<g>
			<path fill="#EAEAEA" d="M726.277-270.565c-0.375,0.474-0.563,0.724-0.934,1.249c-0.4-0.073-0.832-0.029-1.289,0.142
				c-0.458,0.172-0.866,0.432-1.227,0.786c-0.359,0.354-0.646,0.834-0.853,1.453c-0.207,0.619-0.276,1.22-0.214,1.817
				c0.065,0.624,0.252,1.095,0.572,1.443c0.319,0.348,0.693,0.556,1.11,0.604c0.418,0.048,0.858-0.046,1.32-0.293
				c0.461-0.247,0.854-0.633,1.177-1.156c0.473,0.462,0.71,0.704,1.187,1.205c-0.678,1.184-1.509,1.979-2.496,2.328
				c-1.138,0.401-2.173,0.145-3.075-0.474c-0.901-0.619-1.4-1.38-1.523-2.548s0.149-2.582,0.852-3.877
				c0.703-1.296,1.631-2.08,2.765-2.51C724.596-270.758,725.475-270.802,726.277-270.565z"/>
			<path fill="#EAEAEA" d="M729.825-269.447c0.774-0.109,1.463,0.075,2.059,0.55c0.598,0.475,0.937,1.111,1.021,1.918
				c0.084,0.806-0.111,1.548-0.581,2.284c-0.47,0.734-1.082,1.271-1.841,1.533c-0.751,0.26-1.429,0.125-2.028-0.39
				s-0.952-1.262-1.051-2.204c-0.099-0.943,0.086-1.804,0.555-2.539S729.059-269.339,729.825-269.447z M731.182-265.628
				c0.215-0.361,0.298-0.778,0.252-1.22c-0.044-0.423-0.208-0.758-0.486-1.015c-0.288-0.266-0.613-0.356-0.977-0.292
				c-0.371,0.066-0.646,0.302-0.85,0.653c-0.206,0.356-0.321,0.789-0.271,1.271c0.051,0.481,0.241,0.859,0.521,1.118
				c0.271,0.252,0.588,0.344,0.946,0.234C730.668-264.984,730.965-265.263,731.182-265.628z"/>
			<path fill="#EAEAEA" d="M739.247-270.882c0.046,0.436,0.07,0.65,0.114,1.07c0.557-0.047,0.834-0.076,1.388-0.143
				c0.065,0.623,0.095,0.923,0.155,1.501c-0.557,0.044-0.835,0.061-1.394,0.087c0.159,1.525,0.23,2.202,0.362,3.47
				c-0.655,0.049-0.984,0.072-1.639,0.13c-0.143-1.364-0.213-2.056-0.369-3.544c-0.706,0.015-1.061,0.017-1.768,0.024
				c0.152,1.462,0.229,2.208,0.385,3.701c-0.652,0.077-0.977,0.121-1.627,0.222c-0.171-1.633-0.253-2.413-0.408-3.898
				c-0.34,0.008-0.509,0.013-0.848,0.025c-0.058-0.554-0.083-0.813-0.137-1.327c0.339-0.011,0.508-0.015,0.847-0.023
				c-0.038-0.367-0.058-0.549-0.095-0.907c-0.083-0.798,0.081-1.417,0.49-1.934c0.384-0.484,0.931-0.825,1.621-0.989
				c0.27-0.063,0.55-0.05,0.849,0.057c0.298,0.106,0.758,0.555,0.761,0.554c0.014-0.002,0.08-0.173,0.126-0.248
				c0.377-0.617,0.901-1.09,1.583-1.325c0.646-0.222,1.233-0.061,1.769,0.547c-0.415,0.76-0.625,1.107-1.053,1.745
				c-0.167-0.173-0.332-0.243-0.494-0.208c-0.091,0.02-0.172,0.045-0.23,0.076c-0.059,0.031-0.132,0.091-0.217,0.179
				c-0.086,0.087-0.143,0.229-0.173,0.425S739.217-271.174,739.247-270.882z M737.719-269.702c-0.042-0.399-0.061-0.6-0.104-1.006
				c-0.025-0.239,0.035-0.604-0.02-0.74c-0.081-0.201-0.634-0.344-1.092-0.288c-0.092,0.012-0.169,0.03-0.229,0.053
				s-0.139,0.069-0.227,0.137c-0.087,0.068-0.146,0.184-0.181,0.346c-0.034,0.164-0.037,0.368-0.011,0.621
				c0.04,0.378,0.058,0.566,0.098,0.946C736.661-269.654,737.015-269.666,737.719-269.702z"/>
			<path fill="#EAEAEA" d="M745.438-266.952c0.459,0.154,0.688,0.219,1.144,0.335c-0.461,0.64-1.1,1.036-1.916,1.21
				c-0.723,0.154-1.365,0.079-1.933-0.277c-0.567-0.356-0.894-0.922-0.969-1.657c-0.075-0.734,0.113-1.427,0.564-2.153
				c0.451-0.727,1.032-1.248,1.754-1.484c0.722-0.235,1.376-0.115,1.953,0.363c0.577,0.478,0.911,1.168,1.005,2.057
				c0.021,0.207,0.024,0.402,0.013,0.587c-1.462,0.552-2.202,0.707-3.7,0.917c0.089,0.171,0.199,0.303,0.334,0.401
				c0.272,0.198,0.583,0.261,0.93,0.193C744.941-266.522,745.214-266.686,745.438-266.952z M743.231-267.968
				c0.958-0.178,1.436-0.297,2.381-0.596c-0.089-0.239-0.212-0.438-0.378-0.59c-0.27-0.249-0.578-0.32-0.923-0.22
				c-0.343,0.098-0.632,0.342-0.833,0.7C743.365-268.473,743.282-268.23,743.231-267.968z"/>
			<path fill="#EAEAEA" d="M751.392-269.612c0.447,0.041,0.668,0.049,1.108,0.022c-0.418,1.047-1.031,1.698-1.821,2.124
				c-0.7,0.377-1.328,0.433-1.881,0.221c-0.552-0.211-0.872-0.743-0.966-1.637s0.074-1.798,0.508-2.684
				c0.434-0.885,1.009-1.484,1.723-1.803s1.359-0.277,1.918,0.024c0.559,0.3,0.87,0.764,0.947,1.503
				c0.018,0.172,0.018,0.342,0.005,0.511c-1.409,1.062-2.12,1.536-3.56,2.305c0.092,0.194,0.207,0.334,0.34,0.422
				c0.27,0.178,0.575,0.169,0.906-0.043C750.929-268.846,751.186-269.174,751.392-269.612z M749.241-270.074
				c0.927-0.476,1.389-0.743,2.306-1.313c-0.085-0.203-0.206-0.357-0.367-0.461c-0.261-0.168-0.56-0.173-0.896,0.003
				c-0.335,0.174-0.616,0.483-0.812,0.923C749.361-270.673,749.286-270.385,749.241-270.074z"/>
		</g>
	</g>
	<g>
		<defs>
			<path id="SVGID_1_" d="M661.494-368.944c10.289,1.84,32.586,30.299,18.209,59.055c-13.645,27.289-9.389,54.276,8.51,73.642
				l85.839-18.245l1.791-0.385c-17.896-19.363-22.857-46.199-9.213-73.488c14.375-28.756-8.721-57.512-19.012-59.35L661.494-368.944
				z"/>
		</defs>
		<clipPath id="SVGID_2_">
			<use xlink:href="#SVGID_1_"  overflow="visible"/>
		</clipPath>
		<path opacity="0.15" clip-path="url(#SVGID_2_)" fill="#FFFFFF" d="M688.213-236.248c-6.553-38.435,71.378-95.505,59.405-151.468
			l16.977-21.54l73.936,44.206l-13.689,121.662l-81.762,12.91L688.213-236.248z"/>
	</g>
	<path opacity="0.15" fill="#1E1E1E" d="M616.527-359.149c5.506,4.342,12.557,1.884,22.883-0.271
		c10.537-2.197,148.702-32.275,148.702-32.275s-2.508-1.832-4.91-2.346h-37.777l-119.411,32.836L616.527-359.149z"/>
	<path fill="#049775" d="M786.55-453.748c-3.021-1.744-5.871-2.251-8.381-1.703v-0.004L608.475-418.47l0.004,0.008
		c-5.828,1.346-9.803,8.453-9.803,19.292c0,15.552,8.186,32.892,18.289,38.723c3.021,1.745,5.871,2.253,8.383,1.705l0.004,0.008
		l169.8-37.021l0,0c5.764-1.413,9.688-8.501,9.688-19.265C804.839-430.578,796.649-447.917,786.55-453.748z"/>
	<g>
		<defs>
			<path id="SVGID_3_" d="M786.55-453.748c-3.021-1.744-5.871-2.251-8.381-1.703v-0.004L608.475-418.47l0.004,0.008
				c-5.828,1.346-9.803,8.453-9.803,19.292c0,15.552,8.186,32.892,18.289,38.723c3.021,1.745,5.871,2.253,8.383,1.705l0.004,0.008
				l169.8-37.021l0,0c5.764-1.413,9.688-8.501,9.688-19.265C804.839-430.578,796.649-447.917,786.55-453.748z"/>
		</defs>
		<clipPath id="SVGID_4_">
			<use xlink:href="#SVGID_3_"  overflow="visible"/>
		</clipPath>
		<path opacity="0.15" clip-path="url(#SVGID_4_)" fill="#FFFFFF" d="M616.963-416.741c3.787,2.186,7.307,5.995,10.223,10.722
			c64.553-13.81,183.106-39.278,183.106-39.278l-17.26-21.863l-208.929,31.398l8.705,37.074c1.672-0.355,3.656-0.777,5.906-1.256
			C598.986-414.952,607.049-422.464,616.963-416.741z"/>
	</g>
	<path fill="#007055" d="M598.652-399.186c0-15.575,8.195-23.47,18.311-17.633c10.113,5.841,18.314,23.202,18.314,38.778
		s-8.201,23.473-18.314,17.631C606.848-366.249,598.652-383.612,598.652-399.186z"/>
	<path fill="#1E1E1E" d="M605.096-395.464c0-10.098,5.313-15.213,11.869-11.429c6.553,3.786,11.867,15.037,11.867,25.134
		c0,10.094-5.314,15.209-11.867,11.425C610.408-374.12,605.096-385.372,605.096-395.464z"/>
	<path fill="#F26F21" d="M614.932-393.29c0,6.529,5.295,11.822,11.822,11.822c0.709,0,1.402-0.073,2.074-0.191
		c0-0.033,0.004-0.066,0.004-0.1c0-7.962-3.313-16.629-7.924-21.797C617.342-401.522,614.932-397.691,614.932-393.29z"/>
	<path opacity="0.15" fill="#1E1E1E" d="M628.828-381.659c-2.133-7.736-7.309-16.482-11.248-19.078c0,0,1.256-1.727,3.328-2.818
		C623.543-400.815,628.701-392.697,628.828-381.659z"/>
	<path fill="#DC5A28" d="M598.729-338.067c0-15.513,8.162-23.373,18.234-17.561c10.072,5.816,18.24,23.108,18.24,38.621
		c0,15.512-8.168,23.374-18.24,17.558S598.729-322.558,598.729-338.067z"/>
	<path fill="#1E1E1E" d="M605.096-334.388c0-10.1,5.313-15.213,11.869-11.43c6.553,3.785,11.867,15.038,11.867,25.133
		s-5.314,15.21-11.867,11.424C610.408-313.044,605.096-324.298,605.096-334.388z"/>
	<path fill="#007055" d="M614.932-332.214c0,6.528,5.295,11.822,11.822,11.822c0.709,0,1.402-0.073,2.074-0.195
		c0-0.031,0.004-0.063,0.004-0.098c0-7.96-3.313-16.628-7.924-21.799C617.342-340.446,614.932-336.616,614.932-332.214z"/>
	<path opacity="0.15" fill="#1E1E1E" d="M628.848-320.579c-2.133-7.736-7.311-16.48-11.248-19.076c0,0,1.254-1.727,3.326-2.821
		C623.563-339.731,628.721-331.616,628.848-320.579z"/>
</g>
<g>
	<g>
		<rect x="-261.357" y="-392.197" fill="#049775" width="132.803" height="12.087"/>
		<rect x="-261.357" y="-315.748" fill="#049775" width="132.803" height="12.086"/>
		<rect x="-283.58" y="-441.231" fill="#1E1E1E" width="177.768" height="33.284"/>
		<polygon fill="#666666" points="-278.416,-454.049 -111.535,-454.049 -105.813,-441.231 -283.58,-441.231 		"/>
		<polygon fill="#BFBFBF" points="-261.357,-457.93 -128.443,-457.93 -111.535,-454.049 -278.416,-454.049 		"/>
		<polygon fill="#666666" points="-278.416,-395.127 -111.535,-395.127 -105.813,-407.947 -283.58,-407.947 		"/>
		<polygon fill="#BFBFBF" points="-261.357,-391.249 -128.443,-391.249 -111.535,-395.127 -278.416,-395.127 		"/>
		<rect x="-283.58" y="-364.784" fill="#1E1E1E" width="177.768" height="33.284"/>
		<polygon fill="#666666" points="-278.416,-377.603 -111.535,-377.603 -105.813,-364.784 -283.58,-364.784 		"/>
		<polygon fill="#BFBFBF" points="-261.357,-381.483 -128.443,-381.483 -111.535,-377.603 -278.416,-377.603 		"/>
		<polygon fill="#666666" points="-278.416,-318.682 -111.535,-318.682 -105.813,-331.5 -283.58,-331.5 		"/>
		<polygon fill="#BFBFBF" points="-261.357,-314.803 -128.443,-314.803 -111.535,-318.682 -278.416,-318.682 		"/>
		<rect x="-283.58" y="-287.912" fill="#1E1E1E" width="177.768" height="33.285"/>
		<polygon fill="#666666" points="-278.416,-300.73 -111.535,-300.73 -105.813,-287.912 -283.58,-287.912 		"/>
		<polygon fill="#BFBFBF" points="-261.357,-304.609 -128.443,-304.609 -111.535,-300.73 -278.416,-300.73 		"/>
		<polygon fill="#666666" points="-278.416,-241.809 -111.535,-241.809 -105.813,-254.627 -283.58,-254.627 		"/>
		<polygon fill="#BFBFBF" points="-261.357,-237.93 -128.443,-237.93 -111.535,-241.809 -278.416,-241.809 		"/>
	</g>
	<polygon opacity="0.15" fill="#FFFFFF" points="-128.443,-457.93 -261.357,-457.93 -278.416,-454.049 -111.891,-241.727 
		-111.535,-241.809 -105.813,-254.627 -105.813,-287.912 -111.535,-300.73 -128.443,-304.609 -128.555,-304.609 -128.555,-314.803 
		-128.443,-314.803 -111.535,-318.682 -105.813,-331.5 -105.813,-364.784 -111.535,-377.603 -128.443,-381.483 -128.555,-381.483 
		-128.555,-391.249 -128.443,-391.249 -111.535,-395.127 -105.813,-407.947 -105.813,-441.231 -111.535,-454.049 	"/>
</g>
<g>
	<g>
		
			<line fill="none" stroke="#F26F21" stroke-width="4.0982" stroke-linecap="round" stroke-miterlimit="10" x1="171.855" y1="-261.011" x2="14.349" y2="-418.517"/>
		
			<line fill="none" stroke="#F26F21" stroke-width="4.0982" stroke-linecap="round" stroke-miterlimit="10" x1="164.561" y1="-253.745" x2="7.085" y2="-411.228"/>
		
			<line fill="none" stroke="#F26F21" stroke-width="4.0982" stroke-linecap="round" stroke-miterlimit="10" x1="157.293" y1="-246.456" x2="-0.211" y2="-403.939"/>
		
			<line fill="none" stroke="#F26F21" stroke-width="4.0982" stroke-linecap="round" stroke-miterlimit="10" x1="149.999" y1="-239.161" x2="-7.484" y2="-396.662"/>
		
			<line fill="none" stroke="#F26F21" stroke-width="4.0982" stroke-linecap="round" stroke-miterlimit="10" x1="142.734" y1="-231.89" x2="-14.772" y2="-389.395"/>
		
			<line fill="none" stroke="#F26F21" stroke-width="4.0982" stroke-linecap="round" stroke-miterlimit="10" x1="200.979" y1="-290.136" x2="43.472" y2="-447.64"/>
		
			<line fill="none" stroke="#F26F21" stroke-width="4.0982" stroke-linecap="round" stroke-miterlimit="10" x1="193.689" y1="-282.866" x2="36.206" y2="-440.372"/>
		
			<line fill="none" stroke="#F26F21" stroke-width="4.0982" stroke-linecap="round" stroke-miterlimit="10" x1="186.418" y1="-275.598" x2="28.912" y2="-433.078"/>
		
			<line fill="none" stroke="#F26F21" stroke-width="4.0982" stroke-linecap="round" stroke-miterlimit="10" x1="179.121" y1="-268.299" x2="21.644" y2="-425.785"/>
		
			<line fill="none" stroke="#F26F21" stroke-width="4.0982" stroke-linecap="round" stroke-miterlimit="10" x1="14.349" y1="-261.011" x2="171.855" y2="-418.517"/>
		
			<line fill="none" stroke="#F26F21" stroke-width="4.0982" stroke-linecap="round" stroke-miterlimit="10" x1="7.083" y1="-268.299" x2="164.559" y2="-425.785"/>
		
			<line fill="none" stroke="#F26F21" stroke-width="4.0982" stroke-linecap="round" stroke-miterlimit="10" x1="-0.211" y1="-275.598" x2="157.293" y2="-433.078"/>
		
			<line fill="none" stroke="#F26F21" stroke-width="4.0982" stroke-linecap="round" stroke-miterlimit="10" x1="-7.484" y1="-282.866" x2="149.999" y2="-440.372"/>
		
			<line fill="none" stroke="#F26F21" stroke-width="4.0982" stroke-linecap="round" stroke-miterlimit="10" x1="-14.772" y1="-290.136" x2="142.734" y2="-447.64"/>
		
			<line fill="none" stroke="#F26F21" stroke-width="4.0982" stroke-linecap="round" stroke-miterlimit="10" x1="43.472" y1="-231.89" x2="200.979" y2="-389.395"/>
		
			<line fill="none" stroke="#F26F21" stroke-width="4.0982" stroke-linecap="round" stroke-miterlimit="10" x1="36.206" y1="-239.161" x2="193.689" y2="-396.662"/>
		
			<line fill="none" stroke="#F26F21" stroke-width="4.0982" stroke-linecap="round" stroke-miterlimit="10" x1="28.912" y1="-246.456" x2="186.418" y2="-403.939"/>
		
			<line fill="none" stroke="#F26F21" stroke-width="4.0982" stroke-linecap="round" stroke-miterlimit="10" x1="21.645" y1="-253.745" x2="179.123" y2="-411.228"/>
		<polygon fill="#007055" points="68.861,-440.98 -8.112,-364.009 5.506,-350.359 82.507,-427.36 		"/>
		<polygon fill="#007055" points="194.318,-364.009 117.344,-440.98 103.697,-427.36 180.697,-350.359 		"/>
		<polygon fill="#007055" points="117.344,-238.548 194.318,-315.522 180.697,-329.169 103.697,-252.168 		"/>
		<polygon fill="#007055" points="-8.112,-315.522 68.861,-238.548 82.507,-252.168 5.506,-329.169 		"/>
		<polygon opacity="0.25" points="-1.785,-321.849 75.187,-244.877 82.507,-252.168 5.506,-329.169 		"/>
		<polygon opacity="0.25" points="180.697,-329.169 103.697,-252.168 111.017,-244.877 187.99,-321.849 		"/>
		<polygon opacity="0.25" points="187.99,-357.68 111.017,-434.652 103.697,-427.36 180.697,-350.359 		"/>
		<polygon opacity="0.25" points="75.187,-434.652 -1.787,-357.68 5.506,-350.359 82.507,-427.36 		"/>
		<polygon fill="#1E1E1E" points="200.797,-339.765 93.101,-232.065 -14.594,-339.765 93.101,-447.467 		"/>
		<polygon fill="#049775" points="151.973,-339.765 93.101,-280.879 34.236,-339.763 93.101,-398.655 		"/>
		<path fill="#EAEAEA" d="M97.279-343.941c2.303,2.309,2.303,6.041,0,8.352c-2.306,2.293-6.047,2.291-8.352,0
			c-2.306-2.311-2.306-6.043,0-8.352C91.232-346.235,94.973-346.235,97.279-343.941z"/>
		<path fill="#EAEAEA" d="M81.151-360.037c2.306,2.293,2.306,6.018,0.002,8.338c-2.304,2.289-6.018,2.289-8.322-0.001
			c-2.307-2.319-2.307-6.044,0-8.337C75.135-362.347,78.849-362.347,81.151-360.037z"/>
		<path fill="#EAEAEA" d="M114.275-326.924c2.31,2.308,2.31,6.049,0,8.325c-2.284,2.331-6.025,2.331-8.331,0
			c-2.303-2.276-2.303-6.018,0-8.327C108.25-329.227,111.991-329.227,114.275-326.924z"/>
		<path fill="#EAEAEA" d="M79.956-326.618c2.277,2.321,2.277,6.047,0,8.352c-2.305,2.305-6.047,2.303-8.352,0
			c-2.304-2.305-2.304-6.03,0-8.352C73.909-328.895,77.651-328.895,79.956-326.618z"/>
		<path fill="#EAEAEA" d="M63.83-342.715c2.304,2.299,2.304,6.03,0,8.35c-2.304,2.278-6.045,2.276-8.32,0
			c-2.312-2.319-2.312-6.051,0-8.35C57.785-345.019,61.526-345.019,63.83-342.715z"/>
		<path fill="#EAEAEA" d="M96.945-309.593c2.307,2.298,2.307,6.038,0,8.335c-2.304,2.313-6.018,2.312-8.322,0
			c-2.304-2.297-2.304-6.037-0.002-8.335C90.927-311.906,94.641-311.904,96.945-309.593z"/>
		<path fill="#EAEAEA" d="M114.6-361.262c2.308,2.299,2.308,6.022,0,8.35c-2.305,2.279-6.047,2.279-8.352,0
			c-2.277-2.328-2.277-6.05,0-8.35C108.553-363.565,112.295-363.565,114.6-361.262z"/>
		<path fill="#EAEAEA" d="M98.502-377.358c2.275,2.277,2.276,6.018,0,8.322c-2.307,2.307-6.047,2.305-8.354,0
			c-2.301-2.304-2.301-6.045,0-8.322C92.456-379.69,96.196-379.686,98.502-377.358z"/>
		<path fill="#EAEAEA" d="M131.617-344.256c2.305,2.317,2.305,6.046,0,8.334c-2.305,2.314-6.046,2.314-8.351,0
			c-2.302-2.288-2.302-6.018,0-8.334C125.571-346.547,129.312-346.547,131.617-344.256z"/>
	</g>
	<polygon opacity="0.15" fill="#FFFFFF" points="30.362,-402.506 39.242,-393.626 43.472,-397.857 67.887,-373.47 71.792,-377.347 
		130.69,-318.48 126.822,-314.59 151.225,-290.173 146.964,-285.902 155.844,-277.025 194.318,-315.522 185.438,-324.408 
		200.797,-339.765 185.438,-355.125 194.318,-364.009 117.344,-440.98 108.463,-432.098 93.101,-447.467 77.742,-432.1 
		68.861,-440.98 	"/>
</g>
<g>
	<polygon fill="#049775" points="1091.046,-410.531 1091.046,-271.689 955.67,-271.689 955.67,-441.152 1055.595,-441.152 
		1072.655,-425.841 	"/>
	<polygon fill="#1E1E1E" points="1093.767,-413.25 1093.767,-274.41 958.391,-274.41 958.391,-443.871 1058.315,-443.871 
		1075.378,-428.562 	"/>
	<rect x="971.4" y="-376.16" fill="#BFBFBF" width="58.396" height="33.008"/>
	<rect x="971.398" y="-411.707" fill="none" width="109.606" height="33.01"/>
	<text transform="matrix(1 0 0 1 973.0713 -391.1299)" fill="#EAEAEA" font-family="'JaapokkiRegular'" font-size="27.6578">DESIGN</text>
	<line fill="none" stroke="#EAEAEA" stroke-miterlimit="10" x1="971.4" y1="-386.742" x2="1081.005" y2="-386.742"/>
	<line fill="none" stroke="#BFBFBF" stroke-miterlimit="10" x1="1039.956" y1="-370.632" x2="1081.005" y2="-370.632"/>
	<line fill="none" stroke="#BFBFBF" stroke-miterlimit="10" x1="1039.956" y1="-363.226" x2="1081.005" y2="-363.226"/>
	<line fill="none" stroke="#BFBFBF" stroke-miterlimit="10" x1="1039.956" y1="-356.083" x2="1081.005" y2="-356.083"/>
	<line fill="none" stroke="#BFBFBF" stroke-miterlimit="10" x1="1039.956" y1="-348.679" x2="1081.005" y2="-348.679"/>
	<line fill="none" stroke="#BFBFBF" stroke-miterlimit="10" x1="971.26" y1="-312.402" x2="1081.005" y2="-312.402"/>
	<line fill="none" stroke="#BFBFBF" stroke-miterlimit="10" x1="971.26" y1="-319.773" x2="1081.005" y2="-319.773"/>
	<line fill="none" stroke="#BFBFBF" stroke-miterlimit="10" x1="971.26" y1="-304.996" x2="1081.005" y2="-304.996"/>
	<line fill="none" stroke="#BFBFBF" stroke-miterlimit="10" x1="971.26" y1="-297.855" x2="1064.44" y2="-297.855"/>
	<line fill="none" stroke="#BFBFBF" stroke-miterlimit="10" x1="971.26" y1="-290.449" x2="1069.952" y2="-290.449"/>
	<line fill="none" stroke="#BFBFBF" stroke-miterlimit="10" x1="971.26" y1="-334.167" x2="1071.2" y2="-334.167"/>
	<line fill="none" stroke="#BFBFBF" stroke-miterlimit="10" x1="971.26" y1="-326.761" x2="1069.952" y2="-326.761"/>
	<rect x="955.67" y="-261.095" fill="#007055" width="63.969" height="37.225"/>
	<rect x="1029.797" y="-261.095" fill="#EAEAEA" width="63.97" height="37.225"/>
	<line fill="none" stroke="#007055" stroke-miterlimit="10" x1="1043.702" y1="-242.482" x2="1079.862" y2="-242.482"/>
	<line fill="none" stroke="#007055" stroke-miterlimit="10" x1="1043.702" y1="-246.013" x2="1079.862" y2="-246.013"/>
	<line fill="none" stroke="#007055" stroke-miterlimit="10" x1="1043.702" y1="-239.167" x2="1079.862" y2="-239.167"/>
	<text transform="matrix(1 0 0 1 964.1152 -236.1514)" fill="#049775" font-family="'JaapokkiRegular'" font-size="13.1721">CUICUI</text>
	<circle fill="#1E1E1E" cx="1064.44" cy="-312.402" r="24.484"/>
	<circle fill="#BFBFBF" cx="1064.44" cy="-312.402" r="16.564"/>
	<path fill="#049775" d="M980.109-247.91c0-4.166,3.377-7.545,7.545-7.545s7.545,3.379,7.545,7.545"/>
	<g>
		<polygon fill="#F26F21" points="1120.239,-285.269 1114.683,-281.906 1109.128,-285.269 1109.128,-370.712 1120.239,-370.712 		
			"/>
		<rect x="1109.128" y="-371.886" fill="#007055" width="11.111" height="1.174"/>
		<rect x="1109.128" y="-376.31" fill="#049775" width="11.111" height="4.424"/>
		<rect x="1112.831" y="-370.712" fill="#EAEAEA" width="3.703" height="88.1"/>
		<polygon fill="#049775" points="1109.128,-285.269 1114.683,-271.689 1120.239,-285.269 1117.522,-284.283 1114.683,-285.269 
			1111.843,-284.283 		"/>
		<polygon fill="#007055" points="1114.683,-271.689 1113.513,-274.546 1115.853,-274.546 		"/>
	</g>
	<polygon opacity="0.15" fill="#FFFFFF" points="958.391,-443.871 1093.767,-274.41 1093.767,-413.25 1058.315,-443.871 	"/>
	<polygon fill="#F26F21" points="1058.315,-443.871 1058.315,-413.412 1093.767,-413.25 	"/>
</g>
<g>
	<polygon fill="#DC5A28" points="530.458,-220.648 294.005,-220.648 292.644,-230.627 531.823,-230.627 	"/>
	<path fill="#EAEAEA" d="M513.099-399H311.294c-6.494,0-11.807,5.186-11.807,11.541v11.707v87.463v11.526h11.807h201.805h11.807
		v-11.526v-87.463v-11.707C524.905-393.814,519.591-399,513.099-399z"/>
	<path fill="#1E1E1E" d="M318.655-303.798c0-10.239,8.316-18.565,18.576-18.565s18.549,8.326,18.549,18.565
		c0,10.247-8.289,18.573-18.549,18.573S318.655-293.551,318.655-303.798z"/>
	<g>
		<path fill="#1E1E1E" d="M514.626-344.322c0,1.1-0.9,2-2,2h-35.908c-1.1,0-2-0.9-2-2v-35.898c0-1.1,0.9-2,2-2h35.908
			c1.1,0,2,0.9,2,2V-344.322z"/>
	</g>
	<path fill="#1E1E1E" d="M474.776-303.798c0-6.863,5.568-12.424,12.436-12.424c6.865,0,12.434,5.561,12.434,12.424
		c0,6.867-5.568,12.43-12.434,12.43C480.345-291.368,474.776-296.931,474.776-303.798z"/>
	<path fill="#F26F21" d="M324.798-303.798c0-6.863,5.568-12.424,12.434-12.424c6.867,0,12.434,5.561,12.434,12.424
		c0,6.867-5.566,12.43-12.434,12.43C330.366-291.368,324.798-296.931,324.798-303.798z"/>
	<path fill="#007055" d="M478.149-362.268c0-9.137,7.393-16.521,16.512-16.521c9.141,0,16.533,7.385,16.533,16.521
		c0,9.134-7.393,16.521-16.533,16.521C485.542-345.746,478.149-353.134,478.149-362.268z"/>
	<polygon fill="#BFBFBF" points="531.823,-230.627 292.644,-230.627 299.487,-276.763 524.979,-276.763 	"/>
	<polygon fill="#049775" points="524.962,-179 299.487,-179 296.759,-197.957 527.728,-197.957 	"/>
	<polygon fill="#007055" points="330.841,-186.414 299.487,-179 524.962,-179 494.442,-186.414 	"/>
	<polygon fill="#049775" points="411.437,-287.462 415.897,-289.947 421.028,-287.367 423.202,-220.648 416.296,-220.648 
		409.737,-220.648 	"/>
	<polygon fill="#007055" points="429.12,-220.648 429.12,-230.502 426.757,-276.607 426.757,-288.414 422.952,-290.988 
		419.45,-286.988 419.45,-276.763 420.983,-230.627 420.983,-220.648 	"/>
	<polygon fill="#DC5A28" points="412.192,-220.648 412.192,-230.627 412.192,-276.763 412.192,-286.555 407.954,-289.568 
		403.466,-287.662 400.899,-234.98 401.341,-220.648 410.351,-220.648 	"/>
	<polygon fill="#F26F21" points="405.083,-287.166 405.083,-276.763 403.55,-230.627 403.55,-220.648 395.165,-220.648 
		395.165,-230.627 397.544,-276.763 397.544,-288.848 401.431,-290.615 	"/>
	<polygon fill="#F26F21" points="527.728,-197.957 296.759,-197.957 294.005,-220.648 530.458,-220.648 	"/>
	<rect x="301.745" y="-210.65" fill="#1E1E1E" width="221.926" height="12.693"/>
	<path opacity="0.15" fill="#FFFFFF" d="M474.776-303.798c0-6.863,5.568-12.424,12.436-12.424c6.865,0,12.434,5.561,12.434,12.424
		c0,6.867-5.568,12.43-12.434,12.43C480.345-291.368,474.776-296.931,474.776-303.798z"/>
	<path fill="#1E1E1E" d="M477.286-303.798c0-5.474,4.453-9.93,9.926-9.93c5.475,0,9.924,4.456,9.924,9.93
		c0,5.478-4.449,9.938-9.924,9.938C481.739-293.859,477.286-298.32,477.286-303.798z"/>
	<g opacity="0.15">
		<path fill="#FFFFFF" d="M476.132-380.807c-0.777-0.777-0.514-1.414,0.586-1.414h35.908c1.1,0,2,0.9,2,2v35.898
			c0,1.1-0.637,1.363-1.414,0.586L476.132-380.807z"/>
	</g>
	<polygon opacity="0.15" fill="#FFFFFF" points="301.745,-197.957 307.571,-203.807 516.796,-203.807 523.671,-197.957 	"/>
	<path fill="#049775" d="M479.954-362.268c0-8.124,6.582-14.706,14.707-14.706c8.123,0,14.707,6.582,14.707,14.706
		c0,8.125-6.584,14.707-14.707,14.707C486.536-347.561,479.954-354.143,479.954-362.268z"/>
	<polygon opacity="0.3" fill="#EAEAEA" points="394.854,-276.763 428.896,-276.763 428.896,-291.936 394.14,-291.936 	"/>
	<path fill="#BFBFBF" d="M361.065-338.445c0-28.678,23.227-51.906,51.877-51.906c28.678,0,51.908,23.229,51.908,51.906
		c0,28.655-23.23,51.9-51.908,51.9C384.292-286.545,361.065-309.79,361.065-338.445z"/>
	<path opacity="0.15" fill="#1E1E1E" d="M383.226-338.445c0-16.41,13.313-29.717,29.717-29.717
		c16.434,0,29.744,13.307,29.744,29.717c0,16.402-13.311,29.715-29.744,29.715C396.538-308.73,383.226-322.043,383.226-338.445z"/>
	<path fill="#1E1E1E" stroke="#1E1E1E" stroke-miterlimit="10" d="M386.183-338.445c0-14.795,11.986-26.784,26.76-26.784
		c14.795,0,26.791,11.989,26.791,26.784c0,14.773-11.996,26.758-26.791,26.758C398.169-311.688,386.183-323.672,386.183-338.445z"/>
	<path fill="none" stroke="#EAEAEA" stroke-width="2" stroke-linecap="round" stroke-miterlimit="10" d="M426.921-352.436
		c7.721,7.721,7.721,20.247,0,27.968"/>
	<path fill="none" stroke="#EAEAEA" stroke-width="2" stroke-linecap="round" stroke-miterlimit="10" d="M398.964-324.468
		c-7.723-7.723-7.723-20.247,0-27.968"/>
	<path fill="#EAEAEA" d="M405.585-338.445c0-4.071,3.289-7.359,7.357-7.359c4.07,0,7.389,3.288,7.389,7.359
		c0,4.057-3.318,7.357-7.389,7.357C408.874-331.088,405.585-334.389,405.585-338.445z"/>
	<path opacity="0.15" fill="#FFFFFF" stroke="#FFFFFF" stroke-miterlimit="10" d="M394.011-357.377
		c10.467-10.466,27.426-10.466,37.891,0c10.439,10.438,10.439,27.41,0,37.861L394.011-357.377z"/>
	<rect x="392.899" y="-276.763" opacity="0.15" fill="#BFBFBF" width="40.621" height="46.136"/>
</g>
</svg>
