<?xml version="1.0" encoding="utf-8"?>
<!-- Generator: Adobe Illustrator 16.0.0, SVG Export Plug-In . SVG Version: 6.00 Build 0)  -->
<!DOCTYPE svg PUBLIC "-//W3C//DTD SVG 1.1//EN" "http://www.w3.org/Graphics/SVG/1.1/DTD/svg11.dtd">
<svg version="1.1" id="Calque_1" xmlns="http://www.w3.org/2000/svg" xmlns:xlink="http://www.w3.org/1999/xlink" x="0px" y="0px"
	 width="300px" height="220px" viewBox="0 0 300 220" enable-background="new 0 0 300 220" xml:space="preserve">
<g>
	<g>
		<g>
			<rect x="-544.938" y="-260.573" fill="#606060" width="21.647" height="57.861"/>
		</g>
		<path fill="#1E1E1E" d="M-401.741-239.134c0,4.139-3.354,7.493-7.493,7.493h-249.763c-4.138,0-7.492-3.354-7.492-7.493v-172.962
			c0-4.137,3.354-7.492,7.492-7.492h249.763c4.14,0,7.493,3.355,7.493,7.492V-239.134z"/>
		<rect x="-654.761" y="-406.891" fill="#049775" width="241.293" height="153.604"/>
		<path fill="#EAEAEA" d="M-523.292-242.463c0,2.298-1.864,4.162-4.162,4.162h-13.321c-2.299,0-4.164-1.864-4.164-4.162l0,0
			c0-2.301,1.864-4.164,4.164-4.164h13.321C-525.156-246.627-523.292-244.764-523.292-242.463L-523.292-242.463z"/>
		<circle fill="#EAEAEA" cx="-481.508" cy="-242.561" r="2.629"/>
		<circle fill="#EAEAEA" cx="-471.193" cy="-242.561" r="2.629"/>
		<circle fill="#EAEAEA" cx="-460.879" cy="-242.561" r="2.629"/>
		<path fill="#1E1E1E" d="M-499.981-202.711c0,1.725-1.2,3.123-2.681,3.123h-62.906c-1.482,0-2.682-1.398-2.682-3.123l0,0
			c0-1.725,1.2-3.122,2.682-3.122h62.906C-501.181-205.833-499.981-204.436-499.981-202.711L-499.981-202.711z"/>
		<rect x="-654.761" y="-406.891" fill="#EAEAEA" width="241.293" height="7.7"/>
		
			<rect x="-429.014" y="-404.629" fill="none" stroke="#1E1E1E" stroke-width="0.2817" stroke-miterlimit="10" width="2.616" height="2.616"/>
		
			<line fill="none" stroke="#1E1E1E" stroke-width="0.6303" stroke-miterlimit="10" x1="-438.035" y1="-403.041" x2="-434.834" y2="-403.041"/>
		
			<line fill="none" stroke="#1E1E1E" stroke-width="0.6303" stroke-miterlimit="10" x1="-420.59" y1="-404.173" x2="-418.327" y2="-401.911"/>
		
			<line fill="none" stroke="#1E1E1E" stroke-width="0.6303" stroke-miterlimit="10" x1="-420.59" y1="-401.911" x2="-418.327" y2="-404.173"/>
		
			<rect x="-429.572" y="-404.07" fill="#E2E2E2" stroke="#1E1E1E" stroke-width="0.2817" stroke-miterlimit="10" width="2.614" height="2.616"/>
		<rect x="-649.552" y="-404.907" fill="#FFFFFF" width="204.102" height="3.731"/>
		<rect x="-654.761" y="-399.191" fill="#007055" width="74.024" height="145.904"/>
		<g>
			
				<line fill="none" stroke="#007055" stroke-width="1.4059" stroke-miterlimit="10" x1="-529.768" y1="-359.81" x2="-434.834" y2="-359.81"/>
			
				<line fill="none" stroke="#007055" stroke-width="1.4059" stroke-miterlimit="10" x1="-529.768" y1="-353.872" x2="-434.834" y2="-353.872"/>
			
				<line fill="none" stroke="#007055" stroke-width="1.4059" stroke-miterlimit="10" x1="-529.768" y1="-347.93" x2="-434.834" y2="-347.93"/>
			
				<line fill="none" stroke="#007055" stroke-width="1.4059" stroke-miterlimit="10" x1="-529.768" y1="-341.989" x2="-434.834" y2="-341.989"/>
			
				<line fill="none" stroke="#007055" stroke-width="1.4059" stroke-miterlimit="10" x1="-529.768" y1="-336.049" x2="-434.834" y2="-336.049"/>
			
				<line fill="none" stroke="#007055" stroke-width="1.4059" stroke-miterlimit="10" x1="-529.768" y1="-330.108" x2="-434.834" y2="-330.108"/>
			
				<line fill="none" stroke="#007055" stroke-width="1.4059" stroke-miterlimit="10" x1="-567.825" y1="-318.188" x2="-538.231" y2="-318.188"/>
			
				<line fill="none" stroke="#007055" stroke-width="1.4059" stroke-miterlimit="10" x1="-567.825" y1="-312.249" x2="-538.231" y2="-312.249"/>
			
				<line fill="none" stroke="#007055" stroke-width="1.4059" stroke-miterlimit="10" x1="-567.825" y1="-306.31" x2="-538.231" y2="-306.31"/>
			
				<line fill="none" stroke="#007055" stroke-width="1.4059" stroke-miterlimit="10" x1="-567.825" y1="-300.368" x2="-538.231" y2="-300.368"/>
		</g>
		<rect x="-567.825" y="-359.81" fill="#007055" width="29.701" height="29.702"/>
		<rect x="-529.926" y="-324.129" fill="#007055" width="95.092" height="29.703"/>
		<rect x="-654.761" y="-267.545" fill="#F26F21" width="241.293" height="14.259"/>
		
			<line fill="none" stroke="#007055" stroke-width="1.2607" stroke-miterlimit="10" x1="-473.071" y1="-262.446" x2="-434.834" y2="-262.446"/>
		
			<line fill="none" stroke="#007055" stroke-width="1.2607" stroke-miterlimit="10" x1="-473.071" y1="-258.778" x2="-434.834" y2="-258.778"/>
		<circle fill="#EAEAEA" cx="-617.75" cy="-366.513" r="12.8"/>
		
			<line fill="none" stroke="#EAEAEA" stroke-width="1.2607" stroke-miterlimit="10" x1="-640.663" y1="-339" x2="-594.835" y2="-339"/>
		
			<line fill="none" stroke="#EAEAEA" stroke-width="1.2607" stroke-miterlimit="10" x1="-640.663" y1="-333.059" x2="-594.835" y2="-333.059"/>
		
			<line fill="none" stroke="#EAEAEA" stroke-width="1.2607" stroke-miterlimit="10" x1="-640.663" y1="-327.118" x2="-594.835" y2="-327.118"/>
		
			<line fill="none" stroke="#EAEAEA" stroke-width="1.2607" stroke-miterlimit="10" x1="-640.663" y1="-321.179" x2="-594.835" y2="-321.179"/>
		
			<line fill="none" stroke="#EAEAEA" stroke-width="1.2607" stroke-miterlimit="10" x1="-640.663" y1="-315.241" x2="-594.835" y2="-315.241"/>
		
			<line fill="none" stroke="#EAEAEA" stroke-width="1.2607" stroke-miterlimit="10" x1="-640.663" y1="-309.299" x2="-594.835" y2="-309.299"/>
		
			<line fill="none" stroke="#EAEAEA" stroke-width="1.2607" stroke-miterlimit="10" x1="-640.663" y1="-303.358" x2="-594.835" y2="-303.358"/>
		
			<line fill="none" stroke="#EAEAEA" stroke-width="1.2607" stroke-miterlimit="10" x1="-640.663" y1="-297.42" x2="-594.835" y2="-297.42"/>
		<polygon opacity="0.15" fill="#FFFFFF" points="-654.761,-406.891 -413.468,-253.287 -413.468,-406.891 		"/>
	</g>
	<g>
		<path fill="#1E1E1E" d="M-448.891-200.042c-1.375,0-3.115-1.579-3.115-3.532v-117.743c0-1.948,1.74-3.532,3.115-3.532h56.213
			c1.375,0,3.113,1.584,3.113,3.532v117.743c0,1.953-1.738,3.532-3.113,3.532H-448.891z"/>
		<rect x="-447.3" y="-318.045" fill="#EAEAEA" width="52.813" height="3.629"/>
		
			<rect x="-399.47" y="-316.784" fill="none" stroke="#1E1E1E" stroke-width="0.0977" stroke-miterlimit="10" width="0.907" height="0.909"/>
		
			<line fill="none" stroke="#1E1E1E" stroke-width="0.2185" stroke-miterlimit="10" x1="-402.598" y1="-316.231" x2="-401.487" y2="-316.231"/>
		
			<line fill="none" stroke="#1E1E1E" stroke-width="0.2185" stroke-miterlimit="10" x1="-396.549" y1="-316.623" x2="-395.764" y2="-315.839"/>
		
			<line fill="none" stroke="#1E1E1E" stroke-width="0.2185" stroke-miterlimit="10" x1="-396.549" y1="-315.839" x2="-395.764" y2="-316.623"/>
		
			<rect x="-399.664" y="-316.589" fill="#E2E2E2" stroke="#1E1E1E" stroke-width="0.0977" stroke-miterlimit="10" width="0.908" height="0.909"/>
		<rect x="-446.161" y="-317.111" fill="#FFFFFF" width="40.421" height="1.759"/>
		<rect x="-447.3" y="-314.417" fill="#007055" width="52.813" height="61.129"/>
		<rect x="-447.3" y="-254.348" fill="#049775" width="52.813" height="35.371"/>
		<g>
			
				<line fill="none" stroke="#007055" stroke-width="0.5069" stroke-miterlimit="10" x1="-425.95" y1="-248.709" x2="-399.774" y2="-248.709"/>
			
				<line fill="none" stroke="#007055" stroke-width="0.5069" stroke-miterlimit="10" x1="-425.95" y1="-245.909" x2="-399.774" y2="-245.909"/>
			
				<line fill="none" stroke="#007055" stroke-width="0.5069" stroke-miterlimit="10" x1="-425.95" y1="-243.11" x2="-399.774" y2="-243.11"/>
			
				<line fill="none" stroke="#007055" stroke-width="0.5069" stroke-miterlimit="10" x1="-425.95" y1="-240.305" x2="-399.774" y2="-240.305"/>
			
				<line fill="none" stroke="#007055" stroke-width="0.5069" stroke-miterlimit="10" x1="-425.95" y1="-237.508" x2="-399.774" y2="-237.508"/>
			
				<line fill="none" stroke="#007055" stroke-width="0.5069" stroke-miterlimit="10" x1="-425.95" y1="-234.708" x2="-399.774" y2="-234.708"/>
		</g>
		<rect x="-442.15" y="-248.709" fill="#007055" width="14" height="14.002"/>
		<rect x="-425.95" y="-231.883" fill="#007055" width="26.176" height="8.402"/>
		<rect x="-447.3" y="-218.977" fill="#F26F21" width="52.813" height="6.724"/>
		<path fill="#EAEAEA" d="M-427.476-299.364c0-3.693,2.995-6.689,6.691-6.689s6.69,2.996,6.69,6.689c0,3.697-2.994,6.693-6.69,6.693
			S-427.476-295.667-427.476-299.364z"/>
		
			<line fill="none" stroke="#EAEAEA" stroke-width="0.659" stroke-miterlimit="10" x1="-432.764" y1="-284.981" x2="-408.807" y2="-284.981"/>
		
			<line fill="none" stroke="#EAEAEA" stroke-width="0.659" stroke-miterlimit="10" x1="-432.764" y1="-281.877" x2="-408.807" y2="-281.877"/>
		
			<line fill="none" stroke="#EAEAEA" stroke-width="0.659" stroke-miterlimit="10" x1="-432.764" y1="-278.77" x2="-408.807" y2="-278.77"/>
		
			<line fill="none" stroke="#EAEAEA" stroke-width="0.659" stroke-miterlimit="10" x1="-432.764" y1="-275.665" x2="-408.807" y2="-275.665"/>
		
			<line fill="none" stroke="#EAEAEA" stroke-width="0.659" stroke-miterlimit="10" x1="-432.764" y1="-272.559" x2="-408.807" y2="-272.559"/>
		
			<line fill="none" stroke="#EAEAEA" stroke-width="0.659" stroke-miterlimit="10" x1="-432.764" y1="-269.456" x2="-408.807" y2="-269.456"/>
		
			<line fill="none" stroke="#EAEAEA" stroke-width="0.659" stroke-miterlimit="10" x1="-432.764" y1="-266.351" x2="-408.807" y2="-266.351"/>
		
			<line fill="none" stroke="#EAEAEA" stroke-width="0.659" stroke-miterlimit="10" x1="-432.764" y1="-263.245" x2="-408.807" y2="-263.245"/>
		
			<line fill="none" stroke="#007055" stroke-width="0.6628" stroke-miterlimit="10" x1="-442.126" y1="-231.883" x2="-428.175" y2="-231.883"/>
		
			<line fill="none" stroke="#007055" stroke-width="0.6628" stroke-miterlimit="10" x1="-442.126" y1="-229.083" x2="-428.175" y2="-229.083"/>
		
			<line fill="none" stroke="#007055" stroke-width="0.6628" stroke-miterlimit="10" x1="-442.126" y1="-226.284" x2="-428.175" y2="-226.284"/>
		
			<line fill="none" stroke="#007055" stroke-width="0.6628" stroke-miterlimit="10" x1="-442.126" y1="-223.481" x2="-428.175" y2="-223.481"/>
		<circle fill="#EAEAEA" cx="-420.786" cy="-206.293" r="2.629"/>
		<circle fill="#EAEAEA" cx="-420.785" cy="-321.443" r="0.997"/>
		<circle fill="#EAEAEA" cx="-418.073" cy="-321.443" r="0.431"/>
		<polygon opacity="0.15" fill="#FFFFFF" points="-447.3,-318.045 -394.488,-212.253 -394.488,-318.045 		"/>
	</g>
</g>
<g>
	<polygon fill="#303030" points="-748.021,-381.82 -896.158,-470.181 -1044.303,-381.82 -1046.159,-383.19 -1046.159,-380.718 
		-896.158,-269.916 -746.159,-380.718 -746.159,-383.194 	"/>
	<polygon points="-896.158,-272.404 -1046.159,-383.19 -896.158,-472.669 -746.159,-383.194 	"/>
	<polygon opacity="0.15" fill="#FFFFFF" points="-753.771,-375.101 -746.159,-380.718 -746.159,-383.194 -879.364,-462.645 
		-947.405,-426.557 -810.991,-335.306 -810.991,-332.824 	"/>
	<polygon fill="#EC1C24" points="-758.103,-402.472 -896.158,-480.574 -1034.216,-402.472 -1036.273,-403.955 -1036.273,-401.316 
		-896.158,-300.704 -756.041,-401.316 -756.041,-403.955 	"/>
	<polygon fill="#F26F21" points="-896.158,-303.355 -1036.273,-403.955 -896.158,-483.224 -756.041,-403.955 	"/>
	<polygon opacity="0.15" fill="#FFFFFF" points="-763.662,-395.832 -756.041,-401.316 -756.041,-403.943 -896.158,-483.224 
		-957.291,-448.64 -820.868,-357.391 -820.868,-354.803 	"/>
	<g opacity="0.5">
		<polygon points="-896.158,-329.499 -1018.577,-413.957 -896.158,-483.224 -773.751,-413.953 		"/>
	</g>
	<polygon fill="#007055" points="-769.555,-421.136 -896.158,-487.476 -1022.764,-421.136 -1024.762,-422.509 -1024.762,-420.083 
		-896.158,-331.353 -767.556,-420.083 -767.556,-422.509 	"/>
	<g>
		<polygon fill="#049775" points="-896.158,-333.786 -1024.762,-422.509 -896.158,-489.916 -767.556,-422.509 		"/>
	</g>
	<g>
		<path fill="#00543E" d="M-855.38-389.773c-0.352-0.092-0.619,0.129-0.594,0.492l0.058,0.817c0.025,0.363-0.241,0.583-0.593,0.489
			l-10.721-2.86c-0.352-0.094-0.707-0.46-0.79-0.814l-2.693-7.215c-0.163-0.325-0.034-0.731,0.286-0.903l7.422-3.977
			c0.32-0.172,0.845-0.455,1.164-0.628l0.21-0.114c0.319-0.174,0.581-0.613,0.581-0.977v-0.781c0-0.364-0.212-0.87-0.472-1.125
			l-0.316-0.311c-0.26-0.255-0.564-0.181-0.678,0.165l-0.107,0.329c-0.113,0.346-0.418,0.419-0.676,0.163l-4.187-4.146
			c-0.258-0.256-0.754-0.378-1.102-0.271l-10.476,3.216c-0.348,0.106-0.89,0.045-1.204-0.137l-9.61-4.735
			c-0.336-0.139-0.598-0.55-0.58-0.913l0.367-7.829c0.018-0.363-0.261-0.716-0.618-0.784l-10.072-1.913
			c-0.357-0.068-0.757,0.154-0.889,0.493l-2.854,7.374c-0.131,0.339-0.536,0.62-0.9,0.624l-10.799,0.84
			c-0.36,0.052-0.886-0.094-1.168-0.323l-8.343-6.772c-0.282-0.229-0.788-0.303-1.125-0.165l-6.363,2.629
			c-0.336,0.139-0.611-0.045-0.611-0.409v-0.775c0-0.364-0.276-0.55-0.613-0.414l-0.34,0.137c-0.337,0.136-0.613,0.544-0.613,0.908
			v0.775c0,0.364,0.188,0.891,0.419,1.173l6.192,7.557c0.23,0.282,0.192,0.704-0.086,0.939l-5.443,5.706
			c-0.217,0.292-0.69,0.496-1.051,0.454l-12.364-1.451c-0.361-0.042-0.719,0.214-0.794,0.57l-0.767,3.607
			c-0.075,0.356-0.21,0.524-0.3,0.375s-0.212-0.039-0.272,0.246c-0.061,0.285-0.11,0.815-0.11,1.179v0.771
			c0,0.364,0.288,0.737,0.639,0.831l11.996,3.186c0.352,0.094,0.707,0.46,0.789,0.814l2.693,7.216
			c0.164,0.325,0.036,0.731-0.284,0.903l-6.991,3.758c-0.32,0.172-0.672,0.029-0.783-0.317l-0.171-0.539
			c-0.11-0.347-0.461-0.487-0.78-0.312l-0.081,0.044c-0.319,0.175-0.58,0.616-0.58,0.98v0.771c0,0.364,0.205,0.799,0.455,0.967
			s0.7,0.474,1,0.68l4.909,3.371c0.3,0.206,0.83,0.286,1.177,0.18l10.474-3.219c0.348-0.107,0.89-0.045,1.205,0.137l9.612,4.737
			c0.336,0.139,0.598,0.549,0.581,0.912l-0.362,7.838c-0.017,0.363,0.262,0.716,0.619,0.783l10.064,1.914
			c0.357,0.067,0.757-0.154,0.888-0.494l2.852-7.373c0.131-0.34,0.536-0.621,0.899-0.625l10.8-0.84
			c0.359-0.052,0.886,0.094,1.168,0.323l8.339,6.767c0.282,0.229,0.789,0.304,1.125,0.166l7.934-3.259
			c0.336-0.138,0.423-0.481,0.192-0.763l-6.179-7.557c-0.23-0.281-0.192-0.704,0.085-0.939l5.438-5.713
			c0.217-0.292,0.69-0.496,1.051-0.453l12.363,1.46c0.361,0.043,0.741-0.208,0.843-0.557l1.209-4.124
			c0.102-0.349,0.186-0.932,0.186-1.296v-0.778c0-0.364-0.288-0.736-0.64-0.829L-855.38-389.773z M-897.113-387.548
			c-3.788,1.574-9.167,0.547-12.027-2.275c-2.856-2.827-2.106-6.381,1.679-7.937c3.787-1.554,9.173-0.544,12.033,2.294
			C-892.577-392.651-893.331-389.089-897.113-387.548z"/>
	</g>
	<g>
		<g>
			<path fill="#007055" d="M-861.894-406.452c0.464-0.25,0.537-0.757,0.162-1.128l-5.542-5.476
				c-0.375-0.371-1.094-0.547-1.598-0.392l-9.907,3.045c-0.504,0.155-1.289,0.066-1.746-0.198l-9.077-4.473
				c-0.488-0.201-0.866-0.795-0.842-1.322l0.34-7.248c0.024-0.527-0.379-1.038-0.896-1.136l-9.488-1.803
				c-0.518-0.098-1.097,0.224-1.287,0.715l-2.64,6.821c-0.19,0.492-0.777,0.899-1.304,0.905l-10.208,0.793
				c-0.522,0.075-1.284-0.136-1.693-0.468l-7.881-6.396c-0.409-0.332-1.143-0.44-1.63-0.239l-7.38,3.036
				c-0.487,0.201-0.613,0.698-0.278,1.106l5.814,7.092c0.334,0.408,0.279,1.02-0.124,1.361l-5.039,5.284
				c-0.315,0.423-1,0.718-1.524,0.656l-11.774-1.387c-0.523-0.062-1.041,0.31-1.15,0.825l-1.19,5.62
				c-0.109,0.516,0.219,1.048,0.728,1.184l11.421,3.036c0.509,0.135,1.024,0.666,1.144,1.18l2.492,6.663
				c0.237,0.47,0.052,1.06-0.413,1.309l-8.279,4.447c-0.464,0.25-0.538,0.757-0.163,1.127l5.544,5.477
				c0.375,0.371,1.094,0.547,1.598,0.393l9.906-3.044c0.504-0.155,1.29-0.066,1.746,0.198l9.08,4.476
				c0.487,0.201,0.866,0.796,0.842,1.322l-0.334,7.244c-0.024,0.526,0.379,1.037,0.897,1.136l9.481,1.803
				c0.518,0.099,1.097-0.224,1.287-0.715l2.637-6.82c0.19-0.491,0.777-0.898,1.304-0.905l10.208-0.794
				c0.522-0.074,1.284,0.136,1.693,0.468l7.878,6.394c0.409,0.332,1.144,0.439,1.631,0.239l7.383-3.032
				c0.487-0.2,0.613-0.698,0.28-1.106l-5.804-7.096c-0.333-0.408-0.277-1.021,0.124-1.362l5.034-5.283
				c0.314-0.423,1-0.718,1.523-0.657l11.772,1.391c0.523,0.062,1.041-0.31,1.149-0.826l1.186-5.618
				c0.108-0.516-0.22-1.049-0.729-1.184l-11.414-3.032c-0.509-0.135-1.024-0.666-1.145-1.179l-2.492-6.663
				c-0.236-0.471-0.051-1.061,0.413-1.31L-861.894-406.452z M-897.113-389.633c-3.788,1.558-9.167,0.54-12.027-2.292
				c-2.856-2.821-2.106-6.383,1.679-7.93c3.787-1.563,9.173-0.538,12.033,2.287C-892.577-394.747-893.331-391.183-897.113-389.633z"
				/>
		</g>
	</g>
	<g>
		<path fill="#00543E" d="M-857.097-450.093c-0.119-0.307-0.36-0.418-0.537-0.247c-0.176,0.171-0.428,0.033-0.559-0.306
			l-0.634-1.642c-0.131-0.339-0.536-0.614-0.899-0.611l-8.576,0.079c-0.363,0.003-0.832-0.238-1.041-0.536l-4.74-5.251
			c-0.254-0.261-0.316-0.734-0.14-1.052l3.391-6.098c0.177-0.318,0.027-0.627-0.331-0.688l-5.975-1.002
			c-0.358-0.06-0.882,0.08-1.162,0.312l-4.882,4.037c-0.28,0.232-0.799,0.35-1.152,0.263l-7.798-1.443
			c-0.36-0.043-0.799-0.34-0.973-0.66l-2.98-5.476c-0.174-0.32-0.608-0.64-0.965-0.711l-6.821-1.37
			c-0.356-0.072-0.599,0.163-0.539,0.522l1.319,7.826c0.061,0.359-0.173,0.745-0.519,0.858l-6.054,2.551
			c-0.322,0.169-0.863,0.198-1.201,0.064l-7.934-3.134c-0.338-0.133-0.879-0.105-1.202,0.063l-3.032,1.581
			c-0.323,0.168-0.34,0.472-0.038,0.675l6.999,4.714c0.302,0.204,0.435,0.645,0.295,0.981l-0.889,4.04
			c-0.024,0.363-0.337,0.708-0.696,0.768l-8.041,1.332c-0.359,0.059-0.561,0.391-0.449,0.737l1.774,5.485
			c0.112,0.346,0.501,0.626,0.865,0.624l8.58-0.079c0.364-0.003,0.823,0.244,1.02,0.55l4.787,5.622
			c0.242,0.271,0.27,0.737,0.062,1.036l-1.889,2.701c-0.208,0.298-0.536,0.289-0.728-0.02l-0.062-0.101
			c-0.192-0.309-0.492-0.358-0.667-0.108s-0.319,0.751-0.319,1.115v0.991c0,0.364,0.268,0.791,0.595,0.95l6.088,2.951
			c0.328,0.159,0.825,0.099,1.105-0.133l4.888-4.044c0.28-0.232,0.799-0.35,1.151-0.262l7.793,1.438
			c0.36,0.043,0.799,0.34,0.973,0.659l2.996,5.489c0.174,0.319,0.613,0.555,0.976,0.524l5.055-0.43
			c0.362-0.031,0.956-0.082,1.318-0.113l0.413-0.036c0.362-0.031,0.659-0.354,0.659-0.718v-0.982c0-0.364-0.063-0.952-0.142-1.307
			l-0.048-0.214c-0.078-0.355-0.237-0.548-0.354-0.429s-0.278-0.074-0.358-0.428l-0.485-2.153c-0.08-0.354,0.138-0.738,0.482-0.851
			l6.06-2.542c0.322-0.169,0.863-0.198,1.201-0.065l7.939,3.124c0.338,0.133,0.818,0.024,1.066-0.242l3.287-3.529
			c0.248-0.266,0.451-0.781,0.451-1.145v-0.982c0-0.364-0.257-0.812-0.57-0.996l-0.376-0.221c-0.313-0.184-0.616-0.041-0.672,0.318
			l-0.124,0.802c-0.056,0.359-0.358,0.503-0.672,0.319l-5.108-2.998c-0.313-0.184-0.491-0.622-0.395-0.972l0.989-5.641
			c0.017-0.363,0.322-0.719,0.679-0.791l6.136-1.228c0.356-0.071,0.941-0.184,1.299-0.25l0.458-0.084
			c0.357-0.066,0.683-0.369,0.722-0.673S-856.979-449.786-857.097-450.093z M-886.025-445.667c-1.728,1.854-5.574,2.18-8.58,0.73
			c-3.014-1.473-4.044-4.154-2.307-6.002c1.73-1.87,5.577-2.193,8.581-0.736C-885.315-450.217-884.284-447.523-886.025-445.667z"/>
	</g>
	<g>
		<g>
			<path fill="#007055" d="M-870.913-465.758c0.222-0.317,0.118-0.713-0.229-0.881l-6.016-2.912
				c-0.348-0.168-0.876-0.104-1.173,0.141l-4.819,3.978c-0.297,0.246-0.848,0.371-1.223,0.279l-7.718-1.428
				c-0.384-0.047-0.849-0.363-1.033-0.702l-2.941-5.395c-0.185-0.339-0.65-0.59-1.035-0.558l-6.719,0.556
				c-0.385,0.032-0.63,0.366-0.545,0.743l1.229,5.446c0.085,0.377-0.146,0.783-0.512,0.904l-5.978,2.513
				c-0.343,0.178-0.917,0.208-1.277,0.067l-7.857-3.079c-0.36-0.141-0.87-0.026-1.134,0.256l-3.245,3.465
				c-0.264,0.282-0.208,0.672,0.125,0.868l6.885,4.05c0.333,0.196,0.503,0.655,0.378,1.021l-0.921,4.636
				c-0.021,0.386-0.35,0.752-0.731,0.815l-7.959,1.313c-0.381,0.063-0.58,0.409-0.44,0.77l1.676,4.355
				c0.139,0.36,0.568,0.653,0.955,0.649l8.498-0.068c0.386-0.003,0.907,0.234,1.158,0.528l4.589,4.454
				c0.297,0.247,0.36,0.707,0.139,1.023l-3.238,4.627c-0.222,0.316-0.118,0.713,0.229,0.881l6.014,2.906
				c0.348,0.168,0.876,0.105,1.174-0.141l4.823-3.973c0.298-0.246,0.849-0.371,1.224-0.279l7.712,1.429
				c0.384,0.047,0.85,0.362,1.035,0.701l2.953,5.39c0.186,0.339,0.652,0.59,1.037,0.558l6.705-0.555
				c0.386-0.032,0.631-0.366,0.546-0.743l-1.225-5.442c-0.085-0.377,0.146-0.783,0.513-0.904l5.983-2.513
				c0.343-0.177,0.917-0.208,1.276-0.067l7.863,3.08c0.359,0.141,0.869,0.025,1.133-0.257l3.23-3.462
				c0.264-0.282,0.207-0.673-0.126-0.869l-6.882-4.05c-0.333-0.196-0.517-0.659-0.407-1.029l0.963-4.629
				c0.019-0.386,0.346-0.752,0.727-0.815l7.949-1.313c0.381-0.063,0.579-0.409,0.44-0.77l-1.679-4.355
				c-0.139-0.36-0.568-0.653-0.954-0.65l-8.494,0.067c-0.386,0.003-0.907-0.235-1.158-0.528l-4.585-4.455
				c-0.297-0.247-0.359-0.707-0.138-1.024L-870.913-465.758z M-886.025-446.906c-1.728,1.864-5.574,2.18-8.58,0.736
				c-3.014-1.466-4.044-4.162-2.307-6.006c1.73-1.866,5.577-2.184,8.581-0.738C-885.315-451.45-884.284-448.753-886.025-446.906z"/>
		</g>
	</g>
	<polygon opacity="0.15" fill="#FFFFFF" points="-775.21,-414.791 -767.556,-420.083 -767.556,-422.509 -896.158,-489.916 
		-957.291,-457.875 -832.375,-377.789 -832.375,-375.351 	"/>
</g>
<g>
	<path fill="#EAEAEA" d="M-470.511,414.837c0-25.813-20.927-46.744-46.745-46.744c-25.813,0-46.742,20.932-46.742,46.744
		c0,12.961,5.275,24.688,13.799,33.156h-0.005c7.092,6.93,11.584,17.203,11.584,27.727h42.729c0-10.523,4.379-20.385,11.587-27.727
		h-0.004C-475.789,439.524-470.511,427.798-470.511,414.837z"/>
	<path fill="none" stroke="#BFBFBF" stroke-linecap="round" stroke-linejoin="round" stroke-miterlimit="10" d="M-505.229,426.241
		c1.843-2.51,0.09-5.279-2.588-5.246c1.254-2.164-0.168-4.361-2.843-3.955c-0.1-3.078-2.845-4.203-5.248-2.168
		c-0.439-2.465-3.747-3.355-5.417-0.846c-1.657-1.223-4.164,0.307-3.791,2.404c-1.422-0.068-3.218,1.455-2.405,3.928
		c-2.142,0.066-3.589,3.791-2.316,5.883c1.339,2.254,1.362,14.152,0.617,19.842c-0.632,4.83-0.732,10.709-0.162,14.699
		c0.618,4.285,1.366,9.715,0.804,14.938"/>
	<path fill="none" stroke="#BFBFBF" stroke-linecap="round" stroke-linejoin="round" stroke-miterlimit="10" d="M-527.521,420.358
		c2.134-0.141,3.561,0.621,4.625,2.75C-525.326,423.374-527.113,421.903-527.521,420.358z"/>
	<path fill="none" stroke="#BFBFBF" stroke-linecap="round" stroke-linejoin="round" stroke-miterlimit="10" d="M-525.024,416.47
		c2.117,0.301,3.281,1.344,3.885,3.639C-523.57,419.87-524.944,418.067-525.024,416.47z"/>
	<path fill="none" stroke="#BFBFBF" stroke-linecap="round" stroke-linejoin="round" stroke-miterlimit="10" d="M-521.325,414.026
		c1.28,0.949,1.555,1.721,1.367,4.162C-521.55,416.585-521.602,415.644-521.325,414.026z"/>
	<path fill="none" stroke="#BFBFBF" stroke-linecap="round" stroke-linejoin="round" stroke-miterlimit="10" d="M-507.818,420.995
		c-2.134-0.135-3.574,0.545-4.638,2.672C-510.028,423.929-508.226,422.552-507.818,420.995z"/>
	<path fill="none" stroke="#BFBFBF" stroke-linecap="round" stroke-linejoin="round" stroke-miterlimit="10" d="M-510.661,417.04
		c-2.115,0.305-3.324,1.234-3.927,3.533C-512.157,420.337-510.74,418.642-510.661,417.04z"/>
	<path fill="none" stroke="#BFBFBF" stroke-linecap="round" stroke-linejoin="round" stroke-miterlimit="10" d="M-515.908,414.872
		c-1.364,1.361-2.198,2.705-2.009,5.146C-515.892,418.481-515.632,416.489-515.908,414.872z"/>
	<path fill="none" stroke="#BFBFBF" stroke-linecap="round" stroke-linejoin="round" stroke-miterlimit="10" d="M-505.248,426.226
		c-1.34,2.254-1.363,14.154-0.618,19.842c0.633,4.83,0.736,10.709,0.163,14.699c-0.615,4.285-1.364,9.715-0.806,14.938"/>
	<path fill="none" stroke="#000000" stroke-miterlimit="10" d="M-561.634,400.126"/>
	<path fill="none" stroke="#000000" stroke-miterlimit="10" d="M-562.31,403.077"/>
	<path opacity="0.35" fill="#FFFFFF" d="M-472.597,395.36c0,13.996-20.057,25.342-44.792,25.342
		c-24.74,0-44.792-11.346-44.792-25.342"/>
	<path fill="#049775" d="M-472.901,400.054c-22.791-5.465-65.745-5.354-88.733,0.072l0,0c-4.159-10.758-0.605-21.75,8.718-22.713
		c-1.122-8.035,2.09-13.848,8.193-14.139c-0.481-9.799,9.317-12.369,14.411-8.354c2.136-8.352,16.942-9.479,18.84,3.053
		c3.654-7.709,20.24-5.621,18.796,7.875c10.117-2.416,15.741,6.1,10.281,13.971C-470.511,380.62-467.94,393.315-472.901,400.054
		L-472.901,400.054z"/>
	<path fill="none" stroke="#007055" stroke-linecap="round" stroke-linejoin="round" stroke-miterlimit="10" d="M-552.917,377.413
		c0.726,4.012,2.891,7.061,3.855,8.27"/>
	<path fill="none" stroke="#007055" stroke-linecap="round" stroke-linejoin="round" stroke-miterlimit="10" d="M-547.157,369.755
		c0-7.23,9.155-12.408,15.88-7.795"/>
	<path fill="none" stroke="#007055" stroke-linecap="round" stroke-linejoin="round" stroke-miterlimit="10" d="M-522.11,361.577
		c4.885-5.326,15.134-2.955,16.974,4.99"/>
	<path fill="none" stroke="#007055" stroke-linecap="round" stroke-linejoin="round" stroke-miterlimit="10" d="M-493.306,377.253
		c6.814-2.414,14.758,4.482,12.662,12.355"/>
	<path fill="none" stroke="#007055" stroke-linecap="round" stroke-linejoin="round" stroke-miterlimit="10" d="M-516.009,380.685
		c-7.205,0.6-13.121-8.1-9.081-15.184"/>
	<path fill="none" stroke="#007055" stroke-linecap="round" stroke-linejoin="round" stroke-miterlimit="10" d="M-503.569,367.415
		c4.342,5.779,0.137,15.418-8.01,15.77"/>
	<path fill="none" stroke="#007055" stroke-linecap="round" stroke-linejoin="round" stroke-miterlimit="10" d="M-534.34,378.319
		c3.209,4.273-0.089,11.125-6.107,11.381"/>
	<path fill="none" stroke="#007055" stroke-linecap="round" stroke-linejoin="round" stroke-miterlimit="10" d="M-529.56,374.114
		c-1.822,5.021-9.486,6.313-12.993,1.412"/>
	<path fill="none" stroke="#007055" stroke-linecap="round" stroke-linejoin="round" stroke-miterlimit="10" d="M-495.584,366.421
		c0.98,4.32-1.61,6.813-6.245,5.832"/>
	<path fill="none" stroke="#007055" stroke-linecap="round" stroke-linejoin="round" stroke-miterlimit="10" d="M-485.082,387.616
		c3.654-0.762,6.258,3.486,3.843,6.883"/>
	
		<line fill="none" stroke="#F26F21" stroke-width="3" stroke-miterlimit="10" x1="-517.256" y1="336.483" x2="-517.256" y2="312.388"/>
	
		<line fill="none" stroke="#F26F21" stroke-width="3" stroke-miterlimit="10" x1="-470.511" y1="369.442" x2="-453.471" y2="352.409"/>
	
		<line fill="none" stroke="#F26F21" stroke-width="3" stroke-miterlimit="10" x1="-562.965" y1="369.442" x2="-580.004" y2="352.409"/>
	
		<line fill="none" stroke="#F26F21" stroke-width="3" stroke-miterlimit="10" x1="-489.792" y1="344.479" x2="-477.746" y2="323.616"/>
	
		<line fill="none" stroke="#F26F21" stroke-width="3" stroke-miterlimit="10" x1="-543.944" y1="344.479" x2="-555.992" y2="323.616"/>
	<rect x="-538.619" y="475.72" fill="#F26F21" width="42.738" height="9.412"/>
	
		<rect x="-540.779" y="475.72" fill="#F26F21" stroke="#F26F21" stroke-linecap="round" stroke-linejoin="round" stroke-miterlimit="10" width="47.057" height="1.932"/>
	<path fill="#1E1E1E" d="M-495.881,485.132c0,9.795-9.582,17.74-21.407,17.74s-21.331-7.945-21.331-17.74"/>
	<path fill="#BFBFBF" d="M-525.324,498.37c-0.453,0.902-2.037,1.023-3.53,0.264c-1.494-0.76-2.334-2.1-1.876-3.002
		c0.456-0.896,2.037-1.014,3.53-0.262C-525.707,496.13-524.866,497.468-525.324,498.37z"/>
	<path fill="#BFBFBF" d="M-509.166,498.37c0.458,0.902,2.037,1.023,3.53,0.264s2.334-2.1,1.882-3.002
		c-0.458-0.896-2.037-1.014-3.531-0.262C-508.782,496.13-509.623,497.468-509.166,498.37z"/>
	
		<line fill="none" stroke="#F26F21" stroke-width="2" stroke-miterlimit="10" x1="-517.256" y1="510.337" x2="-517.256" y2="532.388"/>
	
		<line fill="none" stroke="#F26F21" stroke-width="2" stroke-miterlimit="10" x1="-530.385" y1="503.353" x2="-530.385" y2="519.495"/>
	
		<line fill="none" stroke="#F26F21" stroke-width="2" stroke-miterlimit="10" x1="-504.845" y1="503.835" x2="-504.845" y2="522.386"/>
	
		<line fill="none" stroke="#F26F21" stroke-width="2" stroke-miterlimit="10" x1="-511.472" y1="515.157" x2="-511.472" y2="528.892"/>
	
		<line fill="none" stroke="#F26F21" stroke-width="2" stroke-miterlimit="10" x1="-523.397" y1="511.909" x2="-523.397" y2="526.124"/>
	<path fill="#F0F0F0" d="M-474.686,504.396c12.489,2.127,25.944,0.967,38.269,0.967c7.969,0,15.806,0.406,23.735,0.633
		c7.268,0.209,23.212,2.379,19.863-6.365c-1.39-2.543-4.55-3.133-7.735-3.623c-2.705-0.418-5.983-0.67-9.185-0.082
		c1.754-8.172,0.911-15.102-8.664-18.203c-9.035-2.922-15.063,2.197-17.114,11.119c0.666-8.141,0.124-15.129-3.247-20.186
		c-4.243-6.359-13.012-8.979-21.377-7.963c-8.066,0.977-13.872,7.877-15.126,13.623c-1.039,4.746-2.591,11.268,2.53,19.363
		c-5.062-4.365-10.786-1.229-11.024,4.035C-483.956,501.985-479.848,503.593-474.686,504.396"/>
	<path fill="#F0F0F0" d="M-579.798,394.894c-8.146,1.393-16.917,0.629-24.954,0.629c-5.197,0-10.305,0.268-15.476,0.414
		c-4.74,0.133-15.135,1.551-12.951-4.152c0.905-1.656,2.965-2.041,5.043-2.359c1.762-0.275,3.9-0.434,5.989-0.053
		c-1.146-5.336-0.597-9.846,5.646-11.869c5.891-1.906,9.822,1.43,11.158,7.252c-0.434-5.309-0.08-9.869,2.123-13.168
		c2.764-4.141,8.483-5.848,13.937-5.193c5.259,0.641,9.045,5.141,9.862,8.893c0.677,3.092,1.688,7.34-1.652,12.617
		c3.303-2.84,7.034-0.801,7.192,2.631C-573.757,393.323-576.435,394.366-579.798,394.894"/>
</g>
<g>
	<path fill="#F26F21" d="M459.001,375.377c-3.021-1.743-5.87-2.252-8.381-1.705v-0.002l-169.693,36.984l0.004,0.008
		c-5.828,1.346-9.804,8.453-9.804,19.292c0,15.554,8.187,32.894,18.289,38.722c3.022,1.748,5.871,2.256,8.384,1.705l0.004,0.008
		l169.799-37.019v-0.001c5.764-1.412,9.688-8.5,9.688-19.266C477.29,398.548,469.101,381.209,459.001,375.377z"/>
	<path fill="#007055" d="M331.206,399.693c10.291,1.839,32.589,30.297,18.213,59.054c-13.645,27.292-9.39,54.276,8.508,73.641
		l85.839-18.245l1.792-0.384c-17.898-19.365-22.858-46.198-9.214-73.49c14.376-28.755-8.723-57.511-19.011-59.35L331.206,399.693z"
		/>
	<path fill="#1E1E1E" d="M333.946,399.105c10.288,1.84,32.585,30.299,18.209,59.055c-13.645,27.289-9.39,54.276,8.509,73.642
		l85.839-18.245l1.791-0.385c-17.896-19.363-22.857-46.199-9.213-73.488c14.376-28.756-8.721-57.512-19.012-59.35L333.946,399.105z"
		/>
	
		<line fill="none" stroke="#BFBFBF" stroke-width="1.1899" stroke-miterlimit="10" x1="361.547" y1="408.672" x2="419.346" y2="395.518"/>
	
		<line fill="none" stroke="#BFBFBF" stroke-width="1.1899" stroke-miterlimit="10" x1="363.647" y1="412.255" x2="421.446" y2="399.1"/>
	
		<line fill="none" stroke="#BFBFBF" stroke-width="1.1899" stroke-miterlimit="10" x1="365.358" y1="416.142" x2="412.233" y2="405.475"/>
	<g>
		<g>
			<g>
				<path fill="#EAEAEA" d="M372.123,427.916c2.769-2.137,4.104-2.852,6.736-3.998c1.682-0.731,3.188-0.818,4.531-0.373
					c1.345,0.445,2.129,1.322,2.357,2.61c0.228,1.288-0.203,2.876-1.265,4.55c-1.061,1.673-2.434,2.892-4.12,3.657
					c-1.012,0.46-1.519,0.71-2.54,1.239c0.301,3.492,0.433,5.362,0.657,9.411c-1.611,0.616-2.417,0.922-4.018,1.463
					C373.796,437.104,373.215,434.214,372.123,427.916z M377.421,431.396c1.033-0.618,1.548-0.9,2.565-1.406
					c0.566-0.282,1.027-0.711,1.385-1.299c0.359-0.59,0.495-1.065,0.415-1.467c-0.08-0.4-0.347-0.672-0.8-0.8
					c-0.451-0.127-0.958-0.07-1.52,0.185c-1.012,0.458-1.521,0.717-2.553,1.319C377.155,429.04,377.251,429.766,377.421,431.396z"/>
				<path fill="#EAEAEA" d="M391.011,426.957c0.263,0.512,0.39,0.797,0.646,1.348c0.711-1.132,1.966-1.622,3.767-1.511
					c0.702,0.043,1.371,0.197,2.007,0.466c-0.389,1.2-0.579,1.786-0.978,3.049c-1.015-0.525-1.93-0.558-2.749-0.08
					c-0.818,0.477-1.272,1.265-1.358,2.365c0.257,2.96,0.368,4.553,0.6,7.701c-1.393,0.219-2.091,0.354-3.498,0.684
					c-0.345-6.246-0.501-9.481-1.111-13.8C389.409,427.063,389.944,427.022,391.011,426.957z"/>
				<path fill="#EAEAEA" d="M398.563,420.122c1.427-0.148,2.142-0.242,3.581-0.487c0.175,1.572,0.261,2.391,0.424,4.047
					c-1.414,0.064-2.12,0.07-3.525,0.065C398.86,422.229,398.766,421.498,398.563,420.122z M399.452,427.378
					c1.393,0.097,2.088,0.141,3.487,0.188c0.491,5.18,0.722,7.864,1.346,12.083c-1.405-0.01-2.104-0.018-3.515,0.009
					C400.198,435.064,399.979,432.306,399.452,427.378z"/>
				<path fill="#EAEAEA" d="M407.904,427.514c0.258,0.479,0.386,0.719,0.645,1.194c0.959-1.131,2.07-1.931,3.318-2.284
					c1.645-0.467,3.117-0.178,4.408,0.885c1.292,1.062,2.028,2.563,2.199,4.536c0.231,2.666,0.407,3.553,0.777,5.21
					c-1.407,0.565-2.103,0.785-3.484,1.164c-0.365-1.689-0.566-2.408-0.797-5.079c-0.084-0.979-0.439-1.762-1.066-2.352
					c-0.627-0.589-1.356-0.776-2.182-0.592c-0.823,0.185-1.483,0.68-1.973,1.458c-0.489,0.779-0.683,1.59-0.588,2.483
					c0.262,2.44,0.426,3.439,0.772,5.271c-1.403,0.211-2.097,0.262-3.47,0.255c-0.648-4.049-0.884-6.706-1.351-12.063
					C406.227,427.597,406.783,427.582,407.904,427.514z"/>
				<path fill="#EAEAEA" d="M425.929,421.104c1.168-0.566,1.751-0.854,2.918-1.412c0.157,1.23,0.243,1.813,0.418,2.92
					c-1.194,0.76-1.79,1.134-2.979,1.848c0.402,3.456,0.63,4.966,1.144,7.621c-1.567,1.325-2.332,1.868-3.845,2.797
					c-0.536-2.487-0.71-4.413-1.055-8.283c-1.059,0.563-1.587,0.826-2.636,1.316c-0.12-1.504-0.176-2.278-0.283-3.871
					c1.043-0.45,1.565-0.687,2.613-1.172c-0.158-2.102-0.229-3.197-0.361-5.488c1.46-0.555,2.188-0.829,3.64-1.317
					C425.658,418.184,425.744,419.193,425.929,421.104z"/>
			</g>
		</g>
	</g>
	
		<line fill="none" stroke="#BFBFBF" stroke-width="1.1899" stroke-miterlimit="10" x1="360.664" y1="460.407" x2="401.853" y2="453.146"/>
	
		<line fill="none" stroke="#BFBFBF" stroke-width="1.1899" stroke-miterlimit="10" x1="383.404" y1="472.23" x2="424.593" y2="464.967"/>
	
		<line fill="none" stroke="#BFBFBF" stroke-width="1.1899" stroke-miterlimit="10" x1="382.923" y1="476.49" x2="424.111" y2="469.229"/>
	
		<line fill="none" stroke="#BFBFBF" stroke-width="1.1899" stroke-miterlimit="10" x1="382.345" y1="480.764" x2="423.533" y2="473.5"/>
	
		<line fill="none" stroke="#BFBFBF" stroke-width="1.1899" stroke-miterlimit="10" x1="382.611" y1="484.76" x2="423.798" y2="477.498"/>
	
		<line fill="none" stroke="#BFBFBF" stroke-width="1.1899" stroke-miterlimit="10" x1="383.012" y1="489.037" x2="424.198" y2="481.773"/>
	
		<line fill="none" stroke="#BFBFBF" stroke-width="1.1899" stroke-miterlimit="10" x1="359.283" y1="464.928" x2="426.617" y2="453.055"/>
	
		<line fill="none" stroke="#BFBFBF" stroke-width="1.1899" stroke-miterlimit="10" x1="358.628" y1="469.207" x2="425.964" y2="457.336"/>
	<path fill="#BFBFBF" d="M358.169,476.055c-2.639,9.828-1.76,36.236,8.951,44.305l19.585-4.107
		c-6.896-10.123-14.495-24.738-9.139-43.588L358.169,476.055z"/>
	<g>
		<g>
			<path fill="#EAEAEA" d="M398.729,497.484c-0.375,0.474-0.564,0.726-0.935,1.251c-0.4-0.073-0.831-0.031-1.288,0.14
				c-0.458,0.172-0.866,0.433-1.227,0.786c-0.359,0.354-0.647,0.831-0.854,1.449c-0.207,0.619-0.275,1.222-0.213,1.819
				c0.065,0.624,0.252,1.096,0.572,1.443c0.319,0.349,0.692,0.556,1.109,0.604c0.418,0.048,0.857-0.044,1.319-0.291
				c0.461-0.246,0.855-0.633,1.179-1.156c0.473,0.462,0.709,0.703,1.186,1.203c-0.679,1.184-1.507,1.979-2.494,2.328
				c-1.138,0.401-2.175,0.146-3.077-0.474c-0.901-0.619-1.399-1.381-1.521-2.548s0.148-2.584,0.851-3.88
				c0.703-1.296,1.632-2.079,2.766-2.51C397.048,497.29,397.926,497.248,398.729,497.484z"/>
			<path fill="#EAEAEA" d="M402.278,498.602c0.774-0.109,1.46,0.075,2.056,0.55c0.598,0.475,0.938,1.11,1.022,1.918
				c0.084,0.806-0.112,1.549-0.582,2.284c-0.469,0.734-1.078,1.271-1.837,1.533c-0.751,0.26-1.429,0.127-2.028-0.389
				s-0.955-1.262-1.054-2.203c-0.099-0.943,0.088-1.807,0.557-2.542S401.511,498.709,402.278,498.602z M403.635,502.425
				c0.215-0.36,0.295-0.781,0.249-1.223c-0.044-0.423-0.208-0.758-0.486-1.015c-0.288-0.266-0.612-0.355-0.976-0.291
				c-0.371,0.066-0.646,0.302-0.85,0.653c-0.206,0.355-0.322,0.788-0.271,1.271c0.051,0.481,0.243,0.859,0.522,1.118
				c0.271,0.252,0.587,0.346,0.945,0.235C403.119,503.067,403.418,502.789,403.635,502.425z"/>
			<path fill="#EAEAEA" d="M411.698,497.169c0.046,0.436,0.068,0.646,0.112,1.067c0.557-0.047,0.835-0.071,1.39-0.138
				c0.065,0.622,0.095,0.921,0.155,1.498c-0.557,0.045-0.835,0.061-1.394,0.087c0.159,1.525,0.23,2.202,0.362,3.471
				c-0.655,0.049-0.984,0.072-1.639,0.131c-0.143-1.364-0.214-2.059-0.369-3.546c-0.707,0.015-1.06,0.017-1.767,0.024
				c0.152,1.463,0.229,2.206,0.385,3.699c-0.652,0.077-0.979,0.124-1.629,0.226c-0.171-1.633-0.254-2.413-0.409-3.898
				c-0.34,0.008-0.507,0.014-0.846,0.026c-0.058-0.554-0.084-0.813-0.138-1.326c0.339-0.011,0.509-0.018,0.848-0.026
				c-0.038-0.367-0.059-0.547-0.096-0.904c-0.083-0.798,0.085-1.42,0.494-1.937c0.384-0.484,0.928-0.822,1.618-0.986
				c0.269-0.063,0.55-0.051,0.849,0.057c0.298,0.106,0.758,0.551,0.761,0.551c0.014-0.002,0.08-0.17,0.126-0.245
				c0.377-0.617,0.903-1.091,1.585-1.325c0.645-0.222,1.231-0.063,1.767,0.546c-0.415,0.761-0.625,1.109-1.053,1.747
				c-0.167-0.173-0.334-0.242-0.496-0.208c-0.091,0.02-0.17,0.043-0.229,0.073s-0.13,0.095-0.215,0.182
				c-0.086,0.087-0.145,0.228-0.175,0.423S411.668,496.877,411.698,497.169z M410.17,498.349c-0.042-0.398-0.061-0.601-0.104-1.007
				c-0.025-0.239,0.034-0.605-0.021-0.742c-0.081-0.201-0.634-0.344-1.092-0.287c-0.092,0.012-0.169,0.034-0.229,0.057
				s-0.137,0.064-0.225,0.133c-0.087,0.068-0.145,0.186-0.179,0.347c-0.034,0.163-0.04,0.369-0.014,0.622
				c0.04,0.378,0.061,0.567,0.1,0.947C409.114,498.396,409.466,498.385,410.17,498.349z"/>
			<path fill="#EAEAEA" d="M417.89,501.098c0.459,0.153,0.688,0.22,1.145,0.335c-0.46,0.64-1.101,1.035-1.917,1.21
				c-0.723,0.154-1.366,0.079-1.934-0.276c-0.568-0.356-0.893-0.92-0.968-1.654c-0.075-0.733,0.113-1.431,0.564-2.156
				c0.451-0.727,1.032-1.247,1.754-1.482s1.375-0.116,1.952,0.362c0.577,0.478,0.913,1.168,1.006,2.057
				c0.021,0.207,0.027,0.402,0.016,0.588c-1.462,0.552-2.206,0.705-3.704,0.916c0.089,0.171,0.2,0.303,0.335,0.4
				c0.272,0.198,0.583,0.263,0.93,0.195C417.393,501.527,417.665,501.363,417.89,501.098z M415.683,500.082
				c0.959-0.179,1.436-0.297,2.382-0.596c-0.089-0.239-0.213-0.438-0.379-0.591c-0.27-0.249-0.578-0.319-0.923-0.22
				c-0.343,0.099-0.634,0.339-0.835,0.697C415.814,499.575,415.733,499.819,415.683,500.082z"/>
			<path fill="#EAEAEA" d="M423.844,498.439c0.447,0.041,0.668,0.047,1.108,0.021c-0.418,1.048-1.032,1.697-1.822,2.123
				c-0.699,0.377-1.328,0.434-1.881,0.222c-0.552-0.211-0.869-0.744-0.963-1.639s0.072-1.8,0.506-2.686s1.007-1.484,1.721-1.803
				s1.36-0.275,1.919,0.026c0.559,0.301,0.87,0.763,0.947,1.502c0.018,0.172,0.018,0.344,0.005,0.513
				c-1.409,1.063-2.121,1.534-3.561,2.303c0.092,0.194,0.212,0.338,0.345,0.426c0.27,0.178,0.571,0.169,0.902-0.043
				C423.38,499.205,423.638,498.878,423.844,498.439z M421.692,497.975c0.927-0.477,1.387-0.741,2.304-1.311
				c-0.085-0.203-0.204-0.356-0.365-0.46c-0.261-0.168-0.56-0.173-0.896,0.003c-0.335,0.175-0.617,0.482-0.813,0.922
				C421.812,497.377,421.737,497.664,421.692,497.975z"/>
		</g>
	</g>
	<g>
		<defs>
			<path id="SVGID_1_" d="M333.946,399.105c10.288,1.84,32.585,30.299,18.209,59.055c-13.645,27.289-9.39,54.276,8.509,73.642
				l85.839-18.245l1.791-0.385c-17.896-19.363-22.857-46.199-9.213-73.488c14.376-28.756-8.721-57.512-19.012-59.35L333.946,399.105
				z"/>
		</defs>
		<clipPath id="SVGID_2_">
			<use xlink:href="#SVGID_1_"  overflow="visible"/>
		</clipPath>
		<path opacity="0.15" clip-path="url(#SVGID_2_)" fill="#FFFFFF" d="M360.664,531.802c-6.552-38.435,71.378-95.505,59.405-151.468
			l16.977-21.54L510.981,403l-13.689,121.662l-81.762,12.91L360.664,531.802z"/>
	</g>
	<path opacity="0.15" fill="#1E1E1E" d="M288.979,408.9c5.506,4.342,12.558,1.884,22.884-0.271
		c10.537-2.197,148.701-32.275,148.701-32.275s-2.508-1.832-4.91-2.346h-37.776l-119.411,32.836L288.979,408.9z"/>
	<path fill="#049775" d="M459.001,314.302c-3.021-1.744-5.87-2.251-8.381-1.703v-0.004L280.927,349.58l0.004,0.008
		c-5.828,1.346-9.804,8.453-9.804,19.292c0,15.552,8.187,32.892,18.289,38.723c3.022,1.745,5.871,2.253,8.384,1.705l0.004,0.008
		l169.799-37.021l0,0c5.764-1.413,9.688-8.501,9.688-19.265C477.29,337.472,469.101,320.133,459.001,314.302z"/>
	<g>
		<defs>
			<path id="SVGID_3_" d="M459.001,314.302c-3.021-1.744-5.87-2.251-8.381-1.703v-0.004L280.927,349.58l0.004,0.008
				c-5.828,1.346-9.804,8.453-9.804,19.292c0,15.552,8.187,32.892,18.289,38.723c3.022,1.745,5.871,2.253,8.384,1.705l0.004,0.008
				l169.799-37.021l0,0c5.764-1.413,9.688-8.501,9.688-19.265C477.29,337.472,469.101,320.133,459.001,314.302z"/>
		</defs>
		<clipPath id="SVGID_4_">
			<use xlink:href="#SVGID_3_"  overflow="visible"/>
		</clipPath>
		<path opacity="0.15" clip-path="url(#SVGID_4_)" fill="#FFFFFF" d="M289.414,351.309c3.788,2.186,7.307,5.995,10.224,10.722
			c64.553-13.81,183.105-39.278,183.105-39.278l-17.26-21.863l-208.929,31.398l8.705,37.074c1.673-0.355,3.656-0.777,5.906-1.256
			C271.438,353.098,279.501,345.586,289.414,351.309z"/>
	</g>
	<path fill="#007055" d="M271.104,368.864c0-15.575,8.196-23.47,18.311-17.633c10.114,5.841,18.315,23.202,18.315,38.778
		s-8.201,23.473-18.315,17.631C279.3,401.801,271.104,384.438,271.104,368.864z"/>
	<path fill="#1E1E1E" d="M277.547,372.586c0-10.098,5.313-15.213,11.869-11.429c6.554,3.786,11.868,15.037,11.868,25.134
		c0,10.094-5.314,15.209-11.868,11.425C282.86,393.93,277.547,382.678,277.547,372.586z"/>
	<path fill="#F26F21" d="M287.384,374.76c0,6.529,5.294,11.822,11.822,11.822c0.708,0,1.402-0.073,2.074-0.191
		c0-0.033,0.004-0.066,0.004-0.1c0-7.962-3.313-16.629-7.924-21.797C289.794,366.527,287.384,370.358,287.384,374.76z"/>
	<path opacity="0.15" fill="#1E1E1E" d="M301.28,386.391c-2.133-7.736-7.309-16.482-11.248-19.078c0,0,1.256-1.727,3.328-2.818
		C295.995,367.234,301.153,375.353,301.28,386.391z"/>
	<path fill="#DC5A28" d="M271.18,429.982c0-15.513,8.163-23.373,18.234-17.561c10.073,5.816,18.24,23.108,18.24,38.621
		c0,15.512-8.167,23.374-18.24,17.558C279.343,462.784,271.18,445.492,271.18,429.982z"/>
	<path fill="#1E1E1E" d="M277.547,433.662c0-10.1,5.313-15.213,11.869-11.43c6.554,3.785,11.868,15.038,11.868,25.133
		s-5.314,15.21-11.868,11.424C282.86,455.006,277.547,443.752,277.547,433.662z"/>
	<path fill="#007055" d="M287.384,435.836c0,6.528,5.294,11.822,11.822,11.822c0.708,0,1.402-0.073,2.074-0.195
		c0-0.031,0.004-0.063,0.004-0.098c0-7.96-3.313-16.628-7.924-21.799C289.794,427.604,287.384,431.434,287.384,435.836z"/>
	<path opacity="0.15" fill="#1E1E1E" d="M301.3,447.471c-2.133-7.736-7.312-16.48-11.248-19.076c0,0,1.254-1.727,3.326-2.821
		C296.014,428.318,301.173,436.434,301.3,447.471z"/>
</g>
<g>
	<g>
		<rect x="-261.357" y="-392.197" fill="#049775" width="132.803" height="12.087"/>
		<rect x="-261.357" y="-315.748" fill="#049775" width="132.803" height="12.086"/>
		<rect x="-283.58" y="-441.231" fill="#1E1E1E" width="177.768" height="33.284"/>
		<polygon fill="#666666" points="-278.416,-454.049 -111.535,-454.049 -105.813,-441.231 -283.58,-441.231 		"/>
		<polygon fill="#BFBFBF" points="-261.357,-457.93 -128.443,-457.93 -111.535,-454.049 -278.416,-454.049 		"/>
		<polygon fill="#666666" points="-278.416,-395.127 -111.535,-395.127 -105.813,-407.947 -283.58,-407.947 		"/>
		<polygon fill="#BFBFBF" points="-261.357,-391.249 -128.443,-391.249 -111.535,-395.127 -278.416,-395.127 		"/>
		<rect x="-283.58" y="-364.784" fill="#1E1E1E" width="177.768" height="33.284"/>
		<polygon fill="#666666" points="-278.416,-377.603 -111.535,-377.603 -105.813,-364.784 -283.58,-364.784 		"/>
		<polygon fill="#BFBFBF" points="-261.357,-381.483 -128.443,-381.483 -111.535,-377.603 -278.416,-377.603 		"/>
		<polygon fill="#666666" points="-278.416,-318.682 -111.535,-318.682 -105.813,-331.5 -283.58,-331.5 		"/>
		<polygon fill="#BFBFBF" points="-261.357,-314.803 -128.443,-314.803 -111.535,-318.682 -278.416,-318.682 		"/>
		<rect x="-283.58" y="-287.912" fill="#1E1E1E" width="177.768" height="33.285"/>
		<polygon fill="#666666" points="-278.416,-300.73 -111.535,-300.73 -105.813,-287.912 -283.58,-287.912 		"/>
		<polygon fill="#BFBFBF" points="-261.357,-304.609 -128.443,-304.609 -111.535,-300.73 -278.416,-300.73 		"/>
		<polygon fill="#666666" points="-278.416,-241.809 -111.535,-241.809 -105.813,-254.627 -283.58,-254.627 		"/>
		<polygon fill="#BFBFBF" points="-261.357,-237.93 -128.443,-237.93 -111.535,-241.809 -278.416,-241.809 		"/>
	</g>
	<polygon opacity="0.15" fill="#FFFFFF" points="-128.443,-457.93 -261.357,-457.93 -278.416,-454.049 -111.891,-241.727 
		-111.535,-241.809 -105.813,-254.627 -105.813,-287.912 -111.535,-300.73 -128.443,-304.609 -128.555,-304.609 -128.555,-314.803 
		-128.443,-314.803 -111.535,-318.682 -105.813,-331.5 -105.813,-364.784 -111.535,-377.603 -128.443,-381.483 -128.555,-381.483 
		-128.555,-391.249 -128.443,-391.249 -111.535,-395.127 -105.813,-407.947 -105.813,-441.231 -111.535,-454.049 	"/>
</g>
<g>
	<g>
		
			<line fill="none" stroke="#F26F21" stroke-width="4.0982" stroke-linecap="round" stroke-miterlimit="10" x1="171.855" y1="-261.011" x2="14.349" y2="-418.517"/>
		
			<line fill="none" stroke="#F26F21" stroke-width="4.0982" stroke-linecap="round" stroke-miterlimit="10" x1="164.561" y1="-253.745" x2="7.085" y2="-411.228"/>
		
			<line fill="none" stroke="#F26F21" stroke-width="4.0982" stroke-linecap="round" stroke-miterlimit="10" x1="157.293" y1="-246.456" x2="-0.211" y2="-403.939"/>
		
			<line fill="none" stroke="#F26F21" stroke-width="4.0982" stroke-linecap="round" stroke-miterlimit="10" x1="149.999" y1="-239.161" x2="-7.484" y2="-396.662"/>
		
			<line fill="none" stroke="#F26F21" stroke-width="4.0982" stroke-linecap="round" stroke-miterlimit="10" x1="142.734" y1="-231.89" x2="-14.772" y2="-389.395"/>
		
			<line fill="none" stroke="#F26F21" stroke-width="4.0982" stroke-linecap="round" stroke-miterlimit="10" x1="200.979" y1="-290.136" x2="43.472" y2="-447.64"/>
		
			<line fill="none" stroke="#F26F21" stroke-width="4.0982" stroke-linecap="round" stroke-miterlimit="10" x1="193.689" y1="-282.866" x2="36.206" y2="-440.372"/>
		
			<line fill="none" stroke="#F26F21" stroke-width="4.0982" stroke-linecap="round" stroke-miterlimit="10" x1="186.418" y1="-275.598" x2="28.912" y2="-433.078"/>
		
			<line fill="none" stroke="#F26F21" stroke-width="4.0982" stroke-linecap="round" stroke-miterlimit="10" x1="179.121" y1="-268.299" x2="21.644" y2="-425.785"/>
		
			<line fill="none" stroke="#F26F21" stroke-width="4.0982" stroke-linecap="round" stroke-miterlimit="10" x1="14.349" y1="-261.011" x2="171.855" y2="-418.517"/>
		
			<line fill="none" stroke="#F26F21" stroke-width="4.0982" stroke-linecap="round" stroke-miterlimit="10" x1="7.083" y1="-268.299" x2="164.559" y2="-425.785"/>
		
			<line fill="none" stroke="#F26F21" stroke-width="4.0982" stroke-linecap="round" stroke-miterlimit="10" x1="-0.211" y1="-275.598" x2="157.293" y2="-433.078"/>
		
			<line fill="none" stroke="#F26F21" stroke-width="4.0982" stroke-linecap="round" stroke-miterlimit="10" x1="-7.484" y1="-282.866" x2="149.999" y2="-440.372"/>
		
			<line fill="none" stroke="#F26F21" stroke-width="4.0982" stroke-linecap="round" stroke-miterlimit="10" x1="-14.772" y1="-290.136" x2="142.734" y2="-447.64"/>
		
			<line fill="none" stroke="#F26F21" stroke-width="4.0982" stroke-linecap="round" stroke-miterlimit="10" x1="43.472" y1="-231.89" x2="200.979" y2="-389.395"/>
		
			<line fill="none" stroke="#F26F21" stroke-width="4.0982" stroke-linecap="round" stroke-miterlimit="10" x1="36.206" y1="-239.161" x2="193.689" y2="-396.662"/>
		
			<line fill="none" stroke="#F26F21" stroke-width="4.0982" stroke-linecap="round" stroke-miterlimit="10" x1="28.912" y1="-246.456" x2="186.418" y2="-403.939"/>
		
			<line fill="none" stroke="#F26F21" stroke-width="4.0982" stroke-linecap="round" stroke-miterlimit="10" x1="21.645" y1="-253.745" x2="179.123" y2="-411.228"/>
		<polygon fill="#007055" points="68.861,-440.98 -8.112,-364.009 5.506,-350.359 82.507,-427.36 		"/>
		<polygon fill="#007055" points="194.318,-364.009 117.344,-440.98 103.697,-427.36 180.697,-350.359 		"/>
		<polygon fill="#007055" points="117.344,-238.548 194.318,-315.522 180.697,-329.169 103.697,-252.168 		"/>
		<polygon fill="#007055" points="-8.112,-315.522 68.861,-238.548 82.507,-252.168 5.506,-329.169 		"/>
		<polygon opacity="0.25" points="-1.785,-321.849 75.187,-244.877 82.507,-252.168 5.506,-329.169 		"/>
		<polygon opacity="0.25" points="180.697,-329.169 103.697,-252.168 111.017,-244.877 187.99,-321.849 		"/>
		<polygon opacity="0.25" points="187.99,-357.68 111.017,-434.652 103.697,-427.36 180.697,-350.359 		"/>
		<polygon opacity="0.25" points="75.187,-434.652 -1.787,-357.68 5.506,-350.359 82.507,-427.36 		"/>
		<polygon fill="#1E1E1E" points="200.797,-339.765 93.101,-232.065 -14.594,-339.765 93.101,-447.467 		"/>
		<polygon fill="#049775" points="151.973,-339.765 93.101,-280.879 34.236,-339.763 93.101,-398.655 		"/>
		<path fill="#EAEAEA" d="M97.279-343.941c2.303,2.309,2.303,6.041,0,8.352c-2.306,2.293-6.047,2.291-8.352,0
			c-2.306-2.311-2.306-6.043,0-8.352C91.232-346.235,94.973-346.235,97.279-343.941z"/>
		<path fill="#EAEAEA" d="M81.151-360.037c2.306,2.293,2.306,6.018,0.002,8.338c-2.304,2.289-6.018,2.289-8.322-0.001
			c-2.307-2.319-2.307-6.044,0-8.337C75.135-362.347,78.849-362.347,81.151-360.037z"/>
		<path fill="#EAEAEA" d="M114.275-326.924c2.31,2.308,2.31,6.049,0,8.325c-2.284,2.331-6.025,2.331-8.331,0
			c-2.303-2.276-2.303-6.018,0-8.327C108.25-329.227,111.991-329.227,114.275-326.924z"/>
		<path fill="#EAEAEA" d="M79.956-326.618c2.277,2.321,2.277,6.047,0,8.352c-2.305,2.305-6.047,2.303-8.352,0
			c-2.304-2.305-2.304-6.03,0-8.352C73.909-328.895,77.651-328.895,79.956-326.618z"/>
		<path fill="#EAEAEA" d="M63.83-342.715c2.304,2.299,2.304,6.03,0,8.35c-2.304,2.278-6.045,2.276-8.32,0
			c-2.312-2.319-2.312-6.051,0-8.35C57.785-345.019,61.526-345.019,63.83-342.715z"/>
		<path fill="#EAEAEA" d="M96.945-309.593c2.307,2.298,2.307,6.038,0,8.335c-2.304,2.313-6.018,2.312-8.322,0
			c-2.304-2.297-2.304-6.037-0.002-8.335C90.927-311.906,94.641-311.904,96.945-309.593z"/>
		<path fill="#EAEAEA" d="M114.6-361.262c2.308,2.299,2.308,6.022,0,8.35c-2.305,2.279-6.047,2.279-8.352,0
			c-2.277-2.328-2.277-6.05,0-8.35C108.553-363.565,112.295-363.565,114.6-361.262z"/>
		<path fill="#EAEAEA" d="M98.502-377.358c2.275,2.277,2.276,6.018,0,8.322c-2.307,2.307-6.047,2.305-8.354,0
			c-2.301-2.304-2.301-6.045,0-8.322C92.456-379.69,96.196-379.686,98.502-377.358z"/>
		<path fill="#EAEAEA" d="M131.617-344.256c2.305,2.317,2.305,6.046,0,8.334c-2.305,2.314-6.046,2.314-8.351,0
			c-2.302-2.288-2.302-6.018,0-8.334C125.571-346.547,129.312-346.547,131.617-344.256z"/>
	</g>
	<polygon opacity="0.15" fill="#FFFFFF" points="30.362,-402.506 39.242,-393.626 43.472,-397.857 67.887,-373.47 71.792,-377.347 
		130.69,-318.48 126.822,-314.59 151.225,-290.173 146.964,-285.902 155.844,-277.025 194.318,-315.522 185.438,-324.408 
		200.797,-339.765 185.438,-355.125 194.318,-364.009 117.344,-440.98 108.463,-432.098 93.101,-447.467 77.742,-432.1 
		68.861,-440.98 	"/>
</g>
<g>
	<polygon fill="#049775" points="-2.422,345.728 -2.422,484.569 -137.797,484.569 -137.797,315.106 -37.873,315.106 
		-20.813,330.417 	"/>
	<polygon fill="#1E1E1E" points="0.299,343.009 0.299,481.849 -135.076,481.849 -135.076,312.388 -35.152,312.388 -18.09,327.696 	
		"/>
	<rect x="-122.066" y="380.099" fill="#BFBFBF" width="58.396" height="33.008"/>
	<rect x="-122.068" y="344.552" fill="none" width="109.605" height="33.01"/>
	<text transform="matrix(1 0 0 1 -120.396 365.1289)" fill="#EAEAEA" font-family="'JaapokkiRegular'" font-size="27.6578">DESIGN</text>
	<line fill="none" stroke="#EAEAEA" stroke-miterlimit="10" x1="-122.066" y1="369.517" x2="-12.463" y2="369.517"/>
	<line fill="none" stroke="#BFBFBF" stroke-miterlimit="10" x1="-53.512" y1="385.626" x2="-12.463" y2="385.626"/>
	<line fill="none" stroke="#BFBFBF" stroke-miterlimit="10" x1="-53.512" y1="393.032" x2="-12.463" y2="393.032"/>
	<line fill="none" stroke="#BFBFBF" stroke-miterlimit="10" x1="-53.512" y1="400.175" x2="-12.463" y2="400.175"/>
	<line fill="none" stroke="#BFBFBF" stroke-miterlimit="10" x1="-53.512" y1="407.579" x2="-12.463" y2="407.579"/>
	<line fill="none" stroke="#BFBFBF" stroke-miterlimit="10" x1="-122.207" y1="443.856" x2="-12.463" y2="443.856"/>
	<line fill="none" stroke="#BFBFBF" stroke-miterlimit="10" x1="-122.207" y1="436.485" x2="-12.463" y2="436.485"/>
	<line fill="none" stroke="#BFBFBF" stroke-miterlimit="10" x1="-122.207" y1="451.263" x2="-12.463" y2="451.263"/>
	<line fill="none" stroke="#BFBFBF" stroke-miterlimit="10" x1="-122.207" y1="458.403" x2="-29.027" y2="458.403"/>
	<line fill="none" stroke="#BFBFBF" stroke-miterlimit="10" x1="-122.207" y1="465.81" x2="-23.516" y2="465.81"/>
	<line fill="none" stroke="#BFBFBF" stroke-miterlimit="10" x1="-122.207" y1="422.091" x2="-22.268" y2="422.091"/>
	<line fill="none" stroke="#BFBFBF" stroke-miterlimit="10" x1="-122.207" y1="429.497" x2="-23.516" y2="429.497"/>
	<rect x="-137.797" y="495.163" fill="#007055" width="63.969" height="37.225"/>
	<rect x="-63.67" y="495.163" fill="#EAEAEA" width="63.969" height="37.225"/>
	<line fill="none" stroke="#007055" stroke-miterlimit="10" x1="-49.766" y1="513.776" x2="-13.605" y2="513.776"/>
	<line fill="none" stroke="#007055" stroke-miterlimit="10" x1="-49.766" y1="510.245" x2="-13.605" y2="510.245"/>
	<line fill="none" stroke="#007055" stroke-miterlimit="10" x1="-49.766" y1="517.091" x2="-13.605" y2="517.091"/>
	<text transform="matrix(1 0 0 1 -129.3521 520.1074)" fill="#049775" font-family="'JaapokkiRegular'" font-size="13.1721">CUICUI</text>
	<circle fill="#1E1E1E" cx="-29.027" cy="443.856" r="24.484"/>
	<circle fill="#BFBFBF" cx="-29.027" cy="443.856" r="16.564"/>
	<path fill="#049775" d="M-113.357,508.349c0-4.166,3.377-7.545,7.545-7.545s7.545,3.379,7.545,7.545"/>
	<g>
		<polygon fill="#F26F21" points="26.771,470.989 21.215,474.353 15.66,470.989 15.66,385.546 26.771,385.546 		"/>
		<rect x="15.66" y="384.372" fill="#007055" width="11.111" height="1.174"/>
		<rect x="15.66" y="379.948" fill="#049775" width="11.111" height="4.424"/>
		<rect x="19.363" y="385.546" fill="#EAEAEA" width="3.703" height="88.1"/>
		<polygon fill="#049775" points="15.66,470.989 21.215,484.569 26.771,470.989 24.055,471.976 21.215,470.989 18.375,471.976 		"/>
		<polygon fill="#007055" points="21.215,484.569 20.045,481.712 22.385,481.712 		"/>
	</g>
	<polygon opacity="0.15" fill="#FFFFFF" points="-135.076,312.388 0.299,481.849 0.299,343.009 -35.152,312.388 	"/>
	<polygon fill="#F26F21" points="-35.152,312.388 -35.152,342.847 0.299,343.009 	"/>
</g>
<g>
	<polygon fill="#DC5A28" points="268.225,178.352 31.771,178.352 30.41,168.373 269.59,168.373 	"/>
	<path fill="#EAEAEA" d="M250.865,0H49.061c-6.494,0-11.807,5.186-11.807,11.541v11.707v87.463v11.526h11.807h201.805h11.807
		v-11.526V23.248V11.541C262.672,5.186,257.357,0,250.865,0z"/>
	<path fill="#1E1E1E" d="M56.422,95.202c0-10.239,8.316-18.565,18.576-18.565s18.549,8.326,18.549,18.565
		c0,10.247-8.289,18.573-18.549,18.573S56.422,105.449,56.422,95.202z"/>
	<g>
		<path fill="#1E1E1E" d="M252.393,54.678c0,1.1-0.9,2-2,2h-35.908c-1.1,0-2-0.9-2-2V18.779c0-1.1,0.9-2,2-2h35.908c1.1,0,2,0.9,2,2
			V54.678z"/>
	</g>
	<path fill="#1E1E1E" d="M212.543,95.202c0-6.863,5.568-12.424,12.436-12.424c6.865,0,12.434,5.561,12.434,12.424
		c0,6.867-5.568,12.43-12.434,12.43C218.111,107.632,212.543,102.069,212.543,95.202z"/>
	<path fill="#F26F21" d="M62.564,95.202c0-6.863,5.568-12.424,12.434-12.424c6.867,0,12.434,5.561,12.434,12.424
		c0,6.867-5.566,12.43-12.434,12.43C68.133,107.632,62.564,102.069,62.564,95.202z"/>
	<path fill="#007055" d="M215.916,36.732c0-9.137,7.393-16.521,16.512-16.521c9.141,0,16.533,7.385,16.533,16.521
		c0,9.134-7.393,16.521-16.533,16.521C223.309,53.254,215.916,45.866,215.916,36.732z"/>
	<polygon fill="#BFBFBF" points="269.59,168.373 30.41,168.373 37.254,122.237 262.746,122.237 	"/>
	<polygon fill="#049775" points="262.729,220 37.254,220 34.525,201.043 265.494,201.043 	"/>
	<polygon fill="#007055" points="68.607,212.586 37.254,220 262.729,220 232.209,212.586 	"/>
	<polygon fill="#049775" points="149.203,111.538 153.664,109.053 158.795,111.633 160.969,178.352 154.063,178.352 
		147.504,178.352 	"/>
	<polygon fill="#007055" points="166.887,178.352 166.887,168.498 164.523,122.393 164.523,110.586 160.719,108.012 
		157.217,112.012 157.217,122.237 158.75,168.373 158.75,178.352 	"/>
	<polygon fill="#DC5A28" points="149.959,178.352 149.959,168.373 149.959,122.237 149.959,112.445 145.721,109.432 
		141.232,111.338 138.666,164.02 139.107,178.352 148.117,178.352 	"/>
	<polygon fill="#F26F21" points="142.85,111.834 142.85,122.237 141.316,168.373 141.316,178.352 132.932,178.352 132.932,168.373 
		135.311,122.237 135.311,110.152 139.197,108.385 	"/>
	<polygon fill="#F26F21" points="265.494,201.043 34.525,201.043 31.771,178.352 268.225,178.352 	"/>
	<rect x="39.512" y="188.35" fill="#1E1E1E" width="221.926" height="12.693"/>
	<path opacity="0.15" fill="#FFFFFF" d="M212.543,95.202c0-6.863,5.568-12.424,12.436-12.424c6.865,0,12.434,5.561,12.434,12.424
		c0,6.867-5.568,12.43-12.434,12.43C218.111,107.632,212.543,102.069,212.543,95.202z"/>
	<path fill="#1E1E1E" d="M215.053,95.202c0-5.474,4.453-9.93,9.926-9.93c5.475,0,9.924,4.456,9.924,9.93
		c0,5.478-4.449,9.938-9.924,9.938C219.506,105.141,215.053,100.68,215.053,95.202z"/>
	<g opacity="0.15">
		<path fill="#FFFFFF" d="M213.898,18.193c-0.777-0.777-0.514-1.414,0.586-1.414h35.908c1.1,0,2,0.9,2,2v35.898
			c0,1.1-0.637,1.363-1.414,0.586L213.898,18.193z"/>
	</g>
	<polygon opacity="0.15" fill="#FFFFFF" points="39.512,201.043 45.338,195.193 254.563,195.193 261.438,201.043 	"/>
	<path fill="#049775" d="M217.721,36.732c0-8.124,6.582-14.706,14.707-14.706c8.123,0,14.707,6.582,14.707,14.706
		c0,8.125-6.584,14.707-14.707,14.707C224.303,51.439,217.721,44.857,217.721,36.732z"/>
	<polygon opacity="0.3" fill="#EAEAEA" points="132.621,122.237 166.662,122.237 166.662,107.064 131.906,107.064 	"/>
	<path fill="#BFBFBF" d="M98.832,60.555c0-28.678,23.227-51.906,51.877-51.906c28.678,0,51.908,23.229,51.908,51.906
		c0,28.655-23.23,51.9-51.908,51.9C122.059,112.455,98.832,89.21,98.832,60.555z"/>
	<path opacity="0.15" fill="#1E1E1E" d="M120.992,60.555c0-16.41,13.313-29.717,29.717-29.717c16.434,0,29.744,13.307,29.744,29.717
		c0,16.402-13.311,29.715-29.744,29.715C134.305,90.27,120.992,76.957,120.992,60.555z"/>
	<path fill="#1E1E1E" stroke="#1E1E1E" stroke-miterlimit="10" d="M123.949,60.555c0-14.795,11.986-26.784,26.76-26.784
		c14.795,0,26.791,11.989,26.791,26.784c0,14.773-11.996,26.758-26.791,26.758C135.936,87.313,123.949,75.328,123.949,60.555z"/>
	<path fill="none" stroke="#EAEAEA" stroke-width="2" stroke-linecap="round" stroke-miterlimit="10" d="M164.688,46.564
		c7.721,7.721,7.721,20.247,0,27.968"/>
	<path fill="none" stroke="#EAEAEA" stroke-width="2" stroke-linecap="round" stroke-miterlimit="10" d="M136.73,74.532
		c-7.723-7.723-7.723-20.247,0-27.968"/>
	<path fill="#EAEAEA" d="M143.352,60.555c0-4.071,3.289-7.359,7.357-7.359c4.07,0,7.389,3.288,7.389,7.359
		c0,4.057-3.318,7.357-7.389,7.357C146.641,67.912,143.352,64.611,143.352,60.555z"/>
	<path opacity="0.15" fill="#FFFFFF" stroke="#FFFFFF" stroke-miterlimit="10" d="M131.777,41.623
		c10.467-10.466,27.426-10.466,37.891,0c10.439,10.438,10.439,27.41,0,37.861L131.777,41.623z"/>
	<rect x="130.666" y="122.237" opacity="0.15" fill="#BFBFBF" width="40.621" height="46.136"/>
</g>
</svg>
